


 MUSICAL time 


 singing - class circular 


 publish 


 ROYAL CHORAL SOCIETY 


 ROYAL ALBERT HALLConductor : Sir FREpEeRICcK BripGe , Mus . D 

 RBEETHOVEN " CHORAL SYMPHONY 

 




 BAND CHORUS , thousand 


 associate ROYAL COLLEGE MUSIC . 


 _ — _ _ _ 


 ROYA 


 L COLLEGE ORGANISTS . 


 


 month 


 LANGHAM place , W 


 MR . ROBERT NEWMAN 


 ORCHESTRAL concert 


 ( WINTER SERIES , 1898 - 9Mr . ARTHUR W. PAYNE . 
 Mr. PERCY PITT 

 ROYAL ACADEMY MUSIC OvertTuRE,“Coriolan " .. + » ee Beethoven . 
 FantTasiz , " Francesca da Rimini " ... .. Tschaikowsky . 
 TENTERDEN STREET , W. " Peer Gynt " Suite , no.1 .. ae » aa x Tieg 

 Marcu Cuorus " Tournament Song , " act ii . 
 institute 1822 . incorporate Royal Charter , 1830 . ( " Tannhauser " ) Wagner 




 QUEEN HALL 


 SATURDAY SYMPHONY concert 


 SATURDAY AFTERNOON , DECEMBER 10 , 1808 


 QUEEN HALL ORCHESTRA 106 . 


 LONDON MUSICAL FESTIVAL , 1899 


 eminent vocal instrumental soloist 


 


 QUEEN HALL 


 QUEEN HALL ORCHESTRA 106 , 


 


 


 


 QUEEN HALL CHORAL SOCIETY 


 CHRISTMAS ENTERTAINMENTS 


 CHILDREN 


 


 QUEEN HALL 


 


 GUILDHALL SCHOOL MUSIC . — teacher . 


 — _ — -- — --——_- — — — — | ~—2 . 


 UNIVERSITY DURHAM 


 7 professional notice 


 MANCE 


 MR . J. G. BLANCHARD 


 MR . ALBERT MONAGHAN 


 MR . THOMAS SHARPLES 


 MR . HERBERT STANSFIELD 


 CHRISTMAS performance " MESSIAH . " 


 MR . E. VICTOR MILLER 


 MR . AUGUSTUS TOOP , A.R.C.O. 


 MISS MAGGIE JAQUES 


 ( SOPRANO ) 


 13 , SPRING GARDENS , BUXTON , DERBYSHIRE 


 MISS ESTELLA LINDEN 


 _ MISS 


 WINIFRED MARWOOD 


 MISS 


 BEATRICE PALLISTER 


 NEW YORKSHIRE SOPRANO 


 ELIJAH 


 MISS 


 NELLIE WILLIS 


 ( SOPRANO 


 MISS AMY SARGENT 


 A.R.A.M. ( SOPRANO ) . 


 LUCIE JOHNSTONE 


 CONTRALTO ) . 


 MR . T. HENRY BREARLEY 


 MR . TOM CHILD 


 YORKSHIRE TENOR ) 


 MR . AVALON COLLARD 


 ( TENOR 


 MR . CHARLES ELLISON 


 ( TENOR 


 MR . BRIGHT JONES 


 TENOR ) . 


 MR . SIDWELL JONES 


 ( TENOR ) 


 MR . JOS . REED 


 TENOR ) 


 19 , 1898 


 MR . A. F. THORNBOROUGH 


 MR . HARRY TUDOR 


 2 , 2 , 


 NY 


 LEY 


 OV , 16 , 1898 , 


 4 , 1898 . 


 SON 


 18 , 1898 


 JGH 


 781 


 MR . WILLIAM WILD 


 MR . ADOLPH ALBRECHT 


 ( BARITONE ) 


 MONTAGUE BORWELL 


 ( BARITONE 


 NI T 


 MR . JOHN BROWNING 


 ( BARITONE ) 


 MR . FRANCIS HARFORD 


 ( BASS BARITONE 


 change address : 


 MR . GORDON HELLER 


 BARITONE ) 


 ALEXAN DER MUSGROVE 


 MR . DANIEL PRICE 


 MR . JOHN RIDDING 


 ( BARITONE ) , 


 MR . WILLIAM ROWE 


 BARITONE ) 


 MR . CHARLES WALTON 


 ( BARITONE ) 


 MR . ARTHUR WALENN 


 BARITONE ) . 


 MR . MRS 


 WALLIS A. WALLIS 


 ( BARITONE SOPRANO ) 


 MR . EDGAR ARCHER 


 MR . BERNARD FOUNTAIN 


 MR . W. LLEWELLYN 


 MR . GRAHAM SMART 


 MR . HENRY SUNMAN 


 GLOUCESTER MUSICAL FESTIVAL . 


 MR . ALEXANDER TUCKER 


 BASSO PROFUNDO ) . 


 MISS ALICE MARY SMITH 


 IST 


 AIN 


 ' chorister " GLEE SINGERS 


 ( A.T.B , B. ) 


 MR . FRANK ELLIS 


 ( SOLO CORNET ) 


 LANCASTER VOCAL QUARTET 


 SOLO BOYS 


 LONDON TRAINING SCHOOL chorister 


 POLYTECHNIC , REGENT ST . , W 


 president , MR . ALBERTO RANDEGGER . LONDON CONCERT & CHOIR AGENCY 


 ADVENT ORATORIOS 


 SOLO BOYS 


 ROYAL WINDSOR GLEE SINGERS 


 MACDONALD 


 SMITH 


 system 


 brain keyboard 


 recent testimony . 


 complete course lesson 


 correspondence , guinea . 


 MACDONALD SMITH , 


 change address , 


 EUTERPEAN VOCAL QUARTET 


 evision MUSICAL composition 


 NGERS 


 RTET 


 FRIES , 


 BEL 


 GERS 


 RKEY 


 DODDS , 


 TEM 


 * .R.C.0 


 ) . PARKES 


 ? .R.C.0 , , 


 ion . 


 783 


 AC . 


 SCHOOL BOARD LONDON 


 GUILD CHURCH MUSICIANS 


 LONDON 


 784 


 TRINITY COLLEGE LONDON 


 institute 1872 . 


 MANDEVILLE PLACE , MANCHESTER SQUARE , W 


 HIGHER examination MUSIC 


 ready 


 new revise edition 


 STAINER & BARRETT 


 dictionary 


 


 musical term 


 revise edit 


 SIR J. STAINER 


 PREFACE 


 PIANOFORTE MAKERS 


 special appointment 


 MAJESTY QUEEN 


 ROYAL highness prince WALES 


 ROYAL highness princess WALES 


 ROYAL highness DUKE EDINBURGH 


 ( DUKE SAXE - COBURG GOTHA 


 


 REST ROYAL family 


 HORIZONTAL 


 


 UPRIGHT PIANOFORTES 


 LONDON , W 


 18 , GREAT MARLBOROUGH STREET 


 TH 


 EN 


 ALES 


 WALES 


 BURGH 


 ONS 


 ASSOCIATED BOARD 


 R.A.M. R.C.M 


 


 local examination MUSIC 


 R.A.M 


 MUSICAL time 


 SINGING - class circular . 


 DECEMBER 1 , 1808 


 CHARLES VILLIERS STANFORD 


 785 


 early composition 


 786 


 MARCH 


 35 : _ — 3:32 — 


 z 33 $ 33 


 8 9 SS 


 _ 2:28 


 early teacher 


 PRODIGY PIANISTPART 

 Andante Cantabile ( . 2 , op . § 1 ) ..... cccsceccece Beethoven 

 Harmonious Blacksmith .. ... ... cccccccscscees Handel 
 Lieder ohne Worte — . 4 , 3rd book 




 SECONDA interesting delightful ' Pianoforte Recital " 
 place house John Stanford , Esq . , Herbert 
 Street , Tuesday . Mr. Stanford know @ 
 mot accomplished amateur music vocal ani 
 instrumental , liberal patron god art , 
 kind genial friend artist , pianist 
 occasion Master Charles V. Stanford , son , youth 
 aged 10 year , rare talent , doubtles 
 destined great position musical world 

 bo oe , F 
 0 , * 7 
 ne sa choice MUSIC \ 
 inished ere wt em " divi AL TIMES 
 — date sonata : _ — ivine art " .—DECcE 
 1 Trois etud minor ( O art asa prof ‘ 2MBER 
 5 part- song , yg eat nap ) 1 . ession . | y » 1898 
 glad Prt contem enetian psteeeiceeeeeerere work ; 
 . relude plazione saacineeteeet terete hah rks , fi 
 use F ugue hah ea eet Beethoven c ar like 8 
 roduct Sone ane e ve ssoseeeteseesens ae e. F. Pir = eth fruit 7 , th 7 ° 7 
 = Gaiéte major BOE estersnrnarvsens H ford H tman _ rtiality . ‘ ryi e 
 Song , " 7 ai ea wae ! nan cele ° Z yin zi rur 
 ee anes ‘ ack Rant ring fo , co Set 
 ioi ip ocoranesesmerieate ce , wee iw 
 fo Ww rio ¢ major , Pian Riese Dusse et pleased efaustholder — f Page . yc pe 
 r ae te 1 SE een ae aan stand gards th vith _ r insta ju 
 use h perform 1S consid Tte , Violin eneeeeatecentaeee| G6 Veber sui figh x song " compositi nce 
 d e idered t " Vickoncelle ounod suit F » * b ion . ‘ y 
 aon Ba Magarin hat oigicelia " Haydn pease Minas low Aap ped Sasi : veers 
 u .. Hayd tak ot mi ij _ 
 ; ask oe waantek os oer piec — Pons ulad singh oan it'§ 
 apere + East ae SS pee night pranic sna ep — — pi pa 
 : er W » Kk - 1 és , . 
 halberg pe ool = ho ny iat atistener thy ie bold " appreciation 4 , 
 _ precisi rough se oni e youth ne wh D ‘ ing . ider- 
 fini sion , 1 yea ist h , seei at- : ear B :   aalaates 
 yh se pea ps sit te erent C. Stanford , E rother Apollo ’ ~ 
 epee hand . — — _ Previn touch , po tt aren tom ida 0 
 learnt absolutely € meahinen ith " ond _ : ine ears 
 > hi enraptur aultless ance shead e Young OTTEN . A. Oss 
 1 oa en " " ) fr gs 1 Pacoima — 
 e | Short o ss display ce . Th rs " La G fugue lis |a C nonour 1 canno 
 wonderfl premature * aplomt ake Ch oncert giv rin ow t 
 vivus . " executant iple pete ve Haydn aplomb " Juite | oral Societ en n city D 
 inford SEMA san ey die ve aa y ( University ublin . 
 j . ) oe , " ai | . r 
 " 4 ae con fr camposton , lend come particulars Bede ublin 
 ss , | . ™ 4 rem enn te evid ays av mme | ich w 
 ; y : emai enced - ery hi ve 
 . . oo < equal lee mo 
 ' adhe el ered Elsner Mr , Léve cae ta 
 € ( sl , June th cy playe ture 
 o retur ir , 186 e violon yed vi d | 
 Joseph ful eturn tl ae cello violin 
 » scheles curio os mposi . n ’ | 
 rt _ thi ition f | 
 mre Stanford — 1S potest yo | 
 ns Highnan amily kn relate . ion uth- | 
 organ , Dublin r Court . Mr. Ga friend 18 | 
 E Sh cas « 1is friend pon mbier Par | 
 Charlie boy _ 2 = phir | 
 , ou anford pé s } 
 young nose o cestershi pere : 0 } 
 g Iris ut joi shire w > " ah ! 
 h boy thi joint . " 
 inof High unk tl ) ittle di 
 yas - os oe youth closely pi afte _ | 
 « hog th t Roy sociate . year | 
 3 » 1862 , fe gey " wa iat Cha Colle | 
 ba 1877 s Hubert Pa , Pach Music 
 ct f wo lett ; arry ? s boyi h| 
 _ — " 4 ns e met ies 1 | 
 \ ce eri m 
 lelssohn pre John Sta . aia ap | 
 octer ( " * B nford , e propriatel 
 oschele atry C , , addre ely | 
 presen y Lor sse | 
 foxart nwall " poet 
 . Bach pn yi , B. W | 
 ny " 7eymo ~ : 
 pe ‘ ate aes ae lare ind MASTER CHARL 
 con : wiv T d Place " id ebte IE STANFO - 
 ppeared ice , ih ver 8 de - — — ki iootlbanis 
 W ape oes refe rite . » Hon kindness vee 
 rof 0 oo lee 3 baritone s Libraria Mr. Ch 
 ofessor » Dr. Sir turn o y early e sol " ) , F arle 
 Y , ut \ vous | ™ * o witl n | aF 
 yer , J. S. Stanf mare sincerel Mozart . — ur | " ere tl rotten " th chorus ebruary 
 ce , duly nford , Esq . y snd edieaa Sons axe c 1e word en wine 
 : cond _ W. y- HORU ; perf 
 genial , fro . Proc s orm 
 ; ; : n CTER . | 1 ed . 
 recital " highly SacI shoe fellow = Chieftai C. Vit 
 : Herbert hey characteristic Georg countryman ro — ios brave LIERS STANFO 
 know © s add ic hi ge — ! wie ae ed tri ANFORD . 
 , wa Hi . Osb 1 € illh ghou tri 
 vocal s sse t s Hiberni sborn : Dri igh , bri t w umph 
 ; : oo ' " c ern e—1S rink r e bri : world crown 
 n art , thirteen y C. St ian wit . " 1S mi mming renown ed , 
 st n year anford , E t. mighty — — eatin ed , 
 n , youth b acc (= » Sas > wl | thman fi 7 
 3 yout tother c 22 , d : Vho | : Hursakt ame , 
 oubtles compose orset Squa fame CHORUS ah ! 
 rld Tr , , N.W Bauntl hede @ Ss . 
 d   Vely recei March 7 , 1 Lik ess b y Sons 
 ining alee ? " phe gp — 7 , 1866 . — wild — — North , 
 ce . av ian ~ esis _ s rms ; ng : 
 ve ’ Forte pie | onward — neon ang 
 play | conquer se - — — e land — 
 roudly ie — e 
 aare ee — field , 
 ne Arsaervn x4 yield — 
 nasa monte wave , 
 H urrah 

 
 
 good jud 
 u 
 ge 




 xum 


 CAMBRIDGE 


 CAMBRIDGE recollection 


 1873 , 


 study GERMANY 


 XUMplace March 8 , 1877 , Joseph Joachim eevee — s : 
 : satel | e second prize symphony 
 ee cayped , ta evening tie day | competition initiate Alexandra Palace 

 conduct Elegiac Overture play | 
 Beethoven Violin Concerto . concert | company . particular record 

 Brahms C minor Symphony ( . 1 ) , | ' " Tue Musicat Truss year 




 event 


 791 


 festival work 


 composition . 


 ORCHESTRAL , 


 ORATORIOS , CANTATAS , MASSES , XC 


 CHAMBER MUSIC 


 CHURCH ORGAN MUSIC 


 VOCAL music 


 LITERARY writing 


 BRAHMS , BROWNING , VON BULOW 


 792 


 TENNYSON 


 ‘ o tow 


 793 


 recollection 


 794 


 796 


 XUM 


 XUM 


 797 


 03 : 05:00 


 04 : 00 


 list . 


 second list . 


 798 


 CHURCH MUSIC 


 ORGAN MUSIC 


 LINCOLN CATHEDRAL , LOOKING WEST . 


 LINCOLN CATHEDRAL : NEW ORGAN . 


 ORGAN 


 802 


 SIR WALTER PARRATT recital 


 THI 


 ROYAL CHORAL SOCIETYwho admire music . , ' ' e muss auch solche 
 | kauze geben , " ' Faust gpa ? 
 , Fourth Symphony — especia matchless 

 QUEEN HALL SYMPHONY concert . prvctemy deahy welcome russian com- 
 excellent concert resume | poser effusion . Beethoven Adagio ! term 
 October 29 , Mr. Newman hobby - horse , ' " ' Symphonie | synonymous high achievement 
 Pathétique , ' " ride admiration |human mind . russian master begin 
 acrowded house . moral orchestral conductor | realize significance achievement devote 
 : play ' pathetic ' remainder undoubted gift creation slow movement 
 day dear public evermore . | , like Womanly , shall " draw onward 

 know work fare occasion , | russian Adagio shall 




 XUM 


 804MR . NEWMAN WAGNER concert 

 prefer Beethoven - Wagner 
 concert , hope master symphony , 
 include programme , 
 powerful attraction public selection 
 successor music - drama . happen , 
 combination great succeed 
 fill Queen Hall . cheap seat crowd , 
 ghastly row stall concert 
 place press present 
 issue . need waste word Wagner 
 selection , state play con- 
 summate mastery technical interpretative 
 difficulty , rouse audience , usual , expres- 
 sion warm enthusiasm . Symphonies , 
 7th ult . , ' Eroica , " 14th , ' * Choral , " 
 21st , . 7 . concert Mr. 
 Philip Brozel sing " ' Schmiedelieder , " ' ' Siegfried , " 
 success , Miss Blauvelt increase 
 favourable impression previously , 
 beautiful singing ' * Elsa Dream " ( ' ' Lohengrin " ) 
 ' ' Elizabeth greeting " ' ( ' ' Tannhauser " ' ) . espe- 
 cially splendid performance , vocal charm 
 womanly enthusiasm beautiful air 
 imperatively demand . word warm appreciation 
 Mr. Wood dignified impressive per- 
 formance ' Choral ' ? Symphony , stupendous 
 Finale especially . choir sing spirit effect , 
 formidable difficulty task surmount 
 assurance success , soloist , Misses Fillunger 
 McDougall , Messrs. Lloyd Chandos Daniel Price , 
 equal exceptional occasion 

 Mr. Wood adopt Wagner suggestion regard 
 scoring , let horn play wood - wind 
 famous second subject Scherzo 
 trumpet opening fanfare 
 Finale , instead merely D . effect 
 correspondingly great , , accept responsi- 
 bility mere personal opinion , confess complete 
 approval Mr. Wood course . 
 ridiculous , direct contravention 
 Beethoven intention , hear 
 stringed instrument suddenly drop pp ( 
 forth truly magnificent body tone loud 
 passage rest evening ) point 
 Beethoven particularly wish hammer 
 figure accompaniment weight , / 
 octave ! string play /f ’ 
 evening fp , ludicrous anti - climax 
 apparent ; ordinary performance passage 
 ' Beethoven write ' ? absurd sacrifice 
 Beethoven spirit altar poor print 
 letter ! purist remember Beethoven 
 write - string dream 
 wood - wind ( flute , oboe , clarinet , bassoon ) 
 play pretty tune - string , 
 english string bargain ? hear 
 Mr. Wood orchestra , shout delight 
 superb quality string ? proceed 
 forthwith - score passage , especially compare 
 refined tone oboe clarinet coarse , 
 penetrating quality instrument write ? 
 let trumpet join theme , 
 Mr. Wood ? hang sheep 
 lamb . able let 
 string play veal /f , shall Beethoven 
 " unbuttoned " mood ! reduce string 
 let play pp concert , adopt 
 Wagner suggestion regard passagein toto . 
 compromise appear ludicrous misrepresentation 
 great master . look forward pleasure 
 indignant protest sort condition Beethoven 
 — cause change rebellious 
 mind 

 CRYSTAL PALACE CONCERTS 

 important english novelty produce Mr , 
 Manns direction concert October 29 . 
 bud english composer Mr. Mains , 
 repay great debt owe ? 
 Mr. Marshall Hall turn time feel thankful 
 veteran german conductor hearing 
 elaborate ambitious work pen . Mr. Hall 
 composer concert - overture produce ( 
 Palace ) 1893 . present work challenge appli- 
 cation high standard criticism , 
 hesitate ' ' Idyl " ( ) 
 orchestra merit attention 
 receive . , , elaborate piece , brimful 
 idea vary degree importance beauty . 
 ultra modern style gorgeously score , prove 
 bewildering hearing ; 
 impression deserve effort understand hide 
 meaning appreciate great beauty 
 lie surface . create desire close 
 acquaintance , generally good sign . 
 reception mean enthusiastic , , notwith- 
 stand , hope shall opportunity 
 hear clever work . Symphony Dvordk 
 " New World , " great favourite else- 
 . play , Richard Strauss 
 brilliant fearfully difficult ' * Till Eulenspiegel , " jeu 
 d'esprit feel unbounded admiration . onlya 
 genius write ! Mr. J. Hollman play 
 Fantaisie violoncello Massenet , ably score 
 fairly interesting piece , trifle 
 pen ; Mr. Edward Lloyd enchant hearer 
 superb singing " preislie ’' ( ' ' Meistersinger " ' ) 
 serenade ' ' orb day , " ' ' Euryanthe . " 
 introduce air Bach cantata Easter , 
 " t know Redeemer live , ’' accompaniment 
 score figure bass Mr. C. A. Barry 

 follow concert , 5th ult . , Raff ' Lenore " 
 Symphony , great favourite , wasrevive . time 
 Raff think marvel orchestration . Tschii- 
 kowsky russian colleague alter , 
 Raff effect sound old - fashioned ineffec- 
 tive . ear spoilt mere colour 
 year ! fortunately master music great 
 apart " colour . " trouble comment 
 Beethoven scoring ? Raff Beethoven , 
 music possess quality interesting 
 enjoyable , symphony good . 
 performance Mr. S. Coleridge - Taylor Ballade 
 minor , time London , interesting 
 event . composer conduct , orchestra , 
 different Gloucester Festival Band , 
 realize quality originality power 
 striking work young Anglo - African . play 
 listlessly , young composer , 
 conduct piece , consequently unable draw 
 measure glowing passion pathetic 
 plead second subject , rugged force 
 open closing section . success 
 emphatic Gloucester . Mr. 
 Otto Hegner play Beethoven Fourth Pianoforte Con- 
 certo small piece Chopin Schubert- 
 Tausig charm refinement , little 
 favour . Miss Isabel McDougall sing Liszt 
 beautiful setting Goethe " Kennst du das Land " 
 air Gluck artistically impressively , Smetana 
 symphonic poem ' Vitava " ' close programme 

 concert present short season , 
 12th ult . , include Schumann beautiful romantic 
 ' " ' Nachtlied " ( poem Hebbel , ably translate Miss 
 G. E. Troutbeck ) chorus orchestra , ol 
 great master short choral work , music 
 mystic charm poetic feeling , passage 
 " fathomless , limitless , giant - like power , " 80 
 remarkable nobility strength , work 
 favourite choral society . orchestration 
 , , remarkably rich Schumann . Schubert 
 great Symphony ( variously number 7 , 9 : 
 10 ! ) Wagner " Meistersinger " Overture 




 805 


 SATURDAY POPULAR CONCERTSTHE Monday Popular Concerts long . 
 accord Mr. Arthur Chappell duly appre- 
 ciate , , treat like naughty child , 
 away ' ' Spring come slowly " ; 
 leave consolation Saturday afternoon , begin 
 - series October 29 

 performance detailed criticism , 
 chiefly consist familiar work , 
 interpret manner equally - know 
 interest concert . 
 roth ult . quartet party lead Lady 
 Hallé , rz2th ult . , place 
 M. Gorski , string player 
 Messrs. Haydn Inwards , Gibson , Paul Ludwig . 
 quartet severally head 
 programme Beethoven e flat ( op . 74 ) , Schubert 
 inA minor ( op . 29 ) , Schumann’sin minor ( Op . 41 , no.1 ) , 
 Haydn D ( op . 50 , . 6 ) . - 
 singularly interesting example old master , " 
 Allegro example piece ' 
 movement ' form second subject inde- 
 pendent theme , derive , " 
 slow movement exceptional beauty 
 remarkably modern character 

 M. Vladimir de Pachmann engage solo pianist 
 concert , important performance 
 occasion respectively Chopin Sonata 
 b flat minor ( Op . 35 ) Weber Sonata flat ( Op . 39 ) . 
 number small piece interpret 
 usual exquisite beauty tone subtlety 
 expression , reading Weber Sonata mar 
 alteration text narrow phrasing . Malle . 
 Ella Pancera appear concert hear 
 Schubert Fantasia C ( Op . 15 ) , , associate 
 Mr. Paul Ludwig , M. Saint - Saéns Sonata C 
 minor ( Op . 32 ) pianoforte violoncello . create 
 afavourable impression work . roth ult . 
 Miss Katie Goodson pianist , mistake 
 select principal solo Beethoven Sonata C 
 minor ( Op . 111 ) , present ability . 
 young people leave - blown 
 virtuosi 

 vocalist order concert 
 Mrs. Hutchinson , Mr. Kennerley Rumford , Miss Isabel 
 McDougall , Miss Louise Dale , concerning 
 singing unnecessary comment 

 KARL KLINDWORTH FREDERICK 
 DAWSON concert 

 PRoFESSOR KLINDWoRTH fame rest 
 achievement wielder baton ; heis ot 
 band travel ' star ' ? conductor Germany 
 produce embarrassing number . 
 great success Mr. Dawson concert , 22nd ult . , 
 fancy advanced year , body 
 mind active man half age , 
 safely rely appeal large enthusiastic 
 audience choose act interpreter 
 great master ’ genius reveal orchestral work . 
 need movement Beethoven " Eroica " 
 demonstrate plain manner distinguished 
 Professor ordinary conductor , live 

 Beethoven creation , speak , life 
 palpitate parcel life , learn 
 reproduce perfect instrument , 
 Beethoven orchestra 

 Professor Klindworth reading symphony 
 conceive noble spirit . dignity pathos , 
 breadth conception depth feeling apparent 
 . , eminently vocal per- 
 formance . melodic phrase " sing " 
 orchestra , Wagner insist ' ' sing . " 
 doubt rehdere pathetically 
 human . human life , man aspiration suffering , 
 man joie de vivre amidst suffering , throb 
 bar . slight broadening beat , 
 imperceptible , conductor emphasize 
 melodic beauty phrase , insist emotional signifi- 
 cance , touch quick 
 familiar succession note , touch ot 
 genius , flash forth effulgence , Heaven - send 
 inspiration 

 poetic opening Allegro 
 conductor management famous " ' false entry " ' 
 horn . hold string breathless 
 expectancy ; movement life cease 
 wonderment ; anon horn enter tentatively , softly , 
 slowly , voice orchestra 
 ' hush solemn silence , " throbbing 
 violin grow slow faint . crash — light 
 exuberant life return . Funeral March 
 present point interest 
 stop dwell . Scherzo play fast , 
 wonderful clearness elasticity , horn 
 Trio human horn , orchestral instru- 
 ment , . fine performance 
 brilliant account Professor Klindworth 
 Finale , Finale , , under- 
 value profess appreciation ot 
 Beethoven genius . conductor 
 misgiving magnificent movement form 
 worthy appropriate climax . 
 throw heart art great 
 interpretation great music . fire impetuosity , 
 roughness exuberance , exquisite pathos 
 grandeur , turn reveal move- 
 ment , reproduce wonderful insight effect . 
 rarely exhilarating experience 
 splendid performance 

 remainder programme devote work 
 great ' " ' modern , " Berlioz , Liszt , Wagner , 
 champion Professor Klindworth . 
 Berlioz ’ ' ' Romeo Juliet " Symphony Liszt 
 major Pianoforte Concerto work 
 wax enthusiastic . Concerto , 
 bewildering rhapsodical 
 hear . superb performance 
 Mr. Dawson soloist orchestra Professor 
 Klindworth long way increase 
 respect work . young countryman 
 tremendous stride onward hear , 
 brilliant , powerful , poetic performance ot 
 difficult work place rank ot 
 live pianist . recall time , wisely 
 decline play . Wagner ' ' meistersinger " ' Over- 
 ture conclude enjoyable concert 

 ERNST VON DOHNANYI quintet 

 come man composer ? 
 confess young Von Dohnanyi amaze 
 listen superb performance MS . 
 Pianoforte Quintet Hampstead Conservatoire , 
 16th ult . introduction gifted 
 hungarian pianist composer . true , hear 
 effective masterly cadenza Beethoven fourth Piano- 
 forte Concerto Richter concert , hardly 
 look independent " composition . " having 
 listen rapt attention youthful quintet ( 
 write year ago ) , straight- 
 way : hereis young man fire genius 
 burns , , youth , write 

 806 MUSICAL TIMES.—Decemser 1 , 1898 




 ELDERHORST QUARTET . carry past month scheme Wednesda 
 p y 

 afternoon chamber concert Steinway Hall . 
 October 26 23rd ult . , sixth concert 
 place , following work play : Mozart 
 Quartet G minor , Haydn Quartet G , Beethoven 
 Quartet C ( op . 59 , . 3 ) , Beethoven Pianoforte Trio 
 b flat ( op . 97 ) , Schubert Octet F ( op . 166 ) , 
 Schumann Quintet e flat ( op . 44 ) , Mendelssohn 
 Pianoforte Trio C minor ( op . 66 ) , Brahms Pianoforte 
 Quartet ( op . 26 ) , Borodin Quartet D ( . 2 ) , 
 Tschaikowsky Pianoforte Trio minor ( Op . 50 ) . 
 careful praise- 
 worthy selection concerted work , 
 , majority instance , interpretation 

 deficient perfect sympathy music 




 RECITALSwander . pianoforte piece occasion include 

 | Beethoven Sonata E ( Op . 109 ) , finely 

 interpret 

 Dr. Pudor play violoncello Madame Sanna 
 ; Pudor van Rhyn sing numerous audience , 7th 
 jult . , Queen ( Small ) Hall . Dr. Pudor style lack 
 | vivacity Madame Pudor method deficient 
 | variety , wherefore sense monotony feel ; 
 | programme artistic , inclusion ot 
 | Cornelius ' Christmas Songs " commendable , 
 announce " perform . 
 ance , " series sing Miss Isabel 
 McDougall concert hall December 2 , 
 | 1897 , repeat ' ' Pops " January 

 Herr Ernst von Dohnanyi , début 
 | England Richter concert Queen Hall , 
 October 24 , pianoforte recital , St. James 
 Hall , roth ult . advent London certainly 
 memorable feature present autumn 
 /season . pianist suggest deep thing life , 
 | Herr Dohndnyi power 0 . 
 | heart - cry humanity ring unmistakable 
 , voice reading Beethoven sonata flat ( Op . 
 tenderness melancholy permeate 

 TIO ) . 
 | work express keen sympathy , 
 | shade feeling , human heart - beat pulsate 
 _ music . interpretation broad 
 Mr. d’Albert , point , possess 
 ' great variety , subtlety , mystery . asan 
 ; exponent Chopin scarcely judge 
 | occasion , hear Ballade 
 G minor ( Op . 23 ) waltz C sharp 
 ; minor , work finely render , 
 ; wayward fancy delightful delicacy , alternate 
 great brilliancy , prevail feature . 
 satisfaction experience group piece 
 , pen . comprise ' variation fugue 
 theme , " Scherzo C sharp minor , Intermezzo 
 _ f minor , Capriccio b minor , 
 ' remarkable cleverness development brilliancy ; 
 thematic material reminiscent 
 | style Schubert , Schumann , Brahms original , 
 attention chiefly hold beauty 
 interpretation 

 Mr. Bertie Withers violoncello recital 
 11th ult . , St. James Hall , prove 
 | young executant exceptional promise . play 
 Beethoven sonata ( Op . 69)—in ably 
 assist Miss Katie Goodson — Locatelli 
 Sonata D , arrange Piatti , Sir A. C. 
 Mackenzie expressive _ effective 
 Allegretto ( Op . 10 ) , characterise musicianly 
 ability feeling impart great interest charm 
 interpretation 

 Mr. Ernest Sharpe , possessor genuine bass voice , 
 | provide afternoon music great interest 15th 
 ‘ ult . , St. James Hall . Mr. Sharpe manifestly widely 
 read musician song embrace school 
 ' style . song claim " perform- 
 ' ance England . " entitle " Gopak , " 
 Moussorgsky , prove remarkable example o 




 _ _ 


 XUM 


 807Miss Maud Powell , recital 22nd ult . , 
 violinist rank , frequently 
 hear London concert - room . produce beautiful 
 tone instrument , executive command 
 power expression order . programme 
 include Rust sonata D minor , movement 
 Bach sonata E , Wieniawski ' " Fantaisie de Faust , " ' 
 small piece artistic interest , 
 interpret musicianly perception character 
 music notable brilliancy delicacy , 
 occasion require 

 Miss Isadcra Lara Mr. Douglas Lott respon- 
 sible vocal recital Queen ( Small ) Hall 
 ult . meritorious rendering song Schubert , 
 Korbay , , Mr. Lott , baritone , justify 
 appearance ; companion , soprano voice 
 strength sweetness , scarcely successful . 
 capability Mr. Sigmund Oppenheim , new - comer , 
 interpreter Chopin , clear , 
 play Beethoven Pianoforte Sonata , Op . 81a , 
 judgment . Miss Florence Leoni bright solo 
 violin highly acceptable 

 Mdlle . Lina Multerer , pianist recital 
 St. James Hall 18th ult . , overcome 
 nervousness unable cope exact 
 demand Beethoven sonata flat ( Op . 110 ) . 
 performance light piece characterise | 
 grace fancy . decided success achieve | 
 mdlle . Marie Boedcher , mezzo - soprano , appear | 
 time , air Beethoven , Bruch , | 
 Rubinstein , Fielitz evidence good training 

 clear perception vary style 




 LONDON CHURCH CHOIRS ST . PAUL 


 ROYAL COLLEGE MUSICdistinguished greatly sparkling Overture 

 Rossini " Barber Seville . " delightful 
 simplicity , tunefulness , esprit overdose 
 billposter art @ la Slave endure late ! 
 string , excellent College , revel 
 gay sunshiny music . Schumann beautiful 
 german ' oriental picture ' ? ( Op . 66 ) , reverentially 
 effectively score Carl Reinecke , prove good 
 contrast rossini’s’strains , fall ear 
 pleasantly . Cicely Gleeson- White sing Beethoven 
 deeply expressive ' * Busslied " ( Song penitence ) 
 genuine feeling artistic restraint , pronunciation 
 german text , , highly commendable . 
 accompaniment score orchestra 
 fellow student , A. R. Cripps , work merit ungrudging 
 appreciation . orchestration ; appropriate 
 effective , obtrusive , lend additional 
 expressiveness sensuous charm song 
 new guise doubt frequently hear 
 heretofore . Beethoven C minor Symphony receive 
 spirited , masculine reading , large number lady fiddler 
 notwithstanding . exhilarating performance . 
 fine thing draw enormous , 
 virtually overflow audience South Kensington 
 ‘ * matchbox 

 crowd come hear novelty many- 
 tongued rumour busy week past — viz . , Mr. S. 
 Coleridge - Taylor cantata ' ' Hiawatha Wedding - Feast , " 
 produce time . right 
 young composer Alma Mater 
 present fine work gifted 
 pupil London audience , performance 
 ideally perfect , choir ill - balanced ( 
 male singer score soprano contralto ) , 
 enthusiastic orchestra occasionally little rough ' 
 - eagerness , tenor soloist overweighte 
 perfectly beautiful song " ' Onaway ! Awake , beloved ! " 
 manifest work conductor , orchestra , 
 chorus , soloist ardent desire utmost 
 work proud , hyper- 
 criticism think grumble 




 808 


 ROYAL ACADEMY MUSIC 


 GUILDHALL SCHOOL MUSIC . 


 GRESHAM LECTURES 


 anthem SOLO CHORUS . 


 ALTO 


 QI 


 day thy love spare 


 19 


 XUM 


 ) 37 ) ! = = | = 


 | | 1 1 


 LTO . | 


 SS 


 SS 


 O 1 . 


 = SS 


 XUM 


 _ | 14 — 


 sweet song SUMMER 


 SS 


 2 4 ~ : ' 


 814 


 MUSICAL ASSOCIATION . 


 memorizing PIANOFORTE MUSIC 


 annual dinner 


 MR . CHARLES FRY recital 


 815 


 MR . COLERIDGE - TAYLOR " HIAWATHA ’ 


 WEDDING - FEAST " SUNDERLAND 


 MISS HENNIKER choral competition 


 SUFFOLK 


 review 


 816 


 xum 


 xum 


 817 


 _ _ 


 music BELFAST . | 


 ( correspondentmusic BIRMINGHAM . 
 ( correspondent 

 marked appreciation enthusiastic welcome 
 bestow season Mr. Halford orchestral concert 
 induce series concert , 
 place Town Hall October 25 , 
 second 8th ult . year scheme include 
 Beethoven Symphonies , chronological 
 order . concert Mr. Halford Brahms 

 Symphony ( . 1 ) C minor , remarkably play 
 orchestra . place honour , , assign 
 Sir Hubert Parry Symphonic Variations E minor , 
 composer conductorship , accord 
 hearty welcome . performance fine 
 , justice Sir Hubert Parry 
 masterly score . Mons . Emile Sauret 
 soloist , Concerto D minor ( Op . 26 ) 
 manner reveal wonderful mastery 
 violin perfection . second concert Beethoven 
 Symphony Borodine second Symphony 
 principal orchestral piece . Mr. Louis Frélich sing 
 Wotan ' ' abschie , " Wagner ' ' Die Walkire , " 
 Schubert ' * du bist die Rub 

 Dr. Rowland Winn series orchestral 
 concert Town Hall 3rd ult . , 
 decidedly artistic result . programme include 
 Mozart Symphony G minor , Wagner Overture ' 
 Flying Dutchman , " Tschaikowsky Overture ' ' Romeo 
 Juliet , " Saint - Saéns symphonic Poem ' Le Rouet 
 d'Omphale , ' " ' Miss Esther Palliser vocalist 
 sang Max Bruch ' ' Ave Maria , stainless Queen , " 
 choral work ' ' Das Feuerkreuz , " Jewel Song 
 Gounod ' ' Faust 




 MUSICAL TIM 


 MUSIC BRISTOL . music DUBLIN . 
 ( correspondent 

 brilliant opening Dublin concert season 
 concert Hallé Orchestra , 
 direction Mr. F. H. Cowen , 15th 16th | 
 ult . , large hall Rotunda . programme 
 include familiar work Mozart , Mendelssohn , Wagner , | 
 Schumann , Beethoven , Schubert , composer , 
 admirably render Mr. Cowen baton , Over- | 
 ture ' ' Die Meistersinger ’' ' ' Tannhauser , " especially 
 - mention , compel admiration enthu- 
 siasm audience . Herr Carl Fuchs ’ violoncello solo 
 greatly admire 

 Royal Dublin Society chamber music recital 
 continue 14th ult . , new Lecture Theatre 
 Society , Kildare Place . executant 




 MUSIC EAST ANGLIA . 


 ( correspondentnorwich favour witha unusual entertainment 
 rrth ult . , concert organise idea ot 
 reduce debt exist roman catholic school 
 |in Willow Lane , programme consist mainly 
 classical chamber music . Schumann Pianoforte Quintet 
 ( op . 44 ) , Mendelssohn String Quartet e flat ( op . 12 

 Beethoven Pianoforte Trio e minor ( op . 1 , . 3 

 chief feature . executant Mr. J. T. 
 Gowen ( pianoforte ) , Mr. W. Johnson ( violin ) , Rev. H. 
 | Long ( second violin ) , Mr. E. Weeks ( viola ) , Rev. 
 | Dudley Elwes ( violoncello ) . Mr. Elwes distinguish 
 Popper ' ' Widmung , ’' play 
 tender expression earnestness purpose ; Mr. 
 Weeks equally successful solo viola , 
 instrument butrarely hear ina solo capacity . song 
 contribute Miss Louise Burns 




 MUSIC EDINBURGH . 


 ( correspondent 


 THI 819 

 evoke criticism altogether 
 complimentary . Choral Union doubtless hamper 
 circumstance easily understand , dis- 
 appointing promise performance Berlioz 
 " Faust " premier Society collaborate 
 Scottish Orchestra Messrs. Paterson scheme . Mr. 
 Kirkhope Choir excuse , 
 widespread feeling disappointment disapproval 
 splendid body singer , friend 
 second kingdom , hark 
 Schumann " Faust " ' " Walpurgis 
 Night " appearance scheme . 
 work clamour hear Edinburgh 
 clamour hear . important novelty 
 past year attract member , 
 dream performance Edinburgh Bach 
 B minor Mass Beethoven " Missa Solennis ’ ? ? 
 Choral Symphony household word , 
 intimate Mozart Requiem . Bach 
 splendid cantata worthy notice to| 
 hear Choral Fantasia ? work | 
 native composer ? committee commit | 
 dreary round way committee 
 energy , enterprise , realisation 
 great responsibility choir 

 MUSIC GLASGOW . 
 ( correspondent 

 MUSIC LIVERPOOL . 
 ( correspondent 

 second concert Philharmonic Society 
 place October 25 , chief feature programme 
 contrast afford Haydn Symphony 
 ( " La Reine " ) Tschaikowsky Fantaisie Overture , 
 ' * Hamlet . " 8th ult . Verdi ' " Stabat Mater " 
 Te Deum , Beethoven music 
 ' ruin Athens , ’' prove somewhat trying ordeal 
 resident force , carefully hold 
 hand Handel " Israel , " 
 Christmas oratorio 2oth inst . fourth concert , 
 miscellaneous programme , fix 22nd ult . 
 Mr. F. H. Cowen happily retain position conductor . 
 Musical Society Mendelssohn " Elijah " 
 15th ult . , result amply justify appointment 
 Mr. F. H. Crossley conductorship . chorus 
 , fact , rarely hear advantage . 
 new choral section Sunday Society come 
 evidence oratorio October 30 , prove 
 highly capable body chorister . 
 large chorus — number 130 
 member — policy concern 
 individual trial , grant honorarium 
 lead voice , result enlistment choir 
 exceptional power intelligence . Mr. Argent con- 
 ducte , usual . lead 
 choral event past week city , 
 exceptional interest appearance 
 unique ' ' Goossens " Choir , October 27 , Gevaert 
 " exile Erin " time England 
 marked success . Southport , Mr. Hudson produce 
 Cowen ' Ruth , " r1th ult . , , week 
 later , place , Mr. Clarke Mendelssqhn 
 Elijah . " goth ult . Mr. Crossley direct 
 second Haydn ' ' creation " Warrington . 
 Dr. Reynolds accept conductorship 
 Runcorn Society , rehearsal Sullivan 
 St. Helen , 2tst ult . , 
 local choral society Dr. Bridge " Flag 
 England " ' Finale Mendelssohn ' Loreley , " 
 Mr. Elliott 

 orchestral art represent 
 Mr. Rodewald delightful ' ' smoking " evening 
 City Hall , 12th ult . , Beethoven . 8 
 symphony Grieg second ' " Peer Gynt " Suite 
 admirably perform Liverpool Orchestral 
 Society . Societa Armonica justify 
 rehabilitation Mr. Akeroyd , Beethoven 
 symphony , . 4 , b flat , number com- 
 position , include couple Mr. Coleridge - Taylor 
 delightful characteristic waltz . student 
 professoriate College Music 
 , Beethoven sonata violin 
 pianoforte having excellent effect 
 series recital Messrs Courvoisier Welsing . 
 performance large order 
 place , Haydn B flat Symphony , . 12 , 
 form chief task orchestra , 
 force , combine choral class , 
 Haydn " creation , " excerpt 
 Mozart " requiem " " pignus futurae " fugue 
 Mozart Litania b flat 

 regard chamber music , chronicle 
 success Mr. Theodore Lawson second concert 
 Mr. Brodsky Manchester quartet , special 
 local interest appearance Messrs. Ross 
 Moore Concert Room , St. George Hall , 
 2nd ult . , - " ensemble pianist " 
 member - know family musician 
 resident city . Mr. G. Liebling recital 
 Philharmonic Hall , 12th ult . , 
 audience large proportion 




 820 


 music MANCHESTER . 


 ( correspondent . ) 


 music NORTHUMBERLAND DURHAM . 


 ( correspondent 


 MUSIC NOTTINGHAM . 


 ( correspondent 


 1am 


 MUSICAL TIMMUSIC YORKSHIRE . 
 ( correspondent . ) 
 amalgamated concert Leeds Subscription 

 attempt high flight ' ' Meistersinger ’' overture , 
 accomplish task simple expedient 
 like - quarter correct speed . 
 Dr. Pudor fine violoncello playing Madame Pudor 
 artistic singing greatly add interest concert , 
 conduct Mr. Priestley . 11th ult . 
 Halifax Choral Society begin season 
 varied excellent miscellaneous programme , 
 Mr. Cowen band leading . Beethoven 
 |c minor Symphony , Bach " O light everlasting , " 
 | portion second act ' flying dutchman " 
 |the principal feature . chief vocalist Madame 

 Duma , singing ' ' spinning Song " 
 | lady chorus deserve special word praise 

 Maeldune , " beautiful work unduly 
 neglect production Leeds Festival 
 1886 . principal Miss Agnes Nicholls , Miss 
 Muriel Foster , Messrs. Hirwen Jones Dan Price ; 
 ' able quartet soloist , band 
 ' strengthen occasion , performance 

 performance " Flying Dutchman . " Miss Palliser adequate . miscellaneous programme 
 Mr. Andrew Black sustain chief , minor Sit C. Mackenzie ' Britannia ' ? overture Dr. 
 ones creditably Miss Margaret Vereker , | Stanford ' ' Shamus O’Brien " overture include . 
 Mr. T. Child , Mr. W. Thornton . Mr. Benton con-| conductorship Dewsbury Choral Society 
 ducte generally efficient performance . ' Mr. G. H. Hirst , devolve 
 Bradford , October 25 , Old Choral Society fall able enthusiastic amateur , Mr. T. L. 
 " Elijah , " satisfaction hearer | Chadwick . ' St. Paul " oratorio choose 
 advantage fund . chorus - singing concert 15th ult . , creditably , 
 mark habitual freshness energy , | chorus - singing excellent , principal , Miss 
 soloist , local , prove highly efficient . Mr. | Ruby Shaw , Miss Vereker , Mr. Brearley , Mr. Francis 
 Uttley , recently study Mr. Santley , | Harford , earnest , unaffected , artistic . 
 Elijah considerable success , Miss | gth ult . series classical concert 
 Symons , Miss Thornton , Mr. Brearley repre- | Pudsey Mr. L. Gaunt , programme include 
 sentative principal . Mr. Hartwell | Schumann Pianoforte Quintet . October 31 
 Robertshaw conduct . October 28 , interesting chamber concert place Scarborough , 
 Subscription Concerts place . masterly interpre- , pianoforte trio Beethoven Raff ( G major , Op . 112 ) 
 tation , Madame Soldat , Brahms Violin Concerto | include programme , play Mr. W. 
 distinguish feature programme , , H. Cass , Miss Alderson Smith , Mr. Owen Williams . 
 include Schumann " Rhenish " ’ Symphony , , Mr. Bantock Pierpoint vocalist . 
 highly interesting novelty , Overture Wagner ! receipt Leeds Musical Festival 1898 
 early opera " Die Feen , " | reach record total £ 11,490 , advance 
 intrinsic merit expect . Miss Macintyre , £ 500 1895 . expenditure , , 
 vocalist , entirely successful solo , | increase £ 422—-the total year £ 9,352 , 
 Mr. Cowen good conductor concert . , £ 8,930 year ago . net credit balance 
 second Subscription Concert , 8th ult . , year £ 2,138 , compare £ 2,039 1895 . 
 miscellaneous , ephemeral interest . |committee distribute £ 2,coo 
 Bradford Permanent Orchestra | Leeds medical charity , add balance £ 138 
 concert 5th ult . provide |the reserve fund , reach sub- 
 chief attraction modern Violin Concerto , Dvorak , ' stantial sum £ 4,273 . Provisional Committee 
 artistically play Mr. H. Verbrugghen , | empower grant interest 
 finished satisfying player . , reserve fund sum exceed £ 50 annum 
 Sullivan delightful Overture " Di Ballo " band | formation permanent orchestra Leeds , 
 hear good , performance credit organisation form . step 
 clever conductor , Mr. Bartle . Mr. W. Haigh ithe right direction gratifying sequel recent 
 excellent viola playing Miss Agnes Nicholl song | festival 

 feature concert deserving 




 music PARIS 


 correspondent . ) 


 822 


 music AMERICA . 


 ( correspondent . ) 


 NEW YORK FREE MUSICAL LECTURESIN January , 1888 , New York State Legislature pass 
 Act authorise New York Board Education 
 provide course free lecture work man 
 woman , appropriate 15,000 dollar purpose 

 small beginning grow educational 
 movement great importance - New 
 York City . year ago music add list 
 subject , Mr. Thomas Whitney Surette ask 
 undertake work New York City . lecture 
 following subject : ( 1 ) ballad , madrigal , masse ; 
 ( 2 ) Bach Handel ; ( 3 ) Haydn ; ( 4 ) Mozart ; ( 5 6 ) 
 Beethoven ; musical illustration ; end 
 lecture view composer 
 place connect life . Mr. Surette tound 
 work people capable follow under- 
 stand , keen 
 subject - matter cultured audience 
 . plan lecture Beethoven , 
 example , somewhat follow : short 
 resumé Mozart lecture , particularly 
 music reflect elegance manner somewhat 
 conventional style life exist old 
 régime , point perfectly rounded period 

 melody , use Alberti bass , & c. , 
 ' lecturer describe change politic thought 
 ' pronounced beginning 
 ‘ century ; change ring old 
 ring new , find voice Europe 
 |in cry personal freedom value 
 individual man . , having audience 
 | idea cause operate produce Beethoven 
 | music , begin analysis sonata , , , 
 |ten minute explain construction 
 | familiarise theme . audience 
 | hand diagram Sonata Form print 
 syllabus sonata describe lecture . 
 occasionally refer lecturer speak . 
 analysis sonata play , 
 doubt enjoyment music 
 audience 

 2,000 work people listen high- 
 class music . possibly , 
 time , bring contact great 
 Beethoven , elevate 
 experience 

 list book bear subject print 
 syllabus , librarian report con- 
 siderable demand member audience . 
 people come express appreciation 
 lecture music , question 
 sincerity gratitude 

 2 . Second Examination Degree Bachelor _ — undoubtedly gain approval 
 music : Reginald S. Barnicott , Queen College West | composer present . repeated 
 Hampstead ; Peter Le Sueur , New College Redland , | reward 

 Bristol ; Benjamin Lofthouse , Queen College South-| ' Tue programme Richter concert , October 
 port ; ga eg nag ator Mig Richmond , | 59 , hackneyed , performance orchestral 
 Surrey 5 : _ y 4 illip , Queen College West-| piece exactly like hear admire 
 ~~ ee _ = d fd music : | sc0%8s time , bare record suffice . hear 
 ilies . Mactont , cl Coleg ~ Dumfries ; NB . . | Beethoven Seventh Symphony number Wagner 
 ee ea Balliol Colle = Robert T. ’ White . | piece xth time Dr. Richter , 
 Queen Colle Moat St pcan sabe : » /nothing . 

 4 : Suneninaiion Women.—The follow satisfy ee SS ee = ~ oeneed 
 ics eunee S de adhd Sn die : Wien | Trial Songs ' Die Meistersinger , " , Madame 
 ake sige allay case willie degree | Medora Henson , great love Duet " Die Walkiire . " 
 § oe music : Jenny Carstairs , Elie , Fife , | performance disappointing , artist sing 
 enttane . ; ; _ _ |with lack dignity style suggest look 

 tue annual concert aid fund admirable | Kruse , Charles Schilsky , Emile Ferir , Herbert Walenn , 
 institution Royal Society Musicians , hold Queen — Madame Fischer - Sobell pianist — 
 Hail r1th ult . , miscellaneous description , | concert 12th ult . , Hampstead Conservatoire . 
 include song excellently render Miss Esther special feature arrangement platform 
 Palliser , Madame Clara Samuell , Mdlle . Giulia Ravogli , | player centre hall , audience beirg 
 Madame Enriquez , Mr. Lloyd Chandos , Mr. Bantock | s&ate round , revive custom introduce 
 Pierpoint ( lieu Mr. Arthur Oswald , indisposed ) , | eat John Ella Musical Union concert . string 
 violin solo M. Emile Sauret performance | quartet choose occasion Rubinstein F 

 Moszkowski ' ' Caprice Espagnol ' ? promising | ( Op . 17 , . 3 ) Beethoven e minor ( op . 59 , . 2 ) , 
 young pianist , Miss Madeline Payne . 

 skilled interpreter difficulty 
 strike feature finished singing member | " hold attention . composition separate 
 Bristol Royal Orpheus Glee Society , , | Brahms sonata D miror ( Op . 10s ) pianoforte 
 conductor , Mr. George Riseley , come London expressly ecw obtain justice Madame Fischer- 
 concert . tone , | Sobell Herr Kruse 




 824 MUSICAL TIM 


 8 , ii , 


 825 


 CHAMBER concert 


 recital 


 foreign note . 


 826 MUSICAL TIMFalcone , " composer , Herr Theodor Gerlach , 
 author libretto . work , mainly 
 construct wagnerian line , discard alto- 
 gether set form old opera , 
 prove highly effective numerous dramatic situation , 
 masterly orchestration 

 Leipzic.—The fourth Gewandhaus concert , 
 direction Herr Arthur Nikisch , month , include 
 symphony Haydn Beethoven , Professor 
 Hugo Becker , Frankfort , superb rendering 
 Dvorak violoncello concerto sonata Giuseppe 
 Valentini , pianoforte accompaniment Signor 
 Piatti . interesting feature singing 
 Thomas - Schule Choir sixteenth century madrigal 
 Johann Stephani Leo Hasler . fifth concert 
 Gewandhaus devote great 
 memory Mendelssohn ( die November 4 , 1847 ) , 
 include ' ' Hebrides ' Overture number 
 ' " Midsummer Night Dream ' ? music . Mr. Plunket 
 Greene , appear time , 
 vocalist , ' * Wotan Farewell , " song 
 Cornelius , gain favour audience 

 Maprip.—Serrano new national opera , ' ' Gonzola de 
 Cordoba , " achieve marked success perfor- 
 mance , rst ult . , Royal Theatre 

 Turin.—The opera ' La Creole , " F. Collins , 
 obtain prize competition institute 
 | time viennese publisher , bring 
 good success 6th ult . , Theatre Vittorio 
 | Emmanuele 

 ViENNA.—The opening concert season 
 Philharmonic Society , 6th ult . , attract un- 
 usually crowded audience account 
 occasion Herr Mahler wield baton 
 famous Institution . programme wasstrictly classical 
 include Overture ' ' Coriolanus " ' ' " Eroica " 
 Symphony Beethoven , Mozart symphony 
 G minor . success complete , greatly 
 retirement Dr. Richter conductorship re- 
 grette viennese public , prevalent feeling 

 receive . libretto deal romantic episode | satisfaction succeed bya 




 obituary 


 827 


 XUM 


 BRIEF summary country 


 COLONIAL news 


 828 


 1898 


 answer correspondent 


 dure month . 


 AC ( 


 NSLEY 


 78 . 


 + 395 : 


 OVELLO collection CHRISTMAS 


 CAROLS . | 


 ALEXANDER ANDERSON . 28 . | 


 AREING , H. W. — 


 F. 


 CHRISTMAS CAROLS , new old 


 1898 . 


 content 


 MR . JOSEPH _ E , BLAMPHIN 


 MR . ROLAND HOYLE 


 BARITONE ) 


 MR . CHARLES NEVILLE 


 830 


 7 nt 7 


 MR . CHARLES KNOWLES 


 ( YORKSHIRE BARITONE 


 HEREFORD CHURAL SOCIETY . — BARNETT " ANCIENT MARINER . — 


 R.H. WHARTON WELLS , L.R.A.M. , F.R.C.O. , 


 ARMONY , COUN T ERPOINT , ELE . 


 TRAI 


 J. 1 


 publish shortly 


 early bodleian music 


 DUFAY 


 contemporary 


 composition 


 range A.D. 1400 1440 


 transcribe MS . CANONICI MISC . 213 


 


 BODLEIAN LIBRARY , OXFORD 


 


 J. F. R. STAINER , B.C.L. , M.A. | 


 


 C. STAINER 


 preface 


 E. W. B. NICHOLSON 


 


 critical analysis music 


 SIR JOHN STAINER 


 M.A. , MUS . DOC . , OXFORD ; HON , D.C.L. MUS . DOC . , DURHAM ; 


 professor MUSIC university OXFORD 


 M.A 


 point chant 


 chant . 


 13a. 3.0 


 new enlarge edition 


 handbook 


 ‘ examinations music 


 600 question answer 


 


 ERNEST A. DICKS 


 preface revise edition . 


 word translate GERMAN 


 RUCKERT 


 


 REV . JOHN TROUTBECK , D.D 


 music compose 


 LEONE SINIGAGLIA 


 832 


 ALFRED R. GAUL CANTATAS . 


 produce NORWICH MUSICAL FESTIVAL , 


 OCTOBER 4 , 1893 


 produce utmost success 


 BIRMINGHAM FESTIVAL CHORAL SOCIETY 


 TOAN ARC 


 ISRAEL 


 WILDERNESS 


 


 NOVELLO , EWER CO . , NEW YORK 


 VIOLIN AMATEURS . 


 TOILERS DEEP 


 CANTATA 


 FEMALE VOICES 


 music 


 ALFRED R. GAUL 


 content 


 carol church use 


 ' " ANGELS REALMS GLORY " 


 " CHRISTMAS bell " 


 ' " YULETIDE 


 compose 


 ALFRED R. GAUL 


 SCHOOL MUSIC review 


 subscription , include postage , 28 . 


 contain 


 HENNIKER CHORAL competition 


 miscellaneous item 


 SCHOOL MUSIC REVIEW 


 WILSHIRE 


 WILSHIRE 


 UN 


 , 


 RA 


 WA 


 IUAL 


 833 


 ES , 


 RUMMENS ’ 


 HOME practice ORGAN MUSIC 


 straight CONCAVE , radiating concave , 


 nrivalle touch , appearance , durability , 


 PRICE 


 1 , WYNNE ROAD , BRIXTON , LONDON , S.W 


 " HARDCASTLE 


 PATENT PIANOFORTE FINGER EXERCISER 


 organist , pianist , violinist , VIOLON . 


 OLD FIRM 


 P. CONACHER & CO , 


 SPRINGWOOD WORKS , 


 HUDDERSFIELD 


 gold medal 


 NICHOLSON CO . , 


 ORGAN BUILDERS 


 PALACE YARD , WORCESTER . 


 ( establish 1841 


 publish . CHURCH ENGLAND 


 new work 


 PARISH CHURCHES 


 


 village choir 


 companion prayer book 


 edit 


 ANTHEM book 


 copy clean saleable . 


 WILLIAM LEA , 50 & 52 , CHURCH STREET , LIVERPOOL 


 XUM 


 MUSIC . : PEACE 


 service . 


 humorous - song S.A.T.B. CHARMING CHRISTMAS carol 


 1898 


 chant 


 


 psalm & canticle . 


 REV . J. L. PRANCIS , M.A 


 edit 


 F. A. W. DOCKER , F.R.A.M 


 SPECIAL characteristic . 


 EASY MELODY 


 LOW reciting note . 


 simplicity arrangement . 


 suitable small choir 


 hurch composition 


 ‘ ESU , WORD GOD . 34 . 


 CHRISTMAS CAROL . 


 marche arrange 


 ORGAN 


 new sacred cantata CHRISTMASTIDE 


 nativity CHRIST 


 popular CHRISTMAS CAROLS 


 * 2 , O LOVELY STAR . |*23 . NIGHT GLORY 


 10 . SWEET angel , BRIGHT . * 31 . O BETHLEHEM FAIR . 


 * 12 , BETHLEHEM PEACEFUL HILL , * 33 . SING glory 


 16 , SONGS RAPTURE , * 37 , rejoice ALLELUIAS . 


 19 , GLAD HEAVEN rejoice . \*40 , child PEACE 


 * 21 , joyful day . * 42 . starry portal . 


 CAERLLEON 


 ROMANCE ) 


 


 837 


 CHRISTMAS CAROL 


 silent 


 star 


 PERCY GODFREY 


 


 CHRISTMAS carol 


 CHRISTMAS BELLS " 


 " boy DREAM 


 CHRISTMAS DAY 


 BRING HOLLY BOUGH 


 


 HERBERT C. MORRIS 


 shepherd 


 E. A. SYDENHAM 


 CHRISTMAS carol 


 edit 


 T. HERBERT SPINN 


 REV . VEY 


 10,000 free specimen copy 


 CHRISTMAS carol 


 compile 


 second advent — 


 sacre CANTATA 


 solo TENOR bass , EASY chorus 


 


 music ( HYMN tune ) compose 


 ARTHUR H. D. PRENDERGAST . 


 EASY D effective 


 CHRISTMAS CAROI anthem . 


 second set 


 set 


 CHRISTMAS anthem . 


 


 ORCHESTRA glance 


 836 


 chant 


 


 psalm & canticle 


 arrange 


 REV . J. L. FRANCIS , M.A 


 edit 


 F. A. W. DOCKER , F.R.A.M 


 special characteristics . 


 1 . easy melody . 


 LOW reciting note . 


 3 . simplicity arrangement . 


 suitable small choir 


 new sacred cantata CHRISTMASTIDE 


 NATIVITY CHRIST . 


 CHURCH composition 


 T ® ,REUM , 34.5 BENEDICTUS , 34 . ; BENE 


 DICITE , 


 CHRISTMAS CAROL . 


 ORGAN 


 popular CHRISTMAS carol 


 NIGHT glory 


 * 1 , CAROL SWEETLY . \*22 . 


 * 2 , O LOVELY STAR . |*23 


 10 , SWEET ANGELS , BRIGHT . * 31 . O BETHLEHEM PAIR 


 11 , OH , CHRISTMAS BELLS . * 32 , EMMANUEL ! sweet . 


 * 12 , BETHLEHEM PEACEFUL HILL , * 33 . SING glory 


 16 , SONGS RAPTURE , 1 * 37 , REJOICE ALLELUIAS . 


 19 . GLAD HEAVEN rejoice . \*40 , child PEACE . 


 21 , joyful day . * 42 , STARRY portal 


 CAERLLEON 


 romance ) 


 RN 


 837 


 CHRISTMAS CAROL 


 silent 


 star 


 PERCY GODFREY 


 


 CHRISTMAS carol 


 CHRISTMAS BELLS 


 boy DREAM " 


 " CHRISTMAS DAY 


 BRING HOLLY BOUGH 


 


 HERBERT C. MORRIS 


 shepherd 


 A. SYDENHAM 


 CHRISTMAS carol 


 edit 


 T. HERBERT SPINNEY 


 REV 


 10,000 free specimen copy 


 collection 


 CHRISTMAS carol 


 compile 


 second advent _ 


 SACRED cantata 


 solo TENOR BASS , easy chorus 


 


 music ( HYMN tune ) compose 


 ARTHUR H. D. PRENDERGAST . 


 easy effective 


 CHRISTMAS carol anthem 


 


 second set " " 


 set , , " 


 CHRISTMAS anthem 


 


 ORCHESTRA glance 


 838 


 STAINER , JOHN 


 37 


 NOVELLO 


 CHRISTMAS carol 


 CHRISTMAS carol 


 106 . 


 197 


 xum 


 840 


 suitable use church service 


 ADVENT hymn 


 lowly guise THY KING APPEARETH " 


 SOPRANO SOLO CHORUS , orchestral 


 ACCOMPANIMENT 


 compose 


 R. SCHUMANN 


 translate GERMAN FRIEDRICH RUCKERT 


 blessed 


 watch 


 cantata advent 


 SOPRANO SOLO CHORUS 


 


 hymn sing congregation 


 music compose 


 HUGH BLAIR 


 advent 


 CHURCH CANTATA 


 word SELECTZD write 


 compose 


 GEORGE GARRETT , M.A. 


 BLOW ye trumpet zion 


 CANTATA advent 


 C. WARWICK JORDAN 


 CHRISTMAS EVE 


 SHORT CANTATA 


 CONTRALTO SOLO , CHORUS , ORCHESTRA 


 compose 


 NIELS W. GADE 


 biblical PASTORAL 


 music compose 


 HENRY LESLIE . 


 


 CHRISTMAS ORATORIO 


 JOHN SEBASTIAN BACH 


 english translation adaptation 


 


 NOVELLO , EWER CO . , NEW YORK 


 NEW 


 CHRISTMAS anthem 


 angel , realm 


 GLORY 


 word write 


 J. MONTGOMERY 


 music compose 


 FREDERIC H. COWEN . 


 CHRIST bear 


 earth 


 word write 


 WHITTIER 


 music compose 


 H. WALFORD DAVIES 


 , amid WINTER snow 


 CAROL - ANTHEM 


 word write 


 REV . E. CASWALL , M.A. 


 music compose 


 JOHN E. WEST . 


 COME salvation 


 CUTHBERT HARRIS 


 BEHOLD servant 


 compose 


 FREDERICK BRIDGE 


 O HOLY BABE 


 compose 


 A. C. MACKENZIE 


 O COME , redeemer MANKIND 


 anthem 


 compose 


 JOHN E. WEST . 


 beginning word ~ 


 ANTHEM 


 FERRIS TOZER 


 shall come FORTH star 


 ANTHEM 


 compose 


 O. A. MANSFIELD 


 FO 


 CHRISTMAS 


 HOLY CHILD ‘ COMING KING 


 EASY CHRISTMAS CANTATA sacre cantata female voice 


 SOPRANO , TENOR , BASS SOLI , CHORUS , suitable CHRISTMAS 


 ORGAN | word 


 CHRISTMAS scene | yule - tide 


 cantata female voice } CANTATA 


 word write word write 


 CLIFTON BINGHAM JULIA GODDARD 


 music compose music compose 


 FREDERIC H. COWEN . THOMAS ANDERTON . 


 842 


 , WILD bell 


 accompaniment 


 violin , PIANO , ORGAN , BELLS 


 word write 


 ALFRED , LORD TENNYSON 


 music compose 


 HENRY LAHEE 


 winter 


 FIRE 


 CHRISTMAS CANTATA female voice 


 word 


 SHAPCOTT WENSLEY 


 ALFRED R. GAUL 


 CHRISTMAS holiday 


 short musical sketch 


 suitable breaking - school 


 compose 


 HERBERT W. SCHARTAU 


 CHRISTMAS dream 


 operetta child 


 ( action ) 


 word write 


 music compose 


 ALFRED MOFFAT 


 composition 


 


 T. MEE PATTISON . 


 original ORGAN composition . 


 publish . 


 NOVELLO 


 village chant book 


 100 single chant 


 PRICE SIXPENCE 


 NOVELLO 


 village chant book 


 50 double chant 


 PRICE SIXPENCE 


 WINCHESTER 


 


 CHRISTMAS 


 TALLIS FESTIVAL response 


 ORGAN MUSIC 


 LONDON : HART & CO . , 22 , PATERNOSTER ROW , E.O 


 843 


 MESSRS . NOVELLO & CO . , LIMITED 


 ORGAN MUSIC 


 W. T. BEST 


 A. " HOLLINS 


 EDWIN H. LEMARE 


 PIANOFORTE MUSIC . 


 EDWIN H. LEMARE . 


 BRINLEY RICHARDS 


 NH 


 CHURCH MUSIC . 


 EDWIN H. LEMARE 


 CANTATA . 


 A. H. BEHREND 


 SONGS . 


 A. MACKENZIE . 


 A. C. MACKENZIE . 


 BRINLEY RICHARDS . 


 - SONGS 


 J. BENEDICT . 


 BRINLEY RICHARDS 


 


 NOVELLO , EWER & CO . , NEW YORK 


 OOW ORWAWW RO ED 


 844 


 1898 


 composition 


 


 CHARLES VILLIERS STANFORD 


 ORATORIO 


 ORCHESTRA 


 EDEN 


 5 0 


 service 


 CHAMBER MUSIC 


 PIANOFORTE DUET . 


 ORGAN 


 SONGS 


 LONDON 


 KNIGHT TOMB 


 FLAG UNION 


 


 NOVELLO , EWER CO . , NEW YORK 


 publish 


 complete edition . 


 book 


 


 MENDELSSOHN 


 LIEDER OHNE WORTE 


 edit finger 


 KARL KLINDWORTH 


 PRICE shilling 


 SEVEN SHILLINGS SIXPENCE 


 


 NOVELLO , EWER CO . , NEW YORK 


 846 


 PLAIN HANDY guide 


 


 story , character , symbolism , music , & action 


 WAGNER NIBELUNGEN RING 


 EPIC sound 


 


 FREDA WINWORTH 


 NARCISSUS ECHO 


 CANTATA chorus , SOLI , orchestra 


 compose 


 EDWIN C. 


 WEBSTER groundwork music . 


 WEBSTER groundwork music . 


 WEBSTER child primer 


 theory MUSIC . 


 WILLIAM J. YOUNG 


 popular - song 


 ORGAN 


 CLEMENS , C. A. 


 elementary stage 


 


 humorous - song . 


 descriptive chorus 


 serie study ORGAN PEDALLING 


 XUM 


 FORS 


 ing 


 847 


 composition GEORG LIEBLING 


 publish 


 FORSYTH BROTHERS 


 song 


 PIANO SOLOS 


 , VIOLIN PIANO 


 _ — ' O'NEILL , NORMAN . 


 BARNS , ETHEL . REDHEAD , ALFRED . 


 PITT , PERCY . 


 MOORE , GRAHAM P 


 RAMSAY , KATHARINE A. 


 RONALD , LANDON 


 SCARLATTI , 


 SOMERVELL , ARTHUR . 


 BISPHAM ALBUM . 


 CHAPPELL & CO.S PUBLICATIONS 


 BEHNKE voice - training method 


 voice - training primer 


 voice - training exercise 


 voice - training study 


 popular work choral society . 


 CHAPPELL & CO TONIC SOL - FA serie 


 CHAPPELL & CO . 


 new serie