


 SINGING - class circular 


 found 1844 


 publish month 


 patronage ' " . > — 


 = M JESTY KING YORK GATE , MARYLEBONE ROAD , LONDON , N.W 


 CTHE ORCHESTRA 


 ; ROYAL COLLEGE MUSIC . 


 dure month JUNE . 


 TATT . 9 summer term commence MONDAY , 26th APRIL . 


 QUEEN HALL performance . ROYAL COLLEGE ORGANISTS . 


 1920 


 ASSOCIATED BOARD 


 R.A.M. R.C.M. 


 local examination MUSIC 


 SCHOOL MUSIC 


 session 1919 - 1920 


 ROYAL 


 MANCHESTER COLLEGE MUSIC 


 MANCHESTER SCHOOL MUSIC . 


 found 1592 


 UNIVERSITY DURHAM 


 LONDON COLLEGE chorister . 


 LONDON COLLEGE MUSIC . 


 GREAT MARLBCROUGH STREET , LONDON , W.1 . 


 examination — local HIGHER 


 incorporate 


 LONDON ACADEMY MUSIC , 


 ORCHESTRAL CHAMBER MUSIC CLASSES WEEKLY 


 VICTORIA COLLEGE MUSIC . 


 LONDON . 


 incorporate 1891 . 


 MUSICAI . composition revise 


 R.A.M 


 JULY , 


 | 3870 


 KLY 


 tion 


 art VOICE training 


 vacation cour 


 e LIVERPOOL 


 1 . complete exposition voice 


 TRAINING method . 


 2 , comparison system 


 found 


 DIVERSE theory . 


 practical demonstration 


 4 . permanent note ( letterpress 


 VOCAL method 


 5 . voice chart , complete 


 serie exercise 


 study 


 . L.R.A.M 


 L.R.A.M. , F.T 


 ROYAL ACADEMY 


 demonstration lecture 


 DUKE HALL , ROYAL ACADEMY MUSIC , 


 


 MUSIC 


 COLLEGE violinist . 


 LTD . 


 91 , ST . MARTIN LANE , LONDON , W.C. 2 . 


 EXAMINATIONS 


 XUM 


 UDIOS , 52 , WIGMORE STREET , LONDON , W. 1 


 competition 


 prize original MUSICAL composition 


 SUN 


 MALE VOICE 


 BLACKPOOL MUSICAL FESTIVAL 


 GRAND PAVILION WINTER GARDENS . 


 700 prize . 


 SOLO , DUET , QUARTET , CHORAL , ORCHESTRAL 


 NATIONAL CONSERVATOIRE 


 incor . 1900 


 IDEAL method 


 memory - training 


 musician 


 


 system study quicken 


 imaginative perceptive power 


 correspondent write 


 techniquer 


 CHARLES TREE 


 recital - lecture VOCAL ease 


 british MUSIC SOCIETY 


 NATIONAL INTERNATIONAL 


 19 , BERNERS STREET , LONDON , W.1 . 


 15,000 want 


 fostering encouragement 


 british MUSIC home abroad 


 help 


 GENERAL secretary , 


 incorporated guild church 


 musician 


 venerable archdeacon MIDDLESEX . 


 associate   ( A.1.G.C.M. ) , licentiate _ ( L.1.G.C.M. ) , 


 competition , 1920 . 


 - class university man , 


 desire position visit MASTER 


 N high - class school . 


 musical 


 PROFESSIONAL notice . 


 MOUNTFORD SCOTT ( TENOR 


 CHARLES T. BATCHELOR ( BARITONE ) . 


 OSWALD PEPPERCORN ( VOICE SPECIAL IST 


 training teacher 


 complete training correspondence 


 MISS BETTY HADDOW 


 MISS LYDIA JOHN 


 MR . SAMUEL , MASTERS 


 HERBERT TRACEY 


 BASS - BARITONE ) . 


 MR . AMBROS E COVIELLO 


 MR . W. H. BREARE 


 student profession 


 composer ’ MSS . 


 revise prepare printing 


 G. HUBI - NEWCOMBE 


 ( LYRIC AUTHOR 


 7 365 


 DR . N ORMAN SPRANKLING 


 DU RHAM MUS . BAC 


 SEPTEMBER , 1920 


 special CORRESPONDENCE course 


 A.R.C.M. L.R.A.M 


 CORRESPONDENCE course 


 A.R.C.M 


 APRIL , 1920 , 


 seven . 


 . 


 MUSICAL appreciation 


 correspondence course 


 specially arrange 


 teacher 


 evision MU sic : AL composition 


 S!N YG ING , piano - playing , AURAL 


 PECIAL CORRESPON DEN ' CE ' course : — _ — 


 A.R.C.M. , 


 ST . MICHAEL COLLEGE , TENBURY 


 DR , LEWIS ’ TEXT - BOOKS 


 ORGANIST 


 KING COLLEGE , CAMB RIDGE 


 1920 367 


 E DEUM F. MAGNIFICAT 


 composer music publisher . 


 attachment , | 


 W. 


 PEDAL 


 NUNC | 


 HAROLD REEVES ’ 


 OLD RARE music 


 MUSICAL book 


 ARTHUR E. JONES , F.R.C.O. , L.T.C.L 


 NEWCASTLE - - LYME 


 FORSYTH 


 ILLUSTRATIONS 


 CECIL 


 MUSICAL 


 DR . RALPH H 


 BELLAIRS 


 PIANOFORTE 


 LONDON : 


 ENOCH & SONS 


 58 , GREAT MARLBOROUGH STREET , W. 


 PST 


 MODERN CORR . COLLEGE 


 PRINCIPAL 


 MUS . BAC . FINAL B.A 


 EXERCISE | SUCCESS INTER . B.A. 


 _ — — — _ — _ 


 ( GUARANTEE course — 


 BA 


 th 


 1920 369 


 CRYST AL PALACE . 


 JUNE 19 , 22 , 24 , 26 


 CHOIR ORCHESTRA 4,000 


 XUM 


 TRINITY COLLEGE MUSIC 


 institute 1572 


 RT . HON , THETEARL SHAFTESBURY , K P 


 LONDON SYMPHONY ORCHESTRA . ) _   . FELLOW ( F.T.C.L. ) . 


 , , licentiate ( L.T.C.L. ) 


 7 " . ertificate 


 tist licentiate ( L.T.C.L. 


 artist | associate ( A.T.C.1 


 certificate 


 POT - POURRI 


 CYCLE fragment 


 PI \NOFORTE SOLO 


 verse 


 ISOBEL SCOTT BREMNER 


 compose 


 JOHN GERRARD WILLIAMS 


 BROADWOOD 


 ANOS 


 PIANOFORTE composition 


 AMERICAN TONE - poet 


 ALBERT KUSSNER 


 8 , HEDDON STREET , REGENT STREET , LONDON , WY 1 , 


 PROUD 


 THANKSGIVING 


 CHORUS 


 LAURENCE BINYON 


 EDWARD ELGAR 


 PRICE SIXPENCE . 


 TOR 


 RAPID 


 DAILY 


 1920 371 


 singing - class circular 


 JUNE 1 1920 


 modern british composer 


 XUM 


 XUM 


 374 


 1920 


 1903 


 ( MS . ) . 


 ( MS 


 madrigal ( date 


 ascertainable 


 PARKT - song 


 composition 


 xum 


 ( MS . , eg invisible , hear inaudible , weigh 
 Tom S. Worron imponderable , brain - power 

 Kufferath , " L’Art de Diriger , ' relate pace instrument , 
 Hans Richter , rehearse Beethoven’s|tespects inferior 
 C minor Symphony Brussels , teach lesson | s@ges past , modern man 
 member orchestra . in| strangely ignorant outside special depart- 
 regard opening theme slow move-| ™ ment knowledge , ancient philosopher 
 ment , mark / dolce , nuance | usually know know . 
 indicate till # seventh bar , follow possible , probable , 
 # eighth . viola violon-| hold good regard emotion ? 
 cellos proceed play com| pt consider sensitiveness great 
 espressione . contour rise , intro-| ancestor , , , merely 
 duce crescendo ; fall , decrescendo,| ut mean expression improve . 
 rudato vibrato bedeck , | ™ odern organist , seat 
 strove generally express artistic grace . manual , rank pipe warrant 
 Richter hear patiently end , | imitate know instrument organ , 
 request melody Beethoven | " @ " possess sensation complex 
 mark — frano , dolce . ! inj 0f certain Cantor Leipsic , ? ' 
 passage Symphony Master | modern composer , unlimited supply 
 chary indication . ' flute , # av havea musical soul Mozart 
 omission nuance particular theme | Schubert , 4as ? modern pianist 
 arise negligence , hope|#”a@yv nervous organization highly 
 performer supplement instruc-| develop Chopin , fact 
 tion , simply wish play perform modern grand pianoforte 
 direct . orchestra learn beauty prove . 
 melody , like curve Grecian } ; ' musician need perfect instrument 
 vase , depend solely purity outline . } express idea emotion adequately , 
 excrescence destroy charm , | course true . , perfect instrument , 
 . attempt over-| right pretend sensation 
 expression defeat end . incidentally,| level , astronomer 
 learn execute passage } pretend eyesight level 
 perfectly tone rhythm far easy . | power telescope . Brussels musician 
 require - train artist , thorough ! arm bow 
 command instrument . | Corelli content , 

 doubtless honest attempt Brussels | able play theme accordance 
 musician improve Beethoven ) simple indication . modern bow 
 paralleled concert , variable factor | modern technique able carry 
 underlie honesty . and|the direction explicitly — . 
 - expression confine performer . | fatal facility able 
 composer prone indulge it.| mislead . way , modern 
 Rimsky - Korsakov admit | composer incline imagine 

 passage " Mlada ' employ flute | able add note chord 
 sufficient . in/ flute score , express 
 certain place necessary — | mean 




 SYMPHONIC WORKS 


 W. H. BELL 


 thethe Symphony . 2 , , bear date 
 | July , 1917 — March , 1918 , ' dedicate 
 Theo . Wendt , conductor Capetown 
 , Municipal Orchestra , produce August , 
 i918 subsequent per- 
 formance Capetown , addition , 
 slow movement play excerpt 

 Capetown audience , know symphony 
 Beethoven Brahms thoroughly , 
 certainly puzzle texture 
 Symphonic Variations . performance 
 evidently effect , Bell 
 underrated symphonic composer , second 
 Symphony score immediate success , 
 spontaneous outburst enthusiasm 
 performance . plcbiscite concert hold 
 end season Symphony come 
 second vote - winning — alarm 
 conductor , orchestra time 
 deplete war exigency illness 
 member , performance heavily- 
 score work practically impossibility . Wendt , 
 programme - note , suggest com- 
 poser Beethoven model 
 certainly work epic quality 
 grandeur fifthSymphony . resemble 
 largely evolve theme , 
 Scherzo lead Azva / e 
 | break 

 lay orchestra — piccolo 
 flute ( flute ) , oboe , cor anglais , 
 clarinet , bass clarinet , bassoon , double- 
 bassoon , horn , trumpet , trom- 
 bone , tuba , triangle , cymbal , harp , timpani , 
 string ; usual movement 




 SST TS 


 SSS — = — § — 


 -~ _ — _ 2 $ 2 


 ORGAN WORKS BACH 


 1920 


 _ ) -»—@ SS — _ 


 SSS SS 


 380 


 1920 


 136 , 


 SC 


 SS SSS SS 


 232 ] SSS SSS ESS 


 concert NEW YORK 


 SYMPHONY ORCHESTRA 


 382 


 1920 


 5 8 ' : 


 384 


 1920 


 NEW light early TUDOR 


 composer 


 W. H 


 IX 


 ROBERT FAYRFAX 


 1643 


 IDEAS M. VINCENT D’INDY 


 386 


 1920more avowable ! ' M. D’Indy strike 
 hard choose 

 immortal trio — Haydn , Mozart , Beethoven — 
 carry instrumental art high level 
 result illusion . necessary remind 
 ancient time instrumental 
 music use way : dance air 
 voice accompaniment ? ' dance air 
 produce suite . suite birth 
 symphony , * leave trace 
 form minuet . , gradually 
 accelerate movement , produce scherzo 

 ihe masterpiece great classic 
 forget readily human voice 
 fine instrument . inimitable , 
 live , divine , miraculous instrument ; 
 understand ligament 
 vocal cord , resonator larynx , 
 capable produce . recent 
 time affect profound scorn 

 word include orchestral symphony , quartet , 
 sonata , Ac 

 ornamental singing , trill , vocalisation — 
 utilise great composer 
 past — ought express wonder amazement 
 thereat . Berlioz ridicule singer succeed 
 play larynx play 
 flute . harm ? Handel , 
 Sebastian Bach , Mozart , Beethoven , 
 Weber , object florid singing . curious 
 thing note Berlioz , lyrical 
 comedy , introduce vocalisation , 
 treat singularly unskilful manner 

 vocalisation absent work 
 Richard Wagner , employ trill , 
 shake ; trill Brunnehilde 
 effective ' Valkyrie , ' duet 
 Siegfried , awakening , strange 
 audience sufficiently 
 hypnotise wagnerian infatuation 

 Mozart Mozart , 
 remain theatrical work 

 reason Beethoven confine 
 symphony devote theatre 
 Opera Vienna . 
 Beethoven actually offer bind 
 produce work year year 

 tell happen 
 Beethoven offer refuse , 
 acquire theatrical experience 
 apart theatre evident 

 




 BRTHE MUSICAL TIMES — June 1 1920 387 

 ' Leonora . ' certain ' Fidelio ' 
 inferior work : famous ' Pistol ' 
 scene resemble hitherto . 
 Beethoven able realise desire , 
 direction lyrical theatre 
 tending probably change 

 Mendelssohn Schumann try theatre . 
 failure Schumann ' Genevieve ' — interesting 
 musical point view , 
 acapte theatre — determine 
 hostility Meyerbeer ; understand 
 music regard music , 
 realise theatre accept 
 art form inadmissible . painting 




 DEBATES 


 british MUSIC SOCIETY CONGRESS 


 388 


 1920 


 p } P 


 soctal event 


 d1 


 RAI 


 1920 389 


 CONCERTS ' 


 390 MUSICAL T 


 CHAMBER 


 * IANOFORTE , CHORAL RECITALa ) * feasting watch ' oss oon ee « . Elgar 
 ( 4 ) ' oh ! wild wind ° ons = « » Elgar 
 ) * o Mariners , sunlight ' .... Coleridgv - Taylor 
 Holme Valley Male - Voice Choir . 
 conductor Mr. Irving Silverwood 

 sonata C minor ( Op . 30 , . 2 ) Beethoven 
 Mr. Albert Sammons Mr. ' William Murdoch . 
 ( ) ' Home - coming ' oe eve ose « + Holst 
 ( 4 ) * Lucifer Starlight ' Bantock 
 Holme Valley Male-\ 
 PIANOFORTE SoLos rs rhapsody tat 
 Paradise Garden ' 
 * firefly * .. 
 Mr. Ww illiam Murdoch * 
 " hymn Action ' .. : ' 
 " Storm Joy ' ctl ae - _ 
 Holme Valley male-\ ' oice , Choir . 
 sonata ( Op . 82 ) ... . .. Elgar 
 Mr. Albert Sammons oul se . Ww iNia : n Sandesh . 
 ( ) * love like red , red rose ' . oe Bantock 
 + ) Réveille ! .. nes ene oe om Lilgar 

 Voice Choir 
 John Ireland 
 William Baines 




 1920 391 


 ALFRED KALISCH 


 CHAMBER MUSIC 


 violinist 


 view ' NATIONAL OPERA ' 


 dinner MR . ALBERT COATES 


 1 


 NOVELLO CHOIR 


 opening ROYAL OPERA season : 


 CARL ROSA season LYCEUM 


 ROYAL OPERA season 


 1920 


 SS 


 6 SS 


 4 _ — — 


 7 SST SOS SS SE SS SESE SS 


 XUM 


 SS = — — — — — 


 PN TT 


 AORTA 


 SS 


 < = = » — — = = _ se » 


 4—_+ — 


 = > SE SS | SSS SS SS TES SS 


 SOS 4 


 — — — SS 


 SSS SS = 


 < = = SS SS SS SS SESS 


 SURREY season end 


 PAVLOVA ballet DRURY LANED 

 sleep Beauty , ' ' Walpurgis Night ' 
 ballet Gounod ' Faust , ' rarely . 
 benefit provincial opera - goer 
 time regularly perform 
 opera Moody - Manners Company , 
 London equally regularly omit . Madame 
 Pavlova appear Tchaikovsky Mlle . 
 Karalli Gounod . change introduce 
 comic ballet , entitle ' Magic Flute , ' 
 Mile . Butsova excel . follow 
 illustration Chopin number entitle 
 ' Autumn Leaves , ' notable particularly 
 elegant dancing Madame Pavlova 
 remarkably beautiful dress represent autumn 
 leave . Elysian Fields scene Gluck 
 ' Orpheus ' ballet form , provide 
 aspect art Madame Pavlova , 
 bill include , musical point view , 
 attractive number répertoire 
 shape eastern piece entitle ' La Peri , ' 
 music M. Paul Dukas , composer 
 hear . performance 
 divertissement feature , Madame 
 Pavlova contribution shape fascinating 
 illustration Beethoven Rondo , ' Scéne 
 Dansante , ' ' La Nuit ' ' Gavotte Pavlova ' 
 supply representation extent 
 variety art dancing expound 
 organization general Madame Pavlova 
 particular 

 Choral Wotes Wews 
 W. MCNAUGHT 




 402 


 COLCHESTER 


 XUM 


 P ° | 


 DR . R. R. TERRY ' CRYES 


 LONDON 


 404 


 PARRY MEMORIAL FUND 


 5S 


 M.A. BCL . MUS . DOC . ( CANTAB ! 


 PROFESSOR MUS ? TWE UN 


 VERSITY CAMBRIDGE . PRINCIPAL 


 HARMONK : 


 BACH SOCIETY . ETC . ETC 


 GORN SHEFFIELD APRIL 15.186 


 die 1 % LONDON FEBRUARY | . 1675 


 SON 


 JOHN FIELD VIOLIN discover | 


 FINLAND 


 rationale cut 


 adaptation dozen miscellaneous work . Schubert 

 know B minor Symphony ' Rosamunde ' 
 music . stock repertory pianoforte classic 
 confined Beethoven sonata . 
 ignorant Bach Handel , piece 
 play 
 equal value compose . 

 english ( irish ) pianist composer , John Field , | unacqainted minor classic 17th 
 come light Helsingfors , capital | 18th century 
 Finland . violin , property of|the moon . lose sight innumerable 
 Dr. Hermann Friedmann , submit the| wonder beauty italian french 
 search test , doubt genuineness | writer opera . Rameau Gluck depart . 
 entertain - know expert M. Anton | Lassus , Palestrina , Elizabethans 
 Sitt M. Antti Niklander . } remote public oriental musician 

 406 MUSICAL TIMES — Jvune 1 1920 

 probably agree - day present play senza repetisione , | think general 
 ‘ great claim ' past , , play repeat mark . usually 
 circumstance compel choice modern art special reason departure custom , 
 benefit . Bach Beethoven | /ina / es music 8- 16 - bar 
 claim superior claim live composer . | phrase , mark immediate repeat , 
 eternal order , /an , know thyself , | guide matter manner 
 obey know present , | composer treat passage responsive 
 form live man . a| section , , secondly , speed character 
 vital fact present , present , are| music : swift movement lightness effect 
 form past , know understand | compel play repeat . thing 
 adequate knowledge has| certain matter repeat : inclusion 
 . use heritage . | elimination consistent _ scientific . 
 heritage represent embarrassment rich , | result logical . shorten 
 use wisely . time short . | slow introduction movement . some- 
 crowded contemporaneousness . ] time discard altogether . happen 
 abbreviate possession , sensible selection | little emotional significance 
 rich . time free to| - day . 
 . | fail reason ( historical , architectural 

 selection ? commonsense | xsthetic ) frequently perform 
 answer year ago the| detach movement adjacent movement . 
 analogous case literature , - day | symphony time 
 playing Shakespeare . ' Eroica , ' movement complete thing 

 Chaucer public life Cowden Clarke , | inner connection companion . _ 
 Wordsworth , begin select ' the| relation govern law external 
 beauty ' poet clear to| principle operate . old day 
 modern mind . old english dramatist | song interpolate movement 
 unknown Charles Lamb publish tl e| dance use act 
 form extract selection . modern actor | tragedy ) . composer little sense 
 adapt Shakespeare modern stage . he| nowadays ' subjective cyclic 
 play ' Hamlet ' entirety fill seven/| continuity ' symphonic work . 
 hour , provide long interval refreshment , | wish movement continuous effect 
 announce fact curiosity . | extend cadence , close 
 library edition * Hamlet ' mark | follow phrase point mean 
 acting version Sir Johnston Forbes Robertson | half - close immediate sequel . 
 maze line zigzag ; scene cut consider seventy - 
 reduce brief point dialogue , passage ) fine pre - beethoven symphony perform 
 transpose , action place | ( , ) detach movement , ( 4 ) 
 speech , . movement plus follow Adagios , ( c ) 

 consider musician ) Adagzos plus .Winuets , ( d ) time j//nueis 
 old classical music . ) plus /7v#a / es . 1 doubt 
 year great music . ignorance so| symphony begin Adagio 

 elizabethan composition , Sir Henry ) 
 Wood organ trio Bach , 

 young composer present moment . 
 " half loaf bread , especially 
 half happen dry . . 
 pianist Lamond satisfy desire absolutely 
 extract Scherzo movement 
 Beethoven sonata treat independent 

 composition . Gervase Elwes want ! 
 present concert - platform Bach 




 VOCAL VIRTUOSI eighteenth 


 century 


 _ — _ 


 1920 409 


 410 


 1920 


 english 


 FIELD 


 CHAPEL ROYAL 


 CLOTH GOLD 


 JUNE 10 - 24 , 1520 


 hundredth anniversary 


 XUM 


 + 3300 ) , 


 


 viii . 


 SEFTON CHURCH 


 W. A. RFESTIVAL service LINCOLN CATHEDRAL 

 Lincoln Cathedral crowded 5 , 
 | Festival Musical Service hold . Dr. G. J. Bennett 
 |conducte large choir , draw chiefly local 
 | musical Societies , orchestra - , 
 include player London , Manchester , Sheffield , 
 | Nottingham , xc . Dr. A. W. Wilson , organist 
 | Manchester Cathedral , organ . chief work 
 Dvorak ' Stabat Mater , ' solo 
 | sing Miss Elsie Suddaby , Miss Phyllis Lett , Mr. J. B. 
 | Render , Mr. C. Woodward . programme include 
 |also Parry ' blest pair siren , ' Beethoven fifth 
 | Symphony , Karg - Elert organ Improvisation * Nun 
 danket alle Gott . ' performance 
 high level , event regard 
 |a kind temporary substitute famous Triennial 

 Festival 




 MEMORIAL late ALFRED J , EYRE 


 1920 


 ORGAN recital 


 XUM 


 W. Y. 


 SF 


 appointment 


 ORGAN MUSIC 


 song 


 414 


 musical instrument 


 EARLY CHURCH 


 SYMPHONY KINEMA 


 ORGAN recital 


 BRISTOL 


 TAMS 


 1920 415 


 ( N.E 


 CHANGE - RINGING 


 


 NATIONAI 


 HOPE 


 SONG 


 HATIKVAH 


 zionist ’ 


 1877 - 09 


 1920 


 SST SSS . 


 2 - 2 - 2 


 ROYAL ACADEMY MUSIC 


 correspondent 


 BATH 


 BIRMINGHAM 


 MUSICAL t 


 1919regarding member Orchestra , 
 fail good . 
 exceedingly artistic performer , circumstance 
 acquaint reason numerous 
 solo passage fine effectiveness remain 
 recollection . performance band 
 worthy high commendation , 
 somewhat light work enjoy 
 summer month come respite certainly 
 

 mention concert 
 season . April 15 imposing work 
 programme magnificent E minor Symphony 
 Brahms , , despite apparent necessity 
 increase number string , hear 
 great advantage . important effective 
 composition perform final concert 
 Beethoven eighth Symphony , Humperdinck Overture 
 ' Hansel Gretel , ' Tchaikovsky fifth Symphony — 
 splendid performance , slow movement particularly 
 beautiful — , light vein , ' Concert Valse ' 
 Glazounov quaint little trifle , entitle ' Danse des 
 Quadrupédes , ' Miss Bruno d’Arba 

 novelty tone - poem ' Serbia , ' Edric 
 Cundell , conduct composer 
 - seventh concert . music reveal promise , 
 effective composition work 
 student , shall look forward production 
 pen considerable interest 




 BOURNEMOUTHBRISTOL 

 chief feature past month 
 | visit Mr. Frederic Lamond , beautiful work 
 | pianoforte Beethoven programme music - lover 
 memorable evening Victoria Rooms April 12 

 West Bristol Choral Society seventy voice , 
 small orchestra , Hamilton Harty ' Mystic 
 | Trumpeter ' Hubert Bath ' Shon Maclean ' 
 considerable success Victoria Rooms April14 , 
 Mr. Charles Read guidance , choral orchestral 
 force carefully rehearse 
 interesting work . Mrs. Charles Read Mr. Montague 
 Hook soloist 




 1920 


 COVENTRY DISTRICT 


 CORNWALLAt Leamington fifth Corporation concert place 
 Town Hall April 15 , London Trio provide 
 interesting programme . member trio — Miss 
 Amina Goodwin ( pianoforte ) , M. Louis Pecskai ( violin ) , 
 Mr. W. E. Whitehouse ( violoncello)—also contribute solo 

 Leamington Orchestral Society second subscription 
 concert Town Hail Apiil 17 , Mr , Walter 
 Warren conduct programme - include Symphony 
 . 4 ( second movement ) ( Dvorak ) , ' Suite 
 de Concert ' ( Coleridge - Taylor ) , ' Prometheus ' Overture 
 ( Beethoven ) , ' Lyric Suite ' ( Grieg ) , ' Shepherd Hey ' 
 ( Percy Grainger ) . vocalist Miss Dora Labbette 

 revive post - war condition Mr. Lionel Wiggins , 
 Leamington Choral Society concert April 22 . 
 ' crusader ' ( Gade ) sing Miss Mary Foster , 
 Mr. W. Heseltine , Mr. John Huntingdon soloist , 
 orchestral accompaniment ( direct Mr. Walter 
 Warren ) ; numerous - song hear 




 XUM 


 DEVON 


 DUBLIN 


 420 


 LIVERPOOL DISTRICT 


 MANCHESTER DISTRICT 


 1920 421 


 NEWCASTLE - - TYNE DISTRICT 


 | — — — — EEE 


 1920 


 NOTTINGHAM DISTRICT 


 PORTSMOUTH 


 SOUTH WALES 


 1920 423of time expense , past quarter 
 century . occasion bring Miss 
 Mukle ( violoncello ) , Miss Mary Foster ( vocalist ) , Miss 
 Enid Lewis ( pianoforte ) . Miss Mukle Saint - Saéns 
 Concerto minor , Grieg Sonata minor , Valentini 
 Sonata e , dainty piece composition 

 early month April , Mr. E. T. Davies , 
 Merthyr , organize chamber concert Tydvil Hall , 
 London String Quartet appear . 
 programme comprise Beethoven Quartet C minor , 
 Debussy Quartet G minor , Op . 10 , H. Waldo - Warner 
 Folk - Song Phantasy Quartet , Frank Bridge ' Londonderry 
 Air , ' Percy Grainger * Molly Shore . ' 
 audience greatly appreciate faultless playing 

 great event April series concert 
 constitute South Wales Musical Festival . 
 inaugural concert hold April i8 Theatre 
 Royal , Barry , conductorship Mr. Tom Jones , 
 - discuss Welsh National Orchestra 
 débat , Mr. Lionel Falkman leader . Miss Carrie 
 Tubb soloist . concert mainly orchestral , 
 consist ' Egmont ' Overture , Mendelssohn 
 ' italian ' Symphony , * Peer Gynt ' Suite , ' Oberon ' 
 Overture , German ' * Welsh Rhapsody , ' _ Berlioz 
 ' Marche Hongroise . ' orchestra sympathetic 
 accompaniment Miss Carrie Tubb dramatic reading 
 Weber ' softly sigh . ' orchestra , 
 mean perfect , fully justify existence 




 ROME 


 LEONARD PEYTON 


 1920an excellent concert Maidstone 
 Orchestral Society April 26 , direction 
 Mr. Frederick Cole . orchestra ninety performer 

 Overture , Grieg norwegian melody 
 ( string ) , Beethoven fifth Symphony , ' Casse- 
 Noisette ' Suite , Debussy ' Danse Sacrée ' ' Danse 
 Profane ' ( Mr. J. T. Cockerill harpist ) , 
 * Rienzi ' Overture 

 Glastonbury Players arrange season 
 ' Old Vic ' 31 June 9 , Mr. C. Kennedy 
 Scott conductor . repertory comprise Boughton 
 " Immortal hour , ' masque * Venus Adonis ’ 
 John Blow , programme choral ballet dance . 
 include little ballet entitle ' Wickedness 
 Dancing , ' arrange Byrd variation * O Mistress 




 content 


 dure month . 


 orth , J. W. 


 riginal composition ORGAN , 


 ( new serie 


 XUM 


 publish 


 H. W. GRAY CO . , NEW YORK 


 MUSICAL time 


 charge advertisement 


 special notice 


 CYRIL SCOTT 


 NEW 


 ELKIN & CO , LTD 


 8 & 10 , BEAK STREET , REGENT STREET 


 LONDON , W. 1 


 NEW CHAMBER MUSIC 


 EDWARD ELGAR 


 QUINTET 


 PIANOFORTE STRINGS 


 QUARTET 


 SONATA 


 VIOLIN PIANOFORTE 


 CONCERTO 


 


 VIOLONCELLO ORCHESTRA , 


 compose 


 EDWARD ELGAR . ' 


 arrangement 


 VIOLONCELLO PIANOFORTE 


 1920 


 NOVELLO 


 anthem 


 POPULAR CHURCH MUSIC 


 ORGAN . 


 XUM 


 MAUNDER 


 N - SMITH 


 STAINER 


 ALLINOR 


 7I1LBERT 


 STAINER 


 DEGGER 


 STAINER 


 OBERTS 


 TAINER 


 BARNBY 


 VERGAL 


 BARNBY 


 ENNETT 


 BUTTON 


 ADAMS 


 NTLETT 


 LLIVAN 


 SOOPER 


 STLAKE 


 TAINER 


 TAINER 


 TAINER 


 TAINER 


 UTTON 


 TAINER 


 [ WMAN 


 EGGER 


 ARKER 


 publish 


 edit SIR FREDERICK BRIDGE , C.V.O 


 crye LONDON 


 humorous fancy 


 setting S.A.T.B. 


 1 ) RICHARD DEERING , ( 2 ) ORLANDO GIBBONS 


 


 3 ) THOMAS WEELKES 


 WESTMINSTER PILGRIM 


 CLOTH , GILT , SIXTEEN SHILLINGS NET 


 opinion press 


 DAILY GRAPHIC . ORGANIST CHOIRMASTER 


 EVENING STANDARD 


 265 , REGENT STREET , LONDON , w.1 


 large operatic publisher world 


 ARIAS OPERAS ARIAS OPERAS ARIAS OPERAS 


 good popular operatic aria publish 


 G. RICORDI & CO 


 XUM 


 OLS 


 " let send sample string . . 


 delight 


 BRITISH MUSIC STRINGS , LTD 


 MONSELL ROAD , FINSBURY PARK , LONDON , N. 4 


 new successful song 


 A. HERBERT BREWER 


 S. COLERIDGE - TAYLOR 


 BROMLEY DERRY 


 LAXTON EYRE — 


 ERNEST FARRAR 


 PERCY FLETCHER — 


 EDWARD GERMAN — 


 LEONARD J. WALKER — 


 430 


 1920 


 VALSE LYRIQUE 


 ( " SMILE SPRING 


 arrange 


 PIANOFORTE SOLO 


 song 


 compose 


 PERCY E. FLETCHER 


 ENGLAND 


 ODE 


 ALGERNON CHARLES SWINBURNE 


 SOPRANO BARITONE SOLI , CHORUS 


 ORCHESTRA 


 


 ERNEST CAMPBELL MACMILLAN . ; 


 reflection 


 PIANOFORTE SOLO 


 ( verse LONGFELLOW ) 


 PERCY E. " FLETCHER 


 VALSE IMPROMPTU 


 


 PIANOFORTE SOLO 


 compose 


 ALFRED HOLLINS 


 THEME diversion 


 ORCHESTRA . 


 compose 


 EDWARD GERMAN 


 SHEPHERD PIPES FORSAKE 


 pastoral 


 come , MARY 


 NORMAN GALE 


 ERNEST BRISTOW FARRAR 


 key . 


 HOLY COMMUNION 


 


 SHAKESPEARE 


 SONGS 


 ORPHEUS lute 


 compose 


 REGINALD STEGGALL 


 OFFICE 


 KYRIE , response commandment , CREDO , 


 SANCTUS , BENEDICTUS , AGNUS DEI , GLORIA 


 HARWOOD 


 BASIL 


 XUM 


 KE 


 JOSEF HOLBROOKE 


 work . 


 CHESTER & CO 


 J OGHN COATES RECITAL ( QUEEN ’ HALL ) , " 3919 . 


 poem . 


 " QUEEN MAB " 3 0 


 CARY & CO . 


 miniature score 


 ELGAR , EDWARD 


 


 ENGLISH dance 


 SET 1 


 compose 


 FREDERIC H. COWEN 


 OLD 


 ENGLISH VIOLIN MUSIC 


 edit 


 ALFRED MOFFAT 


 prefatory note 


 CHAPPELL & CO 


 late SONG publication 


 GUY D’HARDELOT — HERMANN LOHR — 


 MIDSUMMER madness . road look - forward . 


 , . song . 


 TERESA DEL RIEGO — little HOUSE blessing . 


 blessing . ’ song EV’RY roadway 


 LEAFLAND LULLABY . 


 FLEURETTE , shall forget . 


 love eye GREY . 


 ERIC COATES — 


 PEPITA . 


 age . 


 VESPER BELL . 


 GRAHAM PEEL — 


 CHALLENGE 


 MONTAGUE F. PHILLIPS 


 SING , JOYOUS BIRD 


 SILVER LAMPS 


 SING , SING , BLACKBIRD . 


 EDRIC CUNDELL 


 VAGABOND song 


 SUMMER day night . 


 SAMUEL LIDDLE 


 FULFILMENT 


 WOODLAND BOUQUET . THURLOW LIEURANCE — 


 old . GERALD CARNE — 


 R. CONINGSBY CLARKE — PROVENCE . 


 GOLDEN DANCING DAYS . H. LYALL PHILLIPS — 


 VENETIAN LULLABY . WIMMEN ! oh , WIMMEN ! 


 publish 


 interest MODERN work PIANO 


 IGOR STRAVINSKY 


 " RAGTIME 


 G. FRANCESCO MALIPIERO 


 MASCHERE CHE PASSANO " 


 ( pass MASQUES ) 


 SUITE 


 JOSEF HOLBROOKE 


 " BARRAGE 


 PRI