


 1 , 1899 


 _ _ _ 


 ISIC 


 MUSICAL time 


 singing - class circular . 


 publish 


 month 


 MARCH 1 , % 1897 


 ROYAL CHORAL SOCIETY 


 ROYAL ALBERT HALL 


 GOUNOD " redemption 


 SPOHR " judgment 


 


 HUBERT PARRY " job . ' 


 ROYAL ACADEMY MUSIC , 


 TENTERDEN STREET , W 


 ROYAL COLLEGE MUSIC 


 PRINCE CONSORT ROAD , SOUTH KENSINGTON , S.W. ROYAL COLLEGE ORGANISTS 

 solo playing test Fellow Fellowship Examination July 
 be:—Choral Vorspiel , ' Christ unser Herr , zum Jordan kam , " Bach 
 ( Peters , Novello Co. ) ; fugue Bach , . 4 , Schu- 
 mann ( . 248 . original composition Organ . Novello 
 Co. ) ; " variation theme Beethoven , " Op . 45 , Merkel 
 ( Forberg , Leipzig ; Novello Co 

 course educational lecture , " ' Principles Practice 
 counterpoint , " deliver J. Higgs , Mus . Bac . , Wed- 
 nesdays , March 24 , 31 , April 7 , 5 p.m 




 QUEEN HALL 


 LANGHAM PLACE , W. 


 list concert , SEASON 1896 - 97 


 direction 


 MR . ROBERT NEWMAN 


 QUEEN HALL SYMPHONY CONCERTS 


 QUEEN HALL CHORAL SOCIETY . 


 fixture , 1897 . 


 QUEEN HALL . 


 LAMOUREUX ORCHESTRAL concert . 


 visit , SPRING , 1897 . 


 QUEEN HALL 


 SATURDAY promenade concert 


 GRAND ORCHESTRA . 


 QUEEN HALL 


 SUNDAY afternoon ORCHESTRAL concert 


 orchestra seventy 


 QUEEN HALL . 


 SUNDAY evening chamber concert 


 QUEEN HALL STRING QUARTET 


 146 


 professional notice 


 MR . TOM WATERHOUSE 


 MR . MAGRATH , A.R.C.M 


 MISS GRACE M. SMITH , L.R.A.M 


 MISS JOYCE HARRIS , G.S.M. 


 FAI 


 MA 


 MAL 


 MAD 


 ED 


 MIS 


 MR 


 SULLIVAN ’ 


 BEETHOVE 


 MISS 


 FANNY DE BOUFFLERS 


 SOPRANO 


 MADAME ADA LOARING 


 SOPRANO ) 


 MADAME LAURA SMART 


 ( SOPRANO 


 MADAME MARIE HOOTON 


 EDWARD BRANSCOMBE 


 MISS ISABELLE WATERS 


 CONTRALTO ) 


 MR . CHARLES CHILLEY 


 HAMLYN CRIMP 


 ( TENOR 


 MR . BRIGHT JONES 


 TENOR 


 MR . WILLIAM WILD 


 MR 


 KEVERN BATTEN 


 L.R.A.M. , BARITONE ) 


 MR . ROBERT GRICE 


 BARITONE VOCALIST ) 


 MR 


 H. C. PORTWAY 


 BARITONE ) 


 MR . DANIEL PRICE 


 BARITONE ) 


 MR . EDWARD ILES 


 BARITONE ) . 


 MR . HERBERT HILTON 


 BASS ) 


 MR 


 X7 


 WILLIAM LLEWELLYN 


 ( BASS 


 MISS ALICE MARY SMITH 


 harpist 


 VOICE production , style , artistic singing 


 MR . F. ST . JOHN LACY 


 GRIMSON family 


 ROYAL WINDSOR GLEE SINGERS 


 COWARD - KEMPTON QUARTET . 


 KEMPTON 


 148 


 AMPHION GLEE - MEN . 


 CHARLES RAY 


 SIDNEY MARION 


 R. E. STRICKLAND 


 FREDERIC HABBIJAM 


 MR . JOSEPH CANTOR 


 " gem OPERAS 


 CONCERT COMPANY 


 novelty season 


 boy ’ VOCAL trio 


 MASTER ROLAND FORD 


 MASTER SHOWELL FORD 


 MASTER EDGAR FORD 


 MISSES TULLOCH 


 recital 


 OPERATIC SCENAS ARIAS . ballad . 


 MANDOLINE GUITAR solo duet . 


 italian , FRENCH , GERMAN song . 


 spanish song GUITAR accompaniment . 


 recitation ( poetic humorous 


 MR . DUTTON SOLO boy 


 LENTEN ORATORIOS . 


 SOLO BOYS 


 MASTER STANLEY MARCHANT , 


 MASTER PERCY HALE , 


 MASTER WILLIE GAMMAGE , 


 MASTER EDWARD BOWLEY , 


 DEVI 


 R. V 


 LI 


 MASTER ARTHUR WIDLAKE 


 MASTER HENRY JEFFRIES , 1 


 MASTER ARTHUR SIGGERS , 


 MASTER ERNEST GLENN , 


 MASTER FREDERICK WESTON , 


 COUNTE 


 F.R.C.O. , 


 R. F 


 ORCHES 


 _ 1896 ; 


 | 1897 , A.R 


 OXI 


 MUS . BA 


 M85 


 R. V 


 L.M 


 CANDIDA 


 M R 


 PIANOFO 


 TERPOIN 


 ter 


 SLSR RDI 


 BSE 


 EVISION MUSICAL composition 


 COUNTERPOINT , INSTRUMENTATION , FUGUE , ACOUS 


 1897 , A.R.C.O. , 1896 ; CAMBRIDGE MUS . BAC . ; LONDON , 


 BOARD EXAMINATION 


 XUM 


 150 


 ROYAL 


 NATIONAL EISTEDDFOD WALES 


 NEWPORT , MON . , 


 AUGUST 3 , 4 , 5 , 6 , 1897 


 PRIZES MUSICAL SECTION , £ 900 


 competition 


 


 GLASGOW WEST SCOTLAND 


 TECHNICAL COLLEGE 


 EVENING LECTURER MUSIC 


 VICTORIA COLLEGE MUSIC 


 LIMITED . 


 organist . C } 


 1 0 


 SMITH 


 system . | | 


 |PEDAL technique . VY 


 | CORRESPONDENCE , G 


 | guaranteed = 


 | PIANOFORTE COURSE , ; § } 


 STEINWAY HALL , LOWER SEYMOUR STREET , W. ; 6b , 


 RURO CATHEDRAL . — want , ALTO | 


 XUM 


 151 


 RGANIST.—MR . F. J. MARCHMENT 


 special notice . ' 


 erat . 


 152 


 TRINITY COLLEGE LONDON 


 session 1896 - 97 . 


 music 


 like 


 compose production SHAKESPEARE 


 play ST . JAMES THEATRE 


 


 EDWARD GERMAN . 


 MASQUE 


 consisting 


 » 2 child dance . 


 » 3 . rustic dance 


 arrangement pianoforte 


 composer 


 lover lass 


 duet SOPRANO CONTRALTO 


 PIANOFORTE maker 


 special appointment 


 MAJESTY QUEEN 


 ROYAL highness prince WALES ’ 


 ROYAL highness princess WALES 


 ROYAL highness DUKE EDINBURGH 


 ( DUKE SAXE - COBURG GOTHA 


 


 r ROYAL family 


 HORIZONTAL 


 


 UPRIGHT pianoforte 


 LONDON , W 


 


 cross CHRIST 


 CANTATA lent passion - tide 


 word select holy scripture , intersperse 


 W. MAURICE ADAMS 


 music compose 


 THOMAS ADAMS 


 NEARER , GOD , THEE 


 legend BREGENZ 


 ballad FEMALE voice 


 poem 


 ADELAIDE A. PROCTER 


 music 


 WILFRED BENDALL 


 XUM 


 local SCHOOL EXAMINATIONS , 1897 . 


 MUSICAL TIMES 


 singing - class circular . 


 MARCH 1 , 1897 


 victorian MUSIC . Vol . V. Musical World ( 1837 ) 
 significant letter Mr. Egerton Lowe , 
 entitle ' musical Wants . " signifi- 
 nt find writer , time , 
 generally , , rightly 
 suppose , old contrapuntal order music 
 prevail — find bewail tendency 
 age form free , 
 consider , superficial . complain 
 " science " music , , 
 , scholasticism , fashion , 
 hold hand horror 
 fugue speak " ' obsolete 

 contemptible . " new composer 
 ground art , urge Mr. 
 Egerton Lowe : ' knot 
 science deem unworthy pain 
 solution mechanic hand , 
 singe boy , matter , 
 Alexander , ingenuous youth — 
 country hope — undertake console 
 loss Beethoven Weber 
 firmly , nay , logically convinced , music 
 thing inspiration , 
 musical , elevate pen point 
 heavenward , protend forefinger 
 left hand upper angle forehead , 
 charm descend — invisible , 
 , vulgar eye , , , 
 , fashionable publisher . 
 opine , like ' reading writing , ' 
 music ' come nature , ' art con- 
 sequently impertinence , , good , 
 mean substitute , resort 
 favoured mortal natural gift , 
 , intuitive perfection . 
 master - - - grace - - God 
 consider form chief bulk 
 ' great live musician ' ; 
 constitute figure term , 
 double property cipher — multi- 
 tude naught time . " Mr. 
 | Lowe proceed insist constraint 
 lrule , course limit , remember 
 ' baconian precept : ' froward retention 
 |custom turbulent thing innovation , 
 land reverence old time 
 |a scorn tothe new . " ... " idleness inherent 
 |in nature prone embrace 
 excuse deliver 
 discipline . truth , confusion 
 absurdity result pernicious 
 notion genius fetter rule ; 
 mere offspring vanity weakness , 
 uphold doctrine imagine 
 vindicate genius 
 flatter dunce . " " 
 past generation shake head 
 new , beginning 
 end ? , , 
 look outward visible sign 
 tendency music , new , 
 come distinctly mark 
 threatening old order . 
 champion old order , 
 , spake sarcastically anger 

 revolt scholasticism dry - as- 
 dust order , time , effect 
 Church music branch 
 art . tradition strongly entrench 
 choir organ gallery ; hedge round 
 kind sanctity , like ark hebrew 
 covenant , death touch . , 
 nature case , change bind 
 gradual . slow , sure , certainly 
 , , fashion music 
 vary quickly feminine attire , 
 respectable old contrapuntist chance 




 154from time time parade exercise 
 company word 
 attach sportive fate , 
 army , , short tunic 
 tall man . , doubt , 
 light - headedness welcome novelty 
 simply new ; let turn 
 inertia force movement 

 movement , case 
 like nature , come man , 
 extremely difficult apportion credit 
 number agent . 
 contributorie great change Church 
 music place early 
 victorian era , entitle 
 recognition praise ; 
 shall far wrong attribute 
 influence Mozart , act 
 pupil , Attwood , continue 
 Attwood pupil , John Goss . _ indirect 
 proof Mozart great power time 
 curious circumstance , note 
 musical journal 1839 . certain 
 Jules Maurel , , , pot 
 valiant , bold declare ' ' Mozart 
 beautiful melody 
 Italians , powerful declamation french 
 lyrical drama , scientific invention 
 Germans ; appear harsh 
 fantastic melodist ; second , 
 insipid monotonous ; undramatic 
 unpoetic . ' " ' Monsieur Maurel , 
 write , charitable hope , cup , 
 , young timid foxhound act 
 chorus cry old daring 
 dog , certain english musician ditto 
 muddled Frenchman . declare : 
 ' * Mozart excel Church 
 Handel , concert - room Beethoven , 
 stage Weber . " protest 
 think Haydn Beethoven 
 Masses worth lot Mozart , con- 
 tinue : ' ' want enjoy choral effect , 
 ' lofty fugue ' stern sublimity 
 pure Church music , Handel ; 
 require profound vigorous german harmony 
 artful instrumental combination , look 
 Haydn Beethoven ; 
 humour feminine grace music — 
 sweet brilliant , pathetic 
 gay — find turn opera 
 Rossini Bellini . " homage 
 Mozart — homage — composer 
 time formidable power ? in- 
 fluence , , directly 
 exert ( Masses recently 
 publish J. Alfred Novello ) 
 indirectly , english composer train 
 school , mingle english 
 element expression . safe influence 
 bring bear 
 Mozart . pure serene 
 classic , , time , harbinger 
 romanticism right poetic spirit , 

 soul romantic art . 
 naturally reflect Attwood , 
 competent writer , death 
 remove 




 HANS VON BULOW 


 writing 


 xum157 

 orchestra length 
 breadth musical world . speak 
 Brahms Symphony 
 ' ' Tenth , " regard 
 worthy sequel Beethoven " ninth " — 
 proper place , , 
 second " Eroica’”’—but , not- 
 withstanding admiration 
 Schubert , Mendelssohn , Schumann , 
 ( 1877 ) look good 
 post - beethovenian period 

 remark , Bilow scatter 
 ' ' writing , " Bach , Beet- 
 hoven , Berlioz , Brahms , Chopin , Gade , Glinka , 
 Gluck , Handel , Hummel , Jensen , Joachim , 
 Liszt , Mendelssohn , Meyerbeer , Mozart , Raff , 
 Rossini , Rubinstein , Schubert , Schumann , 
 Spohr , Wagner , Weber , collate , 
 serve groundwork separate 
 article master 

 similarly entertaining account 
 scandinavian musical tour , write 
 Copenhagen , Stockholm , Christiania , 
 1882 

 concluding chapter volume 
 consist speech Bilow address 
 audience occasion conduct 
 Philharmonic Concert Berlin fiftieth 
 time . Beethoven form subject . 
 allude Hahnel statue Beethoven , 
 erect year Bonn , 
 " hungarian musician , Franz 
 Liszt , " contribute great cost , 
 recall fact Hahnel , 
 ardent enthusiast Beethoven , 
 felicitously compare Beethoven Sym- 
 phony Muses . ' " Thalia 
 muse , Melpomene fifth , Clio 
 seventh , Terpsichore eighth , 
 Urania ninth ; chief 
 Calliope , muse ' heroic ' Symphony , 
 honour perform 
 . " Hethen speak 
 point view , maintain 
 symphony Beethoven furnish 
 biography , history 
 earthly private woe ( Privatmisére ) , 
 history ideal . ' 
 symphony constitute scene 
 act drama . act 
 culminate ' Heroic ' : ideal hero ; 
 second culminate ' Pastoral ' : 
 nature ; ' Choral ' : 
 mankind . " expatiate idea , 
 point Napoleon prove 
 unworthy dedication 
 ' ¢ Heroic , " Beethoven transfer Prince 
 Lobkowitz , wind suggest 
 ( 1892 ) pass Prince 
 Bismarck 

 conclude chapter supplement 
 long series ' " ' aphorism , " cull 




 158 


 study 


 _ — _ 


 XUM 


 160 


 RICHARD WAGNER method . 


 iii . examine adequately manner | 
 ithe great music - drama build 

 George Grove analysis Beethoven 
 Symphonies . probably future date 
 labour attempt , 
 exist minute analysis 
 H. von Wolzogen , think 
 attempt examine synthesis . 
 technical reader capable . | 
 ceive ' Fairies , " ' * Rienzi 

 sense word 




 XUM 


 1897 . 161es es 
 ge 

 succession brilliant proof 
 word musical form utter 
 Beethoven 

 possible point 

 wealth Wagner com- 
 position offer direction student . 
 turn feature , 
 musician produce domain 
 characteristic illustrative art example 
 compare prelude " Lohengrin " 
 ( Acts I. iii . ) , Introduction ' 
 Valkyrie , " famous ' ' ride " Fire 
 Music ? storm Beethoven pastoral 
 Symphony movement know 
 shrink insignificance 
 . mere feat counterpoint , 
 agiant Wagner ! good musician , 
 hear , write Finale 
 act ii . ' * Tannhaduser " ; child 
 play compare polyphony ' " ' Tristan " 
 " mastersinger . " 
 combination theme 
 frequent , effect 
 deftness unobtrusive skill Mozart him- 
 self envy . fugue ona choral 
 street - riot scene excite admiration , 
 technical merit , 
 mere matter course , com- 
 poser spirited humorous 
 fetter . 
 write Fugue Sestina merely matter 
 patient labour ; Wagner 
 Rudyard Kipling * feat 
 admirable perform 
 mere joke 

 Act ' valkyrie " 
 ensemble piece ( rarely perform ) 
 soprano , real , 
 independent accompaniment , 
 especially fine dramatic 
 vigour write . 
 necessary composer set 
 tremendous task , accomplish 
 casual way , thing 
 allina day ’ s work . similarly Act II . * " 




 xumfurther instance influence exercise 
 music animal multiply 
 indefinite extent . insult 
 intelligence reader recall 
 exploit Orpheus , credit 
 having reduce savage animal 
 state comparative domesticity 
 strain golden harp . writer 
 Orchestral Association Gazette mentionsa certain 
 H. Stephanus account 
 having lion leave prey listen 
 music , curious anecdote relate 
 Playford herd stag 
 bring way Yorkshire 
 Hampton Court man play 
 bagpipe violin . need mention 
 memorable achievement Pied 
 Piper Hamelin ? 
 indicate musical education 
 animal systematically hand , 
 conservatoire establish training 
 properly qualify professor , result 
 interesting surprising character 
 probably obtain . diffi- 
 culty connection 
 subject executive appre- 
 ciative faculty brute creation 
 cultivate high pitch , auditor 
 labour radical drawback 
 unable express approval tangible 
 form . course possible 
 century animal develop financial 
 sense , insist pay salary 
 service , accumulate balance bank . 
 , present constitute , 
 appeal , musical point view , 
 sympathy disinterested affluent 
 amateur 

 reaver interested attitude man 
 letter music find interest 
 amuse excellent article ' " Litera- 
 ture Music " February number 
 Macmillan Magazine . writer stand 
 contention " blame 
 ignorant technicality art 
 learn , everybody blame wilfully 
 write understand . " 
 irreproachable canon , modern 
 writer practice . witness wonderful 
 musical solecism Messrs. Charles Reade , Marion 
 Crawford , William Black . purely literary 
 man century , intelligent 
 interest music De Quincey , 
 capable tremendous " howler , " attribute ' ' St. 
 Paul " Spohr , muddle Mendelssohn father 
 grandfather , philosopher , allude 
 Beethoven music " compose opening 
 Biirger ' Leonore . ' " Scott limitation happily 

 164 - MUSICAL TIMES.—Marcu 1 , 1897 




 um 


 fact , rumour , remark 


 CHURCH NEWS 


 167 


 ORGAN NEWS 


 168 


 ROYAL CHORAL SOCIETY 


 QUEEN HALL CHORAL SOCIETY 


 QUEEN HALL SYMPHONY CONCERTS 


 BH 


 SPE TS ESE 


 XUMThe Concert 2oth ult . exceptional interest . 
 work new english audience present , 
 programme include Tschaikowsky magnificent sixth 
 Symphony B minor . important 
 novelty overture Tschaikowsky A. N. 
 Ostrovsky drama " L’Orage . " music apparently 
 aim suggest frenzied anguish heroine 
 ( finally commit suicide ) seek 
 follow outline story . intensely 
 tragic conception , contain impressive 
 orchestral effect ; good 
 contrast storm stress music 
 somewhat oppressive . new piece Raff 
 arrangement orchestra Bach famous Chaconne 
 d minor violin . cleverly , 
 result enhance beauty music , 
 procedure commend . 
 fine interpretation Symphonie Pathétique , 
 performance prove superb quality 

 orchestra remarkable power wield 
 conductor . attractive Suite ballet 
 Tschaikowsky ' ' Nutcracker ' ? play 
 delightful verve delicacy . impressive reading 
 " good Friday ' ? music " Parsifal , " 
 programme conclude Beethoven second 
 ' Leonora " overture 

 QUEEN HALL PROMENADE concert 




 HENSCHEL CONCERTSTue chief feature Mr. Henschel fourth Concert 
 present season , place 4th ult . , 
 St. James Hall , Brahms ' " requiem , " , 
 , effectively interpret . , 
 , mistake place work end 
 programme , inevitable exodus place 
 end musical performance 
 usually disturbing work solemn character . 
 vocalist Miss Evangeline Florence Mr. 
 George Holmes . sing notable purity 
 expression , , owe insufficient resonance 
 voice , acceptable . chorus 
 intelligently sing Mr. Henschel choir . remainder 
 programme consist Prelude Wagner 
 " Lohengrin " Brahms Pianoforte Concerto D 
 minor ( Op . 15 ) , solo finely play 
 Miss Fanny Davies 

 18th ult . Mr. Henschel usual Concert 
 Memoriam Wagner . good selection 
 master writing , successful perform- 
 ance Good Friday spell music 
 " Parsifal ’' orchestral arrangement consist 
 Prelude Finale " Tristan Isolde . " 
 final scene " Valkyrie ' , 
 Briinnhilde Wotan respectively render 
 Madame Marie Duma Mr Charles Clark . 
 artist sing excellently , keen appreciation 
 requirement music ; voice 
 sufficiently heavy quality emphasis 
 music Wotan . performance Beethoven 
 " Eroica ' " Symphony time somewhat perfunctory 
 wanting distinctness phrasing . Concert 
 conclude oft - repeat ' ride 

 Valkyries 




 170 


 SAVOY THEATRE 


 ROYAL CARL ROSA OPERA COMPANY 


 PAER " IL MAESTRO DI CAPPELLA 


 MONDAY SATURDAY popular CONCERTSRESUMING record entertainment , 
 speak briefly Concert Monday , 
 January 25 . open Mozart Quartet b flat , 
 know . g , 
 master work form , write 1789 , 
 year Mozart death . fine performance 
 Schumann lovely sonata pianoforte 
 violin minor ( Op . 105 ) , Lady Hallé M. Slivinski , 
 pianist hear considerable advantage 
 piece Chopin . Madame Bertha Moore sing 
 usual charm air Mendelssohn Thomé 

 desire , Beethoven septet e flat repeat 
 follow Saturday , January 30 , 
 executant , master curiously 
 construct Pianoforte Sonata e flat ( op . 27 , . 1 ) 
 play Miss Adela Verne . 
 likewise contain movement Mendelssohn 
 ' ' unfinished " Quartet minor 

 Schubert bear January 31 , 1797 ; St. 
 James Hall unavailable Concerts Sundays , 
 centenary observe follow 
 Monday , rst ult . fine programme arrange , 
 commence viennese composer truly inspire 
 Quartet g major ( op . 161 ) , fine work 
 companion Quartet D minor , great 
 deal . G major Quartet , beautiful , suffer , 




 xum 


 163 ) . 


 1783 , 


 XUMTHE MUSICAL TIMES.—Marcu 1 , 1897 . 171 

 Saturday Concert 6th ult . Miss Liza 
 Lehmannn delightful cycle song ' ' persian 
 Garden ' ? repeat . Beethoven represent 
 early quartet C minor ( op . 18 , . 4 ) 
 bright Pianoforte Violin Sonata c minor ( op . 30 , 
 . 3 ) , executant Miss Katie 
 Goodson M. Johannes Wolff . gifted young 
 pianist render Brahms early Scherzo e flat minor 
 intermezzo op . 119 charmingly 

 remain Concerts deal present 
 brief record . Monday , 8th ult . , 
 principal concerted work Mendelssohn quintet B 
 flat ( Op . 87 ) , remember serve open 
 enterprise February , 1859 . Miss Adela Verne play 
 Chopin somewhat hackneyed Ballade flat Lady 
 Hallé perfect Professor Stanford irish piece 
 violin , ' lament , " ' " ' hush song , " " Reel . " " , Madame 
 Alice Gomez contribute Lieder Schubert Brahms 

 exceedingly large audience Concert 
 Saturday , 13th ult . Schubert quartet G ( Op . 
 161 ) repeat , doubt Beethoven 
 " Kreutzer ' ? sonata pianoforte violin main 
 attraction . marvellous effort genius superbly 
 play Mr. Leonard Borwick Lady Hallé . 
 gifted live english male pianist enthu- 
 siastic reception come platform play 
 Bach " italian " Concerto — doubt message 
 sympathy , , young artist , having respect 
 tohis recent severe bereavement . Mr. James Leyland 
 satisfaction song Scarlatti Dvorak 

 programme follow Monday , 15th ult . , 
 include String Quartet C sharp minor 
 Sgambati , postpone 22nd ult . , 
 late notice month . Brahms 
 strongly represent , melo- 
 dious comparatively light String Quintet ( Op . 111 ) , 
 revise version early Pianoforte Trio B major 
 ( Op . 8) , play Mr. Frederic Lamond , Lady Hallé , 
 Mr. Hallé . Mr. Lamond pianoforte solo 
 Brahms difficult variation theme Paganini 
 { op . 35 ) , young scottish pianist 
 render praiseworthy breadth dignity 
 faultless technique . Misses Florence : Bertha 
 Salter extremely pleasing vocal duet Schumann , 
 Brahms , Délibes 




 AMATEUR ORCHESTRAL SOCIETIESTHE GOMPERTZ STRING QUARTET 

 considerable interest attach fourth 
 Concert present season Mr. Richard Gompertz 
 Chamber Concerts , Queen ( Small ) Hall , 
 performance England String Quartet flat 
 ( Op . 105 ) Dvorak . work consist usual 
 movement , satisfactory . 
 open Allegro appassionata precede brief 
 Adagio , describe tone - picture mood . 
 theme expressive , development , 
 hearing , lack cohesion . second number 
 practically Scherzo , chiefly consist solo work 
 violin . Lento , follow , expres- 
 sive , time impassioned , portion 
 great beauty . Finale impression having 
 write recently rest work , 
 figure belong early 
 present century . Quartet entirety 
 place fine example chamber music 
 bohemian composer . Quartet 
 play occasion Beethoven , minor 
 ( Op . 132 ) . Brahms Vocal Quartets ( op . 92 ) 
 include programme , sing Mrs. 
 Hutchinson , Madame Hope - Glenn , Mr. Walter Ford , 
 Mr. Herbert Thorndike , Mr. Henry Bird 
 pianoforte 

 novelty present second Concert , 
 admirable interpretation Brahms fine 
 Quartet b flat ( Op . 67 ) Beethoven quartet F 
 major ( Op . 135 ) , late utterance ot 
 great master . vocalist Miss Alma Ribolla 
 Mr. Stephen Ribolla , singing 
 comment 

 172 




 WALENN CHAMBER CONCERTSMR . THEODORE WERNER VIOLIN recital 

 Mr. Werner proceed present series Violin 
 Recitals , St. James Hall , esteem great ability 
 increase . chief work bring forward 4th 
 ult . Tartini celebrated Sonata G minor , Spohr 
 " ' dramatic ' Concerto , Beethoven RomanceinF. 
 rendering work Mr. Werner great 
 power , executant intellectual expression , 
 - work particular finely play . 
 Recital 18th ult . Bach famous Chaconne D 
 minor interpret breadth dignity 
 place Mr. Werner rank modern violinist . 
 Paganini Grand Concerto B minor serve emphasize 
 remarkable facility Mr. Werner 
 execute passage utmost difficulty . 
 piece Svendsen romance G form 
 effective contrast , play great warmth 
 expression previously characterise execu- 
 tant performance . similar sympathetic charm 
 noticeable Robert Schumann ' * ' Garden Melody " 
 Wieniawski ' ' Romance sans Paroles et Rondo 
 Elegant , ’' conclude enjoyable afternoon 

 MESSRS . PLUNKET GREENE LEONARD 
 BORWICK recital 

 song Pianoforte recital announce 
 St. James Hall - esteemed 
 artist , place Friday , 5th ult . 
 form Schubert memoriam per- 
 formance , programme contain splendid Piano- 
 forte Sonata C minor viennese composer 
 nearly approach Beethoven , minor solo , 
 Lieder . interpret 
 - equip performer occasion 
 detail . fastidious 
 satisfy . second Recital , 
 Friday afternoon , roth ult . , open fantasia 
 C minor Bach , follow Brahms 
 variation fugue theme Handel ( Op . 24 ) . 
 Mr. Borwick play splendidly , perfect 
 command keyboard . fine selection song 

 MR . FREDERICK LAMOND PIANOFORTE 
 recital 

 spite discouragement consequence 
 scanty attendance , Mr. Lamond pluckily continue 
 Recitals St. James Hall , 
 fine performance . second Recital , January 26 , 
 set arduous task play Beethoven 
 great Sonata b flat ( Op . 106 ) Schumann 
 Etudes Symphoniques ( op . 13 ) succession . 
 master apparent ease , rarely 
 hear false note arduous fugal Finale 
 Sonata , work rarely play account 
 length enormous difficulty . masterpiece 
 Schumann faultlessly render . minor piece 
 programme Field , Chopin , Henselt , 
 Liszt 

 Recital , 2nd ult . , principal piece 
 Beethoven penultimate Sonata flat ( Op . 110 ) 
 Schumann inspired Fantasia C ( Op . 17 ) . 
 latt work Mr. Lamond display splende technique 

 pianist come grief , render 
 strict accuracy coldness . rest 
 programme consist mainly virtuoso music 

 oth ult . capital scheme , include 
 Beethoven wonderful final Sonata c minor ( op . 111 ) 
 Schubert ' ' wanderer " ' Fantasia C ( op . 15 ) ; © 
 Brahms clever variation theme Handel © 
 ( op . 24 ) number minor piece legitimate 
 character Mendelssohn , Chopin , Schubert , Henselt , 
 Rubinstein , Liszt 

 SUSANNA " PEOPLE PALACE 




 MUSICAL GUILD 


 xum 


 111 ) MUSICAL TIMES.—Marcu 1 , 1897 . 173 

 vary merit , thing imperfect 
 world , seldom , recollection , 
 fail satisfy reasonable requirement . , 
 opinion hazard playing 
 Concerts , good , rarely excel — outside 
 St. James Hall , rate . , bold 
 assertion sound , need cause sur- 
 rise ; music - lover aware , indifferent public 
 , Guild member 
 fine young artist day , travel 
 far parochial boundary fame 
 safely predict world - wide , , event , 
 european , distant date . player 
 dweller - - London 
 parish turn , leave concern 
 regard ' cultivate ' ? ( 
 Kensingtonian ? ) support faithful 
 , gather far frequently 
 near . line devote 
 proceeding evening question . programme 
 comprise Beethoven Quartet string F minor 
 ( Op . 95 ) , provoke Mendelssohn 
 admiration , imitation ; Schiitt 
 Suite pianoforte violin d minor ( Op . 44 ) 
 Brahms Pianoforte Quartet c minor ( op.60 ) , song 
 Schubert Coleridge Taylor , sing Mr. Francis 
 Harford . playing instrumental work Miss 
 Ethel Sharpe , Messrs. A. Bent , W. Sutcliffe , E. Tomlinson , 
 Paul Ludwig notable precision unanimity 
 feeling , result obvious careful preparation 
 performer highly commend . 
 Mr. Harford experience ( , 
 apparently , lack ) come aid youth ( 
 possess ) confidently expect prove 
 excellent vocalist . present admire voice 
 method use 

 ROYAL COLLEGE MUSIC 




 ROYAL ACADEMY MUSIC 


 174 


 LOVE MAGIC , " WOOLWICH 


 HIGHBURY PHILHARMONIC SOCIETY 


 FINSBURY CHORAL ASSOCIATION 


 ST . CUTHBERT CHORAL SOCIETY 


 ROYAL ACADEMY MUSIC LECTURES 


 XUM 


 GRESHAM LECTURES 


 ROYAL institution 


 176 


 SOCIETY ARTS 


 society encouragement FINE 


 ARTS 


 SR med 


 XUM 


 183 


 847 , 


 anthem EASTER 


 NZ 


 ORGAN . 


 @= 95 . 


 ‘ ULL._ALTO .. — 


 TM 


 TAN 


 XUM 


 


 _ ~<z 


 _ — 4 


 tt 


 } } RR 4 


 h h h h 


 strife O'ER 


 


 XUM 


 2 4 


 1S 


 64 


 FP , : 


 | LL - . * 7 < > . 


 XUM 


 185 


 MUSICAL association 


 7 ) 9 , 12 , 13 , 14 , 18 , 19 , 20 , 23 , 24 , 25 , 28 , 31 , 32 , 34 , 35 , 375 


 VIENNA SCHUBERT celebration 


 186 


 review 


 xum 


 187 


 MUSIC BIRMINGHAM . 


 ( CORRESPONDENTTue Festival Choral Society , 4th ult . , 
 Dvorak dramatic cantata ' ' Spectre Bride , " Dr. 
 Hubert Parry exquisite choral setting Milton Ode 
 " Blest Pair Sirens , " Schumann Pianoforte 
 Concerto minor ( Op . 54 ) . Dr. C. Swinnerton Heap 
 appear occasion dual capacity — 
 conductor pianist . revival ' ' Spectre 
 Bride , " lapse year , come audience 
 revelation , follow keen interest . 
 performance magnificent 
 careful preparation . principal — Miss 
 Ella Russell , Mr. Edward Branscombe , Mr. Bantock 
 Pierpoint — discharge duty utmost 
 satisfaction . Dr. Parry " Blest Pair siren " 
 render choir wonderful tone - power 
 precision , , opinion , receive 
 rendering Festival 1891 . Dr. Heap play 
 Pianoforte Concerto marked intelligence 
 faultless technique , orchestral accompaniment 
 direct Mr. Fred . Ward 

 Mr. Stockley Orchestral Concert , place 
 12th ult . , include programme Beethoven 
 Symphony C minor , ' " Tannhauser " Overture , 
 Scharwenka ' ' Andante Religioso , " ' Overture ' ' Athalie , " " 
 Romance small orchestra Mr. E. W. Rickett , 
 local musician , Raff Suite ( Op . 200 ) pianoforte 
 orchestra . Romance score string , flute , 
 oboe , clarinet , bassoon , horn , 
 considerable talent direction orchestral colouring ; 
 composition restless character , im- 
 petuous , composer intend life 
 history short form . Dr. Winn play Cavatina 
 Gavotte Suite Raff scholarly 
 conception . Mr. Meacham preside organ 

 Midland Musical Society , Mr. H. M. 
 Stevenson conductorship , praiseworthy performance 




 MUSIC BRISTOL . 


 ( CORRESPONDENTMr . Harold Bernard , skilful young local violinist , 
 Concert 8th ult . assist Mr. F. S. 
 Gardner , Mr. Percy Lewis , Mr. G. F. Blanchard . 
 concerted work perform Schumann Quartet 
 E flat ( Op . 47 ) Raff Trio ( op . 102 ) pianoforte , 
 violin , violoncello . instrumental solo song b 
 Miss Lucile Hill ( accompany Mr. Rickman ) complete 
 programme 

 Miss Lock second Chamber Concert season , 
 15th ult . , striking artistic success . work 
 perform Mendelssohn Quartet E flat ( Op . 44 , 
 . 3 ) string , Haydn Quartet D minor ( Op . 76 , 
 . 2 ) , Beethoven sonata ( Op . 69 ) violon- 
 cello pianoforte . executant Messrs. 
 Carrington , Duys , Wetten , Van Gelder , Miss Lock . 
 Mr. Ernest Young sing composition Mr. J. L. Roeckel , 
 accompany 

 Radstock , January 27 , fairly good performance 
 second Haydn 
 " creation , " Choral Society town , Mr. H. 
 T. Sims conductor . Miss Cromey Mr. C. E. 
 Poole sing soprano bass solo clearness 
 taste ; owe unaccountable absence Mr. 
 Wetten , principal tenor , 
 substitute , performance measure spoil 




 MUSIC DUBLIN . 


 ( correspondenty | chamber music , 15th ult . , programme 

 Beethoven Quartet ( Op . 18 ) string , 
 Rubinstein Sonata G major ( op . 13 , . 1 ) piano- 
 forte violin , Dvorak Quartet e flat ( Op . 87 ) 
 pianoforte string . executant Signor 
 Papini , Mr. A. Darley , Mr. Grisard , Herr Bast , 
 Signor Esposito 

 Dr. J. C. Culwick lecture National Literary 
 Society , 15th ult . , " distinctive characteristic 
 irish Music . " ? lecturer , assist 
 illustration Mrs , Culwick Miss Rose Byrne , pro- 
 test wanton " improvement " ' sacred 
 relic antiquity , song dead forefather 




 MUSIC DUNDEE . 


 ( correspondent 


 MUSIC EAST ANGLIA . 


 XUM 


 ) . 87 ) 


 189chorus ' wet sheet flow sea , ' song 
 sing Miss de Caux , Mrs. J. C. Boswell , Mr. F. T. 
 Moffitt . follow plan adopt year 
 engage prominent professional instrumentalist 
 Concerts , committee bring Miss Fanny 
 Davies - Concert , lady delight 
 large audience true artistic taste bring bear 
 excerpt Schumann , Brahms , Mendelssohn , 
 Chopin , Rubinstein 

 old Musical Society Norwich , Philhar- 
 monic , appear public ninety - second 
 time 17th ult . , conduct , usual , Dr. Horace 
 Hill , lead Mr. F. W. B. Noverre . veteran 
 instrumental Society appear new lease 
 life , Concerts having certainly 
 - round improvement . excellent performance 
 Beethoven Symphony , . 1 , open Concert , 
 follow later Macfarren Overture ' " ' Robin Hood , " 
 Mozart Overture ' ' La Clemenza di Tito , ’' 
 piece string Purcell . rise local 
 amateur , Mr. E. Lake , play clarinet solo good style , 
 wind quintet Onslow , flute , clarinet , oboe , 
 horn , bassoon , interesting novelty , splendidly 
 play Messrs. Waters , Coe , Davies , Smith , Hall , 
 - member Society 
 importation town . vocal solo 
 duet sing Miss A. Ribolla Mr. S. Ribolla 

 Glee Club form voluntary choir singing 
 special Sunday evening service hold Nave 
 Norwich Cathedral annual Concert , Noverre 
 Rooms , 15th ult . conduct Mr. H. J. Brookes , 
 member satisfactory rendering part- 
 song , Miss Lefroy , Mr. S. Barton , Mr. S. 
 Burton , Mr. Brockbank responsible vocal 
 solo . Miss M. Lefroy hear pleasure 
 violin solo , admit Sarasate 
 ' ' Zapateado " " power . banjo solo 
 contribute Captain Langworthy , Mr. E. Lake 
 play movement Niedmann clarinet 




 MUSIC EDINBURGH . 


 ( correspondent 


 MUSIC GLASGOW . 


 ( CORRESPONDENTTue twelfth Choral Orchestral Union Concert 
 ( January 26 ) altogether escape notice . Mr. 
 Leonard Borwick , owe sudden death 
 father , fulfil engagement . , Mr. 
 Philip E. Halstead , local pianist , come bravely 
 rescue mark — appearance 
 uncertain merit — Mozart Concerto C 
 minor . successful solo — example 
 Stavenhagen , possibly , good , render 
 familiar composer 
 meet Glasgow friend . follow Saturday 
 outstanding feature " popular " programme 
 Schubert grand Symphony C major , Miss 
 Annie Morrison , promising young vocalist , sing 

 Classical Concert , 2nd ult . , prove eminently 
 attractive , inasmuch Beethoven Seventh Symphony 
 programme , old favourite , Mr. Willy Hess , 
 welcome appearance solo violinist . Spohr 
 Concerto ( . g ) serve high artistic 
 attainment popular artist day . 
 Goldmark prelude ' ' Merlin ’' play time 
 Glasgow , work create 
 favourable impression ; vocalist evening 
 Miss Florence Oliver , place Madame 
 Agnes Janson . fourteenth Classical Concert , Mr. 
 Maurice Sons , accomplished leader scottish 
 Orchestra , essay , conspicuous success , Dvorak 
 Concerto , work long . 
 Mr. Sons reception , ought , mark 
 great enthusiasm , renew 
 beautiful performance Max Bruch romance — 
 dedicate late Herr Heckmann . 
 Symphony evening Beethoven . 8 , 
 Miss Elsie Mackenzie contribute vocal piece 
 programme include ' Tannhauser " ' 
 overture . conductor new Symphony repeat 
 Popular Concert 13th ult . , renew 
 acquaintance work stamp 
 hall - mark genius , programme include 
 Sir A. C. Mackenzie ' " ' Burns " Rhapsody ( . 2 ) . Mr. 
 Daniel Price sing , Miss Nora Clench undoubtedly 

 190 

 feature evening reason talent 
 violinist . new - comer promptly arouse keen 
 attention , doubtless soon hear 
 artistic style 

 Beethoven programme signalise final Concert 
 classical series 16th ult . ' ruin 
 Athens " , afraid , earn long rest hereabouts , 
 inasmuch hardly possible galvanise 
 life somewhat archaic strain . Choral 
 Symphony follow , , word , suffice 
 experience audience 
 performance record . work Choral 
 Union sing admiration ; instrumental movement 
 symphony play rare artistic care ; 
 Mr. Kes Mr. Joseph Bradley , conductor , 
 earn hearty congratulation success 
 labour . soloist evening Miss Taggart 
 ( sing place Miss Thudichum hour ’ 
 notice ) , Miss Greta Williams , Mr. Lloyd Chandos , 
 Mr. Daniel Price . result flébiscite , 
 classical popular Concert , 
 Tschaikowsky head symphony 
 ' " * Pathétique ’' Symphony , 455 vote ; Schubert 
 " unfinished " register 447 , Dvordk ' ' 
 New World " 159 mark . Grieg ' " ' Peer Gynt ' ? come 
 long way Suites . overture 
 ' " Tannhauser , " ' ' Flying Dutchman , " " Die 
 Meistersinger ’' favourite 
 section . Wagner head ' " miscellaneous " 
 piece introduction act ' ' Lohengrin . " 
 programme popular Concert , Saturday 
 evening , 2oth ult . , draw largely accordance 
 voting 

 Saturday afternoon , 13th ult . , Mr. Kes com- 
 memorate anniversary death Richard Wagner 
 performance selection ' ' flying Dutch- 
 man , " ' ' Lohengrin , " ' " ' Walkie , " ' Meister- 
 singers . ' special choir organise 
 occasion , contingent Scottish Orchestra worthily 
 assist accomplished conductor , soloist 
 comprise Misses Underwood Thomas , Messrs. D. 
 Price H. A. L. Seligmann . concert 
 private , invite guest include sub- 
 scriber Scottish Orchestra 




 music LIVERPOOL . 


 ( correspondentmusic MANCHESTER . 
 ( correspondent 

 delightfully regale chamber 
 music month gratitude Mr. 
 Brodsky colleague — Messrs. Rawdon Briggs , S. 
 Speelman , Carl fuchs—-bubble demand 
 expression . unsuccessful 
 attempt establish Recitals firm footing — 
 day long past Mr. Seymour , Sir Charles 
 Hallé , later connection Gentlemen 
 Concerts — surprising , pleasing , 
 note quickly effort Mr. Brodsky party 
 gain popular approval . fourth subscription 
 series winter large enthusiastic audience 
 assemble listen perfect ensemble playing 
 gentleman happily associate Beethoven 
 Quartet ( . 2 op . 18 ) Schubert Quartet D 
 minor . usual , Pianoforte Quintet form episode 
 programme ; Mr. Max Mayer join 
 admirable reading Op . 34 F minor Brahms , 
 movement excite hope , , 
 scarcely realise work progress 

 Schubert centenary Schiller Anstalt 
 d minor Quartet repeat , delight everybody ; 
 , aid Mr. H. Smith , great string Quartet 
 C ( Op . 163 ) . Mr. Fuchs interesting 
 violoncello solo , Fraulein Petersen dramatic 
 force selection Lieder champion song - writer , 
 display fine powerful voice . naturally , 
 Schiller Hall thought travel street 
 Royal College Music , ably preside 
 Mr. Brodsky , student ’ open practice 
 January 27 orchestral Concert evening 
 later . performance Brahms Symphony 
 sufficient evidence thoroughness work 
 College ; solo effort vocal 
 instrumental pupil afford sincere pleasure 
 listener , gratify teacher 
 friend Institution 

 Hallé Concert January 28 , Herr Willy Bur- 
 mester play Violin Concerto Beethoven 
 thoroughly satisfactory manner ( introduction 
 cadenza , little keeping ) 
 Paganini trickery fgr astonishment 
 delight thing . orchestral novelty 
 MacCunn Overture ' " ' Land mountain 
 flood , " Mrs. Katharine Fisk vocalist . 
 densely crowded night follow , devote " Elijah 

 2nd ult 




 XUMMUSIC NORTHUMBERLAND DURHAM . 
 ( correspondent 

 January 28 Newcastle Chamber Music Society 
 exceptionally interesting Concert Assembly 
 Rooms , Newcastle - - Tyne . artist Herr Willy 
 Hess , Herr Seibert , Herr Schwartz , Herr Friedrich 
 Grutzmacher , Mr. Plunket Greene , Mr. J. M. Preston . 
 principal piece programme Schubert 
 posthumous Quartet d minor string 
 Beethoven Quartet b flat ( Op . 18 , no.6 ) , 
 exceedingly play 

 Society Concert oth ult . , 
 successful - mention . 
 artist occasion Herr Willy Burmester , 
 Mr. Ernest Hutcheson , Miss Fillunger . playing 
 Herr Burmester Beethoven Violin Sonata F 
 ( Op . 24 ) , solo Spohr , Wieniawski , , 
 greatly admire ; pianoforte performance 
 Mr. Hutcheson , play solo Brahms , Liszt , 
 master , enjoy . Miss Filliinger 
 equally acceptable vocalist 

 People Concerts , promote Corporation 
 Newcastle , numerous winter 
 old , , , enjoyable . 
 6th 13th ult . Ballad Concerts 




 MUSIC NOTTINGHAM . Mechanics ’ Institution Operatic Society 
 capital series performance ' ' Madame Favart " 
 week February . soloist 
 chorus member Society , Mr. J. E. 
 Pickerill , talented conductor stage manager , 
 deserve warm word praise creditable result 
 effort 

 18th ult . Mr. John Cullen Pianoforte 
 Recital Albert Hall , assist Mr. Edwin Thorpe . 
 programme comprise Concertstiick violoncello 
 pianoforte ( Klengel ) , Sonata Appassionata ( Beethoven ) , 
 Nocturne ( Piatti ) , Ballade , Nocturne , Scherzo ( Chopin ) , 
 Sonata D , Op . 18 ( Rubinstein 

 13th ult . Mr. Alfred Hollins Organ 
 recital Mechanics ’ institution highly 
 appreciated 




 MUSIC SOUTHERN county . 


 ( correspondentmusic YORKSHIRE . 
 ( correspondent 

 durinc past month Leeds half - dozen 
 Concerts moderate artistic importance ; 
 particularly large allowance fifth town ( point 
 size ) kingdom , decidedly average . 
 January 27 important event 
 season come , Beethoven Choral Symphony 
 perform Leeds Subscription Concert , 
 Mr. F. H. Cowen direction . speak volume 
 haphazard way thing 
 exacting work single 
 rehearsal ; consequently drive usual 
 expedient dilate wonderful result english 
 chorus orchestra able achieve 
 adequate rehearsal . result , inspire , 
 convey distinct idea grandeur 
 Symphony , perceptible technical flaw 
 good point detail , Hallé band play 
 finish Philharmonic chorus singe 
 capital spirit . solo quartet Miss Filliinger , Mrs. 
 Dews , Mr. Kearton , Mr. Douglas Powell . interest- 
 e feature thoroughly artistic playing , Mr. C. 
 Rawdon Briggs , Spohr ninth Violin Concerto , 
 highly - finish reading ' ' Oberon " Overture 
 " Siegfried Idyll . " January 30 Leeds Permanent 
 Orchestra , struggle precarious 
 existence , Concert , honour Schubert 
 play ' " Fierrebras " " ' ' Rosamunde ' " ' overture 
 ' ' Rosamunde " ' incidental music ; 
 Miss Ada Beecroft , soprano deserve 
 local fame , sing ' ' Ave Maria " charmingly . Mr. 
 John Walton , Servais showy ' ' military ' Concerto 
 violoncello , display great command finger- 
 board ; agreeable ending 
 Concert Waldteufel waltz . Mr. Buckley conduct 
 place Mr. Benton , ill . 13th ult . 
 society fourth Concert . Haydn 
 " Reine de France " Symphony brightly 
 carefully play , - know overture 
 trifling piece , conductorship Mr. 
 Buckley , occupy Mr. Benton place . Master 
 Kirkby , Leeds Parish Church choirboy , Mr. John 
 Berry vocalist . 1st ult . interesting 
 Chamber Concert Miss Eisele Mr. Briggs . 
 Mendelssohn quartet D ( op . 44 , . 1 ) admirably 
 play Messrs. Briggs , Bridge , Holme , Hatton , 
 ensemble reach high degree finish . 
 Beethoven C minor Sonata pianoforte violin 
 Dvorak Pianoforte Quartet D Miss Eisele 
 pianist . ofthe ' musical evening " manage 
 Messrs. Haddock brief notice . January 26 
 Lady Hallé violin playing unwonted distinction 
 occasion , 16th ult . 
 usual miscellaneous type programme , Miss Jeanne 
 Greta singing , pianoforte solo Miss Paola 
 Teodoras , Miss Gertrude Collins violin playing 
 chief thing notice . Mr. Christensen , 
 concert 5th ult . , introduce innocent 
 agreeable ' ' Polacca " flute pianoforte 

 composition , flute ably play 
 Mr. Staniland Hall . sonata pianoforte violin 
 Hartmann Dvorak play Concert - giver 
 Mr. Gutfeld , Miss Mary Poole sing simply 
 pleasantly 




 MUSIC PARIS . 


 ( correspondent 


 nsin deed mercy celebration 
 Queen reign associate , musician 
 unrepresente . special general meeting member 
 Incorporated Society Musicians hold early 
 come summer , consider plan establish- 
 ment Orphanage daughter musician leave 
 impoverished circumstance , need education 
 training . Duke Saxe - Coburg , President 
 Society , state , possible , preside 
 meeting . plan propose well- 
 know Orphan School conduct usefully 
 year Miss Helen Kenway , increase 
 usefulness far resource command 
 Society permit , continue branch 
 Society work . good work , voluntarily undertake 
 Miss Kenway , productive benefit 
 need help feel sure course 
 propose Society approve , 
 warmly support outside member- 
 ship Society 

 admirable series masterpiece select 
 M. Lamoureux Concerts Queen Hall 
 week begin 22nd inst . programme 
 include Beethoven fifth eighth Symphonies , 
 Brahms D ( . 2 ) , Mozart " Jupiter , " D minor 
 Schumann , Symphony Bach ' " ' Christmas ’' 
 Oratorio . overture comprise Mendelssohn ' ' Ruy 
 Blas , " Schumann ' ' Manfred " ' ' Hermann 
 Dorothea , " Wagner " Die Meistersinger " ' ' " fly 
 Dutchman , " Berlioz ' ' Benvenuto Cellini , " Weber 
 " Der Freischiitz . " miscellaneous piece 
 Saint - Saéns ' * Rouet d’Omphale , " ' ' Danse Macabre , " 
 Prelude " Le Déluge ’' ; Liszt ' * Mephisto " Valse , 
 Fantaisie organ orchestra L. Boéllmann , 
 rhapsody " Espafia ’' ( Chabrier ) , ' Wallenstein Camp " 
 ( Vincent d'Indy ) , tempting morsel 
 orchestral " feast good thing 

 194 

 Miss E. A. ATKINSON , pianist acquire 
 reputation province , promising début 

 London , 16th ult . , Steinway Hall . 
 occasion successful small piece , 
 executive facility pleasantly display ; 
 praiseworthy interpretation 
 Beethoven sonata flat ( Op . 26 ) , musical 
 sensibility Chopin nocturne D flat 
 ( op . 27 , . 2 ) . Miss Beatrice Frost sing Schubert 
 " Young Nun " perception dramatic character 
 promising young vocalist , later 
 afternoon render Cowen ' ' ' ? warmth 
 expression happily devoid sentimentality 

 committee Bayreuth Festspiele 
 definitely decide repeat performance " Der 
 Ring des Nibelungen " ' year , alternation 
 ' Parsifal , " time 
 . date follow : ' Parsifal , " 
 July 19 , 27 , 28 , 30 , August 8,9 , 11 , 19 ; ' Nibe- 
 lungen " ' tetralogy , July 21 24 , August 2 5 14 
 17 . visitor wish hear " Parsifal " 
 opportunity — viz . ,on July 28 
 August 9 , occasion reserve 
 subscribe " Ring . " seat cycle 
 performance cost £ 5 , fully expect 
 house ere long sell 

 Miss ELEANoR KiNG submit superior programme 
 Concert Steinway Hall 12th ult . , co- 
 operation Mdlle . Irma Sethe Mr. Adolf Schmid 
 allow introduction composition , 
 advantageous circumstance 
 perform . Rafi trio G ( . 2 ) 
 Miss King pianist possess taste , judgment , 
 neatness execution , recommendation 
 subsequently emphasize rendering piece 
 Schumann , Liszt , Henselt . clever violinist , 
 Mdlle . Sethe , play Beethoven romance F con- 
 siderable delicacy , solo contribution Mr. 
 Schmid cordially approve 

 pleasing Pianoforte Vocal Recital 
 Miss Fanny Davies Miss Louise Phillips , St. 
 James Hall , Friday afternoon , January 29 . 
 instrumental number , beautifully play 
 Miss Davies , include Brahms elaborate variation 
 theme Handel ( Op . 24 ) piece Schubert , 
 Mendelssohn , Rubinstein . principal work 
 Miss Phillips , , Schumann 
 exquisite song cycle " ' Frauenliebe und Leben " ( Op . 42 ) . 
 true outpouring love beauty . 
 interesting piece Schubert , Brahms , Parry , 
 Somervell , ' ' old French . " Concert 
 enjoyable 

 singer Frankfort - - Main , choose Frau 
 Cosima Wagner Wotan Amfortas 
 year performance Festspiel - Haus . M. van 
 Dyck appear Parsifal . 
 BerGcaMo.—In connection birth - centenary 
 Donizetti , celebrate native town 
 September , exhibition relative composer 
 work organise , interesting 
 contribution promise , notably Vienna , 
 intimately associate career , 
 committee form purpose , include 
 Dr. Hanslick , Director Jahn , Dr. Glossy , . 
 monument composer unveil 
 occasion , work neapolitan sculptor , Jerace 

 Beruin.—A Beethoven Festival hitherto unap- 
 proache scale hold year . 
 propose performance 
 course week , morning evening concert , 
 master composition . idea originate 
 Herr Hermann Wolff , - know concert 
 director , readily 
 management Royal Opera , " Fidelio , " 
 ' " ' Egmont , " " ruin Athens " produce , 
 prominent orchestral choral 
 institution , include Philharmonic orchestra 
 choir , Stern’sche Gesangverein.——Schubert cen- 
 tenary performance lead 
 musical society capital , noteworthy 
 having Philharmonic choir , 
 direction Herr Siegfried Ochs , co - operation 
 eminent organist , Dr. Reimann , programme 
 include " ' Tantum ergo " ( discover 1890 , 
 Vienna ) , ' ' Miriam Siegesgesang , " ' ' Gesang der Geister , " 
 choral number 

 BREMEN.—An excellent highly successful perform- 
 ance place , January 26 , Edgar Tinel oratorio 
 " Franciscus , " newly form Philharmonic Choir , 
 Capellmeister Schumann direction . Madame 
 Dierich , Leipzig , sing principal solo 
 admirable effect 




 foreign note . 


 196HamBurG.—Herr Gustav Mahler , - know com- 
 poser conductor Stadt - Theater , 
 Budapesth Opera , resign position , 
 residence Vienna . succeed 
 Court Capellmeister Gille , Rostock , conductor 
 considerable ability——-Herr Weingartner , Berlin , 
 resign conductorship Philharmonic Concerts 
 , place likely Herr 
 Nikisch , Leipzig.——A successful performance 
 , 7th ult . , Gesangverein , Heinrich 
 Hofmann secular oratorio ' ' Editha . " " work 
 produce month Oppeln Neisse . — 
 Herr Weingartner opera , ' ' Genesius , ’' somewhat cavalierly 
 treat production Berlin , 
 receive month Mannheim , active 
 preparation Stadt - Theatre 

 Leipzic.—The fine new Concert Hall Kaufhaus , 
 building erect site historical old 
 Gewandhaus , open , 2nd ult . , King 
 Saxony person . proceeding include orchestral 
 solo performance pupil Conservatoire , 
 direction Herr Hans Sitt . follow 
 day public concert new hall , 
 consist ' Beethoven Evening , ’' excellent series 
 institute season Professor Woldemar Meyer 
 Fraulein , Remmert.—Theodor Gouvy dramatic scene , 
 " ' Iphigénie en Tauride , " soli , chorus , orchestra , 
 announce time 
 Singakademie , Dr. Paul Klengel . performance , 
 January 17 , Riedelsche Gesangverein , 
 Handel Oratorio " Hercules , " Dr. Chrysander 
 version , complete success , likely prove 
 forerunner complete revival work 
 companion Chrysander edition , ' Deborah , " 
 Germany . solo excellent hand , Dr. 
 Kretzschmar conduct accustomed ability 
 conscientiously prepare performance.——M. Lamoureux , 
 Paris , conductor Philharmonic 
 Concert 17th ult . , Albert Hall . perform- 
 ance honour Schubert centenary 
 Liszt - Verein , new Gewandhaus , 
 Herr Nikisch direction , Bohemian String 
 Quartet , Conservatoire . institu- 
 tion overture ' Alfonso und Estrella " 

 B minor Symphony , work , 
 pupil ’ orchestra , direction Herr Sitt 




 OBITUARYOn 2nd ult . , Berlin , Dr. Epuarp JAcoBsoN , author 
 numerous successful vaudeville libretto , age 
 - 

 2nd ult . , Berlin , Lours H. MEYER , director 
 ' " ' Beethoven Conservatoire , " ' age - 

 4th ult . , Fertce Mancio , time 
 popular concert singer , year past highly 
 successful vocal teacher , Vienna , aged - seven 




 correspondent 


 BRIEF summary COUNTRY NEWSPEMBERTON ( near WIGAN).—The Pemberton district 
 Choral Society Concert season 
 January 20 . Handel ' ' Messiah " perform 
 creditable manner band chorus 150 per- 
 . solo sing Madame Lizzie 
 Burgess , Miss Kate Macgregor , Mr. H. Berry , Mr. 
 C. A. Smith . Mr. J. H. Aldred conduct 

 READING.—The Orpheus Society second Concert 
 January 27 , Town Hall , direction 
 Dr. Read . glee - song comprise ' * 
 world repose " ( Prendergast ) , " strike lyre " 
 ( Cooke ) , ' moment roll " ( Webbe ) , ' star 
 summer night " ( Cruickshank ) , ' sea " ( Abt ) , " 
 doughty deed ’' ( Cobb ) , ' ' lifeboat " ( Hatton ) , ' ' 
 wild rose love ' ? ( Debois ) , " holy night " 
 ( Beethoven ) . song sing Mrs. Helen 
 Trust , violin piece contribute Mr. Louis 
 Pecskai 

 SypNey ( AusTRALIA).—The Liedertafel nine- 
 teenth Concert December 12 , programme 
 include Professor Villiers Stanford choral ballad ' " ' 
 revenge , " admirably render . Mr. J. A. 
 Delaney conduct . Mr. Laurence Phillip suc 




 XUM 


 SCHOOL MUSIC review 


 contain 


 general note 


 HARMONY 


 review 


 miscellaneous item 


 SCHOOL MUSIC review 


 contain follow music notation ' — 


 " PEAL , ORGANS , forth praise 


 content . 


 MR . J. G. BLANCHARD 


 MISS GERTRUDE WESLEY 


 dure month 


 reduce price . 


 A. MONTAGUE BORWELL 


 L.R.A.M. , A.G.S.M. ( BARITONE 


 MR . FREDERIC HOSKING 


 BARITONE ) 


 BLAXLAND SOLO boy 


 XUM 


 crichton - singer 


 training tenor . DAVIDSON 


 university DURHAM . 


 easy setting 


 BENEDICITE 


 sea HATH pearl 


 singer song 


 humorous - song S.A.T.B 


 VIOLINS CELLOS 


 VIOLIN , VIOLONCELLO , BOW MAKER 


 PERFECT world . 


 use great artist , 


 


 consider master 


 MODERN stradivariu 


 award 


 rummen ’ 


 pianoforte 


 detachable PEDAL board . 


 equal ORGAN practice 


 H. J. RUMMENS , 


 47 , CHURCH ROAD , BRIXTON , S.W 


 OLD FIRM 


 P. CONACHER & CO . , 


 SPRINGWOOD WORKS , 


 HUDDERSFIELD . 


 gold medal . 


 NICHOLSON CO . , 


 ORGAN BUILDERS 


 PALACE YARD , WORCESTER 


 establish 1841 . ) 


 OURTEENTH musical prize competi- 


 complete revised edition 


 BRISTOL TUNE book 


 containing 


 905 tune chant 


 companion HYMN book 


 1897 festival 


 popular , easy , & attractive church composition 


 


 anthem . 


 practical hint training 


 TI 


 


 CHRIST risen 


 anthem EASTER 


 E. A. SYDENHAM 


 EASTER anthem 


 


 J. H. MAUNDER . 


 CHURCH MUSIC 


 


 service . 


 anthem . 


 ORGAN 


 know redeemer LIVETH . 


 HANDEL FESTIVAL 


 NEW EASTER MUSIC , & . , 


 ye risen CHRIST 


 rolling season 


 EDWYN A. CLARE 


 new attractive 


 EASTER anthem . 


 CHRIST shall thee light 


 thank GOD 


 204 


 music LENT 


 anthem 


 CHRIST 


 G. F. HANDEL 


 passion LORD 


 passion LORD 


 passion LO 


 rd 


 passion 


 LORD . HEINRICH | M 


 LONDON & NEW YORK : NOVELLO , EWER CO 


 XUM 


 anthem EASTER 


 LONDON & NEW YORK : NOVELLO , EWER CO 


 carol EASTER 


 nothe ? 


 anthem HOLY WEEK 


 - arrangement S.A.T.B. 


 compose 


 MYLES B. FOSTER 


 EASTER HYMN 


 MANE PRIMA SABBATI ) 


 set MUSIC 


 SOPRANO TENOR SOLI , CHORUS , ORCHESTRA 


 ( ORGAN 


 GEORGE J. BENNETT 


 RIDE ! RIDE MAJESTY 


 HYMN passion SUNDAY 


 set MUSIC 


 ARTHUR HENRY BROWN 


 206 


 


 passion 


 LORD 


 according ST . MATTHEW 


 set MUSIC 


 JOHN SEBASTIAN BACH 


 english translation adaptation 


 REV . DR . TROUTBECK , D.D 


 PRICE shilling SIXPENCE 


 ABRIDGED version 


 use 


 ST . PAUL CATHEDRAL 


 passion LORD 


 accord ST . MATTHEW 


 JOHN SEBASTIAN BACH 


 7 


 passion 


 LORD 


 according ST . JOHN 


 set MUSIC 


 JOHN SEBASTIAN BACH 


 english translation adaptation 


 REV . DR . TROUTBECK , D.D 


 PRICE shilling . 


 night 


 BETHANY 


 SHORT CHURCH CANTATA 


 word write compile 


 JOSEPH BENNETT 


 music compose 


 C. LEE WILLIAMS 


 CAREFULLY revise & entirely new english version 


 SIR JULIUS BENEDICT 


 story cross 


 voice ORGAN 


 short interlude , opportunity 


 meditation 


 word 


 REV . E. MONRO 


 set music 


 J. STAINER 


 MYLES B. FOSTER 


 ARTHUR SOMERVELL 


 


 J. VARLEY ROBERTS 


 PRICE threepence setting . 


 


 story cross 


 write 


 REV . E. MONRO 


 PASSION MUSIC 


 ORATORIO " ST . PETER 


 CRUCIFIXION 


 meditation 


 


 REV . W. J. SPARROW - SIMPSON , M.A 


 J. STAINER 


 requiem 


 


 MORS et VITA " 


 CH . GOUNOD 


 GETHSEMANE 


 CHURCH CANTATA 


 word write compile 


 music compose 


 C. LEE WILLIAMS 


 VEXILLA REGIS 


 ROYAL BANNERS FORWARD 


 H. R. SHELLEY 


 BENEDICITE , OMNIA OPERA 


 MYLES B. FOSTER 


 benedicite 


 set music follow 


 MODERN composer 


 SAVIOUR world 


 SALVATOR MUNDI ) 


 SACRED CANTATA 


 FREDERICK E. WEATHERLY , M.A 


 music compose 


 ARTHUR E. DYER 


 nothe 


 EASY CANTATA 


 


 REV . E. V. HALL , M.A 


 HYMNS EASTER 


 FORLENT . 


 important PIANO teacher student 


 208 


 new 


 EASTER anthem 


 o come , let sing 


 


 MYLES B. FOSTER . 


 strife o’er 


 compose 


 BRUCE STEANE . 


 CHRIST , 


 life , shall appear 


 


 J. VARLEY ROBERTS 


 open GATES 


 


 FRANK ADLAM 


 declare GOSPEL 


 


 W. A. C. CRUICKSHANK 


 LO ! winter PAST 


 BERNARD FAREBROTHER 


 WORTHY LAMB 


 compose 


 J. F. BARNETT . 


 day week 


 compose 


 BRUCE STEANE 


 day resurrection 


 compose 


 E. V. HALL 


 HEARKEN unto 


 4 compose 


 LENT 


 


 story cross 


 voice ORGAN 


 


 setting 


 benedicite 


 EASTER EVE 


 NEW SACRED song 


 VIOLIN ORGAN OBBLIGATO . 


 hymn creator 


 motet 


 SOPRANO SOLO , CHORUS , ORCHESTRA 


 music compose 


 children supplement 


 collection 


 hymn child service 


 music 


 edit 


 REV . EDWARD HANDLEY , M.A. , 


 EASY 


 choral communion service 


 compose 


 WALTER J. CLEMSON , M.A. 


 TAB 


 ALFRED R. GAUL 


 passion service 


 NEW sacred work 


 season 


 lent good friday 


 toiler deep 


 CANTATA 


 FEMALE voice 


 MUSIC 


 ALFRED R. GAUL 


 content 


 - song S.A.T.B. 


 fisher sailing 


 dedicate SIR WALTER PARRATT 


 FANTASIA 


 C SHARP MINOR ORGAN 


 compose 


 A. M. GOODHART 


 perform HANLEY , JANUARY 7 , 1897 , 


 presence 


 prince princess WALES 


 CANTATA 


 


 maid ASTOLAT 


 C. SWINNERTON HEAP 


 _ hint choir training 


 reprint , addition , 


 school music review 


 work 


 


 choral society choir 


 commemoration queen reign 


 heart indite 


 BEHOLD , o GOD , defender . 


 bless LORD THY GOD . 


 response canticle . 


 music ORGAN . 


 YE mariner ENGLAND 


 - song 


 YE GALLANT man ENGLAND . ( S.A.T.B. ) 


 ( S.A.T.B. ) 


 HURRAH MERRY ENGLAND . 


 ( S.A.T.B 


 HURRAH ! HURRAH ! ENGLAND 


 pray country 


 soldier BRAVE GALLANT 


 school song 


 TRIOS 


 - song 


 UNISON song 


 TE 


 14 


 2ii 


 commemoration queen reign 


 CANTA TAS 


 BANNER ST . GEORGE | 


 music 


 EDWARD ELGAR 


 VICTORIA ; 


 


 dedicate , gracious permission , MAJESTY QUEEN 


 FLAG ENGLAND 


 BALLAD 


 music 


 J. FREDERICK BRIDGE . 


 BARD PROPHECY 


 CANTATA 


 JUBILEE ODE 


 CANTATA 


 music 


 A. C 


 MACKENZIE 


 dedicate , gracious permission , MAJESTY QUEEN 


 CARMEN SACULARE 


 ODE 


 music 


 C. V. STANFORD 


 - song chorus 


 dedicate , gracious permission , MAJESTY QUEEN . 


 QUEEN SONG 


 music 


 EATON FANING 


 VICTORIA — QUEEN 


 PATRIOTIC CHORUS 


 music 


 JOSEPH BARNBY 


 MARCHES . 


 PIANOFORTE 


 IMPERIAL MARCH 


 


 EDWARD ELGAR 


 VICTORIA — QUEEN 


 


 J. E. WEST . 


 dedicate , gracious permission , MAJESTY QUEEN 


 HAIL glorious REIGN 


 commemoration ODE 


 music 


 F. H. COWEN 


 QUEEN ! GOD bless 


 patriotic - SONG 


 MUSIC 


 MYLES B. FOSTER 


 ORCHESTRAL MUSIC 


 VICTORIA — QUEEN 


 MARCH 


 IMPERIAL MARCH 


 HYMN TUNES 


 LONDON & NEW YORK : : NOVELLO , EWER CO 


 FORK commemorkation queen reign 


 T WELVE 


 hymn tune 


 use service 


 line . author . COMPOSER 


 LONDON & NEW YORK : NOVEL LO , EWER CO . 


 piece 


 VIOLIN PIANOFORTE 


 WILLIAM S. HANNAM 


 content NARCISSUS ECHO 


 POUR - song S.A.T.B. 


 music 


 PAR W. W. PEARSON 


 JOSEPH NESVERA . 


 S 


 


 SC 


 federal greeting 


 SONG JUBILEE TMB MUSIC compose BT 


 MYLES B. FOSTER . 


 SOLO voice , CHORUS , ORCHESTRA , ORGAN 


 suitable choir festival 


 PRAISE LORD 


 ANTHEM 


 


 DR . JACOB BRADFORD 


 humorous irish song 


 Y. music 


 word 


 REV . HON . CANON NEVILLE , M.A. root ? 


 KUM 


 IG OAT TT TT 


 MUSIC suitable service 


 H.R.H. prince WALES 


 hospital fund 


 word select music compose 


 JOHN STAINER 


 SHALL teach 


 child 


 QUEEN NURSES ’ " HYMN 


 DEAN ROCHESTER 


 S. REYNOLDS HOLE 


 music compose 


 GEORGE C. MARTIN 


 


 humorous part- song 


 descriptive chorus 


 NOVELLO , EWER CO . 


 album PIANOFORTE 


 string instrument 


 suite piece 


 suite piece 


 dance 


 GAVOTTE D 


 bourree 


 BENEDICTUS 


 marche 


 GAVOTTE 


 LA MODE ANCIENNE 


 


 DIS 


 thon 


 NEW ORCHESTRAL MUSIC . |new foreign PUBLI cation . 


 0.1 


 D 7 . . ; 7 


 ENMAN STREET , PICCADILLY CIRCUS , W. , LONDON . | ! LONDON & NEW YORK : NOVELLO , EWER CO 


 XUM 


 FUST PUB : publish 


 village ORGANIST 


 edit 


 J. STAINER 


 F. CUNNINGHAM WOODS 


 preface 


 book 1 . 


 book 2 . 


 book 3 . 


 book 4 . 


 book 5 . 


 book 6 . 


 LONDON & NEW YORK : NOVELLO , EWER CO 


 ( second serie 


 dedicate , gracious permission , MAFESTY QUEEN 


 QUEEN SONG 


 A.D. 1897 


 word write SIR EDWIN ARNOLD , K.C.I.E. , C.S.1 


 music compose 


 EATON FANING 


 ' ; _ N , 


 XUM 


 ORDO FON TIRE CETTE 


 O ° O68 


 ‘ 3 ! 1 | 


 XUM 


 — — — | SSR SBE 


 1 6.+ — _ — _ _ 


 } TN 


 ST 


 TUT 


 HH 


 XUM 


 QUEEN SONG 


 1 2 


 1 , 


 SSS 


 c7 c8 . + 9 


 QUEEN song 


 8 . b 


 1 _