


 NM 


 XUM 


 the MUSICAL TIMES 


 AND singing - class CIRCULAR 


 found 


 publish on 


 NOVEMBE 


 ROYAL CHOR . AL SOCIETY 


 ROYAL ALBERT HALL . 


 SATURDAY , NOVEMBER | , at 


 2.30 p.m. 


 ELIJAH 


 MENDELSSOHN , 


 MISS AGNES NICHOLLS . 


 MADAME KIRKBY LUNN 


 MR . BEN DAVIES 


 MR . HERBERT BROWN . 


 SATURDAY , NOVEMBER 29 , at 2.30 p.m. | 


 A TALE of OLD JAPAN 


 COLERIDGE - TAYLOR . 


 the PIED PIPER OF HAMELIN 


 PARRY . 


 news from WHYDAH | 


 the SPIRIT of PAGEANTRY 


 ( ORCHESTRA only ) 


 MISS FLORA WOODMAN , 


 MISS DILYS JONES 


 MR . WALTER HYDE 


 MR . FREDERICK RANALOW 


 ORCHESTRA , 


 FULL CHORUS and 


 ROYAL 


 YORK GATE , MARYLEBONE 


 ROAD , LONDON , N.W.1 


 A. CREIGHTON , 


 UNIVERSITY of LONDON 


 the first of 


 in 1844 . 


 every month . 


 COLLEGE of MUSIC . 


 SOUTH KENSINGTON , S.W. 7 


 the ROYAL 


 PRINCE CONSORT ROAD 


 H.R.H. the PRINCE of WALES , K.G. 


 the ROYAL COLLEGE of MUSIC PATRON ’S FUND 


 OF 


 B.C 


 GUILDHALL SCHOOL MUSIC 


 VICTORIA EMBANKMENT 


 PRINCIPAL LANDON RONALD 


 the ROYAL COLLEGE of ORG ANISTS 


 ROYAL 


 MANCHESTER COLLEGE of MUSIC . 


 advance in price 


 the ASSOCIATED BOARD 


 of the R.A.M. and R.C.M. 


 for local examination in MUSIC 


 MANCHESTER SCHOOL of MUSIC . 


 BIRMINGHAM & MIDLAND INSTITUTE . 


 SCHOOL of MUSIC 


 SESSION 1918 - 1919 


 UNIVERSITY DURHAM 


 the INCORPORATED 


 LONDON ACADEMY of MUSIC , 


 of 


 ORCHESTRAL and CHAMBER MUSIC CLASSES WEEKLY 


 the LONDON COLLEGE for chorister . 


 LONDON COLLEGE of MUSIC . 


 GREAT MARLBOROUGH STREET , LONDON , W 


 examination — local and HIGHER 


 INCORPORATED guild of CHURCH 


 musician 


 ASSOCIATE ( A.1.G.C.M. ) , LICENTIATE   ( L.1L.G.C.M. ) , 


 competition , 1919 . 


 29 , 1920 


 VICTORIA COLLEGE of MUSIC . 


 LONDON , 


 incorporate 1891 


 A , EAC 


 LAD 


 PRAM 


 -HOOL 


 1ANT 


 XUM 


 the MUSICAL 


 BRITISH MUSIC SOCIETY 


 NATIONAL and INTERNATIONAL 


 the RT . HON . A , J. BALFOUR , 


 MR . E , J. DENT . MR . FRANCIS TOYE . 


 CAN you help 


 the 


 BERS 


 society for assistance of 


 lady in reduce circumstance 


 under royal patronage . 


 report upon application 


 MR . W. H. BREARE 


 the techniquer 


 MUNDELL . ' 


 T E CHE STERIAN 


 A NEW MUSICAL MAGAZINE 


 the 


 NOVELLO CHOIR 


 MISS 


 MARGUERITE SWALE 


 voice - production , singing , diction , 


 AND interpretation 


 GRAND OPERA and ORATORIO COACH . 


 ( CHARLES KNOWLES 


 IBBS & TILLETT , 19 , HANOVER SQUARE , W. 1 


 the CHAS . A. GILLETT 


 CORRESPONDENCE SCHOOL 


 WINDSOR CASTLE singer . " 


 the 


 the " WINI " " ASTLE singer 


 concert , AT - home , recital , reception , 


 ARTHUR E. JONES , F.R.C.O. , L.T.C.L 


 ISOR 


 580 the musical 


 guarantee course 


 art . 


 science 


 MUSIC . 


 literature 


 FROEBEL . 


 L.R.A.M. 


 B.A 


 L.L.A. 


 A.R.C.M 


 NOTTINGHAM 


 M. MACDONALD SMITH , 19 , 


 LONDON 


 BLOOMSBUKY 


 W.C.1 


 SQUARE 


 DIPLOMAS 


 PROFESSIONAL notice . 


 J. J. MALTBY ( TENOR 


 FLAMBE ( BA ASS ) . 


 REG IN , ALD GOSS - CUSTARD , F.R.C.O. , 


 MR . SAMUEL MASTERS 


 TENOR 


 ERNE ST MAYI LEW 


 MR . WILLIAM SHEEN 


 MR . AMBROSE COVIELLO 


 COMPOSERS ’ MSS . 


 revise and prepare for printing , 


 DR . NORMAN SPRANKLING 


 DEGREE . 


 preyvaration 


 at first attempt . 


 MUS . BAC . 


 student pass 


 these 


 evision of musical composition 


 SINGING , PIANO , COM- 


 D * . ‘ CROSSLEY.—S 


 LR . A.M. 


 \, . R.C. M 


 MR 


 RT ! 


 ARS 


 XUM 


 the MUSICAL 


 PECL AL -CORRESP ondence course : 


 MR 


 RTHUR ELLARSHAW , L.R.A. M. , A.R.C.M. 


 F.R.C.O. specialist in correspondence 


 tg ngagement accept and postal 


 DR . LEWIS ’ text - book 


 recent sucunssr 


 20 


 COUNTY BOROUGH STOKE - on - trent 


 OF 


 BOROUGH ORGANIST 


 E. B. SHARPLE\ 


 rganist 


 » CHOIRM . ASTER require . 


 organist 


 TANTED.-ORG : ANIST and C CHOIRM : ASTER , 


 G * . BEES SCHOOL , CUMBERLAND.-WANTED 


 OR SALE.-CHAMBER PIPE ORGAN . F 


 NY 


 N SALE .. -two one - manual organ 


 FOR SAL E 


 BAINBOROUGH , 48 , GRIMSBY ROAD , GRIMSB Y 


 MINIATURE FULL SCORES 


 BANTOCK , GRANVILLE 


 ELGAR , EDWARD — 


 A MUSICAL MOTLEY | 


 ERNEST NEWMAN 


 JOHN LANE 


 the BODLEY HEAD , VIGO STREET , W 


 DR . RALPH H 


 BELLAIRS ' 


 FOR the pianoforte 


 ENOCH & son 


 EN 


 XUM 


 four old 


 english dance english dance 


 set set 2 


 compose by compose by 


 FREDERIC H. COWEN . FREDERIC H. COWEN 


 four CHARACTERISTIC WALTZES 


 1 . VALSE BOHEMIENNE . | 3 . VALSE DE LA REINE . 


 2 , VALSE RUSTIQUE . 4 . VALSE MAURESQUE 


 compose by 


 S. COLERIDGE - TAYLOR 


 PIANOFORTE SOLO : 


 TRINITY COLLEGE of MUSIC 


 for the PIANOFORTE 


 content 


 ELKIN & CO . , LTD . , 


 S$ & 10 , BEAK STREET , REGENT STREET , W. 1 


 ‘ SHORT CUTS to PIANO TECHNIC ) 


 FAIRIES of the stream 


 KETELBEY 


 NEW album for the PIANO 


 LEE WILLIAMS SPRING IMPRESSIONS , 


 8 , HEDDON STREET , REGENT STREET , LONDON , W.1 


 NEW CHAMBER MUSIC 


 EDWARD ELGAR 


 QUINTET 


 MINOR 


 FORK PIANOFORTE and STRINGS 


 OUARTET 


 ~ for STRINGS 


 SONATA 


 FOR VIOLIN and PIANOFORTE 


 ion 


 XUM 


 the 


 I , 1919 . 585 


 AND SINGING - CLASS CIRCULAR 


 NOVEMBER 1 , 1919 


 LORD MAYOR - ELECT AS 


 MUSICIAN 


 the 


 XUM 


 586 


 the MUSICIANS ’ COMPANY 


 XUM 


 587 


 1918 - 1919 . " 


 MODERN british composer . 


 XUM 


 SE ES SPS TS : 


 592 the MUSICAL TIM 


 1919 


 MUSIC of the CZECHO - SLOVAKS . 


 NATIONAL OPERA IN PRAGUE . 


 XUM 


 I , 1919 . 593 


 594 the 


 I , 1919 . 595 


 596 


 1919 


 ELGAR ’S QUINTET for PIANOFORTE 


 * ' string 


 597 


 f 


 82 SS 


 the 


 598 


 1919 


 SS 


 1919 


 the MUSICAL TIM 


 600 


 601 


 602 


 1919sir Henry Wood 's finding will be endorse by 
 any of we who have frequently be in a mixed 
 company of musician . we have almost invariably 
 find the narrow outlook , the least educated 
 taste , and the great pretension amongst the 
 singer . their sight - reading power have long 
 since be a byword 

 as musician presumably start fair , we must 
 assume that these deficiency be a result of the 
 vocalist ’ training . Sir Henry Wood , in the 
 article quote above , go on to say what he 
 demand of his singing pupil in the way of 
 attendance at chamber and orchestral concert . 
 ' this kind of training be necessary to all student , 
 but none need it quite so much as the singer . 
 very early in their career , the bud pianist , 
 violinist , and organist get in touch with a great 
 deal of fine music in the ordinary course of study . 
 they be soon busy with Bach and Beethoven , and | 
 for the recreative side of their work there be a 
 wealth of excellent music by Grieg , Chopin , and 
 the minor tone - poet generally . but at an early 
 stage in the singer ’s pupillage his or her ( especially 
 she ) thought lightly turn , not to the vocal 
 equivalent of the lyrical piece of Grieg , or the 
 jolly little dance of Bach , but to the royalty 
 ballad , and there they stay , unless the pupil 
 aspire to coloratura singing , in which case she 

 floridity , and of no human or musical interest , and 
 there she stay . arm with these , and a Press 
 agent skilful and shameless in his use of the big 
 | drum , she pervade the large centre of population , 
 ia roll stone that disprove the proverb by 
 gather a great deal of moss 




 TI 


 603 


 ‘ PESTER 


 ADELINA PATTI , 1843 - 1919 


 1919 


 DEBUSSY as CRITIC . * 


 NEW light on early TUDOR 


 composer . 


 I.—WILLIAM NEWARK 


 the 


 608 


 1919 


 1523 


 MONSIEUR 


 the 


 610 


 RHEINBERGER ’S ORGAN SONATAS . of which the organ repertory have long have too libera| 
 a supply . his smoothly - run fugue be likely to 
 be esteem for a long time , be excellent technical 
 work , and , in their clear way , enjoyable to hear gp 
 long as we demand of a fugue nothing more than mere 
 fugality , so to speak . when we want invention and 
 expression — even passion — we must go to Bach and 
 Rheinberger , Karg - Elert , Reger ( in a few case ) , and 
 a handful of other 

 in mere bulk , Rheinberger ’s twenty Sonatas be an 
 impressive output . have any composer save Beethoven 
 write so many , of such all - round excellence , for any 
 other instrument 

 a glance at the complete list of Rheinberger ’s work 
 — they run to op . 197 — explain the smallness of the 
 proportion of unsuccessful movement in his organ 
 music . he be an experienced all - round composer 
 before he begin to write for the instrument , and even 
 then he give little attention to it for some year , 
 thus , his first organ work — the C minor sonata — be 
 number Op . 27 ; his second — ten trio — Op . 49 ; 
 his third , fourth , and fifth — the Sonatas in A flat , G , 
 and A minor — Opp . 65 , 88 , and 98 . from Op . 11 
 onwards the organ work appear much more frequently , 
 sometimes hard on one another ’s heel ( ¢.g . , opp . 
 154 , 156 , 161 , 162 , 165 , 167 , and 168 ) , so that in his 
 ripe period he write sixteen of the Sonatas , the 
 twenty - four fughetta , the characteristic piece 




 the 


 musical TIME 


 S.—NOVEMBER 1 , 1919 611 


 612 


 1919another mannerism be to be meet with in his final 
 cadence , a favourite form consist of a plain 
 13th — without the 7th — follow by a dominant 7th 
 resolve , not on the tonic chord , but on a six - four 
 — a broad and ecclesiastical effect . he give we q 
 great variety of treatment of this formula 

 the slow movement be notable because they be 
 undoubtedly the first extended piece of the romantic 
 and expressive kind in organ sonata . Mendelssohn 's 
 only two fairly long one be in song form . 
 Rheinberger use this form with delightful effect in the 
 Cantilene of no . 11 and the Cansona of no . 13 . in 
 many of the other Sonatas , the slow movement have an 
 important middle section , and be a highly - organize 
 affair . occasiorally , as in the /dy// of no . 14 , and the 
 Adagio of no . 15 , there be even a touch of the 
 dramatic . the variation form be use in no . 10 and 
 19 — two of the good slow movement , the second very 
 beethovenian in breadth . it be a truism that such 
 movement be the test of a composer . Rheinberger 
 come well out of the ordeal . inall the twenty Sonatas 
 only three of these moven - ent be insignificant — the 
 adagio of no . 1 and the /ntermezzo of no . 3 , and 
 ( possibly ) the /zfermezzo of no . 4 

 although it can not be say that the Sonatas lack 
 appreciation in this country , there be a disposition to 
 overplay a few of the early one at the expense of the 
 rest . there be some excuse for this . if we divide the 
 composer 's work into period , I think we may say that 
 he really find himself with no . 5 , and begin to 
 decline slightly after no . 15 . the first four , and no . 
 16 , 18 , 19 , and 20 , all contain long stretch , and some- 
 time complete movement , as fine as anything in the 
 rest , but they be less successful as whole . in no . 
 16 , 18 , 19 , and 20 there be occasional turgidity , and 
 some of the old vigour and drive power be missing 




 XUM 


 ine 


 1919 


 dd 


 618 


 a visit to an old organ 


 FRAMLINGHAM ORGAN 


 619 


 1919 


 620a 
 that be , to ( a ) the dead classic whose failure be take , 
 down from the shelf , and ( 4 ) some live Composer 
 of a far well work that ought to have have a hearing 
 instead 

 like everybody else , I have read Mr. Newman ; 
 work for year , but I do not recall any concert notice 
 in which he have make anything like a serioy : 
 protest against this injustice . the ' load g 
 the dice against the modern ' may be a habit ¢f 
 half - educate musician , or of pedantic professor 
 it ought to be the last thing a critic should do 
 or even tolerate in other . he should be up in 
 arm at once , do his utmost to put thing right 
 here be a case in point . speak of Beethoven ; 
 Rondino for wind instrument , Mr. Newman say it j 
 a dull work , and add 

 if one of our young british composer be to produce 
 such a work at ( ) ueen ’s Hall , the critic would with one 
 accord say such thing about he that would make his 
 ear tingle for a year after . yet very few of we say , the 
 morning after a concert , that we think the Kondino dull , 
 and if we do drop a hint to that eflect , it be in a half . 
 apologetic way , as if we know we be due the wrong 
 thing in suppose that so great a man as Beethoven 
 could ever be third - rate 

 very few of we ' : Mr. Newman have no doubt sit 
 through the Rondino . have he ever be one of these 
 outspoken ' very few ' ? be he not too ofien bent on 
 make the young british composer ’s ear tingle ? 
 it would be interesting to collect his utterance 
 on such music as the Rondino , and compare they 
 with the scathing and contemptuous term in 
 which he have wave aside certain work of Vaughan 
 Williams for example . no : in this matter Mr. 
 Newman speak for himself . there be plenty of we , 
 with no pretension to his brilliance , who manage 
 somehow to avoid ' load the dice against the 
 modern ' ; indeed , we be not ashamed to plead 
 guilty to work thing sometimes so that the 
 live Composer get an extra pip , just to encourage 
 he , and as a set - off against the pedant and other 
 who have homage and open ear for the dead , and the 
 cold shoulder and the back of the hand and the sole 
 of the foot for the live 




 the 


 CHARLES HARFORD LLOYDBORN OCTOBER 16 , 1849 : 
 die OCTOBER 16 , 1919 

 we regret to announce the death of Dr. 
 Charles Harford Lloyd , which take place at Slough , 
 on his seventieth birthday . he be a native of 
 Thornbury , in Gloucestershire . his bent towards the 
 organ be show so early that at ten year of 
 age he be officiate at the neighbouring church 
 of Rangeworthy , and while still a boy play also 
 at Falfield . his regular study of music begin 
 at the age of thirteen , when he be teach piano- 
 forte and harmony by Mr. Jobn Barrett , of Bristol . 
 he turn again to the organ while at Rossall 
 ( 1865 - 68 ) , take some lesson from Charles Handel ! 
 Tovey , the school organist and music - master . as with 
 so many english organ student of that period , 
 his staple musical diet be inferior to that of the 
 young pianist . when Lloyd be work at the 
 pianoforte under Barrett , his daily bread be Bach and 
 Beethoven : the organ music give he at Rossall be 
 chiefly by Batiste and Léfébure - Wély . fortunately 
 the youth soon after obtain an open scholarship 
 at Magdalen Hall ( now Hertford College ) , Oxford , 
 where he come under the influence of Stainer , who 
 give he a term ’s lesson in harmony , and , even more 
 important , the freedom of the organ loft . ' I gain 
 an experience of untold value to I in watch he 
 as he play the organ , ' say Lloyd in after year 

 at this time he have a leaning towards ordination , 
 and attend the Divinity lecture of Liddon and 
 Payne Smith . he take his Mus . Bac . in 1871 , and his 
 B.A. degree in 1872 , with a second - class in classical 
 mod . and also in theology . but although his study 
 be point to a clerical career , music be more and 
 more get a hold on he . he do a good deal of 
 all - round practical musical work while at the University , 
 among other activity play the harmonium and 
 conduct the Glee Club at Pembroke College . an 
 important factor , too , be his friendship with two other 
 young musician mark out for future eminence — 
 Parry , then an undergraduate at Exeter College , and 
 Walter Parratt , who succeed Stainer at Magdalen 
 at this period 




 622 


 QUEENSTOWN CATHEDRAL . 


 a postscript . 


 1919 . 623 


 NEW organist of EXETER CATHEDRAL 


 YORK MINSTER CHOIR SCHOOL 


 XUM 


 ORGAN recital 


 624 


 appointment 


 promenade novelty 


 025 


 new feature 


 other concertsrecital 

 it be impossible to attempt even a bare record of all 
 the recital of the month . among pianist who have 
 play the most important have be M. Moiseiwitsch , 
 Mr. Lamond , and Signor Busoni . the last - name 
 have not be hear here since 1914 . at his rentrée 
 at Wigmore Hall ( on October 15 ) he be in a cloud- 
 compel mood-——less vehement than of old , but 
 really strong , with more tenderness . his own 
 ' arrangement ' of some of the ' Goldberg ' variation 
 of Bach open up the whole question of the justifica- 
 tion for such treatment of the classic . be that as it 
 may , there can be no doubt that his playing be 
 amazing . such virtuosity in part - playing be almost 
 incredible , and in spite of the modern technique 
 the Bach spirit be not violate . his playing of 
 Beethoven ’s ' Hammerklavier ' Sonata be also 
 bewildering . one have seldom hear more tenderness 
 and beauty ( and less obscurity ) in the slow movement . 
 but have any artist ever succeed in convince we 
 that it be not too long 

 at her recital Miss Myra Hess , besides play 
 Mozart flawlessly , introduce an effective and charac- 
 teristic ' phantasy ' by Bax , compose some time ago 
 Mr. York Bowen give his first recital since the war , 
 and play with admirable lucidity and strong 
 technique . his own study be interesting , but not 
 all suited for the concert room . his ' Sericus dance ' 
 be charming — especially the second — and should find 
 a place in the répertoire of pianist who want 




 VOCAL recital 


 626 the 


 1919 


 GUILHERMINA SUGGIA 


 SONGS 


 SS 


 1919 . 627 


 PIANOFORTE MUSIC . 


 ORGAN MUSIC . 


 WESTMINSTER ABBEY SPECIAL CHOIR 


 628 the 


 1919 


 LORENZ 


 ITALY ’S VOCAL tradition 


 MEYERBEER and his executor 


 ARTHUR HERVEY . 


 LONDON 


 the PROVINCES . 


 630 


 1919 


 DR . H. J. EDWARDS ’S ‘ HYMN OF VICTORY 


 AND PEACE 


 the ROYAL ACADEMY of MUSIC 


 ROYAL NAVAL SCHOOL of MUSIC 


 1917 


 ‘ O P 


 CHAMBER MUSIC for AMATEURS . 


 ( by our own correspondent . ) 


 BIRMINGHAMThe present musical season begin with the first Appleby 
 Matthews Sunday evening orchestral concert at the Futurist 
 Cinema House on September 7 . the first Town Hall 
 vocal concert be give on September 29 by the Wolseley 
 Male - Voice Choir so ably train and conduct by 
 Mr. W. E. Robinson , already know for the result he have 
 achieve in the rendering of well - know part song . the 
 selection be again of a familiar kird , but special praise 
 be due to the singing of Sullivan ’s ' the beleaguered ' and 
 ' O peaceful Night . ' Mr. John Coates receive a most 
 enthusiastic reception , create a perfect furore with his 
 captivating singing of ' Eleanore , ' give in a voice of infinite 
 lyrical charm . Miss Helen Anderton , who be now a great 
 favourite here , be gift with a sympathetic contralto voice 
 of exquisite timbre which she use with perfect art . Mr. 
 Arthur Hytch contribute violin solo , Mr. C. W. Perkins 
 organ solo , and Dr. Rowland Winn accompany in 
 musicianly manner 

 the first of a series of three Saturday afternoon concert 
 be give at the Repertory Theatre , on September 27 , by 
 Miss Beatrice Hewitt , an accomplished local pianist , who 
 have for her coadjutor Mr. Catterall ( violin ) , Mr. Paul 
 Beard ( viola ) , and Mr. J. C. Hock ( violoncello ) in Brahms ’s 
 Pianoforte Quartet in g minor , Op . 25 , give with intelligence 
 and fine tone balance . the programme also contain 
 Beethoven ’s Trio for pianoforte , violin , and ’ cello , in e flat , 
 Op . 70 , and Grieg ’s third Sonata for pianoforte and violin , 
 Op . 45 , excellently interpret by Miss Hewitt and 
 Mr. Catterall 

 the New Philharmonic Society ’s first orchestral concert of 
 the season be give at the Town Hall on September 25 , in 
 aid of a fund for a new organ for the Birmingham Royal 
 Institution for the Blind . it be conduct by Mr. Matthew 
 Stevenson , who give a pleasing , if not perfect , reading of 
 Dvordk ’s ' New World ' Symphony and Wagner ’s ' Vorspiel 
 und Liebestod ' from ' Tristan and Isolda . ' Miss Desirée 
 Ellinger , of the Beecham Opera Company , be the star of 
 the concert , achieve a triumphant success with her fine 
 singe and flute - like soprano voice . organ solo be 




 632 


 1919 


 BOURNEMOUTH 


 BRISTOL 


 _ _ 


 1919 . 633esentation to Mr. Riseley to mark the unique occasion . 
 ' Tam sure , ' say Mr. Roeckel , ' that all our cisizen would , 
 like myself , wish to testi‘y their appreciation of the great 
 work Mr. Riseley have do , and be still do , in the cause 
 of music in Bristol " — a message that will find a response in 
 all Bristol music - lover 

 during the month the weekly organ recital at St. Mary 
 Redcliff , under the direction of Mr. Ralph Morgan , the 
 efficient organist of this fine old church , have continue to 
 draw large congregation . Mr. H. G. Ley , the organist of 
 Christ Church , Oxford , have be one of the visit player , 
 whose varied programme be compile from Franck , 
 Debussy , Bach , Beethoven , and Elgar . at a recital by 
 Mr. Morgan , the entire collection be for a memorial 
 for member of the choir fall in the war 

 Bristol Musical Club have commence its session 
 with some excellent example of chamber music , Heath 's 
 ' macedonian Sketches ' and two Elgar piece — the first 
 Romance No . 1 and his new String Quintet — be in the 
 programme . Mr. Maurice Alexa : der , perhaps our best- 
 know local vivlinist — a player who play with his heart as 
 well as his brain and finger — have give a recital before the 
 Literary Society of Cotham Grove Baptist Church . Muss 
 Imogene Hawkins , a prominent Bristol pianist , give an 
 evening recital at Victoria Rooms for the benefit of St. 
 Dunstan 's Hostel , and play with taste and a nice skill in 
 phrase . song be give by Miss Langrish - Stephens 




 DEVON and CORNWALL . 


 DEVON 


 CORNWALL 


 634 


 1919 


 DUBLIN 


 EDINBURGH 


 LIVERPOOL 


 635Mr . H. Goss Custard ( ' the modern Organ : its tonal 
 equipment ' ) , and Mr. Albert Orton ( ' interpretation 

 the Crane Hall musical Wednesday afternoon continue 
 to provide attractive programme . outstanding occasion 
 be the recital give by Mr. Anderson Tyrer and 
 Mr. Joseph Holbrooke . Mr. Holbrooke as usual be 
 most attractive as an exponent of his own individual 
 music , include the nocturne , ' night by the Sea , ' 
 and a Study in D. at this recital M. Mischa Leon , 
 accompany by Mr. Harold Craxton , give some fine vocal 
 interpretation , notably of Holbrooke ’s setting of Tennyson ’s 
 ' come not when I be dead . ' on October 15 , Miss Una 
 Truman play Beethoven 's Sonata , Op . 27 , no . 2 , Liszt ’s 
 Rhapsodie No . 10 , and piece by Carpenter , Quilter , and 
 Ireland , with abound executive skill and interpretative 
 vision . at these recita! the vocalist include Miss Amy 
 Horrocks , Mr. Charles Wade , Miss Raymonde Amy , Miss 
 Rita Landi , and Mr. W. H. Atkinson . on October 8 the 
 programme be sustain by the Manchester Trio , Mr. J. S. 
 Bridge ( violin ) , Mr. Walter Hatton ( violoncello ) , and Miss 
 Ethel Midgley ( pianoforte ) . excellent performance be 
 give of Arensky ’s D minor Trio , with its exquisite slow 
 movement , and of a Dvorak Trio 

 at his pianoforte recital in Rushworth Hall on October 10 
 Mr. Edward Isaacs give a masterly performance of an 
 attractive scheme , feature of which be Bach ’s chromatic 
 Fantasia and fugue , Beethoven ’s C major Sonata Op . 2 , 
 No 3 , Debussy ’s Toccata , and Liszt ’s ' Venezia e Napoli , ' 
 which exploit the player ’s virtuosity to the full . no less 
 interesting from a musical point of view be Mr. Isaacs ’s 
 own three piece , ' hunting song , ' ' Nocturne , ' and 
 Staccato - Caprice 

 the first of a course of ten lecture on ' appreciation ' 
 be give on October 16 in the Arts Theatre of the 
 University of Liverpool by Dr. A. W. Pollitt , the newly 
 appoint Lecturer in Music to the University . the 
 lecture be give on Thursdays at 5.30 , and be open to the 
 public without fee . at Dr. Pollitt ’s first lecture he discourse 
 upon ' how to listen , ' and subject to be subsequently deal 
 with include ' the construction of Melodies , ' ' the Growth 
 of Harmony , ' ' the suite of Dances , ' ' sonata form , ' ' the 
 sonata as a whole , ' ' the symphony , ' ' Fugue , ' ' Opera , ' 
 and ' Choral Music 




 MANCHESTER and DISTRICT 


 630 the 


 1919 


 SHEFFIELD and DISTRICTThe Misses Foxon have resume their Friday afternoon 
 concert at the Victoria Lecture Hall , a feature of the 
 programme be the introduction of fresh and unfamiliar 
 song and . pianoforte music . a certain proportion of 
 chamber music will also be hear at the twelve concert 
 announce . at the first concert Mr. Stanley Kaye play 
 MacDwell ’s ' tragic ' Sonata . a strong young player , he 
 energize the /or / e passage with boyish enthusiasm , and though 
 he be less happy in passage call for great tenderness or 
 emotion , he have assimilate all the formula of expression and 
 only need to absorb they to become a well - equip , 
 picturesque player . Mr. Ernest Platts sing some spirited 
 baritone song , the good of which be Schubert ’s ' speed 
 along , Kronos , ' Miss Parker Machon sing song by Parry , 
 Mackenzie , and Rimsky - Korsakov , and Miss Ethel Cook 
 accompany 

 at the first Promenade Concert a large audience welcome 
 the revival of these excellent orchestral music - making . the 
 Symphony be Beethoven ’s no . 2 . in which the orchestra 
 reveal quality of neatness and refined tone , the slow move- 
 ment be particularly well do . stirring performance 
 of Sullivan ’s ' in Memoriam ' Overture and a selection of 
 number from the p quant ballet suite , ' the good - humoured 
 lady ' ( Scarlatti - Tommasini ) , be also give . Miss 
 Lena Kontorovitch be the soloist in Mendelssohn 's 
 Violin Concerto . a new work , Nocturne and Rondo , by 
 Frank H. Shera . prove to be music of great imagination 
 and harmonic interest . tinge , yet not unduly , with modern 
 feeling , these two piece be significant addition to new 
 british orchestral music . conductor in search of fresh , 
 interesting , and playab!e number should make the acquaint- 
 ance of such striking work . Mr. J. A. Rodgers , who 
 conduct , secure a sympathetic performance 

 YORKSHIRE 

 concert be to b : thick on the ground during the 
 coming season than at any time since the war begin . the 
 chief choral society have never drop their work , but 
 be in some case renew their energy . particularly be 
 this the case with the Leeds Philharmonic Society , which be 
 celebrate its fiftieth anniversary , and be mark the 
 occasion by an exceptionally good programme . at its 
 head be Beethoven ’s great Mass in D , a work of just the 
 monumental character suitable to a great event , Berlioz 's 
 * Faust , ' which be have a curious ' run ' in the North of 
 England just now , selection from ' Meistersinger ' and 
 ' Parsifal , ' Dear ’s ' song of the Open Air , ' and the 
 customary ' Messiah ' concert at Christmas , be the choral 
 work to be give , and in addition we be promise two 
 concert by the Hallé Orchestra , conduct respectively by 
 Sir Henry Wood and Mr. Albert Coates . Dr. Bairstow be 
 to conduct the choral concert , and he may be rely upon 
 to maintain the technical efficiency of the choir . the Leeds 
 Choral Union be not attempt anything it have not give in 
 previous season , but a special interest be impart to the 
 prospectus by the promise appearance of Sir Edward Elgar , 
 who will conduct on two consecutive date in March , his 
 ' Dream of Gerontius ' and ' the apostle , ' with the Hallé 
 Orchestra and a first - rate cast of soloist . the other work 
 in preparation be ' Messiah ' and ' Samson ani Delilah ' — 
 the composer of which would seem to have receive 
 canonization , since he be twice style in the prospectus 
 * St Saéas . " Dr. Coward remain at his post as conductor 
 of the Society 

 the Bradford Festival Choral Society , under Dr. 
 Bairstow , be this season to give Berlioz ’s ' Faust , ' 
 * Messiah , ' and a miscellaneous choral concert , at which 
 Bach ’s Motet ' sing ye to the Lord ' will be present . 
 the Bradford O'd Choral Society , under Mr. Wilfrid Knight , 
 be give , in addition to ' Messiah , ' ' Elijah ' and ' Merrie 
 England ' — the last be under the composer 's direction . 
 3erlioz ’s ' Faust ' be also choose for the Ialifax Society , 
 which this year be follow very familiar line , the other 
 work announce be ' Elijah ' and ' Messiah . ' Mr. C. H. 
 Moody be the conductor . the Huddersfield Society also 
 promise nothing fresh , but Bach ’s B minor Mass give 
 distinction to the programme , which include also Sullivan 's 

 the Leeds Saturday Orchestral Concerts be this year to 
 be under the conductorship of Mr. Hamilton Harty and 
 Mr. Eugéne Goossens , junr . the programme be on the 
 familiar line which have prove attractive in the past , 
 but one can not resist a wish that the committee have show 
 as much confidence in their supporter as in the case of the 
 Bradford Permanent Orchestra , which also appeal to a 
 ' popular ' Saturday night audience , but have none the less 
 ventured to insinuate among piece whose popularity be 
 assured a considerable number of less familiar work , 
 include a fairly representative series by contemporary native 
 composer , such as Arnold Trowell , Percy Pitt , Coleridge- 
 Taylor , Sullivan , Stanford , Elgar , Vaughan Wiiliams , 
 Holbrooke , Reynolds , Hamilton Harty , and Grainger . the 
 conductor be , as in the case of the Leeds concert , both 
 new - comer , Mr. Godfrey Brown and Mr Geoffrey Toye 

 though the season have at the time of writing only just 
 begin , a considerable number of concert , have already tu be 
 record . the Harrogate season be , of course , a thing of the 
 past , the last of an excellent series of weekly symphony 
 concert having take place on October 15 , when Miss 
 Fanny Davies give a fine reading of Beethoven ’s fifth 
 Pianoforte Concerto . during the season a long series of 
 Symphonies and Concerios have be hear , worthily 

 rforme by the small , but complete and efficient orchestra 
 under Mr. Julian Clifford . among the more noteworthy 
 feature of the latter half of the season be Fauré ’s suite , 
 ' Pelléas et Mélisande , ' Pierné ’s Harp Concerto ( Miss Hilda 
 Atkinson ) Rachmaninov ’s second Pianoforte Concerto ( Mr. 
 Anderson Tyrer ) , and the late Ernest B. Farrar 's variation 
 for pianoforte and orchestra on an old sea - song , ' Hark , the 
 Boatswain , ' a very pleasing work , which accentuate one ’s 
 sense of his premature death in action a year ago . at the 
 same concert Mr. Clifford introduce an orchestral wrk , 
 write in memory of his friend and coileague , entitle 
 ' light out , ' a graceful and sincere tribute , show a more 
 distinct creative power than any of his previous composition . 
 and at a recent concert Miss Bertha Vanner introduce 
 Stanford ’s second Pianoforte Concerto in C minor , which 
 be new to the North of England , and make a most 
 favourable impression , be virile , effective , and sincere 
 music , with a more obvious vein of feeling than usual 

 at Leeds we have have Tetrazzini and Melba concert 
 which require no description or criticism . on October 18 
 the first of the Saturday Orchestral Concerts take place , 
 Mr. Hamilton Harty conduct a typical programme , 
 whose chief feature be the ' Unfinished ' Symphony , 
 Rachmaninov ’s second Pianoforte Concerto ( Mr. Anderson 
 Tyrer ) , the ' Britannia ' and ' Freischiitz ' overture , 
 Bizet 's ' L'Arlesienne ' Suite , and such tit - bit as Jarnefelt 's 
 * Preludium , ' Berlioz ’s ' hungarian March , ' and an orchestral 
 arrangement of Bach ’s toccata in F. Ona October 10 Miss 
 Lily Simms , with the co - operation of Mr. Lloyd Hartley as 
 . give a sonata recital at which Vivlin Sonatas by 

 rahms ( in A ) , Elgar , and Debussy be very artistically 
 interpret , and an admirable vocalist appear in Miss 
 Muriel Robinson . Ona October : Mr. Frederick D : iwson 
 give a pianoforte recital at Leeds which be not only an 
 artistic success but be a veritable ' our de force , as he never 
 leave the pianoforte whilst play with unfligging vigour a 
 long succession of piece range over the whole area of 
 pianofrte music , from Bach and Beethoven ( the ' Funeral 
 March ' Sonata ) to Debussy , Ravel , Cyril Scott , and 
 Holbrooke . he hold a great audience to the end by his 
 masterly performance . ou October 18 the pilgrim who be 
 gine round the country to make known the claim of the 
 ritsh Music S ociety visit Leeds , when Lord H > ward de 
 Walden , Dr. Eaglefield Hu!l ( the founder ) , De . E. H. 
 Fellowes , and Mr. Francis Toye speak from various stand- 
 point of the aim and work of the Society , which , if well 
 back , should be influential in help forward the cause 
 of native art 

 on October 3 the Bradford Subscription Concert season 
 begin with a concert by Madame Tetrazzini 's party , of whom 
 the very gifted violinist , Madame Renée Chemet , be 
 perhaps the most interesting member . on October 9 , Mr. 
 Charles Stott begin a series of organ recital of more than 

 a piece of equal musicianship but great musical charm than 
 the majority of that erudite composer ’s work . Mr. Stott 
 also play Elygar ’s sonata in G 

 at Huddersfield the second season of the Music Club 
 begin on October 8 , when Mr. Gervase Elwes , with Mr. 
 Kiddle at the pianoforte , give a delightful recital of british 
 song . future concert of this admirable series wi!l intro- 
 duce the Catterall Quartet , the Ru - sian vocalist M. Vladimir 
 Rosing , Mr. and Mrs. York Bowen , and Mr. William 
 Murdoch . another interesting Huddersfield enterprise be 
 that of an orchestra form by Mr. A. W. Kaye , a 
 local violinist , who have for some year train a string 
 orchestra of his pupil , and have now complete it by the 
 addition of professional wind , and demonstrate its effiziency 
 at the first of a series of four concerr , on October 11 , when 
 remarkably good and finished performance be give of 
 familiar work like the ' Unfinished ' Symphony , the 
 ' Witliam Tell ' and ' Tannhauser ' Overtures , together 
 with a brief novelry in Balfour Gardiner ’s charming little 
 piece , ' the Home - coming . ' Mr. Laurence Turner prove 
 to be a very capable executant in [ chaikov - ky ’s Violin 
 Concerto , but the outstanding feature of the concert be 
 the wonderfully good ensemble achieve by the large body of 
 string , many of whom be very young player , but have 
 be so thoroughly drill that there be little or none of the 
 raggedness associate with amateur work . on Octoher 14 
 the Huddersfield Glee and Madrigal Society give a programme 
 of which the chief feature be E'gar ’s fascinating ' bavarian 
 Highlands ' Suite , which go very smoothly under Mr. 
 C. H. Moody 's direction . Mr. Clifford bring the Yorkshire 
 Permanent Orchestra , which be hear in Beethoven ’s 
 fifth Symphony , Elgar ’s ' in the South , ' and Mr. Clifford ’s 
 ewn work , ' light out , ' to which attention have already 
 be direct 

 miscellaneous , 
 the VIOLS IN ENGLAND 




 638 


 1919 


 content 


 619 


 621 


 621 


 622 


 music : 


 dure the last month . 


 { _ SOL - FA publication 


 ONIC SOL - FA serie : 


 aite 


 921 


 469 


 > . 133 , 


 THUR 


 ard 


 639 


 1919 


 publish for 


 the H. W. GRAY CO . , NEW YORK . 


 ~ERRARI , 


 AGDALEN COLLEGE , OXFORD . — LAY 


 NV ALE SOPRANO , 


 now for CATHE 


 HOIR VACANCY . — SOPRANO LEADER 


 E ! Y CATHEDRAL . — want , TENOR . 


 TENOR W ANTED 


 the MUSICAL ~ time 


 scale of term for advertisement 


 special notice 


 NEW 


 PIANOFORTE MUSIC 


 ROMANCE 


 MENUET ANTIQUE 


 ALLA MARCIA 


 ROBERT ELKIN 


 ELKIN & CO . , LTD . , , 


 8 & 10 , BEAK STREET , REGENT STREET , W. I. 


 AND of all musicseller 


 ORGAN MUSIC 


 twelve short voluntary for ORGAN . 


 three GOOD ' D SACRE D SONGS 


 COLLARD MOUTRIE , 


 640 the MUSICAL 


 1919 


 POPULAR CHUI RCH MUSIC 


 J. H. M. AUNDER 


 service , 


 ORGAN , 


 CHURCH CANTATA 


 MUSIC for ADVENT and CHRISTMAS 


 EDWARD BUNNETT 


 service . 


 BENEDICIUS and JUBILATE , INE .. < 


 ANTHEMS 


 NEW CHRISTMAS ANTHEMS & carol 


 LLO and COMPANY 


 CALEB SIMPER 


 JOSEF 


 THREE dramatic 


 work 


 HOLBROOKE 'S 


 the curse of MA 


 five dramatic 


 KRONWEN 'S SONG , S 


 » 52 


 5 5 


 JOHN COATES RECITAL ( QUEEN 's HALI ) , 1919 


 the RAVEN 


 the VIKING 


 ‘ LES HOMMAGES 


 TEN PIAN + » etude 


 arrange for PIANO DUET 


 E'LEAN SHONA 


 SUITE MODERNE 


 ANNABEL LEE 


 PIANO 


 S'1X CHARACTER SONGS 


 > 95 


 EDWYN A. CLARE ’S 


 CHRISTMAS anthem 


 FAVOURITE 


 3LESSE be the king . 


 T , MEE 


 the 


 30th thousand . 


 P ATTISON ? S popular CANTATA 


 ANCIENT MARINER 


 1919 


 british music 


 the REPERTOIRE serie 


 number ready now 


 further number in the press 


 ASCHERBERG , HOPWOOD & CREW LTD 


 16 , MORTIMER STREET , LONDON , w.1 


 CANTATAS for CHRISTMAS 


 BETHLEHEM 


 for four solo voice and choru 


 the word write and arrange by 


 E. CUTHBERT NUNN 


 the music by 


 J. H. MAUNDER 


 the 


 story of BETHLEHEM CHRISTMAS CANTAT 


 the word write by 


 SHAPCOTT WENSLEY 


 the music for SOPRANO , TENOR and BASS SOLI , 


 CHORUS and ORGAN 


 compose by 


 JOHN E. WEST . 


 CHRISTMAS EVE 


 for CONTRALTO SOLO , CHORUS and 


 ORCHESTRA 


 compose by 


 NIELS W. GADE 


 CHRISTMAS scene 


 for FEMALE voice 


 FREDERIC H. COWEN 


 CHRISTMAS ORATORIO 


 by 


 J. S. BACH . 


 NOVELLO and ' COMPANY , LIMITED 


 LONDON 


 the nativity 


 for SOPRANO , TENOR , and BASS SOLI , and 


 CHORUS 


 the word and hymn select and the music 


 compose by 


 THOMAS " ADAMS 


 for SOLI and CHORUS 


 the word by 


 ROSE DAFFORNE BETJEMANN 


 the music by 


 JULIUS HARRISON 


 the HOLY CHILD 


 for SOPRANO , TENOR , and BASS SOLI , 


 CHORUS and ORGAN 


 THOMAS ADAMS 


 YULE - tide 


 THOMAS ANDERTON 


 BEFORE the PALING 


 of the STARS 


 A CHRISTMAS HYMN 


 BY 


 CHRISTINA ROSSETTI . 


 BY 


 B. J. DALE 


 AS 


 LI , and 


 E MUSIC 


 LI 


 1919 


 anthem for CHRISTMAS 


 the | ' lute . SE rie 


 of CHRISTMAS anthem 


 WESTMINSTER PILGRIM 


 SIR FREDERICK BRIDGE 


 CLOTH , GILT 


 opinion of the 


 TIMES 


 DAILY TELEGRAPH . 


 MORNING POST 


 DAILY GRAPHIC 


 EVENING STANDARD 


 WESTMINSTER GAZETTE 


 EVENING NEWS 


 SATURDAY review 


 spectator 


 referee 


 GRAPHIC 


 WEEKLY dispatch 


 ATHEN ZUM 


 CITY PRESS 


 SIXTEEN 


 SHILLINGS NET 


 press . 


 HUNTLY express 


 CHURCH FAMILY newspaper . 


 GUARDIAN 


 MUSICAL HERALD 


 ORGANIST and CHOIRMASTER . 


 MUSICAL news . 


 MUSICAL standard 


 MUSIC trade review 


 LADY 'S PICTORIAL 


 the QUEEN 


 ABERDEEN FREE PRESS 


 NOTTINGHAM GUARDIAN 


 SHEFFIELD TELEGRAPH . 


 YORKSHIRE POST 


 BI 


 TA 


 BETTER string now produce in our country than 


 be make anywhere else a british triumph ! 


 CATHEDRAL string . 


 SAMPLE string and art catalogue free . 


 british MUSIC string , LITD . , 


 MONSELL ROAD , FINSBURY PARK , LONDON , N. 4 . 


 CANTATAS for advent 


 secular 


 JAMES BROADBENT & SON , LIMITED 


 BOSTON SPA , YORKSHIRE 


 THEME and SIX diversion ! ORGAN 


 FULL ORCHESTRA 


 compose by 


 EDWARD GERMAN 


 FOR 


 FOUR 


 SHAKESPEARE song 


 TAKE those lip away . 


 S with his lute 


 compose by 


 REGINALD STEGGALL 


 AN introduction 


 ENGLISH country dance 


 TWELVE 


 J. SHARP 


 DANCES 


 CECII 


 VALSE IMPROM 


 PIANOFORTE 


 compose by 


 ALFRED HOLLINS 


 PTU 


 SOLO 


 MUSIC 


 FOR CHRISTMAS . 


 NOVELLO 'S 


 ALBUMS for the ORGAN 


 the village 


 ORGANIST 


 PRICE one shilling net 


 POSTLUDIUM festivum ' _ CW 


 the CARAVAN of 


 the MUSICAL 


 647 


 S. COLERIDGE - TAYLOR 'S 


 INCIDENTAL MUSIC 


 STEPHEN PHILLIPS ’S drama 


 NERO 


 PRELUDE 


 EASTERN dance : 


 suite of four piece : 


 revision of price 


 WEBSTER 's groundwork of music . 


 DR . AIKIN ’S bone prop 


 FOR VOICE PRODUCTION 


 ARNOLD & SONS 


 GILTSPUR STREET 


 LONDON , E.C.1 . 


 PIANOFORTE MUSIC 


 ORGAN 


 MUSIC , 


 VOCAL MUSIC 


 RAVEL . MORCHESTRAL MUSIC 

 BEETHOVEN — string op . 18 , 
 miniature score 

 ROGER - DUCASSE , . — Romance 




 L ITERATURE . 


 TIERSOT . , 


 VER , J 


 " instrument 


 new foreign publication 


 NET 


 SECTION a.—technical practice . in six book 


 SECTION b.—studie . in six book 


 . . ORCHES 


 piece . a JUNI