


 XUM 


 MUSICAL TIMES 


 singing - class circular 


 publish 


 J. EDWARD ST 


 -ROBATIONERSHIPS 


 OCHESTER C ATHE DRAL.—LAY 


 rganist disengage . 


 CLERK 


 month 


 PIANOFORTE 


 ARTICL ED PUPIL 


 39 


 PROFESSIONAL notice . 


 » 20 


 MISS BESSIE HOLT 


 MISS MARIE 


 


 MR . EDW ARD GRIME 


 N R. ARTHU R DORE 


 MUSIC , S SCHOOL . — CHU RCH ENGLAND 


 ADIES ’ SCHOOL . — 


 ALLING W. VENNING SOUTHGATE , 


 party 


 M R. JOSEF CANTOR concert COMP , 


 XUM 


 EPIKLEIS 


 PIR ST . " CLA SS PI ANOF OKTE TUNER 


 SITU ATION . 


 VOVCLIO 


 GENERAL MUSIC 


 RING , 


 business 


 396 


 uthor ’ work correct , revise , 


 N ELBOURNE exhibition 


 WORCESTER , MASS . , U.S.A 


 ORGA 


 ARGE 


 HORN regulate digitorium . 


 sale 


 REG 


 GOR SALE 


 XUM 


 XUM 


 MUSICAL TIM 


 MUSIC string — WHOLESALE RETAIL 


 J. P. GUIVIER CO 


 manufacturer importer 


 kind MUSIC string 


 MUSICAL instrument 


 39 , WARWICK ST . , REGENT ST . , LONDON , W 


 MALEY , YOUNG & OLDKNOW , 


 ORGAN BUILDERS , 


 KING ROAD , ST . PANCRAS , N.W. 


 ORGAN BUILDERS , 


 BATH BUILDINGS , HUDDERSFIELD . 


 NEW MUSIC - engraving 


 ( steam printing ) 


 exhibit 


 50 cent . CHEAPER . 


 VIOLIN BOW 


 MAKERS repairer 


 GEORGE WITHERS & CO 


 WHOLESALE importer 


 musical string 


 fine collection italian instrument . 


 NDON 


 ST . MARTIN LANE , L 


 BRISTC T OL . 


 MR . J. HAMILTON 


 XTAT 


 14 


 95 


 ANUFACTURER 


 ready , NEW edition 


 2 SACRED music english word 


 3 . music vocal ORCHESTRAL 


 


 4 . music pianoforte 


 5 » secular VOCAL music 


 6 SACRED music LATIN word 


 N EW 


 MUSIC 


 VIOLIN PI ANOFORTE 


 PATENT PAPER type COMPANY , 


 62 , HATTON GARDEN , LONDON , E.C 


 45,9 


 MUSICAL TI 


 2 , BERNERS STREET , LONDON , W 


 CONCERT - giver entrepreneur 


 generally . 


 10 clergy . 


 CHOIR - BOYS 


 ORCH ESTRAS choir 


 reduce price 


 SHILLINGS 


 HANDEL MESSIAH 


 BERTHOLD TOURS 


 PIANOFORTE MUSIC 


 compose EY 


 OLIVER KING 


 BERCEUSE — MEDITATION et VALSE 5 0 


 improvisation 


 SERENADE ' © 


 BARCAROL E 4 0 


 NOCTURNE 4.0 


 NEW COMP OSI tion 


 


 ORGAN 


 


 GUSTAV MERKEL . 


 NICODEMUS 


 word select 


 


 MUSIC compose LY 


 FRANCIS EDWARD GLADSTONE 


 PRICE shilling . 


 TEW - MUSIC.—NATURE 


 who'd win MU ST WO 10 . 


 QUEEN 


 XUM 


 XUM 


 ORIGINA 


 9 . 


 II WS 


 12 . 2 


 1 } . 


 ORIGINAL 


 I. 


 3 . 


 5 . 1 


 6 . 2 


 7 : 


 ORIGINAL 


 12 . " " 


 13 . ' . 


 ORIGINAL 


 HNNNWH HH HDD 


 399 


 WIDOW NAIN 


 ANTATA 


 CHOR 


 


 SOLI VOICES 


 SALVATOR MUNDI 


 LW 


 SACRED CANTATA 


 PY 


 SCENES FR 


 MI 


 P. ' ARRY . 


 AGNES ZIMME RMANN 


 ' | 20 


 . 20 


 2 0 


 4 0 


 ARRANGEMENTSeisai yt " * Concerto . compose th r Organ , 
 . F. Handel ... 5 oo 

 . : R. Schumann Skizzen fiir den Pedal fliis ze ] ( sketch 
 Pedal Piano ) . 3 3 0 
 Allegretto alla polacca , Beethoven Seren : ide , Op . 8 , 

 Violin , Viola , Violoncello Pe ce aaa oe 
 Scherzo Beet thoven trio , Vic jin , Viola , Violon- 
 cello , op . 9 , no.1 ; ed es c 3 0 
 menuetto ditto , d itto , op . 9 , . er ces 3 0 
 menuetto Schubert Quartet , Op . 29 3 0 




 LONDON : NOVELLO , EWEKR CO 


 400 


 TRINITY COLLEGE , LONDON 


 local examination 


 elementary musical knowledge 


 class lecture . 


 SEPTEMBER 2 


 HIGHER 


 technical skill music 


 musical examination 


 WOMEN 


 1882 


 MUSICAL TIMES 


 scale term advertisement 


 PIANOFORTE ALBU 


 MS 


 SHILLING 


 composition BACH . 


 composition BACH . 


 composition BACH . 


 composition HANDEL . 


 composition HANDEL , 


 6 . composition HANDEL . 


 perform WORCESTER FESTIVAL 


 IHE BRIDE 


 CANTATA 


 


 compose 


 A. C. MACKENZIE . 


 


 legend FAIR MELUSINE 


 CANTATA SOLO , CHORUS , & ORCHESTRA 


 compose 


 HEINRICH HOFMANN 


 SONG NORNS 


 CANTATA 


 FEMALE voice , SOLO , CHORUS , & ORCHESTRA 


 compose 


 HEINRICH HOFMANN . 


 CINDERELLA 


 LEGEND 


 CHORUS , ORCHESTRA 


 -RICH HOFMANN 


 SOLO 


 HEIN 


 XUM 


 XUMThe concert season M. 
 Lamoureux , Conductor Grand - Opéra , Paris , 
 interesting ' " Young France " 
 musical composition ; , 
 strike conviction 
 ' Old France " set pattern scarcely 
 worthily follow , work 
 worthy hearing . notice 
 time performance ; 
 add expression hope M. 
 Lamoureux pay visit year 
 work fairly consider 
 representative genius country- 
 man 

 apart Pianoforte Recitals Mr. Charles 
 Hallé — include Beethoven 
 Sonatas Bach - Preludes Fugues 

 thoroughly efficient orchestra , chorus , 
 ; solo singer . doubt " fashion " 
 / music , season Berlioz 
 | rage — usually steady - Philharmonic 
 | Society perform ' * Romeo Juliet " sym- 
 phony — scarcely imagine 
 |last fashion ; 
 | question season 
 /earn demand music . meantime 
 _ credit Mr. Hallé , spare trouble 
 bring artist , 
 initiate term " music 
 future , " hitherto neglect 
 scarcely know frantically uphold 
 | work Wagner disciple 




 xum 


 xum 


 404 


 CLEMENT MAROT HUGUENOT 


 PSALTER 


 xum 


 xum 


 405 


 41 , 42 , 445 475 732 90 , 119 , 120 , 121 , 123 , 124 , 125 , 


 i22 


 ( 48 , 49 , 54 , 55 , 56 , 58 , 59 , 60 , 61 , 74 , 75 , 80 , 81 , 83 . 


 406 


 great composer , sketch 


 . 


 xum 


 407 


 408 


 xum 


 409where ; travel easy circum- 
 stance , little remain France . 
 , career composer fix Europe , 
 leave Old World NewI 
 abandon entirely . speak thee 
 aman . thou wilt reflect thou wilt com- 
 prehend . sum , let happen shall 
 thy good friend , entirely 
 devote thee unalterable affection . 
 know thou lovest , console 
 . , sad 
 thou wert useless thyself world . send 
 thee envelope write thy aunt . sister 
 Nancy speak thee ; send thee letter . 
 lack black wax . shall send thee 
 ? stick wax post . 
 tell thy tooth . 
 clean ? adieu , dear child . 
 soul 

 particular concern second visit 
 Berlioz south France turn 
 ' ' Les Grotesques dela Musique , " appear 
 short series letter ' * MM . Académicien libre . " 
 master hope good concert Marseilles , 
 town having , declare , France 
 understand Beethoven . ' play ad- 
 mire quartet Beethoven Marseilles , 
 Paris treat sublime 
 author extraordinary composition 
 fool . " inthe end disappoint . nearly 
 800 person attend , Berlioz time 
 hero town . people , distinct 
 connoisseur , learn day 
 agency garrulous omnibus - driver 
 sit . driver talk largely 
 Rachel , Félicien David , celebrity 
 visit town ; Derlioz listen touch 
 chance horn swing place 

 D , ah ! know 




 410 MUSICAL TIM 


 greek advance 


 HARMONY 


 XUM 


 411r 

 british 
 nay ' * dead Marches " 
 Handel , funeral marche Chopin 
 Beethoven combine , compare , in- 
 stant , solemnity effect , simply intone 
 miserere , provide mise - en - scoue appropriate . 
 question association , remotely 
 sensation ; lively imagination feed sensa- 
 ‘ tion . tell Signor Gamucci 
 | psychological element relatively absent greek 
 | music , understand wsthetical element 
 |which ultimately lead gratification 
 mere sense beauty ; represent degree 
 development follow physiological state pure 
 sensation direct imitation . art , 
 certain extent , independent sensation , 
 | form beauty , estimate sake , 
 psychological element prevail , form 
 |art estimate art sake . regard 
 |music , doubtful Greeks attain 
 jeven wxsthetical stage ; view 

 , faintly understand 

 y 

 case , 
 | absence psychological element prevent 
 ithem adopt , development har- 
 mony , , far conceive musical 
 attainment , like extended form 
 shape . inclined satisfy 
 physiological theory simple form , 
 aid negative psychological theory . 
 imagine ancient Greek , hear 
 symphony Beethoven , gradually cull 
 meaning chaos sound , in- 
 duce stay tolerate absolute discord ot 
 orchestra . , , necessity 
 travel mentally age Pericles find 
 Signor Gamucci primitive physiological state 
 development . vaunted time , 
 number music mainly question 
 intonation , sensation , direct pleasure . 
 dissonance Wagner music abhorrent , 
 dramatic meaning enigma 

 tell expect wisdom multitude 
 councillor , doubt 
 present day thoroughly acquaint 
 theory practice music ; 
 number artist , virtue thcir talent 




 412have earn right look guide 
 large , constantly increase . 
 forget vast 
 difference matter opinion matter 
 fact . grammarian disagree deriva- 
 tion word , musical theorist disagree 
 derivation chord , word 
 chord mean . passage 
 recite , , person equally skilled elocu- 
 tion , work perform artist 
 equally great pianist , main principle 
 recitation performance , 
 express intention author 
 case strictly observe . modern executant , 
 , appear strive convince 
 composer good judge 
 intention interpret . 
 composition great 
 writer alter meet requirement great 
 pianist , edition publish passage 

 print , , presume , accord 
 manner composer play | 
 , editor play . | 
 portion work Beethoven | 
 hear perform engrave , happen 
 know , direct opposition composer intention . | 
 note expressly intend bind repeat ; | 
 piano play forte , fortis play piano ; 
 crescendo transform diminuendo , dim- | 
 nuendo crescendo ; showy ornamental passage 
 insert piece respect suited | 
 treatment ; performer freely forgive 
 play wrong note consideration extra- 
 ordinary manner play right . | 
 subject music , contend , un- 
 warrantable innovation tolerate ; 
 resolutely refuse learn teacher 
 good friend healthy progress art 

 number letter constantly receive 
 earnest , zealous , evidently talented young musical | 
 aspirant accept undeniable proof | 
 grow want sound education art , cither | 
 gratuitous mean | 
 limited resource . course urge | 
 scholarship 
 institution compete 
 introduction , successful candidate receive free | 
 instruction limited period ; | 
 remember prize bestow | 
 exceptional gift enable 
 world art , 
 justify wisdom election . 
 student advanced , 
 old , gain scholarship , 
 careful instruction , raise far 
 gain ; person 
 plead , know 
 mean plead . commu- 
 nication receive past month 
 young lady high testimonial 
 musical power , ask 
 possibility cultivate power en- 
 counter large outlay necessary procure 
 - rate education accredit professor . 
 print letter express wish 
 ; case 
 strong press consideration 
 wealthy patron scholarship 
 assuredly good , great musician , 
 institute benefit general 
 artistic progress . ' ' utterly unable obtain 
 heart desire Academy student , " 
 write correspondent refer 




 XUM 


 413 


 MAJESTY THEATRE 


 ROYAL ITALIAN OPERA 


 LONDON MUSICAL SOCIETY 


 414 


 ROYAL ACADEMY MUSIC 


 HERR RUBINSTEIN MADAME MENTERplay skill characteristic descriptive music 

 expect find selection varied 
 picturesque work popular , 
 opinion charm play composer 
 fair associate . 
 superfluous tell . subsequently , Madame Menter intro- 
 duce Tausig arrangement Weber " L’Invitation 
 la Valse , " Herr Rubinstein follow Beethoven 
 Sonata , Op . 1og , Schumann ' Carnival , ' 
 astounding effect . 
 remarkable réunion season destine historic 
 rank 

 concern recital Herr Rubinstein 
 final Madame Menter need 
 , present new feature . artist 
 play good , fatigued , 
 reason satisfied reward 
 effort form large audience enthusiastic 
 applause 




 high day YORK MINSTER . 


 XUM 


 ANTHEM . 


 INDER MERCIES ’ SAKE 


 LOKD , thy t 


 9 - 6 | 


 XUM 


 _ ~¢2 


 - — - - — --= — — — — _ = - 


 - — - _ — — — _ 


 SS . EOE 


 EERE < S * BEIT " 3 


 s95 - 


 XUM 


 SS 


 22 


 COLLEGE ORGANISTS.—CONFERENCE 


 ORGAN construction 


 XUM 


 421 


 resolution 


 recommendation 


 _ — — _ 


 422 MUSICAL TIMESof Anthem , successful por- 
 tion service ; soloist 
 , addition Messrs. Sexton Bryant 
 duet " child , pray love cherish . " " Men- 
 delssohn overture ' ' Athalie " ' precede cantata , 
 close service War March 
 Priests play orchestra - voluntary . 
 Mr. W. de M. Sergison , Organist church , 
 conductor 

 Tue Worcester Musical Festival commence Sunday 
 afternoon , September 4 , o’clock , special 
 service nave Cathedral . Rev. W. J. 
 Butler , M.A. , Canon Worcester , preach sermon , 
 musical portion include Attwood Anthem 
 ' ¢T glad , " Magnificat Nunc dimittis Mr. C. H. 
 Lloyd , Organist Gloucester Cathedral , Spohr Cantata 
 ' ¢ God , thou art great , " ' old hundredth Psalm . 
 Tuesday morning " Elijah ' ; Wednesday 
 morning anew Cantata Mr. A. J. Caldicott , ' * Widow 
 Nain , " conduct composer , Beethoven Sym- 
 phony C minor , Handel ' " ' Jephtha , " Mr. 
 Arthur Sullivan additional accompaniment ; Wednes- 
 day evening , Cathedra al , * * Engedi ’' ( Beethoven ) , 
 Parts i. ii . Haydn " creation " ; Thursday 
 morning Cherubini Grand Mass D minor ( . 2 ) , 
 Mendelssohn " hymn praise " ; Friday 
 ' ' Messiah . " < special closing service place 
 nave Cathedral Friday evening , Mag- 
 nificat Mages dimittis compose Festival 
 Kev . E. V. Hall , Spohr Overture ' Judg- 
 ment , " Handel s anthem * * king shall rejoice , " | 
 Mozart anthem " + o God , thou appearest , " ' 
 . ' e secular Concerts College Hall 
 evening Tuesday Thursday ; special 
 feature second Concert Cantata Mr. A.C. 
 Mackenzie , ' ' Bride , ' write expressly 
 Festival , conduct composer . 
 princip < al vocalis ts Madame Albani , Miss Annie Marriott 

 Miss Anna Williams , Miss Hilda Wiison , Madame Patey , 
 Mr. E. Lloyd , Mr. Smith , Mr. Dyson , Mr. Maas , Mr. F. 
 King , Mr. Millward , Mr. Henschel . Mr. 
 usual , conduct ; Mr. C. H. Lloyd , Mus . Bac . , preside | 
 organ ; Mr. Langdon Colborne , Mus . Bac . , | 
 pianoforte organ early morning service 

 major , Op . 2 
 Op . 64 ( Haydn ) . work 
 ac condo , intricate extremely diffict 

 Beethoven clearness unity 
 purpose . rendering trio Bennett , , 
 attend great 
 success . Messrs. Ludwig Daubert , efficiently aid 
 Madame Frickenhaus , reveal perfection 
 melodious thought musicianly device com- 
 poser . Herr Daubert display fine tone broad 
 phrasing solo Locatelli Rameau , Mr. 
 Bernard Lane utmost satisfaction artistic 
 singing Handel recitative air , ' ' deep deep 
 ? " watt , angel . " ' excellent accompanist 
 find Mr. J. B. Zerbini . sixth season 
 admirable Concerts look forward 
 true lover music pleasurable expectation good 
 wish success 

 interesting Concert Royal Academy 
 Music W. ednesday , 6th ult . , Cantata 
 entitle ' * Narcissus Echo , " Mr. Edwin , 
 perform time . legend 
 work found offer freely musical purpose , 
 librettist , book 
 word , treat fair skill . 
 composer unfamiliar public , 
 evidently thoughtful musician , having , believe , 
 study Dr. Ferdinand Hiller . write 
 voice ; number cantata graceful 
 melodious . noticeable defect want 
 variety facility orchestration , 
 result inexperience . ' probable 
 Mr. little knowledge art con- 
 ducting direction work , performance 
 suffer consequence . orchestra chorus 
 vere good quality , principal vocalist , Miss 
 Mary Davies , Miss Hope Glenn , Mr. W. H. Cummings 
 render justice share music . ' Nar- 
 cissus Echo " follow short miscellaneous 
 selection , include Gluck Overture ' " Iphigenia 
 Aulis , " Spohr dramatic Violin Concerto ( play Herr 
 Ludwig ) , Schumann Chorus , ' * Gipsy Life 

 portion service admirably render large 

 choir form regular choir Abbey , 
 Special Service choir , member Chapels Royal . 
 Croft Purcell music use , 
 striking selection dirge Sir John Goss , ' 
 King people . " pathetic grand 
 music surely write composer . 
 solo portion impressively Mr. Hilton , 
 chorus , abound delicate light shade , 
 justice excellent choir . Dead 
 March " Saul " ( cleverly engraft 
 dirge ) solemn effect , play 
 body choir chapel Henry VII . 
 sentence grave sing unaccompanied , 
 interment choir mourner proceed 
 nave , Handel Funeral Anthem " body 
 bury peace " sing complete choir 
 eighty voice , Dr. Bridge conduct Mr. W. J. Winter 
 place organ . Beethoven Funeral March 
 play congregation disperse 

 Tuer Report issue Rev. Thomas Helmore , Mr. 
 Kellow J. Pye , Mr. Otto Goldschmidt , Dr. Stainer — 
 judge appoint act competition 
 prize £ 10 . offer Madrigal Society 
 good madrigal — state thirty - composition 
 forward , select trial performance , 
 hold Freemasons ’ Tavern 13th 
 ult . , choose , prove 
 compose Mr. Frank L. Moir . . 16 , " AW hen 
 Chloe eye gaze , " " . 17 , " music , " . 34 , 
 " QO cruel fair , " , specially commend , 
 hope express composer 
 madrigal , competitor ( 
 composition great promise ) encourage 
 send work Annual Prizes 
 establish Madrigal Society , liberality 
 member 




 XUM423 

 desire inquire cause 
 lead Messrs. Schulz - Curtius separate Mr. Franke 
 Herr Richter ; having number men- 
 tione Richter Concerts continue 
 usual year , think necessary inform 
 reader ' * ' Symphony Concerts , ’' prospectus 
 forward , announce 
 ' Fourth Season , " , 
 character programme , series 
 performance ably carry Herr Richter . 
 place conductorship Mr. Charles Hallé , 
 announce commence Monday , 1 , 1852 . 
 Beethoven Choral Symphony , Pastoral Symphony , 
 Mass D , Schubert Symphony C major , 
 Schumann " Faust , " Berlioz ’ * Harold ’ ” ’ Symphony 
 include Concerts series , 
 overture , concerto , solo , play 
 eminent artist . orchestra compose ninety 
 performer ; Beethoven Choir assist 
 choral work . Mr. Otto Peiniger wiil direct Choir ; 
 negotiation pende Mr. August Wilhelmj 
 leader band 

 - fifth annual Concert Southwark 
 Choral Society , commemorate event decide 
 member present Mr. J. Courtnay , Con- 
 ductor , Mr. J. West , Secretary , token 
 respect esteem , having originate Society , 
 fill office commencement . < accord- 
 ingly , r2th ult . , weekly meeting rehearsal , 
 handsomely engrave tea coffee service pre- 
 sente gentleman . pre- 
 sentation Mr. Barr , librarian , lady 
 gentleman Society believe deed , 
 word , ask Messrs. Courtnay West accept 
 tea coffee service , present 
 Society , high estimation 
 service hold . Mr. J. Courtnay 
 Mr. West , cordially greet rise , acknow- 
 ledge gift suitable term . appropriate inscrip- 
 tion engrave service 




 


 dr 


 review 


 xum 


 425 


 foreign NOTESTHE prospective répertvire Imperial Opera ot 
 Vienna come season include follow 
 | interesting revival , viz . , Spontini ' ' La Vestale , ’' Gluck 
 | ' Orpheus , " " Iphigenia Tauris , " Schubert ' " Al- 
 | phonso und Estrella , " Lortzing " Undine , " & c. Boito 

 Mefistofele " ' likewise produce 
 time winter . regard activity dis- 
 play imperial establishment question 
 | past season , extract following statistical detail 
 Musik Welt , accord te , 284 re- 
 presentation , Verdi opera occupy 37 , Wagner 35 , 
 Meyerbeer 33 , Donizetti 22 , Mozart 22 , Rossini 21 , 
 Gounod 19 , Weber 11 , Bellini 9 , Bizet 8 evening 
 respectively . remain performance consist 
 Gluck * Der betrogene Kadi , " Beethoven ' Fidelio , " 
 opera Cherubini , Boieldieu , Halévy , Marschner , 
 Schubert , Délibes , Brill , 

 new cantata Herr Brambach achieve great 
 success performance recent Festival 
 " Rheinische Sanger - Bund , " hold Coblentz . 
 work entitle ' ' Prometheus , " write male 
 chorus , vocal solo orchestra 




 XUM 


 427the possessor * ' Gewerbeschein ' , , en- 
 join wviséd , performance , 
 local police - office ( cost , - centime ) , men- 
 tion numerous minor regulation similar nature . " 
 Herr Otto Devrient complete adaptation 
 german stage ( base Schlegel translation ) 
 Calderon drama ' Circe , " Herr Ed . Lassen 
 supply incidental music spanish 
 dramatist . interesting novelty , expect , 

 produce Weimar Hof - Theater November . 
 viennese journal publish follow anecdote 
 Beethoven , relate Herr B. Neumann , 
 Pleyel , - know pianoforte virtuoso 
 eye - witness occurrence . ' ' day , " story run , 
 ' * grand concert announce Vienna , chief 
 attraction appearance piano- 
 forte great Beethoven . master come , sit 
 instrument , strike chord , 

 produce modulation , abruptly leave room , 
 slightly bow audience . public , course , 
 greatly disappoint , town talk 
 failure concert . visit Beethoven 
 following day , Pleyel receive master 
 word : ' concert yesterday ? 
 fool ! — fancy dispose improvise . 
 arrive good intention , soon 
 find useless , gaveit . ' con- 
 versation Beethoven sit pianoforte , 
 finger grasp key mechanically . suddenly 
 visitor find absorb stream melody ; 
 music sphere visit ear . Beethoven 
 unconscious friend presence , , face 
 glow inspiration , titan sit pianoforte 
 carry away genius 

 Franz Liszt confine room week 
 consequence fall recently sustain Weimar , 
 recovered . veteran macstro remain 
 town mention end month , 
 pay usual annual visit Rome . _ perform- 
 ance ' * Saint Elizabeth , " scenic illustration , 
 place October Weimar , celebration 
 composer seventieth birthday 




 CORRESPONDENCE 


 MUSIC UNITED STATES COLOMBIA . 


 editor ' * MUSICAL TIMES 


 C. B 


 english composer claim , 


 past present . 


 editor ' ' MUSICAL TIMES 


 XUM 


 429 


 STEPHEN S. STRATTON 


 22 


 ORGAN pedal attach PIANOFORTES . 


 editor ' ' MUSICAL TIMES 


 editor ' MUSICAL TIMES 


 organist professor MUSIC 


 correspondent 


 brief summary country news 


 430 


 obituary 


 directory 


 PLAIN SONG 


 


 REV . THOMAS HELMORE , M.A. 


 XUM 


 431 


 JEW , revise , E ENLARGED edition 


 LEAPING 


 ORGANIS1 


 article PUI 


 FREDERICK LUCAS , 


 dure month . 


 TOVELLO , EWER & CO . PIANOFORTE 


 ~ FEMALE VOICE 5 . 


 


 OLY seed - TIME.—HARVEST 


 432 


 NOVELLO FOLIO edition 


 


 MENDELSSOHN 


 thirteen - song 


 shilling SIXPENCE 


 MENDELSSOHN 


 thirteen - song 


 original ( english 


 shilling 


 composition 


 EDWARD HECHT 


 SONGS 


 PIANO SOLO . 


 - song . 


 BO CHOR AL .L SOCIET IES . 


 MUSICAL TIMES 


 contain - choral piece , 


 sacred secular 


 LONDON : NOVELLO , EWER CO 


 NOVELLO , EWER & CO . MUSIC primer 


 dictionary 


 musical term 


 opinion press . 


 NOVELLO original OCTAVO edition 


 chorus 


 especially use 


 choral society 


 SPOHR judgment 


 JOHN SEBASTIAN BACH 


 progressive study 


 preliminary 


 - prelude fugue 


 edit 


 PITTMAN . 


 XUM 


 1881 . 433 


 STEPHEN HELLER 


 study 


 LIN DSAY . SLOPER ’ S 


 new complete edition 


 comprise seven set : — 


 progressively arrange 


 " original " edition , 


 newly engrave , 


 new piece 


 HANOVER SQUARE 


 H ANOVE ] ER | SDITION 


 CLASSICAL & ST ; \NDARD work 


 PIANOFORTE 


 usual professional term 


 new composition 


 


 ANTON RUBINSTEIN 


 PIANOFORTE DUET 


 BAL COSTUME 


 HERR 


 434 


 HARVEST anthem & hymn 


 h. W 


 hymn tune 


 > ) 4 " PN 


 HA RY ESI 


 select hymnary , 


 price PENNY . 


 : NOVE 


 HARVEST 


 JUBILEE CANTATA 


 ( HARVEST CANTATA 


 SOLO voice , CHORUS & ORCHESTRA 


 COM SED 


 HARVEST 


 THANKSGIVING MARCH 


 ORGAN 


 J. BAPTISTE CALKIN 


 ALBERT LOWE HARVEST anthem , : 


 earth LORD 


 ALBERT LOWE HARVEST CAROL 


 HOLY seed - time 


 0 sing 


 easy anthem HARVEST festival 


 unto LORD 


 anthem voice . 


 thank unto LORD . 


 MT 


 HA ARVEST ANTHE } 


 REDUCED price 


 SHORT voluntary 


 ORG 


 NGI 


 JOHN . " HIL ES . 


 NOVELLO 


 TONIC SOL - FA serie 


 ATHALIE ... « . MENDELSSOHN 


 CHRISTUS ... MENDELSSOHN 


 W. G 


 ELIJAH ... MENDELSSOHN 6 


 MENDELSSOHN 


 MENDELSSOHN 


 GOD , THOU ART GREAT 


 HEAR prayer 


 HYMN PRAISE 


 judgment : 


 MENDELSSOHN 9 


 LORD , long w ILT THOU 


 SONG new year . SCHUMANN 6 


 son ART MENDELSSOHN 3 


 LONDON : NOVELLO EWER CO 


 XUM 


 MUSICAL TIM 


 SEVENTY - SEVENTH edition . 


 price shilling , enlarge , 


 COLLEGIATE school 


 sight - singing manual 


 REDUCED price , shilling 


 manual singing 


 use 


 CHOIR - trainer & schoolmaster 


 RICHARD MANN 


 addition , 


 NEW revise edition , 


 COLLEGI IATE ORGAN TUTOR 


 THIRTEENTH edition 


 CATHEDRAL chant - book 


 book 2 , 3 , & 4 , 


 COLLEGIATE school 


 singing manual 


 round , - song , madrigal , motett , 


 supplemental 


 book exercise 


 use 


 learn sing sight 


 HENRY GADSBY 


 SHILLING . 


 


 school round book 


 collection 


 round , catch , canon 


 REV . J. POWELL METCALFE , M.A. 


 SACRED secular mu 


 use school 


 SIC 


 edit 


 JAMES TILLEARD . 


 ‘ th ! ORCHE STRA " choir . 


 collection 


 DURANTE , HANDEL , LEO , § S CARLATTI , STEFFANI , 


 NARES , WEBBE , & 


 e 


 CARL R LE INE CKE 


 J. S. BACH 


 L major MINOR key 


 W. T. BEST 


 436 


 HYMNARY 


 BOOK CHURCH SONG 


 follow edition ready 


 LONDON : NOVELLO , EWER CO 


 TONIC SOL - FA EDITION 


 TONIC SOL - FA EDITION . 


 ANGLICAN HYMN - BOOK 


 special term CHORAL society . 


 BRIGHTON VOLUNTEER review . 


 reduce price . 


 du CED price . 


 ERRING METRIC AL TUN 


 SPOHR 24th psalm 


 reduce threepe nce . 


 * a. MACFARREN - anthem 


 et heart trouble . 


 reduction 


 price 


 NOVELLO 


 SELECT ORGAN piece 


 NOVELLO 


 SHORT melody 


 ORGAN 


 XUM 


 1881 . 437 


 second serie 


 NGLICAN 


 ‘ 


 ANGLICAN chant - BOOK 


 USELEY . monk 


 PSAL TE R 


 HY MNS 


 OULE DI = RIUM CHORI ANGLI 


 TY 


 VATE DEO 1 


 VILLAGE ORGANIST 


 WIEFOR . ORD MORGAN GRA ND M. \RCHES . 


 MARCIA GIUBILANTI 


 MARCHE JOYEUSE 


 MAKCH C MINOR 


 o conductor CHOR AL SOC 


 point chanting 


 


 NOVELL O , EW 


 NE - tvive 


 response 


 commandment 


 GEORGE C. 


 SUB - ORGAN 


 NOVELLO 


 LONDON 


 ND CO 


 MARTIN 


 OFFERTORY SEN 


 appendix festal 


 SET MUSIC 


 JOSEPH BARNBY . 


 NCES 


 


 offertory sentence 


 set music 


 J. T. FIELD 


 435 


 reduce price 


 OUSELEY MONK 


 point PSALTER 


 BS 


 HARROW SCHOOL MUSIC 


 JOHN FARMER 


 ATORIO.- — ' CHRIST soldier . ' 


 GLEES 


 SINGING QUADRILL ESSIN — e iti ig Lar 1 sth s , cloth gilt 

 Pianoforte accompani h. voice , 14d . . BEETHOVEN ‘ SONATAS . " edit AGNES 
 Dui er Street W. | ZIMMERMA Cloth gilt , 21s 

 S 




 JOHN EVANGELIST 


 SACRED 


 . : . 


 


 CANTATA CHURCH ORATORIO 


 SI 


 MUSIC 


 GUST , 188i. 439 


 XUM 


 NEW SONG 


 BASS BARI 


 O MIST RESS 


 NEW SACR ED 


 TRE PILG 


 love hold DEAR 


 SON 


 TONE KING night 


 ONG . NEW SONG 


 ELSIE ( FLOWER GIRL SONG 


 rim 


 T ZINGARA 


 QUEEN 


 ’ F TH 


 GAB RIEL DAVIS 


 IUR ¢ 


 ‘ popular -part " song G ABRIEL 


 DAVIS . 


 VHO OU EEN 


 JACK FROST 


 BROTHER , THOU art , " 


 ANTHEM _ 


 cheap form choir CHORAL society 


 x 9 ( n ¥ 


 - song , & : 


 LONDON : 2 : 


 PI