


 MUSICAL time 


 singing - class circular . . 


 publish month 


 HEREFORD MUSICAL FESTIVAL . 


 BIRMINGHAM MUSICAL FESTIVAL , 


 1894 . 


 TUESDAY , WEDNESDAY , THURSDAY , FRIDAY , principal vocalist : Madame ALBANI , Mrs. HENSCHEL , 
 Miss ANNA WILLIAMS ; Miss HILDA WILSON , Miss MARIE 
 BREMA , Madame MARIAN McKENZIE ; Mr. EDWARD 
 LLOYD Mr. IVER McKAY ; Mr. ANDREW BLACK , Mr. 
 EUGENE OUDIN , Mr. BRERETON , Mr. HENSCHEL 

 Tuespay Morninc . — " ELIJAH . " 
 TuEsDAY evening . 
 BERLIOZ " te DEUM , " anp miscellaneous . 
 WEDNESDAY Morninac . 
 DR . PARRY NEW ORATORIO " KING SAUL . " 
 WEDNEspDAY EvENING . 
 gore THOMAS " SWAN SKYLARK . " 
 MENDELSSOHN " HYMN PRAISE . " 
 TuHurRspAY Morninc . — " * MESSIAH . " 
 TuHuRSDAY EvENING . 
 HENSCHEL new " stabat MATER . " 
 MISCELLANEOUS , 
 Fripay Mornina . 
 z CHERUBINI D MINOR MASS . PALESTRINA ’ 
 STABAT MATER . " MOZART E flat symphony . 
 - Fripay EvENING , 
 TANNHAUSER " OVERTURE . SCHUMANN ' " faust . " 
 BEETHOVEN NINTH SYMPHONY 

 conductor : Dr. HANS RICHTER 




 


 BURGON OPERA RECITAL COMPANY 


 direction 


 ROYAL CHORAL SOCIETY 


 ROYAL ALBERT HALL 


 ROYAL ACADEMY MUSIC 


 TENTERDEN STREET , W 


 GUILDHALLSCHOOL MUSIC 


 LONDON ORGAN SCHOOL INTER- 


 NATIONAL COLLEGE MUSIC 


 22 , PRINCES STREET , CAVENDISH SQUARE , W 


 CHURCH CHOIR GUILD 


 35 , WELLINGTON STREET , LONDON , W.C. 


 578 


 professional notice 


 MR . WILLIAM H. RIEGER — 


 XUM 


 LADY CORNET SOLOIST 


 MR 


 HAMLYN CRIMP 


 TENOR ) 


 MISS 


 FANNY DE BOUFFLERS 


 SOPRANO 


 MISS 


 ALICE WALKER 


 CONTRALTO ) 


 VCE , 


 11 , 1893 . 


 MR . BATES ’ SOLO boy 


 HARVEST FESTIVAL service . 


 MR . DUTTON SOLO boy 


 MASTER WILLIAM GOUGH 


 MASTER EDWARD WOOD 


 EXPERIENCED SOLO boy 


 successful boy 


 MASTER STERNDALE BENNETT 


 WESTMINSTER SINGERS 


 ENGLISH OPERA singer 


 " WALENN " STRING QUARTET CONCERT PARTY 


 ORATORIO QUARTET party 


 MISSES TULLOCH 


 VOCAL , INSTRUMENTAL , DRAMATIC recital 


 VICTORIA COLLEGE MUSIC 


 LONDON CHORAL UNION 


 ELIJAH ( MENDELSSOHN 


 SAINT PAUL ( MENDELSSOHN 


 MUSICAL INTERNATIONAL COLLEGE 


 


 ROYAL COLLEGE ORGANISTS 


 REVISION MUSICAL COMPOSITIONS 


 BAC . , 1892 ; LONDON , MUS . BAC . , 1891 ; DUBLIN , MUS , BAC , 


 TEACHES ORGAN , PIANOFORTE , SINGING , HAR 


 XUM 


 JSTICS , 


 » ) EC 


 , HA 


 PETI- 


 HOIR 


 ARLISLE CATHEDRAL.—WANTED , LAY 


 RGANIST.—RE - engag ement require , 


 ORGANIST . — MR . F. J. MARCHMENT 


 584 


 TRINITY COLLEGE LONDON 


 establish 1732 ) 


 PIANOFORTE MAKERS 


 special appointment 


 MAJESTY QUEEN 


 ROYAL HIGHNESS PRINCE WALES 


 ROYAL HIGHNESS DUKE EDINBURGH 


 ( DUKE SAXE - COBURG GOTHA 


 


 REST ROYAL family 


 HORIZONTAL 


 


 UPRIGHT PIANOFORTES 


 


 ROYAL MANCHESTER COLLEGE MUSIC , 


 MANCHESTER 


 professor teacher 


 singe . VIOLONCELLO . TROMBONE , 


 VIOLIN 


 VIOLA , 


 CLARINET . 


 | BASSOON CONTRA - FAGOTTO 


 CHOIRMASTER 


 ITALIAN , 


 


 " OL 


 TE 


 XUM 


 11 


 ory 


 585 


 containing 


 TALLIS prece response 


 canticle special psalm 


 point chanting 


 SIR J. BARNBY , MYLES B. FOSTER , 


 


 new hymn tune 


 compose expressly 


 SIR J. BARNBY , SIR J. STAINER , & J. E. WEST 


 ready 


 EDITION ( revise greatly enlarge ) 


 


 WESTMINSTER ABBEY 


 CHANT book 


 arrange edit 


 REV . J. TROUTBECK , D.D 


 


 MUSICAL time 


 SINGING - class circular . 


 SEPTEMBER 1 , 1894 


 AMERICAN copyright . 


 judgment 


 586 


 587 


 588 


 judgment 


 xum 


 847 . 


 589 


 study 


 59 


 xum 


 1875 , 


 1867 , 


 591 


 OS 


 592 


 ENGLISH MUSIC 


 XUM 


 XUM 


 593 


 FURCELL . 


 T T 


 SAMUEL 


 _ _ ? @_.@+_- » — _ @__@ _ _ * 


 SSS 22222555 


 HANDEL . ' 


 XYZ 


 4 ! — — ~ — - * — * 6 -2 > 


 SS 


 PURCELL 


 ( SS SE 


 — _ » — _ » - _ — — _ _ 


 2.2 233 ss ] = S 


 EEE sess SSS SS 


 596we - increase fund musical 
 talent country , hitherto 
 lack national individuality Wagner 
 declare essential real music , 
 english choral work , composer 
 follow true english tradition , day 
 . E. D.R 

 BEETHOVEN SKETCH BOOKS . 
 J. S. Sueptock , B.A. 
 second serie ( continue 

 III.—SONATAS , DIABELLI variation , 
 symphony , ' " LEONORE " OVERTURE , 
 MASS D , & c 

 , regard theme Varia- 
 tion flat sonata ( Op . 26 ) , Nottebohm 

 sketch ( " Zweite Beethoveniana , " p , 237 ) 
 middle section theme 
 different . 
 ; Beethoven try 
 half way finished form , 
 write , true 

 follow — 
 tr 
 es 




 xum 


 zz7 
 

 , close draw 
 motive second bar , thoroughly 
 beethovenish 

 follow sketch bar 
 Var . 16 

 MUSICAL TIMES.—Septemser 1 , 1894 . 597 
 tee : yp pas = | a. fe 
 = ss 
 etc . 6 o- ro tl { tp 
 a. 4 4 |b6 
 sss s 
 Peer sp pe oe 

 remarkable sketch Var . 20 , 
 remarkable alike difference 
 likeness print version . way , 
 bar recall opening 
 Arietta Pianoforte Sonata C minor 
 ( Op . 111 ) ? Beethoven work 
 hand time 

 loose sheet Berlin Library 
 find 




 5 5 5 3 


 n.b 


 5 5 . 


 7 6 ~~ 3 ; " ° - . genius art 

 6= } = t= tettesteect |pain , find Beethoven carefully 
 ' f | | finger special bar ; fingering 
 ordinary kind . note second 
 = ot example remark thumb ( curiously 
 ee ee — le = r | mark example 1 dot 
 ) finger immediately pass 
 - , ._| _ _ , _ } . mean finger , 
 + + > -+= — = = bbe= tee rs : " t= f | ready d end bar . 
 " Tete thr ' ' Ein Skizzenbuch von Beethoven , " 
 Nottebohm , long sketch Finale 
 = ee ee ee Symphony D , " Zweite 
 : tn E | Beethoveniana , " . 244 245 , 
 sill , , iui aaa . " 
 Seok , follow , , ( ) 
 ss se = movement , ( b ) Finale , 
 |e eee = f | new , , apparently , early above- 
 : mention — 
 = . e vo gal aig 3 , ! ! _ — _ oe 
 sss aia | ) = 
 = fit ae 
 ee 
 = bs ohh ) 
 afee Pea papa pate ei 
 © ] bs 1"s ei ]   # = : 
 D.C. al Segno 

 pee ee 
 \ f 

 ass al t 
 t 

 Sketch Book ( q. 38 ) find passage 
 belong movement c minor 
 Symphony . Beethoven write pencil 

 eo @o—. wo . 
 sss se 
 ‘ ie ' t t 

 sea ee 
 pagan ; aa | aa 

 compare corres- 
 ponde passage Symphony ( B. H. 
 score , p. 6 ) . Beethoven 
 want . patientid vince 
 motto 

 attractive sketch 
 book ( W. 30 ) ; Scherzo , 
 compare . 4 , p. 63 Notte- 
 bohm " Beethoveniana 

 t } 1 : e=—e - t = 3 
 — — } — 4 I——- ett - -fo 
 aie al eile ™ 




 SS 


 SS SS SSS 


 SS TT 

 Overture publish Beethoven death op . 138 
 suppose write Prague 1807 1808 , , 
 case , second . , , 
 remember Schindler state publish op . 13 
 write , set aside sufficient import 
 ance . Otto Jahn , , preface vocal score opera 
 " Leonore , " second version , consider 8 
 - true foundation Seyfried statement write 

 tague 




 XUM 


 599the ought compare Notte 

 bohm sketch ( ' * Zweite Beethoveniana 

 p. 453 ) ; double , quadruple 
 augmentation publish overture . 
 working Coda 
 approach print version . 
 following , , point close 




 74 4 . l 


 4 4 . | } evidently favourite theme 
 Composer . meet — , 
 exact , minim — 
 sketch C sharp minor Quartet , ina 

 k , accord Nottebohm , 
 use Beethoven mass 

 bear resemblance print 
 passage 




 600 


 music play 


 XUMMr . Billings lament foot - note niggardliness 
 prevent people buy hymn book 
 instead depend clerk deacon 
 read line line . plainly assert 
 exist condition deacon appear 
 monopoly learning , people 
 know read . forcible imputation 
 effect , Mr. Billings 
 book reach number edition . book open 
 dialogue master pupil , 
 Mr. Billings enliven dry principle 
 people invention anecdote . 
 quote italian proverb , ' God love 
 love music , " tell Quakeress 
 regard art worldly pastime . never- 
 theless allow niece attend 
 singing school come , express , 
 " girl safe home . " ' 
 divert , " chronicle Mr. Billings , " 
 come hour school break , 
 , , season , 
 pretension thin easily 
 , conjecture 
 highly entertained audience . 
 , " ' conclude , testily , ' woman 
 acknowledge music gratification 
 

 approach month bring 
 important musical event year — 
 Birmingham Musical Festival . 
 place October 2 , 3 , 4 , 5 . great 
 Oratorio — production 1846 
 Festival bright lustre distinction — 
 appropriately open function ; evening 
 Berlioz Te Deum , Brahms Symphony , . 2 , 
 piece . Wednesday , 
 doubt , day interest musician 
 specially direct , witness pro- 
 duction morning new Oratorio , ' ' King 
 Saul , " compose expressly Festival Dr. 
 Hubert Parry . artist engage work 
 Miss Anna Williams , Miss Marie Brema , Miss Hilda 
 Wilson , Mr. Lloyd , Mr. Andrew Black , Mr. 
 Henschel . evening Cantata late 
 Goring Thomas present time . 
 entitle ' ' Swan Skylark , " 
 score orchestra Professor Stanford . 
 Sullivan " memoriam " overture " hymn 
 praise " ' complete Concert . Thursday 
 morning " ' Messiah " ; 
 evening Mr. Henschel ' " Stabat Mater " 
 produce , associate Schubert " ' unfinished " 
 Symphony work . Cherubini Mass D 
 minor perform Friday morning , 
 Palestrina " ' Stabat Mater , " Good Friday music 
 " Parsifal , " Mozart E flat Symphony ; 
 conclude programme evening inculde 
 Schumann " Faust " Beethoven Choral 
 Symphony — fitting termination . artist 
 , Madame Albani , Madame Marian 
 McKenzie , Mr. Iver McKay , Mr. Mrs. Henschel , 
 Mr. Brereton , Mr. Eugene Oudin engaged 

 sacred profane writer agreement 
 harmony prevail early 
 Christians number , 
 contemn persecute community , 
 bad foe fain exclaim ' 
 Christians love ! " Church 
 rich powerful unity way schism 
 heresy , sort oppose sect spring 




 602 


 


 1503 , 


 603 


 h. t. ARMFIELD , M.A. , F.S.A. , 


 change air 


 fact , rumour , remark 


 XUM 


 605 


 606tue english order knighthood sore trouble 
 foreign journalist . french contem- 
 porarie particular exhibit desperate 
 combination irritation ingenuity 
 compel refer Englishman 
 title . fact sufficiently extraordinary 
 amusing . discovery 
 american cousin — , rate , . — 
 foggy subject Ménéstrel . 
 New York Musical Courier manage , recent 
 issue , refer ' impresario " " Sir 
 Augustus Harris " ' Mr. Harris " 
 space line ; know american 
 musical journal speak gentleman 
 ' ' Sir Harris " ! worthy knight question 
 recently explain parisian avoidance 
 christian result french politeness . 
 " think ' Sir Augustus ' unduly 
 familiar , " . , plausible 
 case France , obviously fit America . 
 american journalist fault , 
 fear ' unduly familiar " 

 Ir pleasant note time time 
 improvement local musical 
 arrangement holiday resort . original 
 .brass ' * Town Band , " satisfactory performance 
 impede necessity 
 harmony " collect , " gradu- 
 ally retire street place 
 pier band stand organise com- 
 petent orchestra . Foremost van musical 
 progress particular Eastbourne , , 
 popular Devonshire Park , excellent perform- 
 ance , able direction 
 Mr. Norfolk Megone . past month 
 work perform include Beethoven 
 Fifth Symphony ' ' Leonora " Overture ; Mendels- 
 sohn " italian " ? Symphony G minor 
 Pianoforte Concerto ; Wagner " Rienzi " 
 ' * Tannhauser " ' Overtures ; excellent selection 
 high - class light music . success 
 attend Concerts induce holiday 
 centre likewise 

 programme musical Recitals 
 past month Edinburgh , title 
 " ' Summer meeting , " usual 
 interest . devote ' ' german song 
 writer nineteenth century " 
 example " Music keltic 
 nations , " include admirable selection 
 Breton , cornish , irish , welsh , manx , scottish 
 folk - song . list executant include Mr. 
 Tobias Matthay - know , 
 scheme reflect great credit 
 Mr. Kennedy - Fraser , management 
 Concerts 




 _ — _ 


 ! 


 


 607 


 CHESTER FESTIVAL . 


 608the history Chester . movement 
 probably remove Symphony find way 
 concert - room . remain 
 regulation — Allegro , Scherzo , slow move- 
 ment , Finale — abstract 
 music . work pleasing suggestive . 
 present puzzle hearer , cause 
 wonder high obscure purpose composer 
 sacrifice musical beauty . matter fact , 
 Dr. Bridge Symphony agreeable hearing , 
 , shorten form , stand fair chance 
 metropolitan welcome . new work , win 
 cordial applause , associate ' ' golden legend , " 
 solo Miss Trebelli , Madame McKenzie , Mr. Lloyd , 
 Mr. Black , Mr. Ditchburn . concern 
 

 morning Cathedral programme include 
 Cherubini Mass D minor , Beethoven Violin Romance 
 G , Schubert symphony C ( , g ) , short 
 cantata , ' ' soul forgiveness , ' " " compose Dr. 
 Sawyer baritone solo , chorus , orchestra . 
 work deal dramatic form subject usually 
 treat manner anthem , far 
 creditable endeavour find new path . 
 music chiefly remarkable orchestration , 
 Dr. Sawyer lag time . 
 effective , impressive , 
 clever . quasi - wagnerian declamation 
 solo voice lie open criticism , Dr. Sawyer 
 congratulate step advance , 
 encourage proceed . Festival close ' * 
 Messiah , " draw enormous audience bring 
 satisfactory week fitting end . con- 
 gratulation Dr. Bridge 

 BAYREUTH MUNICH festival . 
 ( correspondent 




 XUM 


 34 


 XUM 


 dedicate J , A. FULLER MAITLAND , ESQ 


 - song 


 9 - 4 


 — — _ TN 1 


 BALLAD EARL HALDAN daughter 


 WY 


 HH 


 SS 


 WAY 


 1d 


 SL 


 LL 


 10 


 HH hth 


 hhh hhh 


 EF 


 164 . t 


 165 . WV 


 166 . N 


 17 . t 


 168 . N 


 169 . M 


 170 , 


 — = — _ GN 178 , 


 recent number . 


 NOVELLO OCTAVO ANTHEMS.| NOVELLO - song book | 


 = MO 


 475 . 4NOVELLO SHORT anthem . NOVELLO collection 
 = _ — trio , quartet , & c 

 39 . Oye love Lord sshd £ 33 J. W. Elliott 34d . FEMALE voice . 
 4 — = e — " 6 " Matthew coy oh z apcmaaieiianio 
 = 4 . ahe sacrifice te ee ugh Blair 14d . | 289 , Qworshipthe Lord .. .. « .. + . _ S.S. Wesley 3d . 
 se z val gh inthe strength .. 6 ... " ie pg Falcon " e ee ee ee Felix Woyrsch 2d . 
 — . ne oe ee ; 4 hae ne : : d. 
 ) 4 . Oyethat love Lord .. .. § , Coleridge - Taylor Ds Epon t baa auty , ae eee : = 
 45 . ponder word , o Lord .. ' Arnold D. Culley 14d . 293 . vicissitude .. ee alee _ 2d . 
 48 . Jesu , thy Father throne ... F.C. Woods 3d . | 294 . Horsemen | ee 3d . 
 47 . mercy , o God ae se - F. White 14d . | 295 . Ina year ee ke 3d . 
 oa 48 . Jesu , word God ( Ave Verum ) .. ee e " 14d . 296 . hymn nature 4 ae ne L. Streabbog 3d . 
 — 49 . shew thy way , o Lord + » J.V. Roberts 3d . | 297 . Dickory , dickory , dock .. LL Herbert W. Schartau 3d . 
 50 . Lord open door Heaven .. " F.C. Woods 14d . 293 . away ? ae ..   C. Villiers Stanford 8d . 
 ss watch yeandpray .. .. .. « . GR . Vicars 2d . 299 . summer . eee aed mee © Hamilton Clarke 4d . 
 % Thepathofthejust .. ..   ..   .. _ J.V.Roberts 14d . 300 . Tothewoods .. .. . . " 4d . 
 3 OLord , correct .. . + James Coward 14d . 307 , noble thy life fe " eae aa Beethoven 3d 
 continnse . continue 

 LONDON & NEW YORK : NOVELLO , EWER CO 




 PIANOFORTE e- 


 _ — _ 


 CO - operator CRYSTAL PALACE 


 precursor PIANOFORTE 


 review 


 foreign note 


 621 


 1843 . DRESDEN.—Berlioz opera , ' ' Les Troyens , " 
 perform winter season , time , 
 Royal Court Theatre . new opera , " Attila , " 
 Gustav Gunkel , accept production 
 Institution —— year Court 
 Theatre perform - opera thirty - com- 
 poser , ballet drama 
 incidental music . novelty Rubinstein 
 " Kinder der Haide , " Pittrich ' " ' Marga , " Umlauft 
 " Evanthia . " opera Wagner play 
 - evening , Mascagni work hear 
 - time , Weber occupy seventeen evening , 
 Mozart sixteen , Verdi thirteen , Lortzing , Nessler , 
 Leoncavallo ' ' Pagliacci ' ? , Donizetti , Gluck 
 —— antiquarian , Herr Richard Bertling , 
 lately acquire autograph complete musical 
 sketch Wagner " ' Tannhauser . " ' write through- 
 outin kind compressed score , 
 text detail contemplate instrumentation . 
 , numerous place , indication 
 scene begin 
 finish — , page bear date ' Dresden , 
 November , 1843 . " " interesting point fact 
 sketch contain version final scene , 
 date completion . firm 
 acquire number letter address Wagner 
 fiend Ferdinand Heine . contain 
 volume ' letter Th . Uhlig , Wilh . Fischer , 
 Ferd . Heine , " publish Messrs. Breitkopf Hartel 
 1888 , interesting 
 elaborate epistolary utterance master 
 know far . , hope 
 present owner reconsider report 
 decision offer valuable document 
 publication 

 DisseELporr.—Herr Felix Mottl conduct lately 
 grand orchestral Concert , programme 
 devote work Beethoven , Berlioz , Wagner , 
 include Bonn master Eighth Symphony , french 
 Master Overture ' Benvenuto Cellini , " selection 
 fom " Romeo Juliet , " " Faust " overture ; 
 " Parsifal ' ? prelude Liebestod ' Tristan 

 Frau Reuss - Belce sing solo - 

 Mayence.—On October 26 , death - day Peter 
 Cornelius , memorial tablet bronze portrait 
 poet - composer affix house , Mittlere 
 Bleiche , . 28 , bear 1824 

 MILan.—Signor Sonzogno rent Scala Theatre 
 purpose series performance work 
 new Milanese . open season 
 M. Reyer " ' Sigurd . " " . M. Massenet ' * Manon " 
 ' ' La Navarraise , ’' M. Saint - Saéns ' ' Samson et Dalila , " 
 Paladilhe ' ' Patrie , " Delibes * * Sylvia " follow 
 course . Mascagni " Ratcliff ' ? anda new opera 
 Baron Franchetti mention connection 
 enterprise . , 
 rumour German Opera season , orchestra 
 150 ( ? ) player german singer , perform 
 Beethoven ' Fidelio , " Mozart ' ' Magic Flute , " ' , 
 course , Wagner opera music - drama . — — Mascagni 
 nearly complete new opera . title ' ' Serafino 
 d’Albania , " libretto found novel 
 Nicola Misa . autumn 1895 probably witness 
 production 

 Paris.—The novelty announce season 
 Opéra Comique ' Xaviére , " ' Théodore Dubois , 
 libretto M. Gallet ; , ' ' La Vivandiére , " write 
 M. Cain compose Benjamin Godard ; ' ' Guernica , " 
 M. Vidal ; ' Ninon , ' " ? M. Missa ; 




 622 


 MUSIC BIRMINGHAM . 


 ( correspondent 


 MUSIC BRISTOL . 


 ( correspondent 


 xum 


 MUSIC GLASGOW . 


 ( correspondentmusic LIVERPOOL . 
 ( CORRESPONDENT 

 Philharmonic Society issue edition 
 prospectus come season , 
 document especially comprehensive , suffice 
 indication policy pursue October 9 
 March 26 , date form limit time allot 
 Concerts 1894 - 95 . choral novelty 
 Dr. C. H. Parry ' ' Job ’' Tinel Cantata ' ' Lay 
 poppy , " Novem- 
 ber 20 ; Handel familiar ' ' Judas Maccabeus " 
 announce Christmas Concert . sym- 
 phony promise Beethoven " Eroica " 
 Dvorak late musical message present home , 
 whimsically style ' ' new world . " Miss 
 Fanny Davies Lady Hallé announce instru- 
 mental soloist , concerto work 
 pianoforte violin include print scheme . 
 , , place evidence 
 fact come day 
 remote concerto 
 symphony find place 
 Concerts . retrograde movement director 
 Liverpool Philharmonic Society hardly claim 
 congratulation . Sir Charles Hallé 
 Conductor 

 good military music 
 park past month , notable feature 
 playing band Sundays , 
 direction Mr. F. R. Howell . large oppo- 
 sition offer departure year , 
 liberal - minded majority happily prevail , 
 music regular factor weekly 
 régime summer . Sunday Society , 
 exploit local revolution , pur- 
 pose Sunday Concerts St. George Hall 
 October March . seven 
 orchestral , remainder devote Chamber Music 

 opening season Orchestral Society 
 propose scheme following proportion : 
 symphony : Beethoven , 8 , Schubert ' ' unfinished , " 
 Mr. Cliffe ; overture : Wagner " flying 
 Dutchman " Mendelssohn " ' Hebrides . " ' piece , 
 arrangement Wagner 
 ' * parsifal " ' music , afford fair work 
 fine organisation . , scheme 
 Conductor , Mr. A. E. Rodewald , include 
 new music Grieg , Edward German , 
 Tschaikowsky , programme probably 
 prove good offer excellent Society 

 action Lancashire County Council grant 
 Musical Scholarships , Liverpool Corporation 
 direction , commendable 
 Garston Local Board provide teacher singing 
 public class emulate Wavertree . 
 - township elementary advanced class 
 carry expense public fund 
 coming season 




 624A NEw Society , entitle London Choral Union , 
 appeal London public come season . 
 concert Queen Hall , 
 tuesday , November 13 , December 18 , February 26 , 
 April 30 . work announce ' " ' Messiah , " 
 Mendelssohn " Elijah " ' St. Paul , " Sullivan 
 ' * golden legend " ; new cantata , ' " ballad 
 Carmilhan , " rise young composer , Mr. Davidson 
 Arnott , produce . admirable array solo 
 vocalist secure ; orchestra choir 
 number 400 performer ; Organist Mr. Fountain 
 Meen ; conductor , Mr. James W. Lewis . 
 proceed performance devote provide 
 free meal child , food shelter homeless , 
 relief family distress , , way , 
 help poor London . certainly high aim 
 performance , specially popular price 
 charge , lead generous support enter- 
 prise 

 Tue Thursday subscription Concerts 
 management Messrs. R. Cocks Co. , announce 
 Concerts ( morning evening ) , 
 Queen ( small ) Hall , commence November 1 
 terminate March 21 . 
 Concert devote work composer — 
 select series : Dr. A. C. Mackenzie , 
 Schubert , Schumann , Dr. Hubert Parry , Beethoven , 
 Mendelssohn . Messrs. William Nicholl , Hans Adolf 
 Brousil , Otto Peiniger , Septimus Webbe , origi- 
 nator series , , course , 
 programme ; Miss Esther Palliser , Madame Fanny 
 Moody , Miss Louise Phillips , Mr. Arthur Oswald , Mr. 
 Charles Manners , appear series . 
 Miss Mary Carmichael Mr. Arthur E. Godfrey act 
 accompanist 

 chief event musical interest month 
 Choirs Festival Hereford , place 
 11th 14th inst . detail programme 
 appear column , remind 
 reader novelty sacred cantata , ' ' 
 Cradle Christ , " Dr. J. F. Bridge , secular 
 cantata , ' ' Sir Ogie Ladie Elsie , " Dr. C. Harford 
 Lloyd . taste kind music - lover 
 consider , Wagner represent excerpt 
 opera — notably ' Parsifal ’' Vorspiel ; Bach 
 ' * Christmas Oratorio ’' ; Handel ' ' Messiah ’' ; 
 Mendelssohn , Spohr , Dvorak forget . 
 apart novelty , english music worthily 
 represent Mackenzie ' " Bethlehem , ’' Act II . , 
 Parry ' job 




 XUM 


 obituary 


 correspondence 


 hymn apollo 


 editor ' ' MUSICAL TIMES 


 ANCIENT GREEK MUSIC . 


 editor ' * MUSICAL TIMES 


 HANDEL myth 


 editor " ' MUSICAL TIMES . " 


 628 


 EDWARD CUTLER 


 H. H. PIERSON " faust . " 


 EDITOR " ' MUSICAL TIMES 


 EDITOR " MUSICAL TIMES . " 


 PURCELL ORGAN HARPSICHORD MUSIC . 


 editor ' ' MUSICAL TIMESWHEN doctor differ . " 
 editor ' ' MUSICAL TIMES 

 Sir,—The point raise correspondent 
 July number true meaning term con 
 wordini converse senza sordini important 
 teacher pianoforte . doubt 
 , use modern pianoforte music , apply 
 left piano pedal . believe Beethoven 
 intend use direction senza sordini 
 frst movement - ' Moonlight ' Sonata , 
 4 , movement , use sign " Ped . * " 
 place produce certain effect chord 
 write . interesting note term sordino , 
 imply deafness , somewhat effect pro- 
 duce veiling sound , produce 
 pianoforte orchestral instrument , 
 tender English word signify dumbness — i.e. , 
 " mute , " effect produce damper 
 ofthe pianoforte , stop vibration . 
 frst attempt vary tone pianoforte mean 
 stop player left hand raise damper , 

 g transfer pedal . term con 
 ‘ odini senza sordini apply con- 
 ttvance , later piano , soft pedal , introduce 
 veil mute sound , , probable , 
 tim transfer new pedal , 

 iliar direction , " Ped . # , " apply right , damper 
 - bear reference 
 sonata Steibelt , publish 1799 ( year 
 te Beethoven publish Op . 27 ) , pedal 
 ue provide special mark use 

 ti certainly regret recognise manual 




 correspondent 


 BRIEF summary country news 


 AC 


 AL 


 OLI 


 XUM 


 ware : 


 dure month . 


 reduce price : — 


 ROBERT COCKS & CO . 


 MODERN METHOD SERIES 


 6 , NEW BURLINGTON ST . , LONDON , W 


 632 


 contentsamerican copyright . Novello wag v. ns 

 co.—judgment .. 585 
 study ( illustration ) 589 
 English Music S 592 
 Beethoven Sketch ' Books , . 4 " ' Sonatas , Diabelli " Varia 

 tions , symphony , " & c. + 596 
 music play ? se * oe ae — 
 Occasional Notes .. oe m se oe ee ee gor 
 Facts , Rumours , remark 5 % ee sia ae eo 604 
 Chester Musical Festival . pos ou - ~ ee g7 
 Bayreuth Munich Festivals _ . om sae + + 608 
 Co - operator Crystal Palace ie 617 
 Precursors Pianoforte 617 
 review ey aie ie ae sa 618 
 Foreign Notes . ai " oie ee oe oe oe 00 
 music Birmingham se e " ¥ ' oo g2 




 MUSICAL TIMES . 


 scale term advertisement 


 special notice . 


 later twentieth 


 


 school MUSIC REVIEW 


 examination , 1893 


 miscellaneous item 


 


 school music review 


 contain follow music notation : — 


 MENDELSSOHN . 


 JEZIFO 


 FNGRAVED music - plate want . 17 


 ANTHEMS RG 


 £ 


 XUM 


 NUAL 


 RGAN , 


 RICAN 


 RAYSER , 3§ 


 ante . 


 1el . 


 633 


 nglish PIANO maker . — want 


 HOPE - JONES 


 ELECTRIC organ 


 half usual space . 


 increase power variety tone . 


 bracket wall suspend 


 save considerable expense 


 D’ALMAINE 


 PIANOS ORGANS 


 great sale . 


 establish 1843 


 GEO . ROGERS & SONS 


 HORIZONTAL UPRIGHT 


 PIANOFORTES 


 NOBLE tone . 


 HANDSOME appearance . 


 UNRIVALLED durability 


 PIANOS 


 INDIA colony . 


 YACHT PIANOS 


 GEO . ROGERS & SONS 


 60 , BERNERS ST . , OXFORD ST . , LONDON , W 


 . BORGE RISELEY . 


 XUM 


 J ALTER 


 ALLEN , 


 ONAL 


 T. 


 N ( a. 


 20 


 IC 


 T. MEE PATTISON . 


 PSALTER , PROPER PSALMS , HYMNS , 


 BRISTOL TUNE BOOK 


 contain 


 905 tune chant 


 companion HYMN book 


 movement 


 


 A. R. GAUL CANTATA 


 HOLY CITY 


 arrange ORGAN 


 GEORGE CALKIN 


 


 oratorio 


 suitable concert - room church 


 captive BABYLON 


 LAZARUS BETHANY 


 4th 5th thousand 


 produce NORWICH MUSICAL FESTIVAL , 


 OCTOBER 4 , 1893 


 UNA 


 CANTATA 


 SOLO voice , CHORUS , ORCHESTRA 


 VERSE 


 FREDERICK ENOCH 


 music 


 ALFRED R. GAUL 


 performance PUBLIC HALL , 


 IPSWICH , JANUARY 16 , 1894 


 LONDON & NEW YORK : NOVELLO , EWER CO 


 HAMLET 


 compose 


 BERTHOLD tour 


 invention 


 


 


 CLAVIER 


 JOHN SEBASTIAN BACH 


 SHORT prelude 


 piece 


 


 CLAVIER 


 JOHN SEBASTIAN BACH 


 AGDALENA BACH 


 - song § S.A.T.B. 


 FESTAL ORGAN MARC 


 CANTATA , " PRAYER PRAISE 


 LOND 


 ORTE 


 ALFRED R. GAUL work 


 5th 6th thousand . 


 ISRAEL 


 wilderness 


 SACRED CANTATA 


 solo voice , CHORUS , ORCHESTRA 


 TONIC SOL - FA FESTIVAL 


 song life 


 ode music 


 set music - choru . 


 legend 


 WOOD 


 JUVENILE OPERETTA act 


 UNISON singing 


 VERSE 


 morning 


 - song 


 voice 


 LONDON & NEW YORK : NOVELLO , EWER CO 


 CHORAL SOCIETIES 


 SWEET ECHO , SWEETEST 


 NYMPH 


 CHORAL song 


 


 mix voice , ORCHESTRAL accompaniment 


 ( AD LIB . ) 


 189 


 FREDERICK ILIFFE , 


 M.A. , MUS . DOC . , OXON 


 LEIPZIG 


 » 14 — CHORUS work . PIANO extract . 


 » 10 — string instrument . 


 » 21.—ORCHESTRA , 


 » 22 — string instrument . 


 EARLY SPRING 


 ALFRED , LORD TENNYSON 


 set MUSIC CHORUS & ORCHESTRA 


 


 VYVYAN WALLIS POPHAM 


 price shilling . 


 HANDEL FESTIVAL 


 selection , 1894 


 price shilling sixpence 


 638 


 VIRGINS 


 SACRED CANTATA 


 solo voice choru 


 ALFRED R. GAUL . 


 JOAN ARC 


 DRAMATIC CANTATA 


 ALFRED R. GAUL 


 produce utmost success 


 BIRMINGHAM FESTIVAL CHORAL SOCIETY 


 LONDON & NEW YORK : NOVELLO , EWER co 


 humorous - song 


 publish . 


 short historical account 


 


 degree MUSIC 


 OXFORD CAMBRIDGE 


 chronological list graduate 


 faculty year 1463 


 


 C. F. ABDY WILLIAMS 


 LONDON & NEW YORK : NOVELLO , EWER CO . 


 SOLO voice ( SMALL CHORUS ) , 


 CHORUS , ORCHESTRA 


 compose 


 ANTONIN DVORAK . 


 XUM 


 ZRRRRRRRR 


 BREE 


 SBBABBAEAS 


 D CO 


 ‘ 


 639 


 NOVELLO ' 


 VIOLIN & PIANOFORTE ALBUMS 


 LONDON & NEW YORK : NOVELLO , EWER CO 


 640 


 - song 


 FEMALE voice ( S.S.A. ) 


 castanet , TRIANGLE , TAMBOURINE OBBLIGATI 


 word write 


 BERIS 


 music compose 


 HAMILTON CLARKE 


 new humorous - song S.A.T.B 


 JOHN 


 FOUNDED popular american MELODY 


 old folk home , SWANEE RIVER 


 W. W. PEARSON 


 ELFIN QUEEN 


 CANTATA FEMALE voice 


 word write 


 ARTHUR CHAPMAN 


 music compose 


 CLEMENT LOCKNANE 


 


 melodic & progressive 


 VOCAL exercise 


 SOPRANO TENOR 


 AUGUSTE PANSERON 


 ALBERTO RANDEGGER 


 NEW HARVEST anthem 


 


 R. T. CLARK MORRISON 


 popular HARVEST anthem 


 E. A. SYDENHAM 


 , easy , effective . 


 new HARVEST anthem , & , 


 ALBERT LOWE HARVEST CAROL 


 HOLY seed - time 


 ALBERT LOWE HARVEST anthem 


 earth LORD 


 ail HARVEST home ! 


 successful SHORT , easy , effective 


 HARVEST anthem 


 se LORD HARVEST " 


 


 J. H. MAUNDER 


 1ELD 


 RUTH 


 HARVEST pastoral 


 suitable use place worship 


 word 


 EDWARD OXENFORD 


 music 


 ALFRED R. GAUL 


 suitable 


 thanksgiving service 


 perform town hall , BIRMINGHAM , 


 occasion 


 EDWYN A. CLARE 


 popular HARVEST anthem 


 


 WM . JOHNSON . 


 new favourite 


 HARVEST anthem 


 CALEB SIMPER . 


 THOU OPENEST THINE HAND 


 


 WATERETH HILLS 


 HARVEST anthem 


 ND GOD , let earth bring 


 SONG . 


 HARVEST 


 THANKSGIVING MARCH 


 ORGAN 


 


 J. BAPTISTE CALKIN 


 JUBILEE CANTATA 


 HARVEST CANTATA ) 


 SOLO voice , CHORUS , ORCHESTRA 


 compose 


 C. M. VON WEBER . 


 new issue , ready 


 » , 1a. HARMONIUM music . 


 » 2 . SACRED music english word 


 35 3 » music vocal ORCHESTRAL 


 


 4 PIANOFORTE music 


 44 . instruction book , theoretical 


 work , literature music 


 5 . secular - music 


 5a. secular song 


 6 sacred music LATIN word 


 7 TONIC SOL - FA publication 


 new HARVEST anthem , _ 


 hymn tune 


 compose 


 JOSEPH BARNBY . HARVEST 


 select " hymnary 


 643 


 new cantata HARVEST 


 ready 


 HARVEST 


 SONG PRAISE 


 CANTATA 


 SOPRANO CONTRALTO SOLI , choru 


 word write 


 JOSEPH BENNETT 


 music compose 


 C. LEE WILLIAMS 


 SEED - time HARVEST 


 SACRED CANTATA 


 


 SOPRANO TENOR SOLI CHORUS 


 JOHN E. WEST 


 HARVEST - tide 


 CANTATA HARVEST 


 


 TENOR BASS SOLI , CHORUS , ORGAN , 


 SMALL ORCHESTRA 


 compose 


 HUGH BLAIR 


 HARVEST CANTATA 


 CHORUS , SEMI - chorus , ORGAN 


 word select write 


 J. FRANCIS WALLER , LL.D 


 music compose 


 NOVELLO , EWER CO . 


 album PIANOFORTE STRINGED 


 instrument 


 suite piece 


 ARNOLD DOLMETSCH 


 suite piece 


 


 HENRY PURCELL 


 dance 


 music HENRY VIII . 


 


 EDWARD GERMAN 


 RAMEAU 


 BERTHOLD TOURS 


 CHURCH MUSIC 


 service . 


 anthem 


 : ORGAN 


 SECULAR VOCAL . LONDON & NEW YORK : NOVELLO , EWER CO 

 644 
 NEW edition . ready . 
 Ss . 9 . WESLEY 
 + e 
 composition ORGAN , | « 
 : L 
 2 . 
 Epitep G. M. GARRETT , M.A. , Mus . D. 3 
 e. ¢@ 8s . d , + 
 1 . ANDANTE G ( 3 - 4 time ) se pt o| 6 . CHORAL SONG FuauvuE C ... 6 
 2 . LARGHETTO variation F SHARP | 7 . VoLunTARY ( GRAVE ANDANTE ) 0 . : 
 minor se 1 o| 8 ANDANTE CANTABILE G ( cg time ) ... 1 0 ’ 7 
 3 . ANDANTE E FLAT " ne " 4 " tie ) 0| g. introduction FuGUE ( C SHARP urnor ) 2 0 8 , 
 4 . ANDANTE E FLAT ( G time ) ... t 6 ! ga . Ditto Ditto ( Edition ) 1 6 | 
 5 . ANDANTE f 1 6/10 . national anthem VARIATIONSING 2 09 10 . 
 1 , 
 12 , | 
 selection PSALM TUNES | 
 arrange study organ PEDAL OBBLIGATO . 
 4 | 
 d. . 
 11 . Psatm Tunes ( St. Stephen , St. Matthew , 13 . Psatm Tunes ( Westminster , Angel : 15 . 
 104th Psalm ) ... 1 6 hymn , Irish , St. Mary ) .. .. « . 16 — : 
 12 . Ditto ( St. David , St. Bride , St. iam 14 . Dirro ( Windsor , Liverpool , Bedford , " 4 1 
 tooth Psalm ) ais bat eae < 2 16 Manchester ) aes sine . ( 
 | 20 , | 
 LONDON & NEW YORK : NOVELLO , EWER CO . oe 
 ] . ( 
 | publish . - 
 — _ — _ — — uy . 
 5 . J 
 | PEDAL OBBLIGATO # 6 . 
 4 . 
 JOHN HILES 4 
 30 . c 
 | book . * 
 ! price shilling sixpence . 2 si 
 3 . k 
 content . 4 f 
 book tr . book 6 . . * 
 Mein glaubiges Herze frohlocke Bach . Adagio ( Notturno , Op . 34 ) .. .. Spohr . S 
 Maestoso ( ' Der Berggeist ’' ) ae Spohr . | simple Melodie ( op . 174 ) .. : H. Herz . 4 ' 
 book 2 . Andante ( Reformation Symphony ) — Mendelssohn . si 
 : Allegretto Scherzando ( Eighth shin Beethoven . ' ) 
 Concluding Voluntary ( Op . 38 ) © .. « . _ Rinck . book 7 .   K 
 ' book 3 . Allegretto e Andante ( Violin Concerto ) Mendelssohn . f ihe 
 ; 41 . Se 
 44 Trauer ( op . 85 , . 6 ) Schumann . 42 . B 
 rs ( " Iphigénie en Aulide " ) .. Gluck . book 8 . 3 . C 
 Adagio ( Quartet , . 2 , op . 13 ) Mendelssohn . Ada liwoda . ahs 
 : gio ( Quartet , . 1 , op.6 ) .. Kalliw 
 Musette ( Suites Anglaises ) .. Bach . Adagio ( Sonate Pathétique , Op . 13 ) 2 % Beethoven . = 
 ij book 4 . romance ( op . 58 ) . .. ee Kullake ing 
 Andante pit tosto Allegretto ( Sonata , op . 12 , . 2 ) 
 ' Beethoven . book 9 . 45 M 
 andante espressivo .. ee . Mendelssohn . oe ; Beethoven . 
 book 5 . Moderato ( Quintet , op . 18 ) . Mendelssohn . 
 Largo con espressione ( Trio , op . 1 , . 2 ) Beethoven . | Adagio ( Sextet , op . 111 ) Mendelssobn 

 Ro YF DB SH HS HF 
 ooanoeo oc eo 




 XUM 


 645 


 ASHDOWN edition 


 STANDARD PIANOFORTE MUSIC 


 net 


 4 & ND 


 HDNOCAAADDIO DA 


 VOL 


 46 


 47 > 


 48 . 


 49 . 


 50Bache , F. E. characteristic piece 

 Lott . selection , . 1 ( piece ) .. ee 
 Cramer Studio . book 1 . study , 1 42 .. 
 Cramer Studio . book 2 . study , 43 84 
 Beethoven Waltzes < ea 
 Silas ’ Petits Morceaux . op . 17 .. es 
 Beethoven Sonatinas F ee 
 Gibsone meditation ( Sinies ) ... ee 
 Bennett Preludes lesson « < < 
 Heller Douze Valses . op . 97 es 
 Bertini . - Elementary study . 
 op . 137 oe 
 Wollenhaupt . sadiation , . ( piece ) ie 

 Edouard Dorn Mountain Memories 
 Czerny Introduction Etude de la 




 HANOVER SQUARE 


 646 


 NEW foreign publication 


 18 


 LONDON & NEW YORK : NOVELLO , EWER CO 


 select song 


 JOHANNES BRAHMS 


 


 HIGH LOW voice 


 volume , shilling net 


 LILAC 


 LOVER 


 WILLOWS 


 O WUSST ’ ICH DOCH DEN WEG ZURUCK- — 


 O retrace way 


 ICH SAH ALS KNABE BLUMEN BLUH’N 


 FLOW’RS bloom’d , child 


 DIE KRANZE — GARLANDS 


 ROSES 


 ERINNERU NG — REMEMBRANCE 


 WIR WANDELTEN , WIR ZWEI ZUSAMMEN- 


 WANDER’D , 


 BEI DIR SIND MEINE GEDANKEN — thee 


 thought 


 LONDON & NEW YORK : NOVELLO , EWER C0 


 


 LON 


 OMING 


 suit . 


 SHFUL 


 


 RP 


 S$ 


 THEE 


 CO 


 music 


 MILITARY band 


 dance 


 music " HENRY VIII . " 


 compose 


 EDWARD GERMAN 


 BENEDICTUS 


 piece VIOLIN 


 compose 


 A. C. MACKENZIE 


 WEDDING MARCH 


 WILLIAM CRESER 


 BALLET music 


 " COLOMBA , " OPERA 


 compose 


 A. C. MACKENZIE 


 selection 


 redemption 


 compose 


 CH . GOUNOD 


 selection 


 MORS et VITA 


 CH . GOUNOD 


 HUSARENRITT 


 TONBILD AUS DEM KRIEGERLEBEN 


 compose 


 FRITZ SPINDLER 


 POLONAISE 


 " life CZAR " 


 compose 


 M. I. GLINKA 


 COURANTE 


 music HERMAN MERIVALE drama 


 " RAVENSWOOD " 


 compose 


 A. C. MACKENZIE 


 ORCHESTRAL BALLAD 


 compose 


 STEWART MACPHERSON . 


 LONDON & NEW YORK : NOVELLO , EWER COMUSIC FLUTE 

 EASY . = 
 ANDRE , A.—Fantasias ey - seeese ged " Sonnam- 
 bula ' - 
 ARDITI , L. wy bacio " ( Valse ) ae 
 BADARZEWSKA , TH . — Priére d'une Vierge " " 
 BERNER , L. — jar rtenblatter- Walzer 
 BOHLMANN.—“A short tale " 
 BRAGA.—Serenade P 2 
 CRAMER , H.—“Le Désir " ( Pensée Tomantique ) 
 DURAND.—Chaconne ae 2 
 FORDE , W.—Meélodie Suisse avec Variations 
 GODARD.—Berceuse de Jocel - " ° 3 
 HAUSER.—Preghiera 
 ST.-SAENS.—"Le Cygne " .. 2 
 SCHUBERT , F.—Cantabile .. 
 SCHUMANN , R.—Réverie ( Op . 15 ) . 
 moderately difficult . 
 BACH , S.—Air Suite D es 
 BERBIGUIER , F.—Fantasia " La Muette es 4 
 BIRD , A. — Oriental Scene pe ee 2 
 BORDT , H.—Divertissement " ' Dinorah " . p 2 
 ditto " Leicht Gepack , " Naumann 2 
 DOPPLER , FR.—Fantasia ' ' Mutterseelenallein " 2 
 ER NST , H. W.—Ele egy . aa ae seid 
 FAHRBACH , jos . — " Abendunterhaltungen " - 
 . 1 . den Augen liegt das Herz . 
 » 2 Le Désir . 
 » 3- Schafer Klagelied . 
 & Schweizer ’ Heimweh . 
 5 : Wie mir m Herzen schwer . 
 Fantasia Airs romain . 
 FURSTENAU , 4 — concertino , e minor .. « 4 
 " nocturne variation " Libella " < : 4 
 ‘ Concertino , minor .. ' ' aa 4 
 pe " Adelaide , " Beethoven 
 Elegy , Ernst ee ue aa te 
 JANSA , L. — * der junge Opernfreund " ' : variation Pot- 
 pourri " : Prophet , * ¢¢ Mastha , " " Freischiitz , " " Zampa , " 
 " Traviata , " ' Trovatore , " " Rigoletto , " " Entfiihrung , " 
 " Dame Blanche , " " Don Pasquale , * ne Siciliennes , " 
 " Dinorah , " " Lombardi " . e ° ee 2 
 ADASSOHN.—Concert Piece . op . 97 aa ax 5 
 OSZKOWSKI.—Serenade .. aa 
 RAFF.—Cavatina . 2 
 ST.-SAENS . — " Reverie du Soir " : 2 
 SPINDLER , FR . — ' Husarenritt " .. . SD 
 ST UKMEST , H.—Soirées Musicales : Fantasias . 1 
 . 1 . Auf Fliigeln des Gesanges . 
 » 2 Schlaf wohl du siisser Engel du . 
 » 3 + Gute Nacht du mein herziges Kind . 
 » 4 . o bitt ’ euch liebe Vogelein . 
 mandolinata . 
 TERSC HAK : — érénade Militaire .. ee 2 
 " Studies . book i. z 

 Columbus " .. 3 
 - " Carnaval Suisse " 3 
 . Capriccio . op . 144 3 
 - " Fioritta " ( italian ai ) 3 
 ao " Schierling " ’ ° 3 
 Allegro de Concert ae 3 
 " Raphaela " 3 
 ja Mélancholie hongroise = 3 
 BF Deutsche Soldatenbilder . 3 
 . 1 . Schaarwache . 
 » 2 . Tages - Reveille . 
 » 3- m Lager . 
 » 4 . Zur Parade . 
 ae . * — — 
 6 . Begrabnis . 
 TSCHAIKOWSKY.—Chant sans paroles .. < ee oe 3 
 difficult . 
 ANDERSON J.—Concert piece . 3 3 
 BEETHOVEN.—Serenade . op . 41 . 3 
 DROUET , l.—variation " Caro son tua cosi " 2 
 Andante Polacca , = 
 Fantasia en Rondoletto theme Carafa 
 HOLM.—Concert Piece . op . 5 . aa « e wan 
 POPP , W.—Little Fantasia " Oberon " 
 Spanish Concert ae . 2 
 MATTEI , T.—“Ce n’est pas vrai " .. ee 2 
 SACCHETTI , a.—divertissement .. ee xa 3 
 TERSCHAK.—Grand Concert Allegro . op . 18 .. 3 
 wa ea 2 

 VIVALDI , A.—Concerto . op . 10 , no.3 




 price net 


 LONDON & NEW YORK : NOVELLO , EWER CO 


 AAACWOACA 


 DAAAD 


 PQPAMAAAAAAGDO 


 CATHEDRAL 


 PARAGRAPH PSALTER 


 contain 


 canticle , psalm , proper psalm 


 arrange paragraph point chant 


 


 scheme appropriate chant brief 


 note psalter 


 edit 


 REV . J. TROUTBECK , D.D 


 PRICE shilling SIXPENCE 


 LONDON & NEW YORK : NOVELLO , EWER CO 


 MS 


 XUM 


 ( second serie 


 CLAUGHTON ST . CECILIA CHORAL SOCIETY 


 O lovely 


 - song PIANOFORTE accompaniment 


 word write HENRY WETHERED 


 EDWARD GERMAN 


 , — _ " 2 


 SSS ss=_—s_l SSS 


 O lovely 


 NNE HW THD . 


 ’ % : LZ 


 O LOVELY 


 LU 


 SH 


 HHH HH 


 O LOVELY 


 RRA OA 


 L- Y TF ¥ = | 


 HH 


 — — 3 | FE 


 : SN SAL SSE NS 


 — — — — = = _ — _ — _ — — _ 


 XUM 


 : PN 


 VL 


 HH 


 O lovely 


 BEEK 


 " +8 7 


 " kin¢ 


 NB