


 MUSICAL TIMES 


 found 1844 . 


 publish month 


 ROYAL ALBERT HALL . CHORAL 


 ELGAR ENRICO BOSSIS 


 ROYAL ACADEMY MUSIC 


 TENTERDEN STREET , W 


 QUEEN HALL 


 ROYAL COLLEGE MUSIC , 


 PRINCE CONSORT ROAD , SOUTH KENSINGTON , S.W. | SATURDAY , FEBRUARY : ma 3 . ? overture , ' * Ober . 
 ielegrams — * * Initiative , L len Telephone — * ' 1160 , western . J 

 5 , C minor Beethoven . 
 w , Violi M l 

 Patron : MAJESTY KING . pre sheeag = ae tom Nov 
 president : H.R.H. PRINCE WALES , K.G. . ee ek 
 Direc iolin Solos 
 Sir C. Huserr H. Parry , Bart . , C ov . ‘ O. , D.C.L. , M.A. , Mus . Doc . 
 Hon . Sec . : CHARLES MORLEY , Esa 

 sonata . 6 , Op . 86 ( Fugue Adagio ) , ROBERT NEWMAN , Manager . 
 t ( Schott & Co 

 AR . C.O. Examination begin July 22 . subject TNY " repe4iinryvy > ™ D 
 Ess \ - — ' ' Beethoven symphony , UNIVERSITY DURHAM . 
 ir e Grove , C. B. ( Novello & Co. ) . 
 llege open daily 10 a.m. 5 p.m. Saturdays Examinations Degrees Musi 
 March ( testamur ) September 
 E. H. TURPIN , Hon . Secretary . particular , copy Examinatior 

 ington Gore , S.W. Secretary Examinations , Dr. Armes , Durham 




 GUILDHALL SCHOOL MUSIC . ROYAL ACADEMY MUSIC¢ CORI 


 GI 


 HARMONY . 


 PIANOFORTE PLAYING . 


 MA 


 LTER HANDEL THORLEY . 


 PROFES 


 NATIONAL COLLEGE MUSIC 


 ALN M 


 LRAM . (; 


 


 


 PIANOFORTE & MUSICAL INSTRUMENT 


 CORRESPONDENCE SCHOOL MUSIC , 


 LONDON 


 GI IUATED POSTAL lesson HARMONY , 


 { 4 4 4 


 ) 


 


 NATIONAL SOCIETY MUSICIANS 


 BRAIN KEYBOARD 


 ~ 140 , NEW BOND STREET , LONDON , W 


 SE " SCHOOI 


 MUSICAL 


 1907 


 professional notice 


 change address . 


 MARIE GOODALL 


 MADAME ANNIE GREW 


 4 DEVONIAN LONDON 


 EDWARD COLLYN - EDWARDS 


 NEW SEVCIK VIOLIN MI 


 P ROFESSOR KOENIG 


 class PRIVATE lesson . | 


 MR . SIVEY LEVEY 


 song recitation PIANO 


 MISS ELL . \ CHIL DS 


 MISS MYF ANWY JONES 


 L.R.A.M. , SOPRANO ) 


 MISS ES TE L LA L INDEN 


 SOPR ‘ ANO 


 NEW CHROMATIC 


 MISS ET HEL RADB U RN 


 ( SOPRANO 


 MISS AGNES WALKER 


 ( DRAMATIC SOPRANO ) 


 MISS LILLIAN DEWS 


 ( CONTRALTO ) . 


 STANDARD WORKS ORATORIOS 


 ALI 


 MISS EMILY HART 


 CONTRALTO 


 IE RANCIS GLYNN 


 ) . 


 MR . SAMUEL MASTERS 


 MONIC ABA 


 WIGAN ID 


 MR . | 


 MR . 


 MEE 


 GRANGE ROAD , KINGSTON - - THAMES 


 MR . GWILYM RICHARDS 


 MR . WILLIAM WILD 


 TENOR VOCALIST 


 POSTAI 


 H. GRIFF 


 LR . A.M. 


 MR . JOHN BROW ‘ NING 


 ( BARITONE ) , 


 ARTHUR WALENN 


 ( BARITONE 


 PUPILS . — 


 COMPOSI 


 F.R 


 MUSICAL 


 MR 


 MR . CUTHBERT ALLAN 


 MR . DUDLEY STO\U 


 ( BASS - BARITONE ) . 


 MR . HERBERT TRACEY 


 ( BASS - BARITONE ) . 


 BASS ) . 


 MUSICAL 


 , 1907 . 77 


 MADAME MARIE KORAN 


 noforte theory instruction ) 


 DERICK MOORE " ( RAM 


 MR . J. M. PRESTON 


 ( concert ORGANIST ) , 


 SOLO BOYS 


 MR . DUTTON SOLO BOYS 


 voice , song , speech 


 17 


 MUS.B 


 evision MUSIC : AL COMPOSITIONS 


 COAC HING 


 DRA 


 F.R.C.O. ( 5 


 ye ar ’ success : — 2 MUS . DOC . , 18 MUS 


 N ISS ETHEL LAWSON , L.R.A.M. , 


 DR . LEWIS ’ text - book : 


 DEGREES . L.R.A.M. , 1897 - 1906 , - 


 success ; A.R.C.M. , 1897 - 1906 , 


 counterpoint , . COMPOSITION , ORCHESTRATION 


 R. JOSEPH SPAWFORTH , A.R.A.M 


 CELLO LESSONS . 


 


 1906 . 


 N.W 


 ALING VOCAL & MUSICAL ACADEMY , W. 


 M ADAME MARIE 


 


 MUSICAL TIME 


 S.—FEBRUARY , 1907 


 late success 


 O CANDIDATES F MUS.B. 


 DEGREES 


 HESTER 


 ( 


 VAC 


 CATHEDRAL . 


 SNGAGEME NT , 


 SOPRANO ( L.R.A.M. , A.R.C.M 


 R.A.M. , N 


 ORGANISTS 1 singer want 


 ORG 


 want , 


 M USIC WORK 


 tante , PIANOFORTE 


 tante , 


 40 , £ 25 , £ 


 RGANS . 


 £ 27 10S 


 


 P E 


 GC 


 IAN ! 


 WELV ! 


 


 


 


 H.M.R.L 


 


 MUSICAL 


 ; RAM 


 1 , 1907 


 ALMAINE PIANOS ORGANS . 


 ORGANIST O M 


 PIANO 


 , ; ELLOWSHIP examination , 


 NORMAN BEARD , 


 M | 7 GUSTAV MERKEI 


 ALEX . GUILMANT 


 


 P. CONACHER & 


 SPRINGWOOD 


 HUDDERSFIELD 


 OLD FIRM 


 CO 


 WORKS 


 NICHOLSON CO 


 ORGAN BUILD 


 ACE YARD , WOR(¢ 


 ( establish 1841 


 PAL 


 


 [ de 


 


 AL 


 , , THREI 


 ESTE 


 ‘ 0 ORCHESTRAL SOCIE TIES.—MUSIC let 


 TENOR . voice . training . 


 REED ORGAN 


 MANUALS 


 IM D 


 CONDUIT STREET , BOND STRE ET , LONDON 


 wassociate MUSIC . LOVE lyric 


 _ _ MATRICU LATION . ( humorous witty 


 GHER CER S 


 1907 


 FEBRUARY 1 


 1907 


 special notice . 


 ST . PAUL CATHEDRAL 


 LIBRARY ST 


 SS 


 | RSS 


 PAUL CATHEDRAL 


 1007 


 1907 


 VW 


 xum 


 84 MUSICAL 


 GRINLING 


 GIBBONS . 


 $ 92 


 XUM 


 MUSICAL 


 1907 . 8 


 specimen FINE ironwork — gate grille — TIJOU 


 86 MUSICAL 


 1907 


 1897 


 CHARLES R 


 1363 , 


 LON 


 1907 . 87 


 LONDINENSIS 


 LIBRARY 


 FOVRE 


 SCORE 


 VID english MITRB 


 JOHN CAWOOD 1546 - 1578 . 


 JOHN 


 GYBKEN 


 RICHARD JUGGE 1546 - 1577 . 


 JOHN KINGSTONE 1553 - 1553 . 


 ROGER MADELEY 1553 . 


 HENRY PEPWELI 


 HENRY SUTTON 


 REGINALD WOLF 1542 - 1573 . 


 89 


 135 


 EVOLUTION 


 CHOIR ORGAN 


 


 , 1907 


 16 


 OSITIV . 


 RUCKI 


 BRUSTI 


 12 . 


 OSITIV . 


 M. 


 1907 


 SAMUEL WESLEY BOY - POET 


 SAMUEL WESLEY . 


 1716 


 ounce 


 II , 10 % 


 - » VOICE 


 XUM 


 95 


 96 


 | ( 1635 


 97 


 DEERHURST composer 


 LANGRAN , JAMES.—LORD , DISMISS thy 


 h+4 


 facsimile hymn - TUNE 


 DEERHURST 


 handwriting composer 


 CLNIIL 


 MR . JAMES LANGRAN , MUS.B. 


 PARISH 


 . HALLOWS 


 CHURCH , TOTTENHAM 


 LADY ORGANISTS CATHEDRALS . 


 WAK 


 M.A 


 MUSICAL 


 1907 . IOI 


 JOHN STAINER 


 SIR 


 RCH 


 BRASS 


 CHI 


 ST . MICHAEL 


 WAKEFIELD DISTRICT ORGANISTS ’ association 


 T ORG 


 ORGAN recital . MODERN MUSIC . church . genius transform man 
 Mr. Phil Macdonald , St. Paul Church , East Molesey . touch : acuter vision 
 Mr. Edward Potter , St. Michael Angels ’ Church , | dimly , eloquent utterance 
 Brighton . stammeringly confess , revelation , divine 
 Mr. H. Malcolm G. Turnbull , Christ Church ( Parish Sift , truth imperfectly recognize . _ 
 sympathy doubt imply artist 
 unconscious presence . charlatan 
 constantly endeavour attract attention trick 
 posture laboured epigram ; true genius 
 mind centre ideal , 
 Mr. William Bennett , Bass , Birmingham Cathedral think work feel , like 

 Church . Beethoven , new quartet ' day 

 Church ) , Stratford . 
 Mr. Allen White , Congregational Church , Upper Street , 
 Islington 




 1907 . 103criticisn 
 surface 

 Beethoven hold expression design perfect balance : 
 great poet great craftsman 
 age . man like Hummel Czerny copy 
 design , leave poetry : Berlioz — 
 typical — follow poetry comprehend 
 musicianship . honestly believe structure 
 ' Symphonie Fantastique ' formally perfect , 
 ' Amen ' fugue write ' selon les regles les 
 plus séveres du contrepoint ' ; thoroughly pre- 
 occupied ideal poetic expression 
 time repair , recognize , deficiency 
 word strength 
 weakness school represent . 
 idea , vivid , picturesque , impressive ; 
 extraordinary power arouse emotion , stimulate 
 sense , suggest action scenery ; learn 
 use tool . Schumann , far 
 good musician group , interesting 
 manner ; 
 place quartet Beethoven , 
 fugue Bach , inspired 
 amateur contrast unerring skill perfect 
 master 

 artistic training 

 pronouncement Wagner work 
 contrast follow fine estimate Brahms 

 descendant Bach Beethoven , 
 inheritor disciple Schumann , work 

 measure new poetry 

 pour mould ofan exact perfect musical design . 
 character music , grave , dignified , noble , 
 specially amenable intellectual control ; 
 impassioned moment lose grasp , flood - tide 
 eloquence forget restraint ; wholly incapable 
 extravagance sensationalism , cheap effect facile 
 appeal . music hearer 
 sympathy ; cover comparatively narrow range 
 emotion ; little gaiety , littke humour ; colouring 
 sombre , texture heavy opaque . 
 richness idea , sheer beauty melodic outline , 
 supreme unerring mastery structure , 
 stand , composition time , pre - eminent . 
 musician Beethoven page 
 recur certainty find fresh 
 cause love admiration 

 Grieg , Dvorak , Cornelius , Hugo Wolf , Bizet 
 glance , late 
 modern fully deal . M. 
 Debussy speak 




 CARL PHILIPP EMANUEL BACHThe hereditary musical gift Bach family 
 know need brief mention ; 
 culminate person John Sebastian Bach , 
 curiously cease soon his| 
 death , son musical . Carl | 
 Philipp Emanuel , son , bear 1714 . 
 originally intend law , throw 
 lot music 1738 , Berlin 
 enter service Frederick Prince Prussia , 
 Frederick Great . find matter 
 entirely congenial , accept , 1767 , post 
 music - director Hamburg , succession Telemann , 
 live till death 1788 . entertaining 
 instructive account mode life Hamburg 
 Dr. Burney , visit 1772 . 
 historian describe modesty simplicity 
 genial manner grow eloquent 
 clavier - playing composition . 
 extraordinarily fine clavier - player learn 
 Spitta , evident possess 
 skill knowledge necessary fine player , 
 fact abundantly book ' Versuch uber 
 die wahre Art das Clavier zu spielen , ' publish 
 1753 , eventually , complete , 1797 . 
 book , treat fingering , ' manieren , ' ' rubato , ' 
 * bebung , ' point knowledge | 
 necessary finished performance . method 
 fingering base father , depart 
 little 

 majority C. P. E. Bach work clavier | 
 , large number sonata , 
 rest rondo , fantasia , fugue ' Ton - stiicke . ' | 
 sonata devote energy | 
 clear form bequeath Haydn | 
 Mozart , , Beethoven .   for'| 
 look way , arise unique | 
 importance ; look , father | 
 reach climax branch art , 
 music advance 
 language harmonic form . _ time instrument 
 voice hear ; age massive choral 
 work present . pursuance 
 idea , insist balance key , write 
 movement clavier sonata | 
 definite binary form — form develop 
 perfect Haydn , Mozart Beethoven . 
 slow movement , subject - theme 
 seldom great importance ; movement | 
 slight texture , interest 
 movement . vovdo adopt enlarge 
 Couperin plan , bring opening section 
 endless variety key treatment , introduce 
 great diversity episode . case 

 theme wonderfully modern , prophetic ¢ 
 Beethoven Schubert . fantasia mainly ¢ 
 type — recall semi - improvisation ¢ 
 father eld brother toccata , othe 
 present style peculiarly . | ; 
 theme sheer gaiety ligh ; 
 heartedness rival Haydn , use jy 
 different way . fantasia C major th 
 rhythmictheme open transforme 
 charming /arg / etto , hear , 
 bustle /zgato , remind movement ¢ 
 Beethoven F major Sonata , Op . 10 , . 2 . beautify 
 rhapsodical section end break eage ; 
 music wonderful effect . interestin 
 feature music original employment o 
 modulation section , appear als 
 symphony . frequently naive , ané 
 self - assertive , idea 
 , original 

 work clavier , C. P. E. Bac 
 write clavier instrument , 
 sonata concerto . choral work—-though 
 consider Burney level hi 
 instrumental work — comprise fine composition 
 notably oratorio ' Israelites desert 
 write 1775 , express thought 
 conception mature musician . outward 
 aspect league away father style ; bu 
 inward spirit exhibit wonderful likeness 
 mystical devotional Sebastian Bach ’ : 
 work , extraordinarily modern feeling 
 effective use chromatic chord progression 
 oratorio contain fine character - drawing , 
 recitative solo assign Moses , 
 point similarity , scheme @ 
 composition , ' Elijah , different 
 scale . pathos beauty opening chorus , ané 
 chorus ' Resurrection Ascension 
 write 1787 , hardly surpass musi 
 ancient modern 




 short anthem easter general use 


 : PKS 


 xn 


 believe JESUS die 


 4 4 _ 4 — 


 4 — _ 


 p _ | j 2 


 } 7 - 2 ¢ 


 2s 


 MUSICAL TIM 


 ES.—FEBRUARY , 1907 


 SHORT anthem man voice 


 PARI 


 song 


 1som pose ? 
 [ Macmillan & Co 

 Mr. Mason , like Mr. Gilman , american writer 
 repute music . present volume complete 
 trilogy study composer music , 
 instalment entitle ' Grieg Brahms , ' 
 ' Beethoven forerunner . ' follow introduction 
 ' romanticism music , ' remain chapter 
 devote Schubert , Schumann , Mendelssohn , Chopin , 
 Berlioz Liszt . partly biographical partly critical , 
 ' study , ' Mr. Mason , ' intend simply 
 guide music discuss . lead reader 
 concert - hall , piano , library score . . 
 incite repeat analyze musical 
 experience , listen mind ear , 
 study symphony alertly study painting 
 essay — justify existence . ' 
 deference modesty author , 
 venture think essay justify existence 
 reason truth way et 9 
 Mr. Mason error Devrient brother - in- 
 law Mendelssohn ( pp . 170 172 ) ; 
 Dirichlet , painter — , Devrient , marry Rebecca 
 Mendelssohn - Bartholdy 

 vo 
 Kerst ; 
 note 

 gay 

 write master - musician 
 Mozart Beethoven 
 remain , absorb 
 theme . Herr Kerst , , hit happy idea 
 compile selection saying Mozart 
 Beethoven set forth attractive 
 | volume — assign composer — bear sub- 
 | title ' man artist , reveal word . ' 
 ground autobiographical extract — Mozart 
 number 255 ; Beethoven , 323 — furnish interesting 
 | matter concise paragraphic form . Mr. Krehbiel 
 thoroughly az /az¢ subject 
 bestow translating skill , note add 
 value readable little volume 

 




 18 


 1819 - 1842 . 


 4513 3/7 50 


 MUSICAL 


 1907 


 evolution history 


 MUSICAL TIMES 


 1884 ) , 


 mentalist print 


 PROGRAMMES 


 instri 


 CONCERT 


 OI 


 NAMES 


 MUSICAL TIMES 


 PIRATES — 


 14 , 1907 


 INCORPORATED SOCIETY MUSICIANS 


 MUSICAL 


 1907 


 GERMAN OPERA 


 ROYAL CHORAL SOCIETY 


 UEEN HALI . ORCHESTRA 


 LONDON SYMPHONY ORCHESTRA 


 MUSIC VIENNA 


 SPECIAL CORRESPONDENTA Brahms festival , direction Franz Schalk , 
 Gesellschaft der Musikfreunde , worthy 
 master . programme include ' Song destiny , ' 
 ' Nanie , ' fine mix voice , 
 Pianoforte concerto b flat gifted pianist 
 musician , Ernst von Dohnanyi , soloist . Brahms 
 thirty year conductor 
 Gesellschaft der Musikfreunde , chief member 
 executive committee exert influence Gesellschaft 
 concert Conservatorium , festival hold 
 memory , addition artistic importance , 
 strongly personal character . majority performer , 
 audience , know , 
 conduct hall 

 mention impressive performance 
 Gesellschaft concert Beethoven ' Missa solennis , ' 
 | likewise Schalk direction 

 Michael Haydn , young 
 song male chorus solemn 
 highly appreciate day , forget 
 musician , catholic church Austria 

 work perform keenly appreciate . 
 symphony Gesellschaft der 
 Musikfreunde , direction Karl Luze 

 Richard Strauss appear conductor 
 concert . programme include Weber 
 ' Euryanthe ' overture , Mozart G minor , Beethoven 
 audience interested 
 composer , peculiar rendering - know 
 classical work liking ; artificial 
 concert Felix Mottl 
 mark impression 

 chorus 

 successful . create 
 Schubert early Symphony C ( . 6 ) , Goetz 
 symphony , Goldmark scherzo A. 
 concert direction Max 
 Reger new highly attractive Serenade G. 
 work spare use wind 
 instrument , divide orchestra , 
 play muted string , 
 obtain delicate effect 

 anniversary Beethoven birthday December 16 
 celebrate * Volksbildung ' Society . event 
 fall Sunday , remote poor district 
 | city concert rare , excellent performance 
 | Beethoven work arrange , brief explanation 
 | word mouth ; charge , , admission 
 exceedingly moderate . way honour pay 
 memory mighty master year ago 
 walk street 

 Hofoper Mahler revive , decide 
 success , neglect opera , Goetz ' tame 
 shrew ' Kossini ' 1 ! Barbiére . " wot 
 success composer performance sixth 
 Symphony . work hour half , 
 sufficient fill concert 
 programme . composer heartily applaud 
 public , novelty provoke opposition need rot 
 cause astonishment 




 MANDYCZEWSKI 


 


 1907 


 MUSIC 


 UR CORI 


 BELFAST 


 ESVONDENT 


 { 


 SIC 


 OU 


 


 


 BIRMINGHAM . 


 CORRESPONDENT 


 MUSIC BRISTOL . 


 


 1547 


 


 CORRESPONDENTthough ' Sir Patrick Spens ' ' dulci jubilo , ' whig 
 year sing alternately , select 
 ' Great God Love ' ' lay garland’~ 
 fine composition — place programme . 
 audience Mr. E. E. Cooper Mr. Charles Crevs 
 librarian treasurer pete Madrigal Society 
 ( London 

 Shirehampton Avonmouth Society specially 
 interesting concert January 16 Parish Hall . unde , 
 direction Mr. P. Napier Miles , choir render 
 ' Marienlieder ' Brahms , Miss B. de Hochepied 
 Rev. E. HI . Fellowes play Bach Concerto tw 
 violin , , Mr. Miles , Beethoven ; 
 sonata G pianoforte violin ( Op . 96 ) . Mr. W. H 
 Hadow deliver lecture composition Ba 
 Beethoven 

 January 16 - sixth annual concert th 
 Bristol Temperance Choral Society hal 
 7 Men Christian Association , conductor 
 Mr. F. Stone . addition piece choir 
 Lt . nicely render Miss Winifred Marwood , 
 Miss Maude England Mr. Alfred Manby . Mr. Sidney 
 Jones play piccolo solo , Mr. C. A. Inman 
 | accompany 




 SIC EDINBURGH . 


 CORRESPONDENT 


 


 1812 


 115MUSIC GLASGOW . 
 correspondent 

 lasggow Amateur Orchestral Society , 
 Mr. W. T. Hoeck , successful concert 
 . programme comprise Mozart 
 ymphony , Beethoven Violin concerto ( solo 
 play Miss Margaret Horne ) , overture 
 nmer night dream ' ' Leonora ' ( . 1 ) , 
 Weingartner arrangement overture Bach 
 Suite ( . 1 ) oboe , bassoon , string orchestra . 
 Mr. William MacRobert excellent appearance 

 Decem ! 
 ' Jupiter 
 hn¢ 
 ' mid 

 performance ' Messiah ' 
 Young Men Christian Association Choir ( conductor Mr. 
 R. L. Reid ) Choral Union , Mr. Joseph 
 Bradley direction 

 twelfth classical concert , January 22 , Herr 
 Siegmund von Hausegger visit conductor , 
 usual condition , band rise 
 occasion . programme , cast familiar 
 line , include Beethoven ' -:gmont ' overture , entr’acte 
 B flat Schubert ' Rosamunde , ' Liszt symphonic 
 poem ' Les préludes , ' Beethoven C minor symphony 
 gratifying record crowded attendance Saturday 
 Popular Orchestral Concerts present season 

 invariably St. Andrew Hall fill bya 
 attentive , appreciative enthusiastic audience , 
 Dr. Cowen programme interesting 
 attractive . novelty perform 
 Mozart Symphony G major ( k. 318 ) , Strauss Horn 
 concerto e tlat — solo capitally play Mr. A. E. | 
 Brain — Andante Variations Schubert 
 second symphony b flat 
 utilise solo instrument — Guilmant Organ 
 concerto , Mr. Herbert Walton play solo 
 distinction , pianoforte Mozart Concerto 
 E flat pianoforte orchestra , Mr. P. E. 
 Halstead Dr. Cowen soloist 




 MUSIC LIVERPOOL DISTRICT 


 correspondent 


 MUSIC GLOUCESTEK DISTRICT . 


 ( correspondentthe important musical event Gloucester 
 district ninth annual concert Gloucester 
 Orpheus Society , hold January 1 . programme | 
 contain composition write specially | 
 dedicate Society . comprise a| 
 humorous treatment Goldsmith ' elegy death | 
 mad dog , ' president Society , Sir Hubert 
 Parry ; harmonious setting Burns ' o luve ’ like 
 red , red rose , ' humorous - song , ' marriage 
 frog mouse , ' Dr. A. Herbert Brewer , 
 direction Society owe small success ; 
 - song , ' let voice ring , ' Dr. C. Harford | 
 Lloyd ; fine setting Erskine ' ode tobacco , ' 
 Mr. C. Lee Williams . Sir Hubert Parry , Mr. Lee Williams 
 Dr. Brewer conduct work , 
 render generally appreciate . 

 programme include Beethoven C minor 
 symphony , Wagner ' Meistersinger ' overture ' ride 

 valkyrie , ' Richard Strauss ' Ein Heldenieben 




 correspondent 


 M. abeth song deserve special note praise , 
 playing Municipal Orchestra , 
 ustice beautifully finish score 

 January 16 Leeds Bohemian Quartet 
 concert , enjoyable 
 interest programme , reason sympathetic 
 attention musical audience Yorkshire . 
 occasion Brahms Quintet F , Beethoven 
 Quintet C Hugo Wolf ' italian Serenade ' 
 string quartet form programme , 
 artistically play Messrs. Elliott , Wright , Moxon 
 Bolton , Mr. Mathers second viola . January 10 
 child violinist , Miss Haidée Voorzanger , 
 concert Leeds , play Mendelssohn Violin concerto 
 dexterity , precocious , emphasize 

 Queen 




 BERLIN 


 BRUSSELS 


 BUCHAREST 


 BUDAPEST 


 COBLENZ . 


 COLOGNE . 


 DRESDEN 


 FRANKFORT - - MAIN 


 FRANKFORT - - - ODER 


 RATZ 


 HELSINGFORS 


 MILAN 


 PARIS 


 500 


 BRIEFLY 


 SUMMARIZED 


 150juartet 

 quintet Haydn , Beethoven , Schubert , Schumay 
 Dvorak include programme , 
 interpretation work carefy 
 artistic . Mr. Lewis associate youy 
 musician Manchester , Messrs. Harold Jones , Holm 
 Warburton , promise turn combinatic , 
 real worth , judge increase excellen 
 performance . Mr. Lewis concert , « 
 January 19 , Ernst Violin concerto C sharp 

 CHORLEY.—Mr . F. James cantata ' saviour ' » 
 sing evening service December 23 Hollinshes 
 Street Congregational Church . soloist 
 Lilian Cook Miss Ethel Holland , Mr. Knowling 
 Mr. W. A. Margerison , choir excelle 
 rendering choral number direction 
 Mr. J. L. Milnes , accompany organ 

 GosrorTH.—A violin recital Presbyteris 
 Hall , Gosforth , January 8 , Miss Maude Jacque 
 assist Miss Ella Jacques pianist . executir 
 work lady admirable . vocal tb 
 programme entrust Miss Errington Mein 
 Mr. J. Rutherford 

 GRAHAMSTOWN.—A recital vocal pianoforte mu 
 Mrs. W. Deane Town Hall 
 December 5 , assist Mr. Albert Archdeacon . Ms 
 Deane display customary skill Beethoven 
 ' Waldstein ' sonata , Chopin ballade flat thr 
 Brahms ' hungarian dance , ' Mr. Archdeac 
 excellent rendering song Korbay , Battise 
 Haynes , Edward German 

 INVERCARGILL ( N.Z.)—The official opening Ne 
 Town Hall ( include municipal building , concert hall 
 theatre ) Excellency Governor New Zealan ( 
 Lord Plunket , place November 14 . concer 
 hall upper floor seat 400 person ; inauguration 
 ceremony hold spacious 
 programme , provide choir 150 voice 
 orchestra , include National Anthem 




 STIRI 


 SUNDE 


 ‘ 1812 


 TREO 


 UXRRI 


 SI 


 WELLINGTON ( N.Z. ) . 


 250 


 200 


 scsuch appointment naturally vary 

 E. J. L.—In Arvie‘ta movement Beethoven 
 Pianoforte sonata C minor ( Op . 111 ) , time - signature 

 42 merely count convenience affect 
 triple rhythm movement , 
 grouping note 




 DUS 


 RESCO 


 END ! 


 ATT 


 dure month . 


 NOOTH 


 UGGAN , REV . A. S. — * 


 > RISKIN , JAMES 


 ‘ IBBONS , CHRISTOPHER — 


 " OODHART , ARTHUR M.—A 


 S.S.A 


 RACES ( ) 


 } ARWOOD , BASIL 


 W. DUNNING — * 


 GREENWOOD 


 AYWARD , 


 OOK , PANTON 


 BB 


 LONG 


 S.S.A.T.B.B. 


 AFRICAN SONGSTER 


 OUTH 


 RODGER 


 JOHN 


 1529 


 BENSON 


 


 MUSICAL 


 ROGRAMME MUSIC 


 century 


 contribution ' history 


 MUSICAL expression 


 LI 


 


 FREDERICK NIECKS 


 MUS . D. 


 E MMAU S 


 BIBLICAL SCENI 


 HERBERT BREWER 


 EREFORD CATHEDRAL.—AL SINGER| 


 


 SCALE O 


 MUSICAL time 


 term advertisement 


 VI - 


 special notice 


 school music reviev 


 contain 


 note . 


 theory question . 


 octave study | 


 pianoforte 


 6 . h. 


 WILLEM COENEN . 


 PRICE shilling . | 


 NOVELLO 


 ALBUMS PIANOFORTE 


 view 


 RUARY 


 STRINGED instrument 


 ( violin , VIOLA , VIOLONCELLO . ) 


 EASTER hymn 


 SET 


 TI 


 JOHN HAWKE . 


 ORIGINAL tune 


 CRIMP 


 


 HERBERT E 


 II ] o tune adapt HAYDN 


 JESUS , - day come THEI 


 VE servant SAVIOUR 


 past PASSION GLOOM 


 IE VILLAGE ORGANIST 


 USIC LENT HOLY WEEK 


 JOHN E. WEST 


 USICAL time . 


 CASES 


 


 VOL . XLVIL 


 N BLACK 


 ADORAMUS TE 


 ORCHESTRA 


 HUGH BLAIR 


 romance 


 MOZAR1I 


 VIOLIN PIANOFORTI 


 WILLEM COENEN 


 produce HEREFORD MUSICAL FESTIVAL , 19 


 ELIZABETHAN 


 pastoral 


 1 % idyll 


 2 . WILLOWS 


 MORRIS DANCE . 


 compose 


 A. HERBERT BREWER 


 TIMES . 


 POST . 


 MORNING 


 PALI 


 MALL GAZETTE . 


 ATHEN2UM . 


 YORKSHIRE POST . 


 THI 


 TELEGRAPH 


 SHEFFIELD DAILY 


 TIMES . 


 HEREFORD 


 GLOUCESTER JOURNAL 


 


 NOVELLO COMPANY 


 1907 


 music LENT 


 assion LORD 


 | 


 passion LORD . 


 passion CHRIST . G. F. HANDEL . 


 1 


 \ ISERERE MEI , DEUS . 


 \ ISERERE MEI , DEUS , 


 story cross 


 voice ORGAN 


 word 


 REV . E. MONRO 


 set music 


 ITON , H. ELLIOTT 


 reproach 


 CHARLES GOUNOD 


 COMPANY 


 BENEDICITE 


 MODERN composer 


 GALE , C. 


 GLADSTON 


 GLADSTON 


 GODFREY , A. 


 GODFREY , A. 


 IERVEY , F 


 OYD , C. HARFORD 


 


 EM : 


 LO 


 CHAMPNEY 


 DR 


 DR 


 t : ER 


 JOHN 


 anthem 


 lute serie 


 _ 208 


 LIMITED 


 NOVELLOS ' hem lent 


 cantata " lent 


 olivet calvary foot 


 sacre cantata cross 


 ing scene day : 


 SAVIOUR life EARTH ( STABAT MA ’ ER 


 FC 


 solo voice ( TENORAND BARITONE ) 7 , 


 SOLI , CHORUS , ORCHESTRA 


 CHORUS 


 compose 


 RSPERSED hymn sing ANTON DVOR K 


 SHAPCOTT NSL , * english ADA tation 


 FRED . J. W. CROWE 


 J TNT 7 r accompaniment arrange ORGAN 


 J. H. MAUNDER . ELLIOT BUTTON 


 CRUCIFIXION GETHSEMANE 


 meditation church cantata 


 


 SACRED passion holy redeemer WNIT 


 JOSE PH BENNETT 


 word select write 


 REV . W. J. SPARROW - SIMPSON , M .. A. MI 


 J. STAINE ] R 


 WIL LIAMS 


 cross CHRIST ) night 


 W. MAURICE adam short church CANTATA 


 THOMAS AD . AMS . JOSEPH BENNE 


 LEE WILLIAMS 


 NE ARER , god , THEE 


 nothe atonement 


 EASY CANTATA SACREI ) CANTATA 


 REV . E. V. HALL . M.A 


 M m se 


 S. COLERIDGE - TAYLOR 


 


 meditation 


 


 SUNG CHOIR 


 CONGREGATION 


 MUSICAL 


 PASSION 


 


 SUFFERINGS HRIST 


 ALFRED R. GAUL 


 P : ASSION SERVICE 


 


 


 


 HYMNS 


 


 VARLEY 


 GOOD FRIDAY 


 ROBERTS 


 LENT 


 DR . 


 MUSICAL STANDARD . - _ 


 SACRED CANTATA , 


 


 SAVIOU R 


 SCENES 0 ! 


 EARTH 


 B CHORUS 


 LIFE 


 SOLO voice ( TENOR 


 CONGREGATION 


 ASS ) ANI 


 . INTERSPERSED th 


 te HOLY scripture 


 MUSIC 


 \nd THI 


 compose 


 ILIFFE 


 NEW edition . ready 


 PENITENCE 


 _ PEACE 


 J. H. MAUNDER 


 25/3/9 


 , 1907 


 LENT . NEW EDITION 


 MERBECKE ' MUSIC 


 OFFICE HOLY 


 COMMUNION 


 edit ( organ accompaniment ) 


 CHARLES VILLIERS STANFORD 


 


 CALEB SIMPER 


 bless M\ ROC K 


 WAY cross 


 


 E.C 


 ENEDICITE , OMNIA OPE RA . 


 INEW EASTER anthem 


 believe 


 JESUS die 


 LUARD SELBY 


 COME , let join 


 cheerful song 


 VINE 


 HALL 


 REV . E 


 recently publish . 


 know ye 


 


 EDWARD C. BAIRSTOW 


 CHRIST deliver 


 offence 


 LLOYD 


 LORD 


 G .. # 4 


 glorious 


 LIFE 


 JOHN E. WES 


 anthem 


 LUTE 


 EASTER 


 serie 


 MM . 


 F.C. 


 EASTER anthem 


 OQOAZZZZALZAZZAZ 


 VU 


 


 , 1907 


 COMPOSITIONS 


 


 service . 


 NEW 


 ERNES'1 


 VER 


 SOUL 


 anthem B 


 EDWIN MITCHELL 


 SUN M 


 Y PASG 


 INES Y GROES 


 N BENDIGAID ( M 


 A’'R NUNC DIMITTIS 


 GARAWYS 


 CHURCH MUSIC 


 


 TRULY GOD love UNTO ISRAEL . 


 HAIL ! ADORED trinity 


 SPIRIT LORD 


 


 prologue " apostle 


 


 EDWARD ELGAR . 


 COMPOSITI 


 PATTISON 


 INS 


 MEE 


 CANTATAS 


 anthem , 


 original ORGAN composition . 


 . CLARE 


 EDWYN 


 NEW EASTER 


 practical method 


 training chorister 


 VARLEY ROBI 


 - SONG T.T.B.B. 


 WILLEM COENEN 


 RALPH ERSKINI 


 OLIVER WENDELL HOLMES tell 


 music SONG 


 C. LEE WILLIAMS . word 


 : EMILY COENEN 


 compose | poem write 


 EDWIN C. . | ERIC MACKAY 


 S. COLERIDGE - TAYLOR 


 CHOIR 


 G. LEONARD WAINWRIGHT 


 SONG 


 compose LADY NAIRN 


 music 


 PETER CORNELIUS   H. H. PARRY 


 english word 


 MALE voice 


 love THEI -A.T.T.E 


 LOVE YOUTH 


 O death ! thou art TRANQUIL NIGHT 


 HYMNS ancient modern 


 old ( 889 ) edition 


 


 BOUND BOOK COMMON PRAYER . 


 new ( 1904 ) edition . 


 miniature music EDITION . 


 ready 


 new TONIC SOL - FA EDITION . 


 


 SCHOOL BAND MUSIC 


 selection . 


 ARNE 


 bee suck : 


 GOLDEN VANIT\ ; ENGLISH AIR . 


 O WERT THOU CAULD BLAST MENDELSSOHN . 


 GOOD MORROW , GOSSIP JOAN ENGLISH AIR . 


 ASH GROVE : WELSH AIR . 


 MARCH MEN HARLECII WELSH AIR . 


 { ARETHUSA   _ ... ; ; SHIELD . 


 ' |THE MINSTREL BOY . ' : IRISH AIR . 


 FAIREST ISLE ; PURCELL . 


 LONDON : NOVELLO COMPANY , LIMITED 


 FELIX MANSFIELD 


 MUSIC C D 


 JOH . ANNE S BR . \HMS 


 humorous P art- song 


 examination question 


 


 work 


 CUTHBERT HARRIS , com 


 descriptive chorus . 


 ARCHI 


 ENUEI 


 MORCEA 


 OHN E. WES 


 original composition | MORRIS DANCE TUNES 


 POR ORGAN collect TRADITIONAL 


 HENRY SMART . source 


 ARRANGED 


 PIANOFORTE accompaniment 


 


 CECIL J. SHARP 


 HERBERT C. MACILWAINE 


 set . 


 original composition price shilling net . 


 ORGAN SET i. 


 LFRED R. GAUL : 


 SET II . 


 


 , 1907 


 treatise 


 strict 


 FRANCIS EDWARD GLADSTONE 


 IUNTERPOINT 


 C HOIR BOYS ’ C : \rd 


 composition 


 FELIX 


 T SONATA 


 SECOND SONATA 


 suite 


 ration 


 vocation 


 IRCHE TRIOMPHALI 


 NUET G 


 IORCEAL 


 ERI 


 


 BOROWSKI 


 COMMUNION service 


 key F 


 N DI > 


 offertory sentence 


 , " 1 HEARD voice HEAVEN 


 ALI DR 


 S 


 GAUL 


 LEONARD BUTLER 


 FBENEZER PROUT work . 


 JUBLE COUNTER POINT 


 UGUE 


 GAL " ANALYS SIS 


 MUSICA FORM 


 PPLIED FORMS 


 COUNTERPOINT 


 PARTS 


 ORGAN 


 MUSICAL | 


 REMINISCENCES 


 


 I\IPRESSIONS 


 JOHN FRANCIS BARNETT 


 PHOTOGRAVURE PORTRAIT 


 AUTHOR 


 


 PORTRAITS O 


 interest 


 famous musician 


 E SHI 


 HODDER & 


 VALUABLE 


 STOUGHTON 


 TECHNIQUE 


 EXPRES 


 PIANOFORTE 


 SION 


 PLAYING 


 FRANKLIN TAYLOR 


 extract PREFACE 


 numerous musical example 


 work great master 


 NN 


 ORIANA 


 collection early madrigal 


 british foreign 


 ANGEL face brightness ... ... DANIEL NORCOME 


 NYMPHS ANID SHEPHERDS dance . GEORGE MARSON 


 CALM AIR RICHARD CARLTON 


 RICHARD NICOLSON 


 ... THOMAS TOMKINS 


 MICHAEL CAVENDISH 


 ... THOMAS MORLEY 


 JOHN FARMER 


 JOHN WILBYE 


 FAUNS SATYRS trip 


 wreath ROSE LAUREL 


 ARISE , AWAKE , SILLY SHEPHERDS 


 FAIR NYMPIIS : 


 SISTER , AWAKE ! ... = ; " ' THOMAS BATESON 


 QUANDO DAL TERZO CIELO ( 


 REALM SUPERNAL ) PALESTRINA 


 


 , 1907 . 


 roduce BIRMINGHAM 


 TH 


 PRICE 


 DAILY TELEGRAPH 


 STANDARD . 


 MORNING 


 LEADER 


 


 COMPANY 


 MUSICAL 1906 


 FESTIVAL , OCTOBER 3 


 KINGDOM 


 ORATORIO 


 compose 


 EDWARD ELGAR 


 SHILLINGS 


 100 


 PALL MALL GAZETTE 


 DAILY CHRONICLE 


 DAILY GRAPHIC 


 WESTMINSTER GAZETTE . 


 BIRMINGHAM DAILY GAZETTE 


 BIRMINGHAM DAILY MAIL . 


 LIMITED 


 SECTION a.—technical practice . book 


 SECTION b.—studie . book 


 piece 


 YNNNHNNNN WN 


 TTT- = 


 ) suite PIANOFORTE SOLO . ; 


 NOVELLO 


 140 


 , 1907 


 CHAPPELL & CC ) .S NE 


 song 


 NORSELAND 


 word DANISH NORWEG 


 


 EDWARD 


 MUSIC 


 HERMANN LOHR 


 TESCHEMACHER 


 NEW PUBLICATIO O\S 


 MUSIC 


 ROMANTIC PLAY 


 ROBIN HOOD 


 write 


 HENRY HAMILTON 


 compose 


 HERBERT BUNNING 


 IAN 


 follow : 


 CHAPPELL & 


 VOICE training 


 VOICE training 


 VOICE 


 TRAINING studi 


 SINGING MASTER 


 SINGING 


 art 


 


 NEW 


 


 YORK 


 


 prime 


 exercise 


 NORMAN MARCH 


 selection 


 work singing 


 PEARCE 


 ES 


 


 MELBOURNE . 


 MUSIC seller 


 


 


 WU 


 L.RCE 


 XUM 


 JTE . 


 BISHOF 


 INSCRIBED 


 WESTMINSTER ABBEY SPECIAL SUNDAY EVENING CHOIR 


 WESTMINSTER ARBEY 


 LONDON : 


 NOVELLO COMPANY , LIMITED 


 LIM 


 lute , 27 


 _ — — — — _ 


 lute . 24 , 3 


 lt ] 


 HH 


 XY 1 


 m4 


 kum 


 lute . NY 27 


 LS = 


 lute . 27 


 lute , 27 , 7 


 eee , 


 = lc = et 


 27 


 hb = 


 ‘ R 


 ALECTI