


 1 


 AUGUST 1 , 1925 = 49 


 PIANOS 


 SOLE AGENTS 


 32 - 40 , WIGMORE STREET . W 


 ROGERS PIANGS 


 GEORGE ROGERS & SONS , 


 60 , BERNERS STREET , LONDON , W.1 


 XUM 


 


 MUSICAL 


 C2 


 SS 


 424235 


 2452 


 DB 859 


 D 1005 


 DA635 


 : DB728 


 D1003 


 D1004 


 AUGUST LIST RECORDS 


 QUARTET 


 PACHMANN 8/6 


 ROYAL 


 ALBERT 


 HALL ORCH . 6/6 


 ONALD 


 DE GROOT 


 4/6 


 PICCADILLY 


 ORCHESTRA 


 SRR REE EERE EERE E ERE E EEE E HEHE EEE E EEE EEE EEE EEE EEE EE EEE EE EEE EE EEEE EEE EE EEEE EEE EEE EEEEEEEEEEEEEEEEEEEEEEEEESE 


 DA 691 


 C 1207 


 B 2042 


 C1210 


 JOHN 6| ; 


 CORTOT 6 


 BAND 


 H.M. ROYAL ; 


 AIR FORCE 4/6 : 


 J. AMERS 


 UNA 3 


 BOURNE 


 NEW 


 LIGHT 


 SYMPHONY 4/6 : 


 ORCHESTRA 


 TINA 


 . MAARTJE ; 


 OFFERS 


 EDNA 6/6 


 GRAMOPHONE COMPANY , LTD . , LONDON , W.1 


 CONTRALT 


 STRONG VOIK 


 MUSICAL TIMES 


 SINGING - CLASS CIRCULAR 


 FOUNDED 1844 


 PUBLISHED MONTH 


 TH 


 E SOLO - PLAYI 


 ACADEMY MUSIC 


 MARYLEBONE ROAD , LONDON , N.W.1 


 VICTORIA EMBANKM 


 NSORT ROAD , SOUTH KENSINGTON , S.W 


 MAJESTY KING 


 MAJESTY 


 H. SAXE WYNDHAM 


 ASSOCIATED BOARD 


 R.A.M. R.C.M. 


 LOCAL EXAMINATIONS MUSIC 


 1 SUNKEN ORCHESTRA 


 K.G 


 MUSICAL TIM 


 ROYAL 


 MANCHESTER COLLEGE MUSIC 


 MAJESTY QUEEN ALEXANDRA . 


 H.R.H. DUKE YORK , KG 


 PH BRODSKY 


 MIDLAND INSTITUTE 


 


 BIRMINGHAM 


 SCHOOL MUSIC 


 LL.D 


 M.A 


 WARD ELGAR 


 NVILLE BANTOCK 


 SESSION 1924 - 1925 


 GLASGOW 


 ATHEN2ZUM SCHOOL 


 SESSION 192 


 MUSIC 


 4 - 25 


 LONDON SOCIETY ORGANISTS 


 FOUNDED 1913 


 PRESIDENT 1925 : WILLIAM WOLSTENHOLME , 


 S.E.5 


 LECTURE - RECITALS 


 A. M. HENDERSON 


 .. R.A.M. , A.R.C.M. ) , 


 SCA 


 MR 


 ANN STREET , GLASGOW 


 LECTURE 


 W.2 


 67 


 


 TOBIAS MATTHAY 


 PIANOFORTE SCHOOL 


 COMPLETE TRAINING COURSE TI 


 ACHERS 


 MATTHAY 


 SCHOOL 


 LONI 


 TOBIAS 


 PIANOFORTE 


 STREET 


 WIMPOLI 


 HOLIDAY 


 95 


 COURSE 


 HELD 


 LECTURERS 


 MANCHESTER SCHOOL 


 LONDON COLLEGE CHORISTERS , 


 LONDON SCHOOL 


 SINGING 


 A. NETTLEFOLD 


 WARD COWDERY 


 . DAVID GODELL 


 LONDON CHORAL SOCIETY . 


 ARTHUR FAGGI 


 TUES 


 WED 


 WEDN 


 FRIDA 


 TIGM 


 LL 


 MUSICAL 


 1925 5 


 67 


 


 SEPT 


 GLOUCESTER . 


 VWBER 6 , 8 , 9 , 10 


 ALEXANDRA , H.R.H 


 QUEEN 


 KE 


 SYMPHONY 


 ORCHESTRA 


 A. HERBERT BREWER 


 THEDRAT 


 39 


 THURSDAY , % .0 


 FRIDAY , 1 


 DNESDA 


 1925 


 A.A.G 


 FESTIVAL 


 BIRTH 


 ARTHUR 


 TABLE 


 VIVIENNE 


 BENNIE 


 VALERIE RUSSELL 


 KATHLEEN VINCENT 


 HEN 


 , 


 KWE » N 


 LEYLAND USE 


 THOS . W. WALLER , 


 SCHOOL , GLASTONBURY 


 SOMERSET 


 FRANCIS 


 H. PERCY RICHARDSON 


 NORMAN STRAFFORD 


 STER 


 NI 


 HUGH 


 PRINCIPALS 


 RBERT HEYNEI 


 


 LONDON SYMVHONY 


 ORCHESTRA . 


 CARMARTHEN MUSIK 


 THI 


 AL 


 LORD BISHOP OIF 


 “ HYMN PRAISE , 


 ELIJAH . 


 ORCHESTRAL CONCERT 


 J. CHARLES WILLIAMS , 


 FESTIVAL 


 DAVID 


 A.R ¢ 


 SOUTHEND 


 MUSICAL FESTIVAL . 


 OPEN GOLD MEDAL 


 ANS 


 19025 


 SINGING 


 PIANOFORTE PLAYIN ( 


 VIOLIN PLAYING . 


 ELOCUTION 


 OPEN ASS&S 


 MUSICAL COMPOSITION . 


 DANCING ( SWORD 


 CLA 


 ASSES 


 CL 


 HORACE 


 BAYLISS 


 AMBULANCE ASSOCIATION , 


 BACUP CENTRE . 


 ALDERMAN J. H. LORD , J.P. , 


 H.S.B. 


 ANNUAL MUSICAL FESTIVAL 


 CO - OPERATIVE TOWN HALLS , BACUP 


 SATURDAYS , NOVEMBER 1925 


 ENTRIES CLOSE 


 JUVENILE COMPETITIONS 


 MUSICAL 


 676 


 1925 


 HASLEMERE FESTIVAL 


 CHAMBER MUSIC 


 SEPTEMBER 


 ARNOLD DOLMETSCH 


 HALIFAX 


 TITIVE MUSICAL 


 VICTORIA HAL 


 COMPE STIVAL 


 INDIVIDUAL DIFFICULTIES 


 GILLETT 


 SCHOOL 


 CHARLES 


 PIANOFORTE 


 SPECIALIST 


 ANI 


 


 CORRESPONDENCE TUITION 


 MOL 


 TH 


 DON , \W 


 SOU TON STREE 


 1100 SPECIMEN WORKINGS 


 RECENT SUCCESSES 


 EXAMINATION AIDS 


 A.R.C.O 


 SOLO - PLAYING SCORE - READING 


 TRANSPOSITION . ACCOMPAND 


 O. EXAMN . AIDS 


 TECHNIQUER 


 STRETCH , STRENGTH , SUPPLENES 


 12,0 


 TREATISE CONDUCTING 


 OC 


 RRANGEMENT 


 NEW YORK 


 CHARLES COURBOIN . MARCEL DUPRE 


 GREAT ECROPEAN TOUR ORGAN RECITALS 


 VISIT ENGLAND 


 OCTOBER — NOVEMBER 


 { 7/7 / A\ H E , BRATHAY HO E , 


 NTON ROAD , LONDON , S.W,12 . 9 , THORNTON ROAD , LONDON , S.W,12 


 PERSONAL CORRESPONDENCE TUITION 


 SPECIAL COURSES . 


 NUMEROUS SUCCESSES . 


 PRINCIPAL : 


 MATRIC , SUCCESSES 5 JULY , 10925 


 RECENT SUCCESSES 


 R.A.M. ARCOM . RECENT SUCCESSES 


 SUCCESSES CORRESPONDENCE 


 20 , SHERWIN ROAD , NOTTINGHAM 


 20 , SHERWIN ROAD , NOTTINGHAM 


 MUSICAL 


 1925 


 TREE 


 EXERCISES 


 PRODUCTION . ” 


 MR , CHARLES 


 DITION * BEL CANTO 


 SRTLA ITIONAL 


 EASE 


 GARCIA 


 STUDIO . 


 HN W 


 ALBERT 


 ST 


 TION SINGING 


 D CONCERTS 


 D L.R.A.M. EXAMS 


 PROFESSIONAL NOTICES . 


 MISS LYDIA JOIIN 


 A.R.A.M. , L.R.A.M. ) , CONTRALT 


 EVELYNE KING 


 CONTI 


 WEST - END STU 


 PERCY BILSBU 


 HESTRATION 


 


 GORDON JACOB ( A.R.C.M 


 OCTAVE 


 OPTIONAL 


 HERBERT F » F.R.C.O 


 MALKIN 


 NEWCASTLE 


 PATENT PEDAL CO 


 - LYME , 


 DEPENDENCE , FLEXIBILITY 


 STRENGTH 


 7 8 


 HAROLD KNOWLTON 


 _ BUSSELL 


 E.C.4 


 REGINAL D 


 BARITONI R 


 HOLDEN 


 SEYMOUR 


 BASS 


 TION 


 AUDI 


 ASHLEIGH , 


 ARTHUR LEES 


 MR . HERBERT TRACEY 


 BASS . 2 


 E.5 


 ARTHUR FILLING HAM 


 EV 


 NDHAY 


 MUSICAL 


 1925 681 


 CONCERT DIRECTORS 


 ARTH 


 RSTER RICH , ARDSON 


 HANDEL T AY LOR 


 VACANCIES PI 


 PLAYING 


 PILS VI 


 MARY WILSON 


 W.1 


 NING 


 OURSES 


 


 SORRESPONDEN 


 VOICE : 1 


 FORM 


 TRAI 


 TEACHERS 


 PRECIATION , AURAL TRAININ 


 MUSI ( 


 TION 


 AL COMPOSITIONS REVISED . 


 PERSONAL CORRESPONDENCE 


 TUITION 


 077 


 LBA , 


 EVISION MUSICAL COMPOSITION 


 MANGELSDORFF 


 OLONCELLO 


 F.R.A.M 


 1 M 


 APTAIN PERCY BAKER , M.C. , F.R.C.O. , 


 HAZELDENE , TEWKESBI 


 ECIAL CORRESPONDENCE COURSES : — 


 72 


 E. H. BIBBY 


 ES 


 24 


 F.R.C.O 


 


 T : M 


 


 BROWN 


 A.M 


 A.R.A 


 SINGLI 


 RECENT 


 SUCCESSES 


 F.R.C.O SPECIALIST CORRESPONDENCE 


 98 . B 


 F.R.C.O. ; 


 ( A.R.C 


 R.A.M. , 


 ARTHUR 


 MUSICAL 


 1925 


 HODGE , F.R.C.O , , 


 A.R.C.M 


 SP E CIAI IST CORRESPONDENCE COACHING 


 J. KARN 


 IM 


 MANSFIELD , 


 F.R.C.O. F.A.G.O 


 R A.M 


 L.R.A.M. , A.R.C.M 


 R.A.M .. R.C.M 


 W.1 


 D MORRIS , L. 


 C.M 


 FREDE RICK PUGH , L.R. A.M. , A.R.C 


 A.R.C.O. ; 


 L.R.A.M 


 ARIHOR 


 ENRY M. 


 BYRON , MANAGING- DIRECTOR , 


 PUPILS 


 RECENT SUCCESSES PAPER WORK 


 . 1915 


 1915 . 


 1916 . 


 1916 . 


 1917 . 


 » 1917 . 


 , 1918 . 


 , 1918 . 


 . 1919 . 


 1919 . 


 . 1920 , 


 1920 , 


 1921 . 


 » 1921 . 


 » 1922 . 


 1922 , 


 1923 . 


 + 1924 


 1924 


 MINO 


 OO 


 0000 


 S99900000050000000 


 AORAAAAAAAA 


 PVMWOVOOQOO000900O 


 F.R.C.O. A.R.C.O. PAPER WORK 


 CLIFTONVILLE 


 PERCY WOOD 


 * TRALEE , 


 C ITY LON 


 ‘ ARISH CHURC H , HIGHGAI ! 


 F.R.C.O 


 UCESTER CATHEDRAL . ‘ \ TANTED . PIANO PEDAL \PTACHMENT 


 684 


 ORGAN 


 QUARTERLY MAGAZINE WORTHY INSTRUMEN ’ 


 PLATES . 


 LITERARY CONTENTS . 


 INTERESTING LONDON ORGANS : ITALIAN CHURCH , HATTON GARDEN , GILBE ! 


 DISCUS ORGAN BLOWERS 


 WESTMINSTER ABBEY , YORK MINSTER , SOUTHWARK CATHEDRAI 


 UEEN HALL , ROYAL ALBERT HALL , CENTRAL HALL , WESTMINSTER 


 HARROW , BOMBAY , SHANGHAI , JOHANNESBURG , ETC . , ETC 


 ETON 


 DISCUS ” ORGAN BLOWING MEANS — 


 EFFICIENCY . 


 RELIABILITY . 


 ECONOMY 


 ELECTRICITY , GAS , OIL SUPPLIES MOTIVE POWER . 


 WATKINS & WATSON , 


 WHITE LION STREET , LONDON , N.1 


 MUSICAL 


 SCHOOL MARCHES 


 RR PIANOFORTE SOLO 


 BOOK III 


 CONTENTS . nd , 

 Beethoven 
 F. A. G. 
 Th . Kullak 

 Egmont 




 FINAL BOOK 


 EARE VOCAL SERIES 


 “ VOCAL ANALYSES : 


 SENSITISING BREATH- 


 EMOTIONAL EVOLUTION 


 KIN , MARSHALL 


 BANKS 


 SCHIEDMAYER 


 STEINWAY 


 STUDIOS 


 COMFORTABLY FURNISHED 


 ELECTRIC LIGHT 


 CENTRAL HEATING 


 TELEPHONE LIFT 


 NEW STEINWAY PIANOS 


 STEINWAY & SONS , 


 2 , GEORGE ST . , CONDUIT ST . , LONDON , W.1 


 VLA 


 BECHSTEIN 


 PIANOS 


 126 , NEW BOND ST . , W.1 


 BECHSTEIN PIANO SPECIALISTS 


 PIANOS 


 BECHSTEIN , BORD , 


 ROGERS 


 SECOND - HAND 


 HIRE PURCHASE 


 NEW 


 CASH 


 74 - 764 , SOUTHAMPTON ROW 


 LONDON , W.C.1 


 PUBLISHED 


 NATIONAL SONGS 


 


 DESCANTS 


 


 ( C(EOFFREY SHAW 


 


 CONTENTS . 


 BAY BISCAY EARLY MORNING 


 - HUNTING O , DEAR ! MATTER BI 


 JOHN PEEI BRITISH GRENADIERS 


 NIGHT ASH GROVE 


 SCOTS WHA HAI GOOD KING WENCESLAS 


 OAK ASH NOWELL 


 NURSERY SONGS 


 


 APPALACHIAN MOUNTAINS 


 ARRANGED PIANOFORTE ACCOMPANIMENT 


 SECOND SERIES 


 MUSICAL 


 CHORALES 


 HARMONIZED 


 JOHANN SEBASTIAN BACH 


 COLLECTED ARRANGED 


 MELODIC ORDER 


 


 H. ELLIOT BUTTON 


 


 DAILY TELEGRAPH 


 BIRMINGHAM POST 


 DAILY MAIL 


 YORKSHIRE POST 


 PRESS OPINIONS 


 ABERDEEN PRESS JOURNAL 


 SON 


 SUNDAY MERCURY 


 YORKSHIRE HERALD 


 TABLET 


 CHURCH ! TIMES 


 LIMITED 


 TRINITY COLLEGE MUSIC 


 BROADWOOQ 


 HON . EARL SHAFTESBURY , 


 K.P. , G.C.V.O. , C.B.E 


 CHURCH CHOIRS 


 


 TEACH 


 8 , ILEDDON STREET , REGENT STREET 


 CHORAL SERIES , | LONDON , W.1 


 NEW SERIES - SONGS UNISON 


 SONGS 


 MUSICAL APPRECIATION 


 20 , KINGLY STREET , REGENT STREET , — — — 


 MUSICAL 


 689 


 SINGING - CLASS CIRCULAR 


 AUGUST 


 1925 


 ESSAYS 


 DAVIES 


 GRESHAM 


 WALFORD 


 DIATONIC ORIGINS 


 IL - SEVEN NOTES CHORDS 


 690 


 1925 


 COMBINED SYNTHETIC ANALYTIC*INTERESTS 


 MELODIC INTERVAL SCALE 


 HARMONIC INTERVAL CHORD 


 DIATONIC POSSIBILITIES 


 692 MUSICAL 


 1925 


 SUMMARY 


 CRITICISM 


 OBJEC 


 EVANSask , contemporary criticism 

 easy , kind friend 
 carelessly left library mountain , find 
 number distinguished writers took fairly 
 correct measure Beethoven , Wagner , 0 af 
 great revolutionary . necess # ! ] 
 consideration , , gener ! 
 attitude music , especially 
 time circumstances placed 
 appreciation record . Contemporary criticism 0 
 new work time regarded 

 f 




 694 


 1925 


 _ — _ 


 DE 


 _ — _ 


 > 


 » 107 


 697 


 BANKRUPTCY OPERA 


 698 


 _ — _ 


 


 1925 699stral instrument , listen result 

 pleasure given purely 
 orchestral work . ‘ explanation Wagner 
 opera composer great 
 symphonic writer took wrong turning . 
 time come shall 
 greatest disasters history music 
 Wagner stopping Symphony . 
 group masterpieces given — 
 dozen left Beethoven 
 shade — messed hopeless 
 task opera reform 

 Musicians attend Wagner opera 
 hear . know 
 enjoy ‘ Ring ’ closing 
 eyes — words , ignoring 
 constituents opera save . 
 music , anybody remainder — 
 long - winded text , dragons , swans , 
 rest clumsy paraphernalia . Zoo , 
 circus , cinema supply 
 things far better . standard operas 
 combine music bear 
 scrutiny gva music , text sound 
 piece work literary grounds , story 
 human appeal probability told genuine 
 imagination . mentioned ‘ 
 Mastersingers , ’ ‘ Carmen , ’ ‘ Falstaff , ’ 
 find stuck . ( , ‘ Falstaff , ’ 
 seen , rarely shelf 

 700 MUSICAL TIMES — AvuGcusT 1 

 — merest handful somebodies a|allow virtuoso conductors confine themselye ; 
 host nobodies . score of| mainly hackneyed works , answer thy 
 Bellinis , Donizettis , Heérolds one|usually hackneyed works fine music 
 Beethoven solitary work ( heard| , hackneyed critic tp 
 nowadays , described authority|the regular concert - goer novel man 
 ‘ standing perfect purity,|in audience . C minor Symphony 
 moral grandeur subject , in| holds thrills , th 
 resplendent ideality music . ’ / man pew revelation 

 ie Ld ‘ ~ 
 neglected . public } Elixir Love , ’ * Fedora , ’ o 
 wants little blood passion the| Lucia ’ reveal anybody ? 
 ‘ Cav . Pag . , ’ ‘ Tosca , ’ inanities | 
 prima donna - piece , likely | Space running , merely sketch 
 use Fidelio ’ ) . : | rest indictment opera . Briefly , 
 time , says reader , shirked | owing social glamour hangs round 
 Mozart . bit . / jt , absurd publicity given 
 operas bear said . the/ brilliant exponents ( especially quarre 
 music worth listening ; cares tuppence|to spitting point ) , opera attracts 
 stories ? , one| attention proportion real valu 
 performance Mozart dozens a| Think yards space given recently | 
 Puccini Leoncavallo . Jeritza hair , jewellery , appearing 
 = , church scene uncovered head er 
 [ literary dramatic feebleness | ae ag SE ae » 
 7 . . | singing Vissi d ’ arte ’ lying prone stage , & e 
 average opera admitted hands , } 7 Seen “ hs h f 
 tolerated sake music , few| shaper nergy toe Aepeabolacodrase oh : 
 wen po ; _ deeg ? |the things matter , little 
 brilliant snippets . form art allowed | , , - 
 | things . 
 cumber ground slender excuses | 
 appear sufficient repeated performance } Opera harm cause singing ina 
 certain operas . recent Italian season ! yariety ways . worst bits singing 
 . . ‘ xr ’ ° ‘ . . 
 Covent Garden works — e.g. , Fedora ’ and| ] heard ‘ Pagliacci , ’ 
 ‘ Lucia di Lammermoor’—were merely to| performance Prologue marked } 
 prima donna opportunity display . | practically vocal fault — wobble , bad intom 
 rhis true tradition . example , learn | tion , portamento ad nauseam distorted rhythn 
 Kobbé Donizetti Elixir Love ’ | singer ( forget ) looked par 
 revived Metropolitan , New York , 1904 , | certainly act , doped daze 
 solely order ( -aruso heard | audience roared approval singing 
 romance Act 2 , Una furtiva lagrima . ’ tolerated . ‘ mus 
 pretends early example Donizetti } good young students singiy 
 contains worth hearing . huge| present : sort lesson example ws 
 audience sat feeble work lasting ? , consider gramophone 
 evening order tenor disport | records operatic singing tenos 
 air ! alternately yell sob , baritones bias 
 similar point M. César Saerchinger bellow , women scream . 
 . : pe sree anaes . ~ exaggerate dozen 0 
 AZusical Courier article Covent ° - 
 C . . ‘ er records barely free bad taste ( 
 ; arden season . Speaking - Lucia di Lammer- : ‘ 2 
 » ( fos . 4 . — bad vocalism , . sort lessons 
 moor ’ ( inches dust covering shot tor ait diemene eaaaeal 
 brilliant score ’ ) , says : oo oa 
 respect genius Donizetti , 
 creator ‘ ] ) Pasquale , ’ squeeze half 
 hour genuine music noise . great leaves practically 




 701 


 MUSICAL 


 192 


 NEW PSALTER 


 MUSICAL 


 1925 703 


 MUSIC RUSSIAIn ue Musicale ( July ) , L. Kochnitzky 
 writes 

 musical taste , spreading 
 Russian masses , shallower 
 poorer . Soviet Government accomplishing 
 unparalleled effort promote musical culture . 
 modern times system education 
 ascribed important place music . 
 tendency propagate , glorify , maintain certain 
 tendencies properly belong 19th century 
 — especially heroic romanticism characterising 
 period Wagner Strauss , folk - lore ( 
 , bogus folk - lore ) current . Referring 
 concert programmes , surprised note 
 complete absence names Bach , 
 Handel , Gluck , Mozart . Debussy Ravel 
 likewise proscribed . Russian peasants workmen 
 gluttons plays music . perform- 
 ance Tchaikovsky ‘ Onegin ’ workman centre 
 near Leningrad , audience vociferously claimed , 
 ' y way encore , Beethoven ‘ Choral ’ Symphony , 
 performed week . 
 Composers received education 
 old régime able adapt 
 present requirements . younger composers 
 achieve uncertain . years 
 elapse venture judgment present- 
 day production . performances given 
 Leningrad Moscow Operas splendid . 
 famous Ballet School Leningrad carefully 
 preserved , sway 

 




 CRITICISM WAGNER 


 SNAPSHOT DEBUSSY 


 FRENCH SOCIETY MUSIC 


 HUNGARIAN COMPOSER 


 M.-D. CALVOCORESSI 


 


 CHURCH MUSIC 


 S.S.A 


 G. G 


 PIANOFORTE MUSIC 


 + ( 1648- 


 G. G 


 MUSICAL 


 1925 05 


 MUSICAL 


 50 


 NEW VIOLIN MUSIC 


 VOCAL SCORES 


 MUSICAL TI 


 RES 


 MUSICAL 


 THEkinds — nursery rhymes stories , marches , records 

 suitable lessons instruments 
 orchestra , Xc . ) ; illustrations orchestra 
 instruments ; Appendix exercises tune 
 rhythm . ends letterpress 
 work , ‘ musical section consists 
 songs kinds ( nursery rhymes , national 
 songs , studies , chants , rounds , descants , & ¢ 
 thirty - rhythmic studies ) kinds time 
 stepping , running , tripping , dancing ; 
 - pianoforte pieces use illustrations 
 recreation , Xc . , leading - Fugue 
 Bach , passing , Handel , Couperin , Beethoven , 
 Schumann , Chopin , classical composers , 
 arrangements national tunes 

 capital idea include cover 
 music necessary carrying 
 scheme book , instead merely referring 
 teacher source . Dr. Borland says , ! 
 musical examples called ‘ pile 
 volumes precariously poised pianoforte 
 . ’ music confined section 
 letterpress contains pages music , 
 sprinkled music - type illustrations 




 _ _ _ _ 


 ; H.G 


 _ — _ 


 MUSICAL 


 711 


 1S 


 


 B. V 


 BOOKS RECEIVED 


 _ _ _ 


 MUSICAL 


 714 MUSICAL 


 1925 


 


 YNICAL ORGANIST 


 192 


 MUSICALsimilar 

 Beethoven fifth 
 London Symphony 
 fills sides 

 wish 




 H.MDebussy ‘ Fétes ’ ( . 2 Nocturnes 
 makes brilliant record . know , , 
 better regard vivid tone , colouring , clarity 
 texture . happy thought record ‘ Fctes , 
 gramophonists appear little 
 records better ( wears 
 elusive ( 
 invertebrate ) essays . performance ‘ Fétes ’ 
 Albert Hall Orchestra , conducted 
 Sir Landon Ronald ( 12 - 

 excellent record Catterall 
 Quartet playing Beethoven Op . 18 , . 2 , G 
 12 - [ early work , transparent 
 wholly delightful 

 remaining instrumental 
 come review - rate 
 Erika Morini playing Wieniawski Capriccio Valse 
 Romance ( Concerto . 2 
 violinist _ London 
 recently , hearing playing 
 pieces , extraordinary finish delicacy , 
 handsome things written 
 . Romance , , 77 / ra / o 
 pronounced 




 716 MUSICAL 


 1925 


 VOCALION 


 MUSI 


 SCHOOLS 


 DIRE O1 SECONDARY 


 MUSICAL 


 CLASSICAI 


 T24,640/2eethoven 
 dupes n straig 
 valuable 
 ibrary Sonatas intrinsi¢ 
 \lberti bass fore , course , 
 compensating advantages strong 
 reminded 
 remark Mr. Deems Taylor recently quoted 

 mns : ‘ reluctance 
 know , | driven admit , 
 sasons enforced listening Beethoven , 
 doubt readers 

 ny Op ! _ — 
 nplete | 
 merit rhe 
 
 themes striking design 




 837 


 AC . = & 


 POPULAR 


 0,055 


 MUSICAL 


 A.S 


 26,480 


 LATE TUDOR 


 IMPOSERS 


 1501 , 


 MUSICAL 


 1925 719 


 31,590 


 ROYAL COLLEGE ORGANISTS 


 PRESENTATION DR . ARDID 


 720 


 MUSICAL 


 1925 


 : ? ) H. W. HARDS 


 O25 


 OMA DISTRIBUTION 


 PRESIDENT ADDRESS 


 SS ES 


 6 SS 


 MUSICAL 


 1925 


 WORK HARD 


 BI 


 SINCERE 


 PASSED 


 ASSOCIATESHIP 


 JULY , 1925 


 PASSED FELLOWSHIP , JULY , [ 425 


 ALAN W 


 FELLOWSHI!I 


 \SSOCIATESHIP 


 FELLOWSHIP PAPER - WORK 


 MUSICAL 


 1925 


 , EAGLEFIELD - HULL 


 ELLOWSHIP ORGAN - WORK 


 ASSOCIATESHIP ORGAN - WORK 


 W. G. ALCOCK . 


 ASSOCIATESHIP PAPER - WORK 


 ANNUAL GENERAL MEETING 


 728 MUSICAL 1925 


 _ _ _ 


 COUNCII 


 HON , TREASURER 


 HON , SECRETARY 


 CHOIRS FESTIVAL SALISBURY 


 GREGORIAN ASSOCIATION 

 organ St. Andrew Presbyterian Chat 
 Eastbourne , - opened , overhauling enls 
 ment , July & Dr. M. P. Conway gave rl 
 playing Bach works , Franck Pastorale , 
 | Fantasia F , Minuet Stanford Sonata 0 FA 
 Mr. W. J. Read played Bach Aria , Beethoven Rom 
 |in G , violin solos . reconstruction 0 ™ 
 organ carried Messrs. Hunter \ 50 % 
 Clapham , instrument - man 
 | - stops , new 

 Voices 




 IRY 


 4 ¢ 4320 


 730 


 APPOINTMENTS 


 CHANT SETTINGS TE DEUM 


 - 241 , 


 DNER 


 WTON 


 1925 731 


 FREDERICK WILD 


 LURE VIBRATO 


 MUSICAL 


 1925 


 H. TRAVERS ADAMS 


 LO 


 RONALD SWAFFIELD , | 


 REVIVAL ‘ LES HUGUENOTS ’ ? , 
 BIRD- INSECT - SONGS 

 S1r,—In March issue article Mr , Stan ) . 
 H. Clarke , ‘ Pipes Pan , ’ speaks 
 music bird- insect - song . study thes 
 islands New Zealand pleasure j , 
 years , enclosing prospectus book nog 
 press subject . included abo : 
 songs phrases indigenous importe : 
 birds . opportunities hearing songs bo , 
 kinds shown great difference th . 
 : songs English birds contain Jos 
 phrases suggestions themes invente 
 musicians , singing phrases birds & 
 connect way , repea 
 short phrases , combine motif + 
 New Zealand birds . ‘ tui , ’ bell - bird , gr 
 warbler , brown creeper long songs , 
 regularly divided - bar phrases . bir ’ 
 evidently conscious artists , certain songs 
 sung times , exactly , sometins 
 varied definite way . heard brown creeper 
 singing song triplets , accenting initial note 
 triplet , note ; birds sing 
 unison , conscious variation 
 heard bell - bird sing beautiful - bar phras , 
 marking bars curious , harsh , unmusical sound 
 bird sang phrase times , Beethoven - lik : 
 commenced series variations theme . [ bay 
 seen ‘ tui ’ bell - bird seated branch 
 , singing duet , known ‘ tus 
 bell - birds sing harmony , , , , 
 parts , quarter hour end . heard 
 seen , morning song summer 
 sung daylight , z.¢. , o'clock , 
 recorded great songs , 
 possible check records , certain 
 songs sung year . ‘ tui ’ especial 
 improvisatore . seen sitting improvising 
 song pleases , sings 
 ; sings day , nex 
 season ; included répertoire . ar 
 good singers poor singers ; good , 
 exquisite 

 regards imported birds , English , ax 
 hear definiteness songs ; , order 
 repetition phrases . concrete instance , sory 
 skylark . send pamphlet note 
 notes combination notes occurring 
 particular lark song . surprise nam 
 range melody , narrowness realise | 
 second surprise extraordinsr 
 variation notes means vocalisations , trills , a¢ 
 whistles . surprise wonderful power 
 notes . listen day hears 
 song repeated . bird sing minute ort 
 minutes , tell sequence nots 
 sequence follow ; sings som 
 twice . Browning wrong sis 
 thrush 




 S. E 


 _ _ 


 


 733 


 JOHANNES C. ANDERSEN . 


 GOOD WORD OUSELEY 


 HEATHCOTE D. STATHAM 


 NEGLECT LISZT MUSIC 


 WAGNER LEADING MOTIVES ’ 


 REGENT BUGLE 


 


 CHOIRBOYS SCOUTS 


 HAROLD WILKINSON 


 LEXED 


 


 MISUSE TROMBONE 


 SINGERS ’ JARGON TOWER 


 BABEL 


 POINT RIMSKY - KORSAKOV 


 6 4 ESS America ear music bells . 
 little cash register . — New York Telegran- 
 Mail 

 woman place crib home , # 4 
 piano concert - hall , mother Gracet 
 play public , mother Beethoven 
 gave great men.—O//o Fitigelmann , Paterson , N 

 partiality trombone , desire nothin 
 better epitaph , seen district , 
 reads : ‘ lies John Jones , blew dows 
 trombone brought virtuous family . ’—D ” . Fran : 
 Bates 




 VISON 


 HITE 


 MUSICAL TI 


 2X 


 J. 7O. C. , c / o Mu al 77 

 lharmonic vacancies 
 singers — 
 1esday Wednesday evenings 
 hs ’ College , New Cross . Principal 
 Beethoven Violin Concerto ; 
 “ Hymn Jesus ’ ( Ilolst ) ; 
 Concerto.—Prospectus hon . 
 . WATERER , ‘ Limes , ’ 50c , Crooms 

 earnest advanced 
 Mrs. WILLMORI 




 S. E. 


 ARTHUI 


 DECRI 


 W.11 


 ROYAL ACADEMY MUSIC 


 MUSICAL 


 1925the 

 F minor , Op . 9 Beethoven . 
 r 
 Ilugo Rignold 

 passing 




 EGE MUSIC 


 TRINITY COLLEGE MUSIC 


 MUSICAL 


 SITY MANCHESTER 


 LTY O1 


 NIVE 


 CENTENARY 


 -EDERICK GORE OUSELE\ 


 SIR 


 ORLANDO GIBBONS ABBEY 


 COMPLIMENTARY DINNER PRESENTATI ' 


 REV . E. H. FELLOWES , MUS . DOC 


 WOTK 


 MUSICAL 


 740 


 F. H. B 


 _ _ _ _ 


 VERDI DUI 


 ‘ BARBER 


 MUSICAL 


 1925 741 


 FRANCI 


 RETHBERG 


 JERITZA 


 ANDREA CHENIER 


 NEW RIGOLETTO 


 MUSICAL 


 1925 


 BORES SAILOR 


 TI 


 MUSICAL 


 1925 


 RYSTWYTH FESTIVAL 


 VILLIAMS WALI 


 MINOR MASS 


 STA\ IOLS1 


 744 MUSICAL 


 MISS ETHE 


 FA \ 


 LADY PHILLIDA SHIRLI 


 


 1925 745 


 INDARY SCHOOL FESTIVAI 


 HAM 


 ABERYS 


 GERMAN\ 


 ; ERMAN COMPOSERS 


 PRIVATE MUSIC LESSONS 


 DY 


 MUSICAL 


 LENINGRAD 


 VIENNA 


 OPERATIC EVENTS 


 COMIC - O 


 ASSI ERA MODERNI / 


 MUSICAL 


 749 


 R MUSIC 


 MUSICAL 


 G MA 


 MUSICAL 


 MUSICAL TIMES 


 CHARGES ADVERTISEMENTS 


 NOTICE 


 SPECIAL 


 W. 7 


 MUSICAL 


 1925 


 MONTH 


 W. G 


 LCOCK , 


 2 LGAR , EDWARD . 


 HAMBERLAIN 


 EBRUERS 


 B.—**O 


 > HAMBEE 


 100 


 308 


 CHOOL MUSIC 


 RK . S 


 TIAW , GEO ! 


 J. STAINE 


 SHORT ANTHEMS 


 OOKI 


 TADELY , F. W. 


 WONDERFUL 


 ‘ |DISCOVERY 


 OCAL 


 WILLIAM WOLLER 


 GUNTERSTONE ROAD , KENSINGTON , W.1 


 253 YEARS ’ UNBROKEN SUCCESS . 


 NOVELLO SCHOOL SONGS 


 THIRTY SONGS 


 FRANZ SCHUBERT 


 NOTATIONS 


 UITE 


 STRING ORCHESTRA ( 


 LAVICHORI 


 ATTI 


 RANSCRIBED 


 DOMENICO SCARL 


 JULIUS HARRISON 


 SCORE 


 25 


 


 WORDS MOUTH 


 O LORD 


 PRAY THEE 


 THOU THY F 


 UNTO 


 [ ING DESIRED LORD 


 PRAYER COME 


 HEAD 


 LORD 


 KE SHADOW 


 ) LORD 


 891 : . . . . 


 LEB SIMPER 


 POPULAR CHURCH MUSIC 


 HARVEST FESTIVAL MUSIC 


 CANTATAS . 


 GOLDEN HARVEST HARVEST CANTATA 


 BARITONE ) SOLI CHORI 


 H. KNIGHT MUSIC 


 = JULIUS HARRISON 


 RAINBOW PEACE | SONG , THANKSGIVING 


 TENOR BASS SOLI , CHORUS , ORGAN ; SOLI CHORUS 


 THOMAS ADAMS . WORDS WRITTEN ARRAN 


 - S. WENSLEY 


 


 HUGH BLAIR . JUBILEE CANTATA 


 MUSIC 


 J. F. WALLER SEED - TIME HARVES 


 G M. G : AR SOPRANO TENOR SOLI CHORUS 


 MUSIC 


 SOPRANO , CONTRALTO , BASS SOLI HARVEST SONG 


 CHORUS SOPRANO SOLO CH 


 WORDS 


 WORDS 


 OXENFORD J. BENNETT 


 MUSIC 


 ALFRED R. GAUL . C. LEE WILLIAMS 


 HYMNS CAROLS 


 NOVELLO HARVEST ANTHEMS 


 SELECTED LIST . 


 THOMAS ADAMS CUTHBERT HARRIS 


 W. G. ALCOCK ALFRED HOLLINS 


 EAR , O YE HEAVENS GOD - FATHERLY 


 E. C. BAIRSTOW ALBERT LOWE 


 GREATLY REJOICE EARTH LORD 


 J. BARNBY ARTHUR W. MARCHANT 


 EVE 5 WAIT THEE MAGNIFY THEE 


 HUGH BLAIR GEORGE C. MARTIN 


 OH , BRING LORD SAITH LORD GOD 


 \. HERBERT BREWER E. W. NAYLOR 


 EDWARD BUNNETT J. VARLEY ROBERTS 


 BLESSED THOU , LORD GOD BLESS LORD THY GOD 


 0 CLAP HANDS MAGNIFY THEE 


 PERCY C. BUCK BRUCE STEANE 


 GOD MERCIFUL UNTO COME , YE THANKFUL PEOPLE , COME 


 WALK STATUTES LORD GOD PLANTED GARDEN 


 EDWARD ELGAR HAROLD E. WATTS 


 FEAR , O LAND GOD ABRAHAM PRAISE 


 MYLES B. FOSTER JOHN E. WEST 


 ‘ RAISE WAITETH THEE , O GOD PRAISE GOD , IMMORTAL PRAISE 


 ALFRED R , GAUL FATHER MERCIES , GOD LOVE 


 4 . M. GOODHART W. WOLSTENHOLME 


 LET FEAR LORD O MEN PR . _ ~ — LORD 


 NOVELLO EDITION 


 BACH CHURCH CANTATAS 


 PRICE SHILLING SIXPENCE 


 SOLOS CANTATAS 


 BOOKS ( BOOKS VOICE 


 BACH MOTETS 


 MUSICAL 


 BLISHED 


 ANTHEM . 


 R. BAXTER 


 E SONS CLERGY 


 STANLEY MARCHANT 


 _ FOYL E MUSIC DEPT 


 WO \EM ANTHEMS 


 BASIL . H. ARWOOD 


 W.C.2 


 


 CHOIR 


 PRID AUGUST 


 L CONTENTS 


 


 NOCTURNE 


 VIOLONCELLO ( VIOLIN ) 


 PIANOFORTE 


 


 


 COLIN MACLEOD CAMPBELL 


 


 SONGS 


 DUET 


 SEA 


 PIANOFORTE 


 GEC \FFREY SHAW 


 


 ORGAN 


 ALCOCK 


 


 SALE . 


 T. S. WOTTON 


 RAME 


 H ROAD 


 6 , STOCKLE 


 SCORES 


 PUBLISHED 


 BOARS HEAD 


 MUSICAL INTERLUDE ACT 


 LIBRETTO TAKEN 


 SHAKESPEARE KING HENRY IV 


 GUSTAV HOLST 


 PIANOFORTE ARRANGEMENT VALLY LASKER 


 PRESS OPINIONS 


 MUSICAL 


 1925 


 PERFECT FOOL 


 OPERA 


 WORDS MUSIC 


 GUSTAV 


 PRICE 


 


 TIMES 


 ISIC 


 DAILY TELEGRAPH 


 MORNING POST 


 DAILY MAIL 


 DAILY NEWS 


 DAILY EXPRESS 


 REFEREE 


 


 ACT 


 


 


 HOLST 


 39 


 PERFECT FOOL 


 PRESS OPINIONS 


 PALL MALL GAZETTE 


 DAILY CHRONICLE 


 BIRMINGHAM POST 


 WESTERN DAILY PRESS 


 MUSICAL NEWS HERALD 


 MUSICAL STANDARD 


 SUNDAY TIMES 


 ~~ TD 


 DF OO TOW & 


 SONGS 


 


 ROBERT SCHUMANN 


 ENGLISH 


 THIRTY SONGS PWELVE SONGS 


 “ NATALIA MACFARREN 


 EDITED TRANSLATEI 


 ; NATALIA MACFARREN 


 WOMAN LOVE LIFE 


 ( FRAUENLIEBE 


 EDITED TRANSLATED | 


 TA , — > D 7 


 NATALIA MACFARREN . 


 POET LOVE 


 ( DICHTERLIEBE 


 EDITED TRANSLATED 


 NATALIA MACFARREN 


 


 MUSICAL 


 TIME 


 S — AUGUST 1925 


 NGLISH LYRICS 


 SET MUSIC 


 C. HUBERT H. PARRY 


 LONDON 


 SHILLINGS 


 SET 


 SECOND 


 


 FOURTH 


 ATS 


 FIFTH 


 16 


 SIXTH 


 SEVENT 


 EIGHTH 


 SET 


 SET . 


 SET 


 SET 


 SET 


 SET . 


 SET . 


 NINTH SET 


 TENTH SET 


 ELEVENTI 


 TWELFTH 


 NOVELLO 


 SET 


 SET 


 NOVELLO 


 PIANOFORTE ALBUMS 


 VOLUME IX . 


 VOLUMI 


 VOLUME IV 


 N 38.—ALTSCHUL , RUDOLF 


 VOLUME V. _ 


 VAI YOK EACHERS STUDENTS | OLD ENGLISH 


 TECHNIQUE VIOLIN MUSIC 


 


 EXPRESSION | EDITED 


 PIANOFORTE PLAYING 


 


 FRANKLIN TAYLOR . 


 THOMAS AUGUSTINE ARNE 


 S SIXPENCE 


 BREATHING 


 | VOICE - PRODUCTION 


 H. H. HULBERT 


 SHILLIN 


 NOVELLO HANDBOOKS MUSICIANS 


 FDITED ERNEST NEWMAN 


 CHORAL TECHNIQUE INTERPRETATION 


 HENRY COWARD 


 TEACHING ACCOMPANIMENT 


 PLAINSONG 


 FRANCIS BURGESS 


 


 REVEALED CONTEMPORARY EVIDENCE 


 ARNOLD DOLMETSCH 


 APPENDIX 


 CONTAINING - ILLUSTRATIVE PIECES . 


 


 SOURCES KEYBOARD MUSIC ENGLAND 


 CHARLES VAN DEN BORREN . 


 TRANSLATED FRENCH 


 JAMES E. MATTHEW 


 THEORY HARMONY 


 


 MATTHEW SHIRLAW 


 ORGAN WORKS BACH 


 


 HARVEY GRACE . 


 


 NT 


 IWENTY SHORT EASY PIECES 


 ORGAN 


 SET 


 SET 


 SET 


 SET 


 SET 


 PRICE , PAPER COVER , SHILLINGS SET . CLOTH , SHILLINGS SET 


 LONDON 


 CHAPPELL & CO ' 


 LATEST SONG SUCCESSES 


 IDYHARDELOT . HERMANN LOHR . 


 MOLLY CAREW . 


 IER H. LYALL PHILLIPS . 


 OUGHBOROUGH 


 NEW YORK SYDNEY 


 MINIATURE SCORES WORKS 


 


 IGOR STRAVINSKY 


 17