


 EWER 


 \LKIN 


 SHIP ! 


 CHER 


 GRAY 


 MANT 


 LAND 


 OLDY 


 RKEL 


 /MAN 


 RAFI 


 RGER 


 TEIN 


 [ ANN 


 LANN 


 ELBY 


 OURS 


 VEST 


 VEST 


 XUM 


 HE MUSICAL TIMES 


 AND singing - class CIRCULAR 


 found 


 publish on the 


 first 


 in 1844 


 of every month 


 OCTOBER 1 


 I9T9 


 ROY . " AL CHOR . AL SOCIETY 


 ROVAL ALBERT HALL . 


 ELIJAH - - - - + - MENDELSSOHN 


 MISS AGNES NICHOLLS . MADAME KIRKBY LUNN . 


 MR . BEN DAVIES . MR . HERBERT BROWN . 


 SATURDAY , NOVEMBER 1919 , at 2.30 P.M. 


 news from WHYDAH 


 MISS DILYS JONE 


 MR . FREDERICK RANALOW 


 20 


 MISS FLORA WOODMAN . 


 MR . WALTER HYDE 


 SATURDAY , DECEMBER 20 , 1919 , at 


 CAROLS 


 MISS RUTH VINCENT . | MISS DORIS VANE . 


 MR . JOHN COATES . MR . GEORGE BAKER 


 2.30 P.M 


 SATURDAY , JANUARY 3 , 1920 , 30 P.M 


 MESSIAH _ - _ + + = + HANDEL 


 MISS CARRIE TUBB . MISS PHYLLIS LETT 


 MR . GERVASE ELWES . MR . ROBERT RADFORD 


 SATURDAY , FEBRUARY 1920 , 


 HIAWATHA 


 COLERIDGE- 


 MISS AGNES NICHOLLS . 


 DAVIES 


 AT 2 30 p.m. 


 TAYLOR 


 14 


 MR . HERBERT BROWN 


 SATURDAY , MARCH 13 , 1920 , at 2.30 p.m. 


 MADAME KIRKBY LUNN . 


 GERVASE ELWES . CAPTAIN HERBERT HEYNER 


 MR . BEN 


 MR 


 GOOD FRIDAY , APRIL 2 , 1920 , at 2.30 P.M 


 MISS RUTH VINCENT . MISS ASTRA DESMOND . 


 MR . JOHN COATES . MR . NORMAN ALLIN . 


 APRIL ; 24 , 1920 , at 2.30 p.m. 


 the MYSTIC TRUMPETER 


 HANNELE ( ORCHESTRA only ) | 


 HUBERT 


 SATURDAY 


 the vision of 


 MISS PHYLLIS LETT 


 MISS CARRIE TUBB . 


 MR . HERBERT BROWN 


 MR . FRANK MULLINGS 


 ACADEMY of MUSIC . 


 ROAD , LONDON , N.W.1 


 ROYAL 


 YORK GATE , MARYLEBONE 


 A special teacher ’ TRAINING COURSE , 


 THE ROYAL COLLEGE of MUSIC . 


 PRINCE CONSORT ROAD , SOUTH KENSINGTON , S.W. 7 . 


 H.R.H. the PRINCE of WALES , K.G. 


 the ROYAL COLLEGE of MUSIC PATRON 's FUND 


 CLAUDE AVELING 


 GUILDHALL SCHOOL of MUS 


 VICTORIA EMBANKMENT , E.C. 4 


 autumn term commence MONDAY 


 IC 


 SEPTEMBER 22nd 


 H. SAXE WYNDHAM , 


 COLLEGE of ORGANISTS 


 the ROY . AL 


 ADVANCE IN PRICES 


 514 the MUSICAL TIM 


 ROYAL 


 MANCHLSTER COLLEGE of MUSIC 


 BIRMINGHAM & MIDLAND INSTITUTE . 


 SCHOOL of MUSIC 


 session 1918 - 1919 . 


 MANCHESTER SCHOOL of MUSIC 


 UNIVERSITY of DURHAM 


 VICTORIA COLLEGE of MUSIC . 


 LONDON , 


 incorporate 1891 


 the INCORPORATED 


 LONDON ACADEMY of MUSIC 


 ORCHESTRAL and CHAMBER MUSIC class weekly 


 the LONDON COLLEGE for CHORISTERS 


 INCORPORATED guild of CHURCH 


 musician . 


 SSOCIATE SENTIATE ( L 


 1.G.C.M 


 competition , 1919 . 


 tt -~ ~ 


 MR . W. H. BREARE 


 TO student and the profession 


 CA 


 D.D 


 ing 


 1919 . 51 


 BRITISH MUSIC society . 


 ( NATIONAL and INTERNATIONAL 


 MR . E. J. DENT . MR . FRANCIS TOYE . 


 can you help 


 STEINWAY HALL 


 assist by 


 ASHBURTON HALL , 28 , RED LION SQUARE , W.C. 


 course of TEN lecture 


 the next 


 will be hold in 


 SYLLABUS now ready , 


 1920 


 ARTHUR E. JONES , F.R.C.O. , L.T.C.L. 


 captain 


 ( CHARLES KNOWLES 


 CHARLES KNOWLES 


 ( CHARLES KNOWLES 


 MR . CHARLES TREE 


 LONDON , W.C.1 . 


 PIANO SCORE of the ballet : 


 the good - humour lady 


 NEWCASTLE - UNDER - LYME 


 PROFESSIONAL notice 


 N ( TENOR 


 IVOR WARRE 


 REGINALD GOSS - CUSTARD , 


 MR . SAMUEL MASTERS 


 ( TENOR ) 


 F.R.C.O 


 MR 


 JAMES COLEMAN 


 the EMINENT ORATORIO BASS . 


 2 : 7 ” 


 MR . AMBROSE COVIELLO 


 R ! 4 F.R.C.O. ¢ 


 MUS . BAC . DEGREE . 


 7 LI m d i 


 composer ’ MSS . 


 revise and prepare for printing 


 evision of musical composition 


 G PECIAL correspondence course : — 


 R. CROSSLEY.—SINGING , PIANO , COM 


 RTHUR ELLARSHAW , L.R.A.M. , A.R.C.M 


 F.R.C.O. SPECIALIST in correspondence 


 tuition . 


 E ngagement accept and POSTAL 


 DR . LEWIS ’ text - book 


 6 ) R 


 1.W. 2 


 MUS.B , 


 . ( 1916 


 OM- 


 C.M. 


 am- 


 [ nce 


 ASS 


 the 


 1919 . 517 


 pecialist in corresponde nce 


 recent success 


 G LADY PIANIST 


 RCHESTRAL 


 GAN ( PIPE ) TUNER and repair 


 : S. E. 6 


 CHRIST CHURCH CATHEDR AL , OXFORD . 


 OCHESTER ‘ CATHEDRAL . — assistant 


 75 


 10 


 REQUIRED , 


 MASTER 


 4 , ORGANIST and CHOIR 


 MERICAN ORGAN 


 OR sale . -COLLARD SEMI - GRAND PIANO 


 PIPE ORK AN 


 4,130 


 LONDON COLLEGE of MUSIC 


 GREAT MARLBOROUGH STREET , LONDON , W. 1 . 


 FOR MUSICAL EDUCATION and EXAMINATIONS 


 HIGHER EXAMINATIONS , 1919 


 DIPLOMAS IN PRACTICAL music 


 licentiate ( L.L.C.M. ) . 


 teacher ’ DIPLOMA ( T.D.L.C.M ) . 


 associate ( A.L.C.M 


 L.R.A 


 NTAB 


 on 


 LONDON COLLEGE of MUSIC 


 DIPLOMAS in THEORETICAL MUSIC . 


 20 the 


 1919 


 TRINITY COLLEGE of MUSIC 


 the RT . HON . the EARL OF SHAFTESBURY , K.P. 


 C.N 


 CYRIL SCOTT 


 MODERN FINGER- 


 exercise 


 FOR THE PIANOFORTE 


 H. RODWELL , 


 W.1 


 CYRIL SCOTT 


 SECOND 


 PIANOFORTE ALBUM 


 RUSSIAN DANCE . ASPHODEL 


 INTERMEZZO . CAVATINA . 


 ODE HEROIQUE 


 CO . 


 ELKIN 


 STREET , RE 


 WOO 


 ‘ OS 


 BRO 


 ( SHORT CUTS to PIANO TECHNIC ) 


 FAIRIES of the stream 


 KETELBEY 


 NEW ALBUMS FOR the PIANO 


 LEE WILLIAMS 


 ARTHUR SOMERVELL 


 8 , HEDDON STREET , REGENT STREET , LONDON , W.1 


 WESTMINSTER PILGRIM 


 BY 


 SIXTEEN SHILLINGS NET 


 GRAY 


 IONS 


 JUEENSTOWN 


 CATHEDRAL 


 XUM 


 521 


 1919 


 _ — _ 


 AND SINGING - CLASS CIRCULAR 


 OCTOBER 1 , 1919 


 QUEENSTOWN CATHEDRAL . 


 A RICH INTERIOR 


 the EXTERIOR 


 the ORGAN 


 V 16 


 I 16 6 


 F 8 7 


 D 42 


 I 16 | 47 


 AN 


 AND coupler . 


 AN 


 coupler . 


 the clock and QUARTER chime 


 the CARILLON 


 3 d 28 2 26 


 . & 48 2 3 


 6 . a 67 22 


 b ; ( & 


 afternoon , 3.45 to 4.30 . sonata , : ... G. Van Hoey * pécheurs de perles F 

 2 f ' r aw ' j 
 ' Ave Maria ' _ Schubert o star of eve - .. " 
 prelude in C major Bach Gavotte Coes ces ats 
 Adagi ' pa re Bestheven Spring Song ' Mendelssoh 
 Adagio from ' pathetic ' Sonata Beethoven Sanesain ve bs Gabric ! Mari 
 Neapolitan Song ans Casella " Rubensmarch ' Beno 
 . Rubensmarch , ° Benott * Berceuse de Jocelyn Gedar 

 the MUSICAL TIMES.,—Octoser 1 , 1919 

 my ; ae 
 EVENING , 7.30 to 8.15 . |i indeed a master of his art . his playing be 

 Fantasia ' Les Cloches de Corneville ' Planguette | brilliant , with well - define rhythm . the deep 
 flemish Songs : expressive power display in Schubert ’s ' Ave 
 ( a ) ' my mother tongue ° ' a Benoit | Maria ' and Beethoven ’s ' Adagio ' be a revelation 
 ( 4 ) ' when the swallow homew - fly ' De Broeck | as to the capability of bell . Benoit ’s ' Rubens- 
 ( c ) ' Antwerp Tower ' Verhaeren |march ' perhaps show his splendid pedal 
 Stances et Flegier | technique to the great advantage . the immense 
 Andante cantabile Denyn |audience — for the town be throng with people 
 intermezz > ; .. Mascagni |—was quite carry away by the delicacy of the 
 Fantasia , ' Carmen ’ s+ ss » es , Bizet | Piantsstmo passage and the rich and resonant tone 

 in listen to carillon playing it should be| of the bell 




 ANTOINE NAUWELAERT 


 1919 . 525 


 1919 


 9 - 16 


 « 2 2 z@2 _ -@ = 2 2 2 2 


 6 = = = SSS SS 


 BEFORE - breakfast music . 


 SS 


 2 z — — — — — 9 


 o71 16 


 som 


 1919 . 529 


 53 


 1919 


 the relation of music and 


 poetry . 


 xum 


 so , 


 > OWN 


 53expresse a preference for the string of 4th and 
 5th of good old Hucbald . Brother Alpha , the 
 ceremoniarius , be particularly withering . ' I could 
 almost say with the Gaul , that when I hear that 
 a new carmen have be compose , I straightway 
 sing an old one . I shall go on whistle Hucbald , 
 leave the howl wilderness of harmony for the 
 impious among you who like howl wilderness , 
 and who do not know a good thing when you 've 
 get it . retro Sathanis 

 the Philharmonic player who laugh at the 
 first rehearsal of Beethoven ’s ninth Symphony 
 be Alphas to a man , and the bulk of our 
 concert audience of to - day be seal of the 
 same tribe . a few Doyles there be , restless soul 
 ( mostly critic , blasé , and with an eye on the 
 go to press of to - morrow ’s paper ) , who estimate 
 the hour at which a new work come on , prowl in 
 and hear it , and prowl out again , carefully 
 avoid largo , Cavatinas , and solemn Melodies . 
 but , on the whole , the Alphas have it , and 
 conductor and orchestra with little time for 
 rehearsal be well please . think what a life 
 would be theirs if they have to cater for a public 
 of Doyles 

 it be much easy to hold the balance between 
 the old and new in literature than in music . I 
 can indulge my taste for Sir Thomas Browne or 
 Malory without compel you to share the 
 volume . you , on your side of the party wall , 
 can take your fill of Pope , and I wish you joy of 
 it . but unless my appetite for the old music be 
 that of the majority , I be likely to go hungry . 
 those of we who want to hear Byrd or Palestrina , 
 Scarlatti or Couperin , come badly off . I would 
 go a long way to - morrow to renew acquaintance 
 with Schubert ’s C major Symphony , but so long as 
 most people be satisfied with a state of thing 
 which give we twenty performance of Beethoven ’s 
 no . 5 or no . 7 to one of Schubert ’s masterpiece , I 
 must stay at home and get what comfort I can 
 from the full score . as a matter of fact , too , the 
 average man be much more curious about new book 
 than about new music . generally his reading be 
 almost confine to work of to - day . if his taste in 
 book lag with his taste in music , we should 
 daily see trainload of he go citywards read 
 Thackeray , with a volume of Carlyle in reserve 
 for more serious moment . but he have forget 
 these two writer long ago , to his loss . the 
 artistic part of he be develop as Touchstone 
 say Corin be damn , like an ill - roasted egg , all 
 on one side . he will stand for hour in a 
 draughty side - street in order to be present at the 
 first performance of a new play which may prove 
 to be the poor return for his vigil and the good 
 hard money he have spend ona ticket . he will 
 join a circulate library , and order the new Wells 
 or Arnold Bennett without wait to read the 
 opinion of the reviewer . but when he take to 
 concert - go , he look out a programme that 
 give he as large a percentage as possible of 
 the music he enjoy year ago . he be even 
 rather proud of this loyalty to his old favourite 

 532 

 1919 

 and if you venture to hint that possibly the good of 
 some new writer may be worthy hearing than the 
 bad of Beethoven , he think you be an iconoclast . 
 ( but he will not use that word — why should he , with 
 ' Bolshevist ' lie handy 

 this ringing the change on a few well - wear 
 work be one of the great hindrance to musical 
 progress . even if the favourite happen to 
 represent the composer at their good , the resultant 
 neglect of the remainder of their work would be 
 bad . when , as be too often the case , the popular 
 item be merely a hash - up affair or a transcription 
 the case be far bad . if Bach and Handel , 
 turn uneasily in their grave , could give we a 
 piece of their mind , we should probably hear 
 something like this . George Frederic , choleric 
 a ever , would take the first inning . ' I have some 
 pretty warm enemy when I be alive , ' he would 
 say ( speak unexpectedly colloquial English ) , 
 ' but they take a back seat compare with some of 
 my undiscriminating admirer of to - day . the first 
 and bad of my posthumous enemy be he 
 who lift the tenor air , " ombra mai fi , ' 
 from my opera " Serse , " transpose it from f to g , 
 weaken the harmony by turn some of my 
 chord of the 6th into six - four - three ( a chord 
 I rarely use ) , and make it into a quasi - religious 
 sweetmeat , serve up in all sort of tasty way . 
 you English be bad enough , but the Germans be 
 bad . if you look at the catalogue of Carl Simon , 
 of Berlin ( do not start ; we know more of what go 
 on than you think ! ) , you will see advertise no 
 few than forty - two perversion of it . my copy of 
 the catalogue isan old one—1905 . probably there 
 be even more edition available now . the 
 disarrangement that touch I up the most be one 
 for voice , ’ cello , harmonium , and two guitar , with 
 a third ad 4 + . some day my poor ill - use tune 
 will be set for bass - tuba , ocarina , and a jew’s - harp 
 quintet , with ( of course ) the organ supply the 
 regulation dose of religiosity . a nasty jab be 
 deal I about a century ago , when my " hallelujah 




 533and now ( Bach would go on ) very few people 
 know of my little anticipation of the modern 
 practice of elision of cadence owe to Schwenke ’s 
 impertinence having become a fixture through 
 Gounod ’s adoption of it in the " Meditation . " but 
 I have a chuckle when Gounod afterwards try his 
 " meditation " recipe with a prelude in d minor 
 from my short clavier work . it be as well do 
 as the other , though my basis and his super- 
 structure be perhaps a bit less attractive . 
 anyway , it fall so flat that it simply stick , and 
 nobody have yet pick it up . not many sequel 
 be successful , but few have fail so completely , 
 and it be the only failure that have give I 
 satisfaction 

 another aspect of this overplay a few work : 
 be not it a bit hard on live composer ? I run 
 against Beethoven the other day , and he be 
 volcanic about it . he say he suppose he ought 
 to be gratify at pianistic lion still tinkle away 
 at his Andante in F , and Rondo in G , and other 
 thing that he never take much stock in , but if the 
 player of his time have neglect his Sonatas in 
 favour of such small beer by dead and go com- 
 poser he would have make a few appropriate 
 remark . in fact , he make a few on the spot , just 
 to show what he could do when rouse 

 there be something in old Bach ’s suggestion that 
 an unfamiliar work should sometimes be spring on 
 the public in the place of a hackneyed one . at 
 present , eleventh hour change in the programme 
 do the reverse , and please only the Alphas . but 
 what be really need be a kind of self - denial 
 season , in which the old favourite ( and a few 

 what a step forward in appreciation would be 
 make if , instead of six performance of such work 
 as the ' Largo ' we have two each of three good 
 modern work that so far have not have a chance . 
 consider the growth of the repertory of both 
 player and hearer ( for hearer no less than 
 player have to acquire a repertory , and one 
 performance be almost as useless to the latter as to 
 the former ) if this self - deny ordinance be 
 carry out thoroughly for a year . here be a list of 
 work that would be all the well for a rest : 
 Handel ’s ' Largo , ' the Bach - Gounod ' Meditation , ' 
 Walford Davies ’s ' solemn Melody , ' Raff 's 
 ' Cavatina , ' Rachmaninoff ’s prelude in C sharp 
 minor , Mendelssohn ’s ' Bee ’s wedding ' and 
 ' spring song , ' Brahms ’s hungarian dance in D 
 and G minor , Beethoven ’s ' Leonora , ' ' Coriolan , ' 
 and ' Egmont ' overture , overture to ' William 
 Tell ' — the list show sign of be too long for 
 convenience . and add to it many vocal item 
 that have the minimum of interest for we to - day 

 especially the operatic aria that lag superfluous 
 merely because there be suppose to be a dearth of 
 good song with orchestral accompaniment , or 
 that be take down from fhe shelf from time to 
 time in order that a singer may show his or her 
 ( especially her ) pace . with more courage and 
 enterprise on the part of conductor and audience 
 we should in a short time have a really musical 
 public , with a proper curiosity as to new work , and 
 a power of discrimination equal to that show 
 in regard to investment , clothe , food , and affair 
 generally . ' the chief shortcoming of our musical 
 public to - day be this lack of discrimination , and 
 there will be no improvement so long as the 
 programme of the average concert and recital 
 ( especially pianoforte recital ) be frame on line 
 that do little to extend the hearer ’s repertory . 
 the average man take his music mostly on 
 Saturdays and Sundays . what exercise do his 
 critical power get ? occasionally he hear the 
 first ( and last ) performance of a novelty . at its 
 close , ' for what we have receive , ' he say , and 
 clap his hand devoutly — even enthusiastically , if 
 the composer come on to embrace the conductor . 
 the remainder of the programme be largely make 
 up of music so familiar that what slender critical 
 faculty he have promptly go to sleep . when he 
 tire of these familiar piece , what will take their 




 534 the MUSICAL TIM 


 HALF of the SIXTEENTH century . 


 FIRST 


 URY 


 I , 1919 . 53 


 ‘ — — 4 — j — — = = 


 — . = 22S SSS ES 


 53 


 1919 


 SSS 


 1750 - 1834 : 


 1919 . 539 


 BRASS band ARRANGEMENTS of 


 ELGAR ’s symphony 


 MUSICIANS of CHARLES II 


 the 


 540 


 1919 


 TI 


 _ _ _ 


 541 


 1919 


 1662 , 


 542 


 I , 1919 


 1919 . 543 


 CAPT . B. S GREEN , M.V.O 


 544 


 1919 


 H. B E 


 _ _ 


 JAMES WATT as ORGAN BUILDER 


 ORG 


 1819 . 


 TONDON 


 ORGAN 


 2 — — — _ — 


 ALTO 


 anthem for four voice 


 SS SS SS 


 SS = = = 


 SS 


 — — — _ — — _ 


 = 22 SF SS SSS SS SSS 


 — — — — SSS SSS 


 of ): 


 NY 


 E SS SS 


 G2 - - = - SS 


 2 3 . — . 


 2,73 = — — | = — 


 S->_= } — — - — | _ — 


 8 SSS SSS SS SS = 


 SS 4 


 LEAD US , HEAVENLY FATHER 


 1918 , 


 50 


 AH 


 I , 1919 


 ORGAN KECITALS 


 553 


 1919 


 appointment 


 PIANOFORTE MUSIC , 


 SONGS 


 553 


 AN appeal for a NATIONAL OPERA HOUSE 


 RUTLAND BOUGHTON 


 ROGER CLARK 


 the NATIONAL EISTEDDFOD 


 554 the 


 1919 


 british music and patriotism 


 cripp 


 the gramophone as an aid to musical | 


 appreciation . 


 MEYERBEER and his executor 


 STRAVINSKY and his critic 


 AR 


 OCK 


 ON 


 HENRY . 


 ARAB influence on spanish music 


 ‘ HENRY FARMER , } 


 GODOWSKY and british MUSIC 


 A. EAGLEFIELD HULL , 


 W. H. G. F. 


 the late DR . D. J. WOOD 


 556 


 M. B 


 the musician ’ gift to H.M. FORCES 


 to provide musical activity among the man 


 8.4 


 19 10 


 £ 33 18 9 


 41 5 0 


 _ _ 


 scital 


 10 0 


 novelty at the PROMENADE concert 


 pro PATRIA ' : NEW english OPERA 


 FRANCIS E. BARRETT 


 the british SYMPHONY ORCIIESTRA 


 XUM 


 MNANK 


 59 


 1919 


 the SPECIAL course for teacher of 


 music in secondary school 


 CHAMBER music for AMATEURSWe be glad to observe sign of increase activity among 
 amateur chamber - music pirtic . we be sometimes ask to 
 help player desirous of get into touch with other in their 
 district , and it occur to we that the time be ripe for something 
 more definite in the way of as - istance . we have therefore 
 decide to devote a portion of our space each month to 
 announcement of player ’ requirement . the announce- 
 ment should state the district in which the player reside . 
 with particular as to time of meeting , instrument , and 
 character of music he or she desire to take part in , and 
 name and address , or nom - de - plume , c / v Novello & Co. , Ltd , 
 160 , Wardour Street , W. 1 . thus 

 Violin ( first or second ) ; Mozart , Haydn , Beethoven 
 quartet ; Streatham , or near ; Weekday evening . 
 — CONSTANT READER , c / o Novello & Co. , Ltd 

 Clarinet.—Modern work prefer ; anywhere in 
 N. London ; Sunday afternoons.—NEMO , c / o 
 Novello & Co. , Ltd 




 the CHILDREN ’s CONCERTS SOCIETY . 


 1919 . 


 1920 . 


 1919 


 by our own correspondent . ) 


 BIRMINGHAM 


 BOURNEMOUTH 


 . G. H 


 the1919 . 561 

 take to supply those particular relate to the Symphony 
 Concerts which be necessary for the completeness of this 
 monthly chronicle . it be thus we learn , therefore , that 
 the concert on August 20 have for its chief attraction the 
 ' pathetic ' Symphony of Tchaikovsky . the performance 
 be an exceedingly fine one , and the excitement that the 
 climax of the first movement invariably produce be once 
 more provoke by the highly expressive orchestral playing . 
 prolonged plaudit from the very large assemblage greet a 
 performance that be notable for its perfect correctness . this 
 work quite overshadow Rossini ’s tawdry * William Tell ’ 
 Overture , splendidly play as be be , and the wishy - washy 
 Paganini Violin Concerto , which Madame Adila Fachiri , by 
 sheer intensity of interpretation , do her level well to render 
 interesting . her performance win an enthusiastic recall , to 
 which she respond with the Bach Gavotte in E , unaccom- 
 panie . on August 27 César Franck ’s Symphony be give 
 a polished performance , but the music meet with a somewhat 
 chilly reception . it can not be deny that the work suffer 
 from redundancy , particularly in the second and third move- 
 ment , the opening section be the most prepossessing . 
 on the other hand , one ’s admiration for many beautiful 
 moment and the striking orchestration can but be wholly 
 genuine . Beethoven ’s ' Coriolan ' Overture and the frequently 
 play excerpt from act 3 of ' the Mastersingers * make 
 up the remainder of the purely orchestral item . in addition 
 to these , however , Miss Augusta Chilton Griffin play 
 Saint - Saéns ’s * Africa ' fantasia for pianoforte and orchestra 
 with much brilliance , bring out all the good point of the 
 composition . 
 Debussy ’s ' La Cathédrale Engloutie , ' Liszt 's weirdly 
 realistic Legend , ' St. Francis walk on the wave , ' and 
 a Chopin Mazurka . the first prove a magnificent 
 performance , but the other composition be handle 
 rather too heavily and thus be less satisfactory . Miss 
 Thelma Petersen , the possessor of an attractive voice , sing 
 ' o don fatale ' with orchestral accompaniment . her 
 dramatic sense be not yet develop to any extent , and 
 consequently Graham Peel ’s ' the early morning , ' which she 
 sing as an encore , be much more suited to her capability . 
 the following week ’s concert , which consist of Schubert ’s 
 ' unfinished ' Symphony , the ' Tannhiuser ' Overture , the 
 Suite , ' from all country , ' by Moszkowski , a slavonic 
 dance of Dvordk ’s , and some vocal contribution by Mr. 
 Charles Tree , we be unable to report 

 the writer be present at the concert on September 11 , 
 when Tchaikovsky 's fifth Symphony be the principal 
 feature of the scheme . an otherwise satisfactory per- 
 formance be handicap by some rather dull playing in 
 the first movement , and a glare orchestral slip which spoil 
 the flow of the music for a space . the rest of the pro- 
 gramme consistently pursue the lugubrious vein open up 
 by the russian composer , consist as it do of the same 
 master ’s ' Serenade Mélancolique ' for violin , capably play 
 by Mr. Bertram Lewis , the leader of the orchestra , Sibelius 's 
 ' Valse Triste ' ( encore ) , and — tragedy conceive in less 
 poignant accent — Edward German ’s ' Richard III . ' 
 Overture , which please very much and be capitally 
 perform . a programme of recognise popularity be 
 submit on September 17 , such work as Beethoven ’s 
 C minor Symphony and Grieg ’s Pianoforte Concerto never 
 fail in their appeal to the general public . Mr. Dan 

 Godfrey merit much commendation for the excellent result | 
 he obtain from his instrumentalist in the Symphony , and 




 BRISTOL 


 562 


 1919to be a feature . ten work by british composer will be 

 give at the three concert , the ' outside ' work include 
 Beethoven ’s Concerto in D , Grieg ’s a minor Pianoforte 
 Concerto , and the overture to ' the meistersinger 

 Rutland Boughton ’s ' midnight , ' for choir and orchestra , be 
 also down for presentation 




 DEVON and CORNWALI 


 DEVON . 


 CORNWALL 


 DUBLIN 


 LUSIC 


 LASGOW 


 LIVERPOOL 


 MANCHESTER and DISTRICT 


 4 > | » * 3 » 2.2 and January 2 throw in . always a believer in the 
 personality of his artist , Mr. Lane associate at separate 
 concert , Melba , Burke , Busoni ; Clara Butt , Rumford , 
 Kubelik ; Sarah Bernbardt and Cortét ; Felise Lyne , Adela 
 Verne and Marie Hall ; a Pachmann recital ; orchestral 
 night with both Lamond and Busoni ; and what be style 
 the ' overwhelming attraction ' on January 1 , 2 , and 3 of the 
 massed band of his Majesty 's Guards , under Major 
 the Free Trade Hall be big , and its 
 acoustic glorious , but one view such an experience ( in 
 advance ) with some trepidation 

 some orchestral music new to Manchester will be hear at 
 these concert : Debussy ’s ' Cathédrale Engloutie ' ( whose 
 verson be this , I wonder ? ) , Corder ’s Elegy for twenty - four 
 violin , O'Neill 's ' blue bird ' dance , Holbrooke ’s ' three 
 3lind Mice , ' no . 1 of the Granados ' Goyescas , ' Albeniz ’s 
 ' Iberia , ' know to the few here only in the pianoforte version ; 
 Howard Carr ’s ' jovial Huntsman , ' Balfour Gardiner 's ' joyful 
 Home Coming ' ; a new work by Busoni ( November 29 ) , title 
 a Suite of 
 Sword Dances of Northern England and Morris Dance Tunes 
 by Cecil J. Sharp . Cortét play on November 1 , Saint- 
 Saéns ’s C minor Concerto , no . 4 ; Busoni ( November 209 ) 
 the ' Emperor , ' Beethoven ; Lamond ( March 22 ) Beethoven ’s 
 no . 3 , in C minor , and on January 17 Tchaikovsky ’s no . 1 , 
 in B flat minor . nobody who hear that under Balling in 
 the winter 1913 - 14 will ever forget it . it will be wortha 
 journey of many mile to renew its acquaintance 

 Sir Henry Wood will conduct on all the orchestral night . 
 the choral concert will be ' Messiah , ' ' Elijah , ' ' Zadok the 
 Priest , ' and aconcert performance of ' Cavelleria Rusticana , ' 
 and probably various item of unaccompanied work not yet 
 announce . be it wise to have entirely omit symphony 
 from this series , and could not such omission be remedie 
 even now 




 _ _ _ 


 NOTTINGHAM and DISTRICT 


 SHEFFIELD and DISTRICTThe Eva Rich Ladies ’ Choir , now a large and important 
 choral body , will sing Harold Darke ’s ' as the leave fall ' 
 at one of its forthcoming concert in Victoria Hall . the 
 composer will conduct 

 after a period of suspension , owe to the war , the 
 Sheffield Promenade Concerts be to be resume . these 
 fine orchestral concert be somewhat misname . they 
 be , properly speak , symphony concert . however , as 
 * ' promenade concert ' they be establish ten year ago , 
 and as such they be widely know . four concert be to 
 be give , with a professional orchestra of sixty . Mr. W. H. 
 Reed be leader , and Mr. J. A. Rodgers conductor . the 
 Symphonies announce be Rachmaninov in e minor , 
 Tchaikovsky 's no . 6 , and Beethoven ’s no . 2 . the fourth 
 programme be to be draw mainly from Wagner , with 
 the Eva Rich Ladies ’ Choir in the ' spin Chorus ' scene 
 from * the fly Dutchman . ' the Concertos be by 
 Mendelssohn ( violin , Miss Lena Kontorovitch ) , W. H. Reed 
 ( violin , the composer ) . Moszkowski ( pianoforte , Miss Helen 
 Guest ) , and MacDowell ’s no . 2 ( pianoforte , Mr. Cecil 
 Baumer ) . a feature of the scheme be the cheapness of the 
 ticket — a thousand seat at one shilling each 

 five concert be include in the Sheffield Subscription 
 series . Cortét , Busoni , and Myra Hess be the pianist , 
 Kocian and Margaret Fairlesss the violinist ; the London 
 Symphony Orchestra ( Mr. Landon Ronald conduct ) , and 
 the Beecham Opera Quartet Party ( Miss Agnes Nicholls , 
 Miss Edna Thornton , Mr. Frank Mullings , and Mr. Norman 
 Allin ) have be engage , and M. Jacques Van Lier and 
 Mr. John Coates , along with other well - know artist , 
 appear in an attractive prospectus 




 366 the MUSICAL TI 


 MILAN 


 OSTEND . 


 content 2 


 MUSIC 


 the MUSICAL TIMES 


 scale of term for advertisement 


 SYLVIA MITCHELL 


 singing and voice - production . 


 * ENOR WAN 


 dure the last month . 


 USBRIDGE , 


 \ OORE , C. A. ST . GEORGE.- 


 * HORT and EASY piece for the ORGAN . 


 ONIC SOL - FA serie : 


 publish for 


 the H. W. GRAY CO . , NEW YORK . 


 EDITH AL FORD 


 VE RECEX / VOTICES 


 ELKIN & CO , LTD 


 S & 10 , BEAK STREET , REGENT STREET , LONDON , W. I. 


 IN ENGLAND : the VATTENDON HYMNAL 


 OF MU SIC 


 ( quarterly 


 nthem for BARITONE SOLO and CHORUS : 


 E DEUM in F. MAGNIFICAT and NU NC 


 BLOCK CITY . SONG . 


 revision of price . 


 WESSTER 'S groundwork of music 


 WEBSTER ’S child 's primer of the theory 


 for sale 


 set of six original composition , 


 \ second set of six original composition 


 + FANTAISIE — CHORAL , 


 + LAUDY & CO , 


 CHURCH CANTATA . 


 the ancient MARINE R 


 select list of 


 JAQU E S- DAL CROZE 'S 


 work 


 J I ' ET 


 twelve short voluntary for ORGAN . 


 three good sacred song . 


 MOUTRIE , 


 COLLARD 


 ion 


 CO 


 THE MUSICAL 


 1919 . 56 


 MINOR 


 PIANOFORTE and string 


 compose by 


 EDWARD ELGAR 


 OUARTET 


 OR 


 string 


 compose by 


 EDWARD ELGAR 


 publish 


 reflection 


 PIANOFORTE SOLO 


 ( after verse from LONGFELLOW 


 BY 


 PERCY E. FLETCHER 


 XUM 


 VALSE ARABESOUE 


 FOR 


 PIANOFORTE SOLO 


 compose by 


 PERCY E. FLETCHER 


 AND SIX 


 FULL ORCHESTRA 


 EDWARD GERMAN 


 THEME 


 FOR 


 diversion 


 four 


 SHAKESPEARE song 


 TAKE , O TAKE those lif AWA 


 4 . ORPHEUS WITH his lute 


 compose by 


 REGINALD STEGGALL 


 AN introduction 


 SH COUNTRY 


 ENGLIS 


 TWELVE dance 


 CECIL J. SHARP 


 VALSE IMPROMPTU 


 FOR 


 PIANOFORTE SOLO 


 compose by 


 ALFRED HOLLINS 


 DANCE 


 WESTMINSTER 


 tr 


 SIR 


 CLOTH , GILT 


 GRAPHIC 


 ATHENZUM 


 CITY PRESS . 


 LONDON 


 BY 


 FREDERICK BRIDGE 


 WEEKLY dispatch . 


 NOVELLO and COMPA 


 PILGRIM 


 K.C.B. , R.A 


 SIXTEEN 


 SHILLINGS NET 


 ipinion of the press . 


 I TIMI HUNTLY EXPRESS . 


 organist and choirmaster . 


 WESTMINSTER GAZETTE . MUSICAL NEWS . 


 SATURDAY review . MUSIC TRADES review . 


 spectator . LADY 'S pictorial . 


 ABERDEEN FREE PRESS . 


 NOTTINGHAM GUARDIAN 


 SHEFFIELD TELEGRAPH 


 YORKSHIRE POST 


 NY , LIMITED 


 IM 


 BETTER string now produce in our country than 


 be make anywhere else . a british triumph ! 


 CATHEDRAL string . 


 SAMPLE STRING and ART CATALOGUE FREE 


 BRITISH MUSIC STRINGS , LTD 


 FINSBURY PARK , LONDON , N. 4 


 for ADVENT 


 MONSELL 


 CANTATAS 


 ROAD 


 secular . 


 JAMES BROADBENT & SON , LIMITED , 


 BOSTON SPA , YORKSHIRE 


 FOLK - song of 


 illecte and arrange by 


 AN ARRANGEI \ 


 CECIL J. SHARP 


 walk through the mead 


 m seventeen come sunday 


 HE CRYSTAL SPRING 


 SUMMER FAIR 


 RMER ’ SON so sweet 


 MIR BENBOW 


 NGO 


 STS of HIGH BARBARY 


 SET I 4 S 


 SIWAS ‘ I NBL 


 : e ta S 


 \ vs 


 ILONDON NOVELLO and 


 NOVELLO ’s school song 


 ENGLAND 


 CECIL J. SHARP 


 FOLK - SONG CAROLS 


 collect and arrange RY 


 CECIL J. SHARP 


 1175 . KING HEROD and the COCK 


 1176 . the MOON SHINES BRIGHT 


 177 . the HOLLY and the IVY 


 1178 . come , all you true good CHRISTIANS 


 1179 . come , all you worthy gentleman 


 1180 . as I sit on a SUNNY BANK 


 181 . the VIRGIN unspotte 


 BALLADS 


 62 . LORD BATEMAN 


 LADY MAISRY 


 1264 . BARBARA ELLEN 


 1265 . the OUTLANDISH KNIGHT 


 12€¢ LITTLE SIR HUGH 


 1267 . LORD THOMAS and FAIR ELLINOR 


 1268 . the BLIND BEGGAR of BETHNAL GREEN 


 1269 . the low , low land of HOLLAND 


 127 the cruel mother 


 PULLING CHANTEYS 


 HAUL on the BOW LINI 


 PADDY DOYLI 


 _ .- , ! |knock a man down 


 JOHNNY BOWKER 


 { GENERAL TAYLOR 


 TOM be go to HILO 


 POOR OLD REUBEN RANZO 


 the DEAD HORSI 


 won't you go my way 


 OLD STORMEY 


 — " SHALLOW BROWN 


 f blow , boy , come blow together 


 O i'm go to leave she 


 CAPSTAN CHANTEYS 


 WHIP JAMBOREE 


 _ .¢ , { GOOD morning , lady all 


 252 . | LOWLANDS away 


 O JOHNNY , come to HILO 


 STORMALONG JOHN 


 _ . « , { clear the track 


 1254 . | the BULLY boat 


 128 a - roving 


 he - back , she - BACK 


 SANTY ANNA 


 blow the WIND WESTER 


 2 RIO GRAND 


 STIANS 


 MEN 


 REEN 


 XUM 


 the month 


 twelve sketch for the pianoforte 


 FREDERIC H. COWEN 


 IN four book 


 content 


 arrangement for SMALL orchestra by the composer 


 four CHARACTERISTIC waltz 


 1 . VALSE BOHEMIENNE . , 3 . VALSE DE LA REINE . 


 2 . VALSE RUSTIQUE . 4 . VALSE MAURESQUE 


 compose by 


 S. COLERIDGE - TAYLOR . 


 PIANOFORTE SOLO : 


 JOHN SEBASTIAN BACH 


 the CHORALE PRELUDES 


 with an introduction by ERNEST NEWMAN 


 content 


 \ ELEMENTARY MUSIC manual 


 manual of HARMONY 


 HA 


 DU COURAU , M.—Q 4 


 = | SATIE , E. — 


 XUM 


 76 the 


 CHAPPELL & CO . ’S 


 STANDARD OPERATIC and CHORAL work 


 CONCERT version 


 MERRIE ENGLAND 


 SCOTTISH RHAPSODY 


 AND ORCHESTRA 


 FAUST 


 the 


 HORUS , SOLI 


 FULL particular will be 


 CHAPPELL & CO 


 send on 


 LTD .. , 50 


 MARTYR 


 CONCERT version 


 TOM JONE 


 COMIC opera 


 CONCERT selection 


 A princess of KENSINGTON 


 COMIC opera 


 LOOK at the clock 


 OF ANTIOCH 


 SULLIVAN 


 application to 


 UST publish 


 twenty 


 for 


 SHORT and EASY piece 


 ORGAN 


 SET 


 2 . MAESTOSO 


 AVE MARIA 


 4 . INTERLUDE 


 5 . INTERMEZZO 


 6 . POSTLUDE 


 8 . LIEDER OHNE WORTE 22 


 9 . ANDANTE 


 10 duettino IN G 


 11 . CAVATINA 


 13 . MELODY in F 


 15 the poet SPEAKS 


 16 . SOFT voluntary 


 17 , MENUETTO 


 18 aspiration 


 19 . SKETCH in C MINOR 


 ITI 


 content 


 A. HERBERT BREWER 


 GEORGE CALKIN 


 ALAN GRAY 


 ALEX . GUILMAN1 


 GUSTAV MERKEL 


 ERNEST NEWTON 


 J. RHEINBERGER 


 ANTON RUBINSTEIN 


 SCHUMANN 


 SCHUMANN 


 B. LUARD - SELBY 


 RO