


 found 


 publish 


 ROYAL CHORAL SOCIETY 


 ROYAL ALBERT HALL 


 APRIL 


 COLERIDGE - TAYLOR 


 choral work 


 tale old JAPAN 


 follow 


 HIAWATHA 


 MISS ADA FORREST . | MISS PHYLLIS LETT . 


 MR . BEN DAVIES . MR . FREDERICK RANALOW 


 BAND CHORUS , thousand 


 MUSICAL time 


 SINGING - class circular . 


 


 principal . 


 1844 . 


 MONTH 


 1913 


 GUILDHALL SCHOOL MUSIC 


 JOHN CARPENTER ST . , VICTORIA EMBANKMENT , E.C 


 weekly orchestral practice conduct 


 


 ASSOCIATED BOARD 


 R.A.M. R.C.M 


 local examination MUSIC 


 ROYAL ACADEMY MUSIC . 


 YORK GATE , MARYLEBONE ROAD , N.W 


 ROYAL COLLEGE MUSIC , 


 PRINCE CONSORT ROAD , SOUTH KENSINGTON , S.W. | 


 ROYAL 


 MANCHESTER COLLEGE MUSIC . 


 15 . 


 MANCHESTER SCHOOL MUSIC . 


 ROYAL COLLEGE ORGANISTS 


 UNIVERSITY DURHAM 


 218 


 , 1913 


 incorporated guild CHURCH 


 musician . 


 ASSOCIATE ( A.1.G.C.M. ) , licentiate ( L. 


 1.G.C.M. ) , FEL- 


 competition 1913 . 


 register ORGAN vacancy . 


 VICTORIA COLLEGE MUSIC , 


 LONDON . 


 NATIONAL CONSERVATOIRE 


 DIPLOMAS , ASSOCIATE 


 MR . W. H. BREARE 


 student profession 


 BOLTON 


 APRIL 24 , 25 , 26 , 1913 


 


 47 , KNOWSLEY STREET , BOLTON 


 LEAMINGTON COUNTY 


 attractive prize list 


 3 RZ A.M.—PI ANOFORTE " SINGING 


 FINE MODERN VIOLIN 


 SOLD W. E. HILL & SON 


 place business 


 140 NEW BOND STREET 


 LONDON , W 


 1ALL , 


 1913 


 GRAMME 


 TY 


 NGING 


 A.M. , R.CM 


 N EW PAI R PROFESSIONAL notice . 


 : MISS ISABEL CLEAR ( CONTRALTO ) . 


 : MR . ALLAN BROWN ( F.R.C.0 . , A.R.C.M. ) 


 NEW PAIR HANDS 


 SMITH 


 change address . 


 MR . ROBERT TAYLOR , 


 MISS ’ DASIE E. AVIS 


 ( CONTRALTO 


 MR . FRANCIS GLYNN 


 MR . SAMUEL MASTERS 


 MR . MONTAGUE , BORWELL 


 WINIFRED MARWOOD 


 124 , WALM LANE , CRICKLEWOOD , N.W. , 


 HERBERT MARKS ( LRAM ) — 


 ( BARITONE ) . 


 MR . HERBE RT TRACEY 


 MISS BARTLETT 


 ( CELLISTE ) 


 OLIN 


 ‘ } idon't 


 play sight . 


 SONS 


 NESS 


 FET 


 EHREMAYER system 


 MANOFORTE sight - playing 


 VIGGO KIHL 


 ( SOLO PIANIST ) . 


 L. M. EHREMAYER 


 7 , CHANCERY LANE , LONDON , W.C 


 MUSICAL 


 220 


 , 1913 


 composer ’ MSS . 


 DR . A. EAGLEFIELD HULL 


 evision MUSICAL composition . 


 L.R.A.M. ( paper work 


 late success : — 


 ANO P LAY ING 


 FINAL MUS . BAC . 


 COAC HING DEGREES . L.R.A.M. , 1897 - 1911 , HUN . 


 dred success ; A.R.C.M. , 1897 - 1911 . 


 DR . LEWIS ’ text - book : 


 KING COLL EGE , CAMBRIDGE 


 WINCHESTER CATHEDRAL 


 MUSICAL ti 


 222 


 1913 


 MARK HAMBOURG 


 


 BRINSMEAD 


 PIANO pedal 


 organist 


 NORMAN & BEARD 


 PEDAL attachment 


 PIANO 


 PNEUMATIC 


 


 OLD 


 


 CONACHER & CO . 


 SPRINGWOOD WORKS , 


 HUDDERSFIELD . 


 gold medal 


 firm 


 establish 1750 


 GRAY & DAVISON , 


 ORGAN BUILDERS 


 PRATT STREET , N.W. 


 SOUTHFIELD ROAD , OXFORD . 


 HOLT ROAD , LIVERPOOL 


 128 


 T IL - 


 PIANO PEDALS . 


 payment 


 22 


 instalment 


 arrange 


 


 


 limit 


 18 - 22 , WIGMORE STREET , LONDON , W 


 AD 


 ment 


 e 


 NDON , W 


 " MASQUE 


 MUSICAL 


 1913 . 223 


 publish 


 dance 


 


 PRINCE PROSPERO 


 RED death " BALLET ) 


 O wavering fire 


 ORCHESTRA 


 NEW SCENA SOPRANO 


 viking 


 NOVELLO 


 NEW SACRED SOLO 


 MEZZO - SOPRANO BARITONE 


 


 come 


 se 


 RAINBOW 


 music reading ladder beginner 


 ORCHESTRA . 


 compose 


 EDWARD ELGAR 


 arrangement PIANOFORTE duet 


 


 SIGFRID KARG - ELERT . 


 composition 


 ALFRED R. GAUL 


 1 . JOAN ARC 


 historical CANTATA 


 solo voice , chorus 


 orchestra 


 


 virgin 


 SACRED CANTATA 


 solo voice , choru , 


 ORCHESTRA . 


 % . prince PEACE 


 sack CANTATA 


 solo voice , choru , 


 ORCHESTRA . 


 NOVELLO & COMPANY 


 ILLUSTRATED catalogue application 


 1 collection 


 music BOSWOR H & CO . E 


 5 . COLERIDGE - TAYLOR . 8 , HEDDON STREET , REGENT STREET 


 REET 


 IES 


 ROM 


 , 1913 . 225 


 SINGING - CLASS CIRCULAR 


 APRIL 1 , 1913 


 JOSEF HOLBROOKE 


 227 


 1913 


 VOCAL work 


 CHAMBER MUSIC 


 10 . 


 i7a. 


 18 . 


 42 


 57 


 48 


 49 


 56 


 PIANOFORTE work , 


 VIOLIN work . 


 ORCHESTRAL work . 


 DRAMATIC work . 


 modern MUSICAL criticism : 


 ESSAYS imitation . 


 . I.—THE ' clever ' STYLEThe famous maxim La Rochefoucauld 
 run : ' dans l’adversité de nos meilleurs amis 
 nous trouvons toujours quelque - chose qui ne nous 
 déplait pas . ' Sir Hiram MacDowell , Mus . Doc . , 
 new Choral Fantasia perform 
 night time , company ' de 
 nos meilleurs amis ' : simplicity mind 
 virginal . , friend , 
 artistic failure , paradoxically , 
 pleasure . Sir Hiram learn science 
 inspiration , learning invention , 
 ability write fugue necessarily 
 include capacity express passion ? 
 time banish art 
 pastoral pleasure Herrick cap - - gown 
 simplicity academic mind ? Fantasia 
 great impression audience : 
 impression dulness . whip 
 enthusiastic silence . great deal 
 activity noise , music . feel 
 composer try good 
 miraculously achieve bad . ' truly , 
 wit , midst life inept . 
 new composition 
 material drink whisky 
 corkscrew . , naturally , bored . , 
 trifle disappointed , 
 thorough search fail reveal 
 whereabout 

 let examine work closely . 
 poem base Eliza Cook . 
 ethical , didactic , tone , 
 preach strenuously housewifely virtue . 
 useless tell work entitle 
 ' Sin Selina , ' kind 
 feminine ' Rake Progress . ' Eliza Cook know 
 rakishness Debussy bazaar ; 
 attempt lurid highly - coloured 
 successful Sir Hiram . Selina 
 body forth chromatic theme 
 bar - bar phrase ; sing 
 repeatedly female voice unison , 
 tenor ( represent Temptation ) enter 
 pianissimo chord begin serenade 
 unimaginable propriety . Selina find tenor 
 irresistible . fall . point 
 work find passage heartily 
 approve , Sir Hiram bold 
 adventurously pictorial . zhere drop 
 minor thirteenth female voice Selina 
 fall . Beethoven . 
 Bach . modern 
 spirit Sir Hiram MacDowell promise 
 past . apart touch 
 flash genius ( ' soul - animate strain , alas ! 
 ! ' ) , composition fail , composition 
 write man know 
 business . composer conduct . 

 recall . 
 platform bow bar audieng 
 leave hall , grieve stupidity 




 . 2.—the ' PICTURESQUE ' style 


 . 3.—the reactionary style 


 . 4.—the ' safe ' polite 


 british copyright CANADA 


 importation CANADA _ british 


 state 


 HONOURABLE 


 : 


 judge 


 231 


 2 , court doth far order 


 F.S.A. ; Leeds Triennial Musical Festival 
 place October 1 , 2 , 3 , 4 Leeds Town 
 Hall . follow outline programme 

 Wednesday morning , October 1.—conductor , Sir Edward 
 Elgar . overture , ' Leonora , ' . 3 ( Beethoven ) ; ' dream 
 Gerontius ' ( Elgar ) ; choral Work , * ode music ' ( Parry ) ; 
 rhapsodie ( Brahms ) ; Symphony . 3 , F ( Brahms 

 Wednesday evening.—conductor , Herr Arthur Nikisch . 
 choral work ( new ) ' morning , ' conduct 
 composer , Dr. Basil Harwood ; Pianoforte concerto 
 b flat minor ( Tchaikovsky ) , solo pianist , Madame 
 Thérése Carreio ; ' L’Apprenti Sorcier ' ( Dukas ) ; sym- 
 phony . 5 , e minor ( Tchaikovsky 

 Thursday morning.—conductor , Herr Arthur Nikisch . 
 ' requiem ' ( Verdi ) ; prelude orchestra ' cherry- 
 tree ' ( Butterworth ) ; ' Jesu , Priceless Treasure ' ( Bach ) , 
 conduct Dr. H. P. Allen ; Symphony . 7 , 
 ( Beethoven 

 Thursday evening . — conductor , Sir Edward Elgar . 
 symphonic - poem , * Dante Beatrice ' ( Bantock ) ; prologue , 
 ' Mefistofele ’' ( Boito ) ; symphonic - poem ( new ) , ' Falstaff ' 
 ( Sir Edward Elgar ) ; choral work ( new ) , ' mystic 
 trumpeter ' ( conduct composer , Mr. Hamilton 
 Harty ) ; symphony G minor ( Mozart 

 Friday morning.—conductor , Dr. H. P. Allen . mass 
 b minor ( Bach ) . 
 Friday evening . — conductor , Herr Arthur Nikisch 

 overture , ' Benvenuto Cellini ' ( Berlioz ) ; ' Irish Rhapsody ' 
 . 1 ( Stanford ) ; violin concerto ( Beethoven ) ( solo violin , 
 M. Mischa Elman ) ; ' Taillefer ' ( Strauss ) ; ' Ein Heldenleben ' 
 ( Strauss 

 Saturday morning.—conductor , Herr Arthur Nikisch . 
 Wagner programme 




 , 20,000 


 AL 


 IOI 3 . 233in 1876 small military band 

 population insignificant compare 
 London . 5,000 fill Queen Hall ; 
 eighty fill Winter Gardens . 
 London apportion different audience 
 different place , Bournemouth Winter Gardens 
 cater . , apology 
 necessary , entertainment 
 admirable . ' week - scheme , fairly constant , include 
 classical afternoon , classical evening , 
 popular evening , rest accord method . 
 soldier recruit - drill , 
 company - drill , battalion - drill , like ; 
 rehearsal ( morning week ) main - spring 
 machinery . Grove remark 
 head - ache think Beethoven 
 @ crescendo line score ; 
 abc scoring . conductor 
 world indebted modern 
 perfecting detail . quartet - party 
 achieve incessant practice ? reality 
 importance orchestra 
 , . 
 lesson thoroughly learn Bournemouth 
 Dan Godfrey , adopt high 
 standard finish band , develop 
 self , strong emotional power conductor . 
 shallow platform hitherto use Bournemouth 
 bad mutual hearing instrument , 
 increase necessity frequent rehearsal 
 conductor . band play 
 modern work ; triple wood - wind , e flat clarinet , 3rd 
 4th trumpet , 4th trombone , extra percussion , 
 , extra pier - band 
 theatre - band 

 statistic year , 1910 , 
 page 528 .)/wsica/ Times August , 
 1910 . Dan Godfrey 
 period conductor desk 
 750 time yearly , conduct altogether 
 go,000 item . 910 special Symphony Concerts 
 period play 1,263 separate 
 work ( apart course numberless repetition ) , 
 267 symphonic rank . 
 1,263 work , 454 , , 129 british 
 composer . August Manns ( 1825 - 1907 ) forty- 
 year winter Saturday concert ( 1855 - 1901 ) 
 justly earn reputation assist british 
 composer , proportion com- 
 parable . cost price orchestral 
 library £ 3,000 , 
 music bring , nook _ corner 
 orchestral music explore , 
 total répertoire possibly large world . 
 Sir Alexander Mackenzie , write 1907 local 
 newspaper , refer ' extraordinary programme 

 little worthy notice orchestral literature 
 present time . ' 
 special programme ( e.g. , overture , rhapsody , 
 dance , evolution , national music 
 nation , & c. ) frequent . 1911 choir 
 250 voice previously private hand 
 place Dan Godfrey municipal footing 
 Winter Gardens department , Henry Holloway , 
 assistant - organist Worcester Cathedral , 
 choir - master , conductor . Hon.- 
 secretary , H. A. Kettle . proper voice - trial , 
 weekly practice . concert year 
 winter season . ' important development . 
 far , ' Messiah , ' ' Merrie England , ' 
 ' Elijah ' ( profit £ 106 ) , ' Hiawatha , ' ' golden 
 Legend , ' Gounod ' Faust , ' ' Tale Old Japan , ' * Shon 
 Maclean ' . department infancy . 
 miscellaneous entertainment - mention 
 ; tour concert - party 

 234 MUSICAL TIMES.—AprIL 1 , 1913 . 
 a. _ — 
 visit star - performer , cinematograph , lecture , } RHYTHMIC WEAKNESS WAGNER | T 
 dance , Russian - Ballet , skating carnival , & c. ROBERT RALPH . hl ae 
 Symphony Concerts programme- fairly safe composer win , 
 annotator Cuthbert Hawley , Walter Barnett,| weakness reveal aa ast 
 Duncan Hume , James Lewis , Allan Biggs . | eventually great critic , Father Tm thet 
 develop local critic , turn } possible exception Bach , scene dant 
 excellent criticism , J. B. M. Camm , James lewis| jnyulnerable ravage hour - glass ot 
 d. 1911 ) , Hadley Watkins , Hamilton Law , granite , find great oa hire 
 Allan Biggs . little idiosyncrasy resent fel 
 Dan Godfrey allow carry ] irritate , ' leap . ochre 
 - organization late . year pitch was| eye . ' Wagner weakness undoubtedly lie ma 
 change high low . | staleness rhythmic formule . stilaeee borre 
 intolerable . Mischa Elman break string a| measure Beethoven symphony smi | W. 
 single concerto , eventually ] wonder critic Wagner time object ies 

 leader violin . London send 
 pianoforte . purchase new wind - instrument 
 man , Corporation advance money , throw 
 bonus - cost , repayment 
 remainder weekly hire - system . platform 
 high foot deep ( expense stall ) 
 regular use . 
 important change abolition year 
 double - handed man double duty , 
 constitution military band - pier 
 park separate . increase cost 
 meet abolish minor ' entertainer . ' 
 impracticable yearly agreement sub- 
 stitute simple agreement month notice 
 ; , man train 
 constantly large orchestra 




 1s 


 1s 


 1 


 AGNERWe concerned Wagner art- 
 theory general , pass , merely remark 
 " Pantomime undoubtedly mind 
 x write - quote passage . , 
 night face pretty problem having 
 iecide precisely ' leaping frisking 
 ' accompany scene Othello 
 idddress Senate . find evidence 
 wch sentence ' art tone poetry 
 yecome understandable Dance . ' 
 ned grant point ' Dance ' 
 coarsen neglect nearly 
 fulfil exigency Ballet . Ballet 
 Dance dance Ballet . Wagner 
 peak Trinity art , 
 pantomime mind eye leading factor 

 , Wagner lack function , 
 capacity dance , ' hop skip . ' 
 peternatural solemnity 
 scheme thing outstanding characteristic . 
 man mission , certainly 
 new . review activity lead 
 conclusion - nigh impossible 
 conceive ' relax ' people . 
 apparent desire appreciation let 
 brain run w7/¢. relate Mozart 
 te wife poor afford fire , 
 varme dance furiously . Beethoven 
 m moment duty practise odd trick 
 vhich cause alarm neighbour . Brahms 
 dothe . Wagner easily solemn 
 prophet live . thought , 
 deep continuous , slow , .and point 
 tedious . man deserve 
 un homme séricux , man Wagner 

 good testimony heavy , 
 ibrious nature nervous system passage 
 m work cite reveal 
 fash . , ' savage ... . know 
 tance , change 
 monotonous tumult monotonous pathetic rest . ' 
 sentence Wagner conception 
 fwhat people ' dancing . ' savage , 
 rest , dancing monotonous , 
 sen physical exhilaration 

 persistent idiom , near variant , 
 trace early work 
 later . example find 
 Prayer ' Rienzi , Grail music ' Lohengrin , ' 
 opening theme ' Meistersinger ' overture , 
 Pilgrims ’ Chorus appear common time 
 Finale ' Tannhiuser ' overture , 
 ' Kaisermarsch , ' chorale section Hall 
 Song chorus ' Tannhiuser , ' & c 

 Wagner good work invariably triple 
 time . weak rhythmic sense 
 originally conceive music nebulous mass ever- 
 change tint . think harmonically 
 term musical longitude . probably nervous 
 constitution , prepossession sensual , 
 responsible . set 
 opera , ' Rienzi , ' necessary 
 acquire strong , impose rhythm Meyerbeer 
 type . difficult mind 
 memorise Beethoven symphony . 
 grasp rhythm , 
 assimilate . example march 
 theme ' Rienzi . ' undeniably strong , 
 heavy dragging . orchestra 
 pull slightly time . compare 
 somewhat commonplace march Rossini * William 
 Tell , essential need rhythm 
 dance mind create ! inability Wagner 
 mind hop skip lightly ' Dance 
 Apprentices . ' convenient form observe 

 




 230 


 , 1913 


 . 18 $ 9 


 1sbut we]in mild binary ternary form . ( , fo 
 | example , ' Tannhauser ' Overture , w hich exact 
 | cone - shaped , ' Parsifal ' Prelude , light 

 yme merely | statement theme , ' Meistersinget 
 | Prelude , extract oper , 
 ongruous if| eventually drive team counterpoint ea 
 . ) good effort direction undoubted 
 ' Tristan ' Prelude , variation - form reatit 
 height attain . 
 variation - form 10 % 
 basis Wagner melodic system . 
 organic form understand , 
 | limit absolute master . 
 Wagner musician limit % 
 absolute music . constitutionally unable ? ) 
 write good Symphony Beethoven consti 
 |aremarkable opera . exact antithe 
 Beethoven respect . latte 
 | master , notably movement * 
 symphony ' page fifth Sympho 
 disregard actual sound carry ai ’ 
 sheer intensity rhythm . ho 
 Wagner , particularly ' Tristan ' * Parsila , 
 allow rhythmic beat dwindle ' 
 extinction , flood ear luscl 
 harmony rich instrumentation . 7 
 essentially programmatist , © 
 influence musical form colossal . & 
 long symphonist oblige travel 
 old , label line text - book . introduce 

 e 




 MUSICALTIMES.—ApRIL 1 , 1913 . 237 

 new effect , new — — — modify exist form , 
 thank Wagner genius think 
 furiously music play af 
 je moment . course Symphony 
 evolve far Wagner bear , 
 hasten perfection year . 
 brick man build . 
 remember insistent rhythmic thud 
 ffth ninth Symphonies Beethoven 
 think music rhythm 
 asit contain . certainly saturate . 
 require composer broaden 
 ¢exture music . genius materialise 
 giVagner . man bear 
 ime astounding ; bitter struggle 
 musical critic arise doubt larg 
 extent fact unit strive 
 um tide . conquer 
 law action reaction 
 heroic effort . certainly , musician 
 vindictive opponent , true 
 devoted loyal supporter 

 favourite cry anti - Wagnerians 
 Wagners music degenerate , 
 grudgingly admit mid - victorian mind 
 appear little ground 
 assertion . surely prefe rable 
 interesting neuropath healthy dullard , 




 OTTO JAHN . 


 JEFFREY PULVERand title ' Ordentlicher Professor ' confer 

 Greifswald certainly hope hold long 
 man learning potentiality , 
 Leipsic like capacity follow 1847 . 
 Professorship Archeology directorate 
 Archeological Museum Leipsic add , 
 office hold , strenuous time 
 begin Revolution Berlin , 1848 , 
 political view bring dismissal 1851 . 
 , , prevent obtain 
 direction U niversity Art Museum , 
 Philological Seminary Bonn year later . 
 Berlin 1867 terminate activity 
 Beethoven birthplace ; prolonged illness 
 die Gottingen September 9 , 1869 

 literary activity , apart musical 
 work , enormous , catalogue british 
 Museum contain eighty entry refer 
 work deal classic , philology , 
 archeology . consider 
 writing interest musician , 
 shall force conclusion 
 amply fill time ordinary worker ; 
 detail musical research , 
 easy forget 
 time emanate musical source 




 


 238 


 , 1913a . 
 advantage task Holmes ? ' 
 respect english edition render 
 valuable german edition , 
 | addition comf / ete index . fault mor 
 work reference inaccessibility 
 | content , fault correct Pauline 
 | Townsend . reprint follow 1891 

 Jahn contemplate similar work Haydn ané 
 | Beethoven , chiefly prosecute 
 research end find 
 useful work Mozart . death 
 unfortunately prevent execution plan 
 everlasting regret musical historian . 
 collect material , , hand mer ) 
 use good advantage , C , FS 
 Pohl ' Haydn ' A. W. Thayer ' Beethoven ' 
 base Jahn leave . Pohl , 
 mention , especially Jahn task 

 essay particularly rich bibliographical 
 biographical matter connect Beethoven 
 write Jahn : ' Leonore oder Fidelio ? ' prepare 
 A//vemeine Musik - Zeitung ( 1863 , pv . 381 ef seg , 
 deal chiefly Beethoven 
 opera , follow work al 
 early performance , describe 
 bydifferent programme - maker ; follow 
 critical history opera . second 
 Beethoven essay publish A//gemein 

 1863 , pp . 293 e¢ seg . ) , ' Beethoven m 
 Malkasten ' ( Beethoven Paint - box ) . owe 
 origin article Ad / nische Zeitung , 
 describe performance ' Malkasten ' * 
 ' Pastoral Symphony ' illustrate 
 ' series movable live picture , 
 situation symphony pantomimic 
 pictorial mean . ' Jahn detail 
 advisability utility ( ) sucha 
 procedure , , 

 sympathetic critic 

 essay succeed work . 

 , impartial , broad - minded , 
 essay 
 appear Gvrenzboten ( 1864 , pp . 271 ef sé , 
 296 et seg . , 341 ef » | 
 article ' Beethoven und die Ausgaben seiner 
 Werke ' ( Beethoven edition work , 
 valuable essay deal bibliography 
 Beethoven , lesson 
 art history - writing ' philological 
 criticism ' method . cite study 
 order t 
 volume collect essays—‘Gesammelte Aufs 
 iiber Musik von Otto Jahn ' ( Breitkopf & Hartel , 1867 
 facilitate reference , shall remainin 

 s€q . 1s ong 




 1 c.f 


 


 i9i3- . 239two fine account thirty - thirty 

 fourth Lower Rhine Musical Festivals print 
 Grensboten 1855 
 ( IL , pp . 481 e¢ seg . ) , contain 
 eulogistic 
 Goldschmidt - Lind . < short 
 allgemeine 
 paralipomenon , ' complete collection essay 
 publish Breitkopf & Hiirtel 1867 . 
 suggest , 
 generally overlook — experience Mozart 
 pupil Frau Hofdemel , detail 
 communicate Jahn friend Carl Czerny , 
 , way , afford assistance 
 collection Beethoven datum 

 IIL , pp . 1 e¢ seg . ) 1856 




 THEATRE MUSIC MUSICIANS 


 240 


 early metrical PSALTER , 


 , 1913 . 241 


 ST . MICHAEL , CROOKED LANE , 


 ORGANS . 


 7d 


 ALE 153 


 ND 


 , 1913 . 243 


 EE 


 CONGREGATIONAL SINGING , 


 44 


 SPECIAL service 


 ORGAN RECITALS 


 . . 7 ' " , ' , @ ) > p ) > 


 246 MUSICAL TI 


 MES.—APRIL 1 , 1913 


 book receive . 


 72 


 732 


 PEDAL ORGAN . 


 editor ' MUSICAL TIMES 


 PASSION CHORALE 


 JRNS 


 , 1913 . 247 


 WAGNER SUPER - WAGNER . heart content , crow lusty self- 
 approbation suppose demise opponent . 
 pretend , example , ' believe music 
 exist intellectual support,—that state , 
 mood , epileptic seizure — trance . ' course 
 sort . urge great 
 deal music roughly intellectual 
 support,—that , merely beautiful pattern- 
 weaving . drive sentence 
 Mr. Corder grievously misunderstand 
 intellectual support way 
 cumbrous way opera . point 
 article . Mr. Corder read article 
 understand 

 like notion form music shall 
 eliminate external unessential semi- 
 essential possible , Mr. Corder characteristically attempt 
 discredit breathless series grotesque analogy . 
 new form art tart jam pastry , 
 umbrella stick , . wish 
 - year student logic hold Mr. Corder , 
 minute ’ talking - , demonstrate 
 dispose argument fasten 
 absurd pseudo - analogy . fact 
 umbrella stick prove 
 dramatic music waste matter 
 good opera present . Mr. Corder 
 apparently forget existence certain composer 
 Beethoven , manage build impressive 
 picture human heart war 
 fate , word action . venture suggest 
 music win new power expression 
 new logic form Wagner Strauss , 
 kind thing slightly different 
 way big scale . , 
 pursuit line Wagner ? 
 Mr. Corder sneer wish free music , far 
 possible , verbal padding , forget 
 Wagner avowed ideal ? forget 
 Wagner plume having , think , 
 achieve ideal ' Tristan , ' year 
 flounder ? dream 
 concentration dramatic ' stuff ' music use 
 core ? ( Mr. Corder , usual hurry usual 
 naiveté , imagine predict advocate 
 simple music future ! merely proof 
 failure understand charitable 
 assume read 

 Mr. Corder hasty verbalisation — hardly 
 argument — land point position 
 little dangerous . actually lay ' 
 long human ' ' opera 
 padding . ' like Wagner opinion 
 dictum . , professor composition 
 blandly term padding,—a thing teacher 
 composition . sure 
 wsthetic proposition , — aim musician 
 weed work bar 
 related organic necessity 
 come . Mr. Corder teach 
 composition easy - going principle lay 
 ? , iam sorry pupil . fancy 
 truth simply , , pen outrun 
 discretion 




 DR . E 


 NAYLOR ' * 


 CAMBRIDGE 


 PAX 


 DEI ' 


 correspondent 


 PREVENT , OU LORD 


 > { = 4 ss ss SSS SS SS 


 SSS 


 ~~ 2 ss — = = — = -= 


 - = = = = SSS SE ES 


 : SE 


 PREVENT , O LORD 


 SSS " 2 ss = : 


 1 LAIN 


 


 hy 


 wh ou 


 wh 


 PREVENT , O LORD 


 = SSS 


 2s 


 — 1 j 


 PREVENT , 0 LORD 


 } SS = SS — _ — — — — — — : 


 UU 


 ROYAL CHORAL SOCIETY 


 LONDON SYMPHONY ORCHESTRAThe centre interest concert London 
 § mphony Orchestra Queen Hall , March 10 , 
 Tchaikovsky ' Symphonie Pathétique , " M. 
 ‘ fonoff , conductor evening , known 
 acel performance musical romantic 
 aciting occasion demand , work 
 aercise old grip public mind . favourable 
 mpression create M. Glazounow symphonic - poem 
 Spring , ' time London . 
 composer characteristic refinement texture 
 icity idea . soloist concert , 
 remainder programme consist Vivaldi minor 
 Concerto string overture Wagner ' Rienzi ' 
 ad Smetana ' barter bride 

 QUEEN HALL SYMPHONY concert . 
 great attraction programme concert 
 gven March 1 revival ' Symphonia 
 Domestica ' ( Strauss ) . perform meticulous 
 ae distinguish Sir Henry Wood production , 
 titcannot create deep favourable 
 mpression . course , beauty novelty 
 glendour orchestration , , 
 wzle , complete satisfaction . attraction 
 wsthe playing Busoni Liszt Concerto . 2 , , 
 te ' Rhapsodie Espagnole ' ( Liszt - Busoni ) , Balfour Gardiner 
 ' Shepherd Fennell Dance , ' ' fly Dutchman ' 
 Overture . 
 concert March 15 Symphony Beethoven 
 ' Broica , ' finely individually interpret 
 St Henry Wood direction . Mozart masonic Funeral 
 music Strauss ' Don Juan ' conspicuous 
 ature programme , M. Jacques Thibaud 
 ine reading Mendelssohn Violin concerto 
 Bach Concerto E major violin , organ , string 

 ROYAL PHILHARMONIC SOCIETY . 
 concert ot season , place 
 March 13 , notable programme consist 
 wo Symphonies write choral Finales — Scriabine 
 ust Beethoven ninth . unfortunately , circumstance 
 compel omission Scriabine Finale , probably 
 bd judgment astray work . 
 ustrumental movement play — - to- 
 ate ear — unambitious , design merely charm 
 sir sense . melodic interest beauty texture 
 talways enjoyable ; fifth movement 
 uve add weighty attraction . Beethoven Choral 
 Symphony effectively direction 
 Ml . Safonoff , conductor evening . London 
 | Society carry ungrateful task 
 ‘ atbusiasm considerable ease . Miss Perceval Allen , 
 Miss Edna Thornton , Mr. Morgan Kingston , Mr. 
 y Dearth soloist . 
 FREDERICK DELIUS ' MASS life . ' 
 extraordinary energy enterprise Mr. Thomas 
 ham exemplify 
 " arch 10 , immediately close arduous opera 
 " aon , bring forward Delius cantata ' 
 " Life ' Covent Garden Theatre . North 
 Sufordshire District Choral Society , train Mr. 
 taker , Blackpool fame , supply choir . 
 Madame Gura - Hummel , Miss Doris Woodall , 
 Mt. Frederick Blamey , Mr. Charles W. Clark . , 
 t , performance impressive 

 MUSICAL TIMES.—Aprit 1 , 1913 . 255 




 BALFOUR GARDINER CONCERTS ( QUEEN HALL 


 MR . HOLBROOKE ORCHESTRAL CONCERT 


 256 MUSICAL ti 


 1913 


 EDWARD MASON CHOIR 


 MR . DUNHILL concert 


 , 1913 . 257 


 recital 


 _ — _ _ _ Birmingham Festival Choral Society concert | decrease number quality concert 

 current series place Town Hall ! , fact , week March busie 
 February 20 , Mozart Requiem Mass Bach | experience . : 
 Christmas Oratorio , 1 2 , perform capital orchestral playing programme muh 
 Dr. Sinclair watchful direction , principal | intrinsic interest mark progress Symphony 
 Miss Ada Forrest , Miss Phyllis Lett , Mr. | Concerts , , exception Glazounow eighth 0 
 Alfred Heather , Mr. Robert Radford . revival | Symphony , impressive erudite work , bi 
 work certainly considerable interest , inasmuch | new composition value . addition Col 
 year Birmingham , | Russian Symphony favour 4 
 present novelty . } work form represent absolutely conflicting ii 
 performance , especially Requiem , certainly | ideal , , Berlioz ' Harold Italy ' ( solo viok , " * 
 poignant deeply emotional , singing choir| Mr. Mauritz Speelman , member orchestra ) 
 characterize great unanimity beauty of|the Symphony Brahms ; March 6 , irs 
 tone earnestness purpose . voice | Overture , Scherzo , Finale Schumann , Mr. 
 solo quartet blend admirably , adequate support | include , revive . 
 render work Mr. C. W. Perkins , | composition devise small scale , attractive " Tl 
 city organist . overture , ' Magic Flute , ' ' der Natur , al 
 Birmingham Choral Orchestral Association fine|and ' Carneval , ' Mozart , Dvordk , Glazounow , Viet 
 performance Sir Edward Elgar cantata ' King Olaf , ' | respectively . - second concert sens , whic 
 Society , place Town Hall | Sir Alexander Mackenzie present conduct | Bra 
 February 22 , work having admirably prepare | composition , soloist appear inc M 
 Mr. Joseph H. Adams , conduct . whole|the Mr. Isadore Epstein ( Beethoven Pianofort Roo 
 cantata , convey truly dramatic tone - picture concerto C minor ) , Miss Grace Triggs ( Coleridge - Taylor ’ don 
 uncommon attractiveness , follow large audience | violin concerto ) , Miss Tora Hwass ( Tchaikovsky Pianoforte Trio 
 keen interest , , consider difficulty , inter- | concerto , . 1 ) , popular Bournemouth violini , alee 
 pretation praiseworthy , rarely | Mr. Charles Fletcher , play Tchaikovsky Concerto . Miss 
 hear beautiful singing unaccom- Monday ' Pops ' belie title , series Mr 
 panie chorus ' torrent summer . ' excellent service | hold high esteem regular attendant ian 
 render principal artist , Miss Euneta Truscott , | Winter Gardens . exceptionally informing programme 
 Mr. Henry Turnpenney , Mr. Thomas Howell . ! draw nineteenth concert , scheme deal asso 

 second programme miscellaneous| evolution concert overture , item 
 character , novelty Coleridge - Taylor | follow : ' Die Weihe des Hauses , ' Beethor , 
 orchestral composition , ' dream dance . ' | 1822 ; ' Hebrides , ' Mendelssohn , 1832 ; ' Pa 

 Mr. Clarence Raybould pianoforte . programme | remain concert follow : February 24 , Bac Han 
 principally comprise german Lieder . Madame Brett | Mozart concert ( Bach prelude fugue G minorane whois 
 Young voice soprano considerable volume , | suite flute string , solo latterbemg Jy 
 complete control , possesses|taken Mr. Jean Gennin , member orchesta ; 
 ) , : suppl 
 plenty temperament . Mozaart ' Don Juan ' Overture , Serenade string = Keone : 
 tr > " , " ° ® ae < ? * 9 2 > © 
 Che Birmingham Philharmonic Society concert |as ' Ein kleine Nacht - Musik ' ) . March 3 , Rhapsow 

 series Town Hall February 26 , | programme , chief feature beautiful Insh ular 
 conduct Mr. Landon Ronald . good | Rhapsody C. V. Stanford . March 10 , ' Stavontt Assoc 
 attend series , enjoyable , programme ( ' Carneval ' overture symphonic Variations aw 
 novelty forthcoming . principal | Dvordik , ' Mein Vaterland ' tone - poem ° } direct 
 orchestral work Beethoven seventh Symphony | Smetana ) . chamber - music perform concert Miss 
 Elgar ' Enigma ' Variations , with|has consist ( Quintet wood - wind hom ¥ | 
 exhilarating freshness . Mr. Percy Grainger delight every- | Reicha , play Messrs. Gennin , Egerton , Onez , Team Berth 
 performance Grieg Pianoforte concerto . | Chapman ( Municipal Orchestra ) , — 
 Birmingham Choral Union concert - performance | violin pianoforte Paul Juon , = ' 
 Edward German opera ' Merrie England ' attract large | thoughtful interpretation hand Miss Edie 
 popular audience Town Hallon Marchi . Mr. Richard | Miss Craigie Ross — artist ae 
 Wassell , new conductor , personality strongly | able performer locality — Mozart s Clannet _ 
 felt way train choir way direct | quintet , perform Messrs. H. Onez , F. _ — " t y th 
 concert , certainly great thing expected|A. Holland , M. Speelman , F. Dunworth , member 9 Y.M , 
 future , earnest painstaking | orchestra . es 
 musician . performance bright | artist reach 3 ee mal 
 colour , principal good , comprise | eminence persevere thet ne 

 _ 
 S Cecilia 
 lard , 
 D Hall og 
 inder 
 Miss 
 
 n Hall 
 ip . 
 fine 
 erto — 
 oncert 
 nd Hotel , 
 IC com- 
 forte , x 
 ng . Th 
 Vaden 
 Panist . 




 , 1913 . 259 

 visit Ernst von Lengyel Joska Szigeti 
 ( Bach - Beethoven- Brahms recital ) , Melsa ( orchestral concert ) , 
 Wiadimir Cernikoff ( orchestral concert ) , Johannes Wolff 
 party , Kreisler ( orchestral concert ) , Miss Lena Ashwell 
 recitation , Miss Ellen Bowick ( recitation 
 orchestra ) . Dr. Markham Lee continue series 
 lecture , subject discourse past month 
 ' Johannes Brahms ' ' Tchaikovsky . ' reference 
 mast emphatic success Sir Henry Wood 
 direction Municipal Orchestra 
 benefit concert ; financial result function 
 gratifying desirous esteem 
 hard - work instrumentalist 

 asa result , doubt , Mr. Dan Godfrey exertion 
 enthusiasm , combined Municipal Choir Orchestra 
 - rate performance Mendelssohn ' Elijah ' 
 March 5 , talented conductor reveal marked ability 
 interpreter choral music . choir sing familiar 
 chorus striking effect , purity tone 
 particularly noticeable , solo allot 
 experienced vocalist Miss Caroline Hatchard , Miss 
 Mildred Jones , Mr. Sam Hempsall , Mr. Thorpe Bates , 
 - present highly dramatic 
 expressive reading Prophet music 




 BRISTOLThose capable player know Clifton Quintet 
 agreeable concert February 24 
 Victoria Rooms , charm excellent manner 
 play Schubert Quartet D minor 
 Brahms Quartet major ( op . 25 

 Mr. Hubert Hunt chamber concert Victoria 
 Rooms March 3 afford illustration Beethoven 
 style Quartet b flat major ( op . 18 , . 6 ) , 
 Tro D major ( op . 70 , . 1 ) , Quartet c sharp 
 ninor ( op . 131 ) . playing Mr. Hubert Hunt 
 Miss K. Tudor Pole ( violin ) , Miss Gladys Home ( viola ) , 
 Mr. Roger Bucknall ( violoncello ) , Mrs. McWilliam 
 pianoforte ) , delight numerous audience 

 March 3 , Hall Young Men Christian 
 Association , Bushey Park , St. Luke Choral Society , 
 vhich Mr. C. H. Bishop ( organist St. Luke Church ) 
 conductor , perform Mendelssohn ' Walpurgis 
 Night ' miscellaneous selection presence 
 large audience 




 DEVON CORNWALL 


 town . 


 TOWNS 


 DEVONSHIRE 


 CORNWALL 


 DUBLINOn March 12 Dublin Orchestral Society 
 Wagner Centenary Concert Dr. Esposito direction . 
 large audience 

 series Sunday Orchestral Concerts Woodbrook 
 Bray finish March 9 . programme include 
 Mozart Symphony G minor , Schubert ' unfinished , 
 Beethoven eighth fifth Symphonies . soloist 
 Miss Nettie Edwards , Mr. J. C. Doyle , Mr. Léon 
 Fastovski , Madame Borel ( vocalist ) , Mr. Clyde 
 Twelvetrees ( violoncellist ) , Signor Simonetti ( violinist ) , 
 Dr. Esposito ( pianist 

 February 27 College Choral Society , Dr. 
 Charles Marchant , Bach ' St. John ' Passion 

 260 MUSICAL TIMES.—Aprit 1 , 1913 

 Miss Nora Thomson String Quartet recital at| totally different body 
 Aberdeen Hall February 24 March 5 . the|yearsago . singing mark dar 
 player Miss Nora Thomson , Miss Madeleine Moore , | enunciation , fine phrasing , praiseworthy accuracy 
 Mr. Harris Rosenberg , Mr. Clyde Twelvetrees . | expression . Orpheus Choir ( Mr. H. S. Roberto 
 programme include ( quartet Beethoven , Mozart , Grieg , | second concert season March 11 , 
 Tchaikovsky ( Op . 11 ) . Mr. Percy Whitehead | fully maintain reputation gain 
 Mr. Melfort D’Alton vocalist , Mr. J. F.| exponent ' new choralism . ' exact 
 Larchet accompanist . programme fourteen choral piece — sing entirely fron 

 notice forthcoming Feis Ceoil ( 19 - 24 ) , | memory — singing excellent , Cornelius 
 month issue , Dr. W. H. Grattan Flood | motet , * surrender soul Everlastiy 
 include adjudicator irish | Love , ' choir achieve great success . Mr , Tos 

 enjoyable concert Mr. R. Hutton Malcolm 

 close day February , Edinburgh musical | Male-\ oice Choir . outstanding merit rh 
 centre gravity north kingdom , on| Malcolm programme freshness , 
 February 25 commence Beethoven Festival present occasion , Dudley Buck ’ 
 organize generous scale symphony | ' absence , ' Mendelssohn ' hunter farewell , 
 perform , number small work . solo chorus Elgar " Coronation Oke , 
 symphony chronological order , piece sing unfamiliar . chon 
 play concert February 25 , 27 , | singing pleasingly vary solo Miss Jean 
 seventh c major Pianoforte concerto | Gibson , Mr. T. W allace , Mr. R. Hutton Malcolm . | 
 February 28 , eighth ninth symphony , suffice mention merely Bach Choir ann 
 Edinburgh Royal Choral Union , March 1 . performance ' St. Matthew ' Passion Cathedr 
 orchestra Hallé Concerts . Mr. Balling| choir , Mr. J. M. Diack , assist thet N38 
 conduct , enhance reputation strength | Paisley Abbey Choir , Mr. Gervase Elwes chic ! 
 musical purity interpretation . musical soloist . Mr. Herbert Walton , usual , tower 
 Edinburgh mean starve , | strength organ 

 Festival revelation . pianist 




 GLASGOW . , 1913 . 261 

 second concert Societa Armonica , 
 March 1 , direction Mr. Akeroyd , programme 
 contain Beethoven C minor Symphony Rimsky- 
 Korsakoff pianoforte concerto ( Op . 30 ) movement , 
 , apart musical interest , opportunity 
 display Mr. Douglas Miller fluent technique 
 temperamental gift . Mr. Balfour Gardiner 
 ' overture comedy , ' example native worth 
 yas ' spinning song ' Dr. E. W. Naylor Ricordi 
 prize - opera * Angelus , ' attractively sing Miss Emily 
 Breare . Mr. Akeroyd conduct 

 Lord Mayor , Mr. Harmood Banner , M.P. , preside 
 twelfth annual meeting Liverpool Church Choir 
 Association , hold Town Hall March 3 , 
 andthe Lord Bishop Sir Edward Russell 
 speaker . account recent Festival , 
 present Mr. Ralph H. Baker , indefatigable 
 hon . sec . , deficit £ 5 , receipt £ 264 
 outgoing £ 269 . series Festivals 
 ax result surplus deficit . 
 mportance usefulness great annual effort 
 solely measure financial result , hope 
 wo effect certain economy ensue Festival hold 
 December 




 MUSICAL TI 


 MANCHESTER DISTRICTschools 

 Strauss , Elgar , Reger account 
 fine work season ; Bach Beethoven 

 Manchester judgment — wisely — reserve . 
 introduction time concert programme bespeak 
 methodical mind ; advocacy extra sectional 
 combine rehearsal , weekly wage bandsman , 
 need immediately increase guarantee - fund , 
 assured factor situation affect 
 season . certain engaging candour 
 admission , declaration hear 

 notable Hallé orchestral work 

 month include Max Reger ' Lustspiel ' Overture , Cesar 
 Franck D minor Symphony ( hear year 
 ago ) , Hamilton Harty * Wild Geese ’ tone - poem 
 ( conduct composer ) . quarter Franck 
 Symphony create season sensation , 
 warm reception compare performance 
 far public taste appreciation travel 
 comparatively short period . | Manchester 
 Reger heart , Psalm c. 
 find attention appreciation . Hamilton Harty 
 soon good term band audience . 
 final section , suggestion ocean surge , hardly 
 come expectation rouse perusal | 
 analytical note . whilst Hallé band } 
 Beethoven ' star ' tour Scotland , February 27 
 regale song - recital Miss Agnes Nicholls ( sub- 
 stitute owe Miss Muriel Foster severe illness ) 
 Mr. Robert Radford , Miss Kontorovich Mr. Frederic 
 Dawson play display partial 
 understanding César Franck major Sonata pianoforte 
 violin . February 20 Hallé concert Miss 
 Minthe - Kaas singing Grieg song ( deliciously- 
 play orchestral accompaniment ) bring new 
 note musical life ; perfect art countryman 
 work reveal fully solo 

 serie Saturday night ' Proms . ' finish 
 great style . ' catch , ' 

 NEWCASTLE - - TYNE DISTRICT 

 important recent event 
 production Beethoven ' Missa Solemnis ' 
 Choral Union , Wednesday , March 12 . chow 
 attack stupendous work fear , @ 
 brilliant performance , soprano line particular 
 exhibit unfailing energy certainty 
 superhuman task . Gloria stand note- 
 worthy feature choral - singing , quick portion 
 deliver great impetuosity . Dr. Coward s 
 reading score emphasise joyous 

 mess 
 
 roderate 
 ie 
 ck ; 
 response 

 ee 
 ihe devotional reflective . soloist Miss Emily 
 preare , Miss Effie Martyn , Mr. H. Turnpenney , Mr. 
 Hamilton Harris , Leeds Symphony Orchestra 
 appreciation work 

 af public assist eloquent lecture 
 idivere Mass day concert 
 wesident Society , Principal Hadow . excerpt 
 ach movement sing small body singer , 
 warmly receive crowded audience . 
 choral concert performance ' Elijah , ' 
 mm March 5 Newcastle Harmonic Society , 
 cnductorship Mr. E. L. Bainton , 
 Sunderland Philharmonic Society , conduct Mr. N. 
 Kilburn ; annual function Armstrong College 
 Society , Schumann ' Faust , ' 3 , Stanford 
 Phaudrig Crohoore , ' unaccompanied folk- 
 t .. : Brussels Walenn Quartets , 
 concert Chamber Music Society 
 February 28 March 10 , follow custom 
 play Quartet Haydn . departure 
 tadition welcome lover chamber- 
 asic : Beethoven middle later 
 quartet rarely receive hearing , 
 nodem work acceptable . 
 combination play early Beethoven Borodin , 
 Dvorak Quartet addition sacrificial 
 fiering . committee fortunate choice 
 wecalist occasion , Miss Fifine de la Cote promise 
 future favourite Miss Phyllis Lett 

 Concert Society provide Miss Marjorie Hayward , 
 Mr. E. Mason , Mr. Thomas Dunhill , 
 acellent performance Hurlstone G major Trio , Bridge 
 Fantasy c minor , Beethoven Op . 1 , . 3 . 
 fist- - join Mr. Dunhill pleasing Sonata 
 violin pianoforte . Miss Lillie Chipp , Newcastle 
 lady study Royal College Music , 
 promising vocal recital March 3 . Northumber- 
 und Amateur Orchestral Society , conductorship 
 Mr. C. Horsley , - attend concert , un- 
 fortunately clash Classical Concert Society 

 Philharmonic Orchestra a_neatly - balance 
 programme March 13 , increase 




 NOTTINGHAM DISTRICTThe Long Eaton Orchestral Society second 

 clude Mozart ' Magic flute ' Overture , movement 
 Tom Beethoven fifth Symphony , Tchaikovsky 
 Nutcracker ' Suite . vocal " piece ably 
 mustically sing Miss Esta d’Argo Mr. Charles Tree , 
 od ee npaniment supply Miss Emily Roseblade , 
 wd Mr. Fred Mountney work conductor largely 
 ‘ " ponsible success performance . 4 
 ' Ke coreary 27 , second orchestral concert , 
 Pe ottingham Sacred Harmonic Society , prove great 
 “ tess . prominent feature performance 

 conc ssa . 
 concert season February 25 , programme | es , 
 ' hungarian ' Rhapsody , . 13 . Busoni 

 music Makers ’ ( Elgar ) chief feature 
 Loughborough Choral Society concert March 12 , 
 | alto solo Miss Lysette Mostyn . Herr Kienle 
 |le orchestra , conductor , 

 tehnical skill . programme include Beethoven fifth | energy enthusiasm work undertake , 

 Mr. Frank Storer 




 OXFORDOn January 23 February 6 , Assembly Room 

 Town Hall occupy Mr. Slocombe 
 party concert english german chamber - music 
 respectively . January 24 , Mr. Harold Bauer 
 thorough exhibition masterly style pianoforte 
 | recital Town Hall . 
 January 29 , ar excellent orchestral concert — 
 scale small usual — 
 Town Hall auspex Musical Club , 
 principal work Mozart Divertimento oboe , 
 bassoon , horn , F major , Beethoven 
 Violin concerto , solo play great 
 artistic charm Mr. Achille Simonetti , Concerto 
 pianoforte stringed orchestra C major , 
 J. S. Bach . Dr. Walker , Mr. F. Shaw , Mr. H. Ley 
 pianist . Concerto exhilarating 
 example Bach ' unbuttoned mood 

 February 4 , Busoni pianoforte recital 
 | Town Hall toa crowded house , appearance 
 |here . chief item ' thirty - variation 
 C minor ' Beethoven , Chopin piece , Liszt 

 wonderful player , audience rouse 
 high pitch enthusiasm 

 264 MUSICAL TIMES.—Aprit 1 , 1913 

 example play viola d’amore , violin , } programme , befit close Lent , py 
 viola da gamba , exceedingly interesting . | forward Hillsborough Choral Society , Bach 
 refer incidentally lute , genial professor , | ' praise Lord , ' Brahms ' song destiny , ' Elgar ; 
 quote Mattheson , tell audience difficulty | ' 48th psalm ' form triple bill Society imisly 
 instrument playable order enormous , | proud perform . Mr. Frank Shimeld secure 
 lute - player , suppose live eighty , | point refinement choir , save ty 
 probably spend year tune | opening portion Bach work sing admirably , 
 instrument . Sheffield Promenade Concert include 
 February 26 , Town Hall , auspex | programme Schumann ' Rhenish ' Symphony , play wi 
 Musical Club , ' Brussels ' String Quartet a| requisite dash picturesqueness orchestra , long 
 delightful chamber concert , item Schubert | selection ' Die Meistersinger ' ( successfyl 
 - know posthumous Quartet D minor , , | performance ) , Smetana descriptive tone - poen 
 Beethoven String quartet f minor ( Op . 95 ) , and| ' Vitava , " work Humperdinck Berlin 
 Debussy quartet G minor ( Op . 10 ) . Miss Winifred Christie play Franck ' variation 
 March 1 , Herr Backhaus pianoforte recital | Symphoniques ’ poetic feeling fine sense ¢ 
 Town Hall , Miss Alice Wilna contribute | tonal beauty proportion . Mr. J. A. Rodgers conduct 
 excellent solo - singing . | event month nel 
 March 5 come concert term the| concert Sheffield Cambrian Choir , conduct ly 
 Town Hall , Bach Choir Choral Society,| Mr. Poppleton , concert Chapeltown Sacred 
 skilful baton Dr. Allen , Brahms ' Song | Harmonic Society ( ' hymn praise ' Dvordk ' Stabe 
 fate , ' Op . 89 , Verdi ' Stabat Mater , ' Bach motet | Mater , ' conductor , Mr. M. Thompson ) ; concert 
 ' afraid , ' double choir unaccompanied , lastly | Hallé Orchestra , Mr. Balling ( César Franck 
 . , 3 , 6 8 César Franck ' beatitude . " | Symphony ) ; opening new organ cost £ 2.00 , 
 interesting varied programme scarcely design . | Victoria Hall , establishment Shefied 
 unqualified praise award soloist | District Association Organists Choirmasters , 
 choir somewhat trying concert , Bach 
 motet especially remarkably sing consider pere : 
 great difficulty . , short , work | YORKSHIRE , 
 , watchful conducting Dr. Allen , | leeds . 
 utmost confidence place . real 
 pleasure believe 
 good concert Oxford . 
 Sunday Evening Concerts Balliol College 
 continue usual term able direction 
 Dr. Walker 

 Leeds past month 
 | important concert season . March 5 
 | Choral Union , increase contingent Sheffield 
 | Choral Union choir voice , 
 performance Yorkshire Granville Bantock 
 ' Atalanta Calydon . ' consider exacting nature 
 sat work , singer hearer , happy ides 
 | twice course evening , 
 SHEFFIELD DISTRICT . | noteworthy repetition concern , Dr. 
 Coward downwards , great confidence , 
 Chesterfield Musical Union competent , at|and brilliantly , power big choir 
 time , brilliant performance ' dream Gerontius , ' | sustain pitch long work extraordinary . 
 emphasise fact technique follow pen — the| month ' Choral symphony , ' 
 composer compel choral progress . little time ago , remarkable thing recent british music , 
 Union singe easy ' Mendelssohn ' passably . | Sheffield Society , , way return 
 , thank excellent management , enthusiasm of| compliment , Leeds Society furnish assistance . 
 singer North Derbyshire , labour | certainly Dr. Coward performance 9 
 Mr. J. F. Staton , conductor , conquer the| satisfying assume conductorship Leeds 
 technical difficulty Elgar famous work leave | Choral Union . 
 margin infusion artistry mood . } notable choral event production o 
 attribute responsible blot } Bach B minor Mass March 12 , Mr. Fricker ’ 
 good performance — aggressive realism chorus | direction . choral singing , especially quiet 
 False Spirits . soloist , Miss Helen Blain , Mr. Maurice } sustained portion , excellent ; 
 D’Oisly , Mr. Greeves Johnson , uniformly | brilliant slightly hurried , lose force : 
 successful . band , inadequately rehearse , | consequence . tlie tremendous Sanctus [ ney 
 play score creditably . | sing , Crucifixus intensely impressive . th 
 Barnsley St. Cecilia Society win success | soloist Miss Ada Forrest , Miss Alice Lakin , Mess 
 Elgar alert direction new conductor , | F. Mullings , Marsden Williams , Campbell Mclnnes . 
 Mr. Joseph Soar . ' King Olaf ' ideal } annual performance ' St. Matthew Passion 
 secular cantata - equip Choral Society . The|took place Leeds Parish Church March 17 , 
 Barnsley singer perform zest | Dr. Bairstow direction . organ und 
 pleasurable result scarcity man | reconstruction , small complete orchestra employe ? 
 voice evidence . ' challenge Thor ' was| revive Saturday Orchestral Concerts bet 
 successful achievement , ' wraith Odin ' | pursue thoroughly useful successful progress : 9 
 -owe extremely slow tempo — bad . | February 22 , Miss Ella Child play great dash th 
 soloist Miss Mabel Manson , Mr. Frank Mullings , } solo Liszt e flat pianoforte concerto , 

 1913 . 265 

 acasion Mr. Mannito Klitgaard , danish bass , 
 acellent impression fine voice intelligent 
 gle . Rasch Quartet , February 19 , 
 sncert present leader , Mr. Johan Rasch , , 
 fr year leading violinist 
 ‘ , accept post Germany . Goldmark 
 pianoforte quintet b flat ( Mr. Noel Bell pianist ) , 
 ind Beethoven string quartet , striking work F 
 Op . 135 ) , principal feature programme , 
 ike performance , fully sustain high reputation 
 concert . March 8 , Mr. Isidor Cohn 
 recital pianoforte composition marvellous boy , 
 Erich Korngold . power second Sonata 
 uncanny ; picturesqueness * Marchenbilder , ' 
 wonderful occasional flash vivid expression 

 comprehensible boy . Miss Ella Child 

 BRADFORD 

 Bradford Subscription Concert March 7 , 
 Brahms ' German Requiem ' , 
 co - operation Hallé Orchestra Festival Choral 
 Society , soloist Miss Louie Fidler Mr. 
 Robert Maitland , prove suited 
 task . Mr. Balling reading sacrifice 
 iignity brilliance , choral singing excellent . 
 interesting ' Appalachia ' variation Frederick 
 Delius , serve belated 
 troduction composer native town . 
 hllowe evening Permanent Orchestra 
 concert place . Beethoven great Pianoforte concerto 
 E fat include programme , soloist , 
 Madame Klepper , hardly force distinction 
 tyle work , play delicacy 
 charm . Mr. Fricker conduct . Free Chamber 
 concert organize Mr. Midgley continue . 
 February 24 programme confine Beethoven , 
 wo Violin sonata play , song- 
 yele ' die ferne Geliebte ' interesting 
 tature . March 10 Beethoven Septet Schubert 
 ' Trout ' Quintet greatly enjoy audience 

 choral concert need brief 
 mention : March 5 Bradford Old Choral Society , 
 der Mr. E. J. Pickles , ' Elijah , ' March 14 
 Festival Choral Society , Sir F. Cowen , concert 
 unaccompanied choral music , Bach Motet double 




 TOWNSElgar . Subscription Concert March 11 
 ordinary interest , Hallé Orchestra , 
 mder Mr. Balling , appear popular programme 
 nelude Dvordk ' New World ' Symphony . 
 _ Halifax beautifully finish singing Madrigal 
 society March 1 , old madrigal Morley Wilbye , 
 modern - song Bantock Debussy , hear 
 lo utmost advantage , reflect credit able 
 taining conductor , Mr. H. Shepley . March 6 
 Halifax Choral Society , Mr. Fricker , programme 
 , Brahms ' triumphlie ' Coleridge - Taylor 
 tale Old Japan , ' afford strike 
 contrast , task worthy efficient choir . 
 March 13 Halifax Orchestral Society essay Dvordk 
 New World ' Symphony , exacting task amateur 
 Y , , Mr. van Dyk guidance , 
 wquitte creditably . Halifax 
 mber Concert March 14 Rawdon Briggs Quartet 

 fine reading Beethoven quartet b flat ( Op . 130 ) , 
 , Mr. Herbert Johnson pianist , Dvorak 
 charming ( uintet 

 Hull Harmonic Society , February 28 , 
 performance Elgar ' King Olaf ' Mr. W. Porter 
 direction , difficult work severely tax 
 resource , achieve considerable measure success . 
 singing Miss Jennie Taggart Mr. Alfred Heather 
 deserve special recognition . March 11 Hull Vocal 
 Society , Dr. G. H. Smith , ' Elijah , ' 
 March 14 Philharmonic Society , Mr. J. W. 
 Hudson conductor , programme orchestral 
 music , chief feature Beethoven seventh 
 Symphony 

 Keighley Orchestral Society , conduct Mr. J. B. 
 summerscale , , March 5 , concert popular 
 music , include ' Peer Gynt ' Suite , 
 ' Freischiitz ' Overture , Sullivan ' memoriam ' Overture 
 include memory late Mr. Frank Davidson , 
 young musician , work 
 Society . March 4 , Morley Choral Society depart 
 usual routine enjoyable orchestral 
 concert , Mr. Fricker conduct ' unfinished ' 
 Symphony , Mr. L. F. Bundle play solo 
 Schumann Introduction Allegro pianoforte 
 orchestra . Ilkley Vocal Society , March 3 , 
 refined sympathetic performance , Mr. Akeroyd 
 direction , Coleridge - Taylor ' tale Old Japan . ' 
 Armley Choral Society , , Mr. H. H. Pickard 
 training , win local fame , 
 Handel ' Samson ' good effect , March 11 , 
 justify revival neglected masterpiece . 
 February 19 , series chamber concert 
 institute Mr. Hylton Stewart Scarborough introduce 
 vocalist Mr. Plunket Greene , , 
 sympathetic co - operation Mr. Berkeley Mason , 
 generous selection song period . Miss Mabel Moss 
 contribute pianoforte solo . March 13 , Brahms 
 ' german Requiem ' St. Martin , Scarborough , 
 Dr. Ely direction , Mr. Hylton Stewart 
 organ . work Wakefield 
 Cathedral day , Mr. J. N. Hardy , organist , 
 conduct , Dewsbury Parish Church 
 March 18 , direction organist , Mr. 
 G. H. Hirst 




 BRIEFLY SUMMARIZED 


 266 


 , 1913 


 GUILDFORD . 


 KIDDERMINSTER . 


 . JM . 


 , 1913 . 267jmphony D major ( . 23 ) , senior section 
 wo movement ' Jupiter ' Symphony concerto 
 nwement , Miss Nora M. Godman ( violinist ) 
 \. Frederick Pratt ( pianist ) soloist . Mr. Ernest 
 liodgins ( vocalist ) , Miss Eileen Duane ( violoncellist ) , 
 . Victor Duane ( violinist ) perform 

 WoLVERHAMPTON.—The Festival Choral Society , 
 earn wide reputation , creditable 
 yformance Brahms ' requiem ' Agricultural 
 fillon March 10 . choir capacity subdued 
 igified expression find fitting medium solemnly 
 mgnificent music , interpretation , Mr. 
 xoge Halford direction , impressive . appropriate 
 vk Miss Alice Hare Mr. Harry 
 Downing soloist . programme concert 
 adude Beethoven fifth Symphony 

 foreign wote 




 ANGERS , 


 AUGSBURG . 


 BARMEN . 


 BAYONNE , 


 BERLIN 


 268 MUSICAL TIBONN 

 day April 27 — | . 
 cther work Beethoven String quartet , Op . 18 , 
 . 4 , Op . 130 , serenade flute , violin , 
 viola , Op . 25 , Brahms sextet string , Op . 18 , 
 Pianoforte quintet F minor ; String quartet 
 E flat , Op . 109 , Pianoforte quartet D minor , 
 Op . 117 , Reger . evening largely occupy 

 instrumental composition Bach , include 
 concerto pianoforte string orchestra 




 BREMEN 


 BRESLAU 


 : - 7 = 


 BRUNSWICK . 


 BRUSSELS 


 BUDA - PESTH . 


 CASSELReger 

 auspex Society Beethovenhaus | 
 eleventh chamber - music Festival place | 
 programme contain 

 Otto Lohse success Theatre 




 CHEMNITZ 


 COBLENZ 


 COLOGNE 


 CREFELD . 


 DARMSTADT 


 DESSAU 


 DONAUESCHINGEN 


 DORTMUND . 


 DRESDEN . 


 DUSSELDORF 


 ELBERFELD . 


 _ _ _ 


 FRANKFURT . 


 3ENEVAGIESSEN 

 concert Konzertverein , Reger 
 oral work , ' Die Nonnen , ' ' Romantische Suite , ' 
 Buckner Symphony , Beethoven ' Missa 
 Solennis ' perform 

 GRAZ 




 HALLE 


 HAMBURG 


 HEIDELBERG 


 KARLSRUHE 


 LEIPSIC . 


 MANNHEIM 


 MOSCOW 


 MU NCHEN - GLADBACH 


 NANCY . 


 NEW YORK . 


 NICE 


 PARIS 


 


 , 1913 


 PRAGUE 


 ROME . 


 ROUEN 


 ST . PETERSBURG 


 VIENNA 


 1S 


 MUSICAL TIMES 


 scale term advertisement 


 SC 


 aut 


 MUSICAL 


 , 1913 . 271 


 content 


 special 


 ZI 60 


 _ _ 


 TUESDAY , 


 notice 


 0OI 


 COMPI 


 authentic 


 principal 


 AAN HALL , 


 SCHUMANN PIANOFORTE STUDIOS ( REGD 


 NEW 


 MME . 


 scholarship 


 training pianist 


 TRADITIONS 


 BOND STREET , W 


 SCHUMANN SCHOOL 


 MINA GOODWIN 


 dure month 


 7 RIEDLANDER , A. M. — 


 ARDINER , H. BALFOUR.- 


 (= E , HARVEY . — 


 MUSICAL 


 1913 


 


 KS 


 BEHREND 


 ELGAR 


 LINTON 


 JITTORIA , T. L. 


 A. M 


 SOL - FA publication 


 EDWARD . 


 A. H 


 1 


 publish 


 H. GRAY CO . , NEW YORK 


 MR 


 


 CHOL 


 TE 


 NUN 


 BLYTH & CO 


 EDOUARD BRU HNER 


 BASS ) . 


 SINTAM 


 RUSHWORTH 


 LIVERPOOL BUILT 


 ALFRED HOLLINS , 


 RUSHWORTH 


 GREAT GEORGE STREET 


 LIVERPOOL 


 WELCOME , SPRING 


 suite VOCAL DANCES 


 english version W. G. ROTHERY 


 MUSIC compose 


 FRANZ SCHUBERT . 


 ES 


 


 MUSICAL 


 , 1913 . 273 


 REMARK 


 EDWIN 


 VALUE 


 FRE 2 


 140 , 


 PADE 


 MARK HAMBOURG 


 CARUSO 


 CLARA BUTT 


 MADAME 


 JOHN DUNN 


 


 ABLE work 


 


 MUSIC education 


 write famous expert . 


 REWSKI 


 H. LEMARE 


 MARCHESI 


 H. COWEN , 


 TEACHER 


 


 KC.O 


 EDUCATOR , 


 F.T.C.L 


 inoutry 


 famous composer 


 study musical 


 historyof genius lift work ordinary plane 
 | critical analysis . 
 original score reproduce 

 work greatly enrich inclusion 
 example facsimile manuscript great composer 
 immortal work . find example 
 original score Handel * * Messiah , " Bach Prelude 
 massive choral , Beethoven tender Sonatas , 
 Chopin Prelude D , weird melody Dvorak , 
 Haydn original manuscript austrian Hymn , 
 Gounod * * Romeo Juliet , " Mendelssohn melody 
 leave hand great composer , host 
 ; short , mass rare 
 hitherto unpublished manuscript bring 
 compass single work . 
 include facsimile music Auber , Bach , Balfe , 
 Beethoven , Bellini , Bizet , Boieldieu , Brahms , Bruch , 
 Cherubini , Donizetti , Dvorak , Franz , Gade , Gluck , Gounod , 
 Grétry , Grieg , Halévy , Handel , Haydn , Herold , Liszt , 
 Marschner , Massenet , Mendelssohn , Meyerbeer , Mozart , 
 Pergolesi , Purcell , Raff , Rameau , Rheinberger , Rossini , 
 Rubinstein , Saint - Saéns , Scarlatti , Schubert , Schumann , 
 Sgambati , Spohr , Spontini , Strauss , Sullivan , Thomas 

 Tschaikowsky , Verdi , Wagner , Weber , xc . 
 criticism . 
 addition biography , work include 




 free inquiry 


 MUSICAL 


 TIMES 


 , 1913 


 _ ANTHE 


 ANTHE MS FO 


 f 


 MS 


 company 


 ascensiontide 


 WHITSUNTIDE 


 trinitytide 


 EK 


 limit 


 ANNIVERSARY 


 MUSI 


 CAL 


 , 1913 . 275 


 edit 


 ANNIVERSARY 


 selection 


 father 


 20 


 WHITSUNTIDE , 


 anthem 


 


 ' SHOUT JOY 


 ' JOY 


 ' pray father 


 fear 


 


 ANGLO - CANADIAN M.P.A 


 


 composition 


 EDWARD BUNNETT 


 


 MUSIC LENT 


 ORGAN MUSIC 


 EASTER 


 NOVELLO 


 anthem 


 TUNES 


 HYMNS 


 J. STAINER 


 AL BERTO RANDEGGER 


 J. STAINER 


 A. SULLIVAN 


 F. WESTLAKE 


 STAINER 


 STAINER 


 OO AUS W NH 


 WHITSUNTIDE 


 FAVOURITE 


 anthem 


 practical method 


 training chorister 


 


 J. VARLEY ROBERTS 


 276 


 manual PLAINSONG 


 divine service 


 canticle note 


 psalter note 


 litany response 


 new edition 


 prepare 


 GENERAL superintendence 


 JOHN STAINER 


 extract introduction . 


 preface 


 


 point use 


 publish 


 BARLESS 


 anglican chant 


 PSALTER 


 EASY book choir congregation 


 containing 


 psalm DAVID , 


 canticle proper psalm , 


 ATHANASIAN cree 


 short note text & explanatory preface 


 edit 


 WALTER MARSHALL , M.A 


 


 SEYMOUR PILE 


 M.A. , F.R.C.O 


 SHORT PRELUDES 


 


 ORGAN 


 NEW REVISED edition 


 ORGAN 


 JOHN STAINER . 


 edit JOHN E. WEST 


 


 , 1913 


 NOVELLO OCTAVO edition - song 


 select list 


 mix voice 


 FEMALE voice 


 recently 


 publish - song . 


 BARRRARRABRARERBRE BRS 


 T , 1913 . 279 


 NOVELLO 


 JNEW SONGS 


 price 


 question 


 shilling net 


 prayer 


 ic : 


 NDE 


 roun 


 smile SPRING 


 omge 


 ome 


 big review 


 GONG pilgrim 


 LOVE 


 meadow 


 alloping 


 songster 


 o08 


 camel 


 W'TH 


 LOVE 


 f SEA 


 NOVELLO company 


 SUMMER DAY 


 HEART . 


 LIMITED 


 W. W. PEARSON 


 - song S.A.T.B 


 humorous - song 


 descriptive chorus . 


 ANTHEM . 


 SONG . 


 ORIANA 


 BRITISH foreign 


 triumph ORIANA , 


 musical 


 dedicate ( 


 right HON . E 


 hymn 


 short form 


 permission ) 


 ARL MEATH , P.C. , K.P 


 EMPIRE DAY 


 service use 


 school church 


 PRICE THREEPENCE 


 CONT ENTS 


 author . COMPOSER 


 form service 


 NATION AL ANTHEM 


 LONDON : NOVELLO COMPANY , LIMITED 


 CHILDREN 


 EMPIRE DAY SONG - book 


 content 


 UNION JACK 


 UNISON SONG , action 


 suitable patriotic gathering , 


 music 


 hymn EMPIRE DAY 


 RECESSIONAL 


 " GOD father , know old 


 RUDYARD KIPLING 


 SET MUSIC 


 J. B. DYKES , E. W. NAYLOR , 


 GEORGE C. MARTIN 


 LORD father , 


 THOU DIDST BLEND 


 word 


 A. C. BENSON 


 music 


 GOD father . 


 UNTO THEE 


 A. C. AINGER 


 A. M. GOODHART 


 ER . 


 . 


 OSTER . 


 SULLIVAY 


 2K. 


 DER . 


 HART . 


 DER . 


 OBERT 


 OLD 


 , 1913 


 


 publish 


 month 


 sketch pianoforte 


 


 FREDERIC H. COWEN 


 book 


 content 


 issue net book 


 TECHNIQUE 


 


 expression 


 PIANOFORTE playing 


 


 FRANKLIN TAYLOR 


 extract preface 


 numerous musical example 


 work GREAT MASTERS 


 NEW EDITION ( 1912 


 handbook " examination 


 MUSIC 


 containing 


 600 question answer 


 ERNEST A. DICKS , 


 preface NINTH edition 


 , IQT3 


 original composition 


 


 ORGAN 


 DY 


 AAAAI AG 


 10 


 12 


 album 


 NOVELLO 


 organ 


 select piece . 


 


 


 select piece 


 select piece 


 


 select piece 


 original composition 


 


 ORGAN 


 compose 


 ALFRED HOLLINS 


 original composition 


 


 ORGAN 


 compose 


 WOLSTENHOLME . 


 composition ORGAY 


 SIGFRID KARG- ELERT 


 SOLEMN MELODY 


 compose 


 H. WALFORD DAVIES 


 ORCHESTRA 


 STRINGS ORGAN . 


 VIOLONCELLO PIANOFORTE 


 


 


 1913 . 283 


 invocation 


 ORCHESTRA 


 A. C. MACKENZIE 


 arrangement 


 composer 


 AUF WIEDERSEHEN 


 compose 


 A. HERBERT BREWER 


 easy 


 VIOLIN 


 C. H. LLOYD 


 PIECES 


 PIANOFORTE 


 content 


 characteristic piece 


 } VIOLIN PIANOFORTE 


 C. H. LLOYD 


 GOODWIN & TABB 


 STAINER & BELL 


 LORD ULLIN daughter 


 BARITONE SOLO , PIANOFORTE accompaniment 


 MICE council 


 CANTATA child 


 SHAPCOTT WENSLEY 


 SINGING LEAVES . 


 POEM 


 JAMES RUSSELL LOWELL 


 


 


 GEORGE RATHBONE 


 melodious technique 


 pianoforte 


 J. A. O'NEILL 


 284 


 1913 


 CLEM 


 COU 


 CECIL J 


 COUNTRY DANCE tune 


 collect arrange pianoforte 


 CECIL J. SHARP 


 IV 


 SET 


 NTRY dance book 


 edit 


 SHARP 


 SHORT EASY piece 


 


 PIANOFORTE . 


 compose 


 ENT M. SPURLING . 


 ALLEGRETTO 


 W. WOLSTENHOLME 


 VIOLA PIANOFORTE 


 arrangement SMALL ORCHESTRA 


 WIND PARTS . BK 


 AIR DE BALLET 


 ORCHESTRA . 


 compose 


 A. C. MACKENZIE . 


 bagatelle 


 I. VALSETTE . 


 


 STRING ORCHESTRA . 


 compose 


 PERCY E. FLETCHER . 


 MUSIC primer 


 


 83 


 GEORGE MILLER , 


 " RAIN COMETH 


 MILITARY band 


 n 4 


 


 RA : 


 26 


 22 


 H DOW 


 


 AUGUST WILHE " LMJ JAI MES BROWN 


 SECTION a.—technical practice . book 


 SECTION b.—studie . book 


 CLOTH binding 


 piece 


 286 


 progressive study 


 pianoforte 


 FRANKLIN TAYLOR 


 - book , price shilling . : 


 


 select pianoforte study 


 FRANKLIN TAYLOR 


 set ( book ) , price shilling sixpence book . 


 


 NTED 


 MUSICAL 


 time 


 S.—APRIL 1 


 1913 


 287 


 CLARA SCHUMANN 


 NEW FOREIGN 


 PUBLICAT LONS 


 


 , 1913 


 CHAPPELL & COS 


 late SONG BALLAD SUCC 


 LIZA LEHMANN 


 GUY D’HARDELOT — 


 FLORENCE AYLWARD — 


 TERESA DEL RIEGO — 


 DOROTHY FORSTER — 


 LESLIE ELLIOTT 


 KATIE MOSS — 


 MONTAGUE RING — 


 SHERIDAN GORDON 


 NEW 


 LIZA LEHMANN — 


 MONTAGUE F. PHILLIPS — 


 FRANK LAMBERT 


 NEW YORK 


 TOR ( 


 HERBERT BREWER 


 BOTHWELL THOMSON — 


 ERIC COATES — 


 HAYDN WOOD 


 FRANK BRIDGE — 


 GRAHAM PEEL — 


 PERCY WHITEHEAD — 


 MAURICE BESLY 


 KENNEDY RUSSELL — 


 SONG 


 GUY 


 LYHARDELOT 


 DOROTHY FORSTER — 


 HOPE 


 MARJORIE LUMLEY 


 MEL LBOURNE 


 ALBUMS 


 


 ESSES 


 EDWARD GERMAN — 


 HERMANN LOHR~ 


 W. H. SQUIRE 


 R. CONINGSBY CLARKE- 


 PAUL A. RUBENS — 


 H. LYALL PHILLIPS — 


 CECIL STANLEY 


 GODFREY NUTTING 


 FRED W. SPARROW 


 ALFRED HARRISS 


 ERNEST REEVES 


 MONTAGUE F. PHILLIPS- 


 HERMANN LOHR — 


 R. CONINGSBY CLARKE- 


 GRAHAM PEEL — 


 extra supplement . 


 collection 


 145 


 146 


 166 


 QVELLO - song bo 


 - song , glee , madrigal 


 221 


 222 


 223 


 224 ' 


 225 


 okeee nig - song book ( continue 

 . . 
 260 hunting song ... W. Macfarren 3a { 3 - coming Le L. Hatton st 462 apriltime .. , ge — 
 261 summer song ... ese e 359 calm night " ~ | 403 song Pan " 
 262 curfew bell ... sia ¢ 300 come , live . 3 } 464 f Autumn 1 come .. ' 
 263 warrior . eve 3d . 361 echo word 0 1§d . | 495 
 204 love heigh - ho ! ' 3d . | 362 hatha pleasant face , , 14d . | 466 
 265 good - night , good rest .. 3d 363 keeptime , time ... 3d . | 467 slow , slow , fresh fount — 
 266 Fairies " ~ 14d . | 364 lo , peaceful shade - _ | 468 song wind 
 267 cradie song ... @ 3d . | 365 lark singe , , 3d . | 469 gentle wind . 
 268 morning song ... ae - 34 . | 366 spring , sweet spring .. 3d . 470 thecurfew . Oliver King 24 
 269 ye pretty bird ... » d. | 367 heart es pan 3d . | 471 Waken , lord anc d lady gay E. Louis 
 270 life ... eve ous ~ 3d . | 368 fishing boat exe 14d . | 472 tell isfancy breed Pip 
 271 sweet content ... ' 3d . | 369 lark ... ss 34 . | 473 hymn toCynthia 
 272 sea song ... ( 7 . T.B.R. Ds 3d . | 370 moon shine calmly bright , , 3d . | 474 lover ' 
 273 star - 2d . | 371 thereproach .. , 14d . | 475 ' tistwilight ' sholy hour ' cli " 
 274 autumn ... % " 3d . | 372 swing owe * 3d . | 476 oh , igh hl oa ipa 
 275 Highland War Song ian 34 . | 373 wrecked hope ie ma 3d . | 477 slumber , baby dear olive [ 
 276 short long , , - 3d . | 374 twilight ... exe 14d . | 478 Ailen - - Dale ... + C. H , Liogt 
 277 Windlass Song ... = 3d . | 375 twilight round oe 34 . | 479 sweet spring FE , Gladstone » 
 278 o lady , leave thy silken ’ 2 34 . | 376 sigh ? » 3d . | 430 rustic coquette F , Champneys 34 
 279 lover parting = 3d . | 377 w y shall lover rest - 14d . | 481 pack cloud away .C.H , Loyd 
 280 shepherd alland maiden ee 14d . | 378 Nig ese Gounod 3d . | 482 Achafer'sw edding L. " Lewandowiti ¢ 
 281 night , sable goddess ... 3d 379 t ~y dawn ' day eve S. Reay 4d . | 483 Joyin spring ... om won ) Ra 3 L 
 282 , vain delight _ , , 3d . | 380 Thecalm ofthe sea ... H. Hiles 4d . | 484 Ave maria une oe 
 283 swallow , swallow , hither 381 wreck Hesperus * 6d . | 485 ot 
 wing ... ans 0 3d . | 382 uncertain light .. .. Schumann 3d . | 486 day , wealth light .. » o 
 284 Hardy Norseman ... De Pearsall = | 383 confidence . double chorus » 3d . | 487 Starlitis night - time .. 2 . , 9 » 
 285 Nymphsaresporting ... 0 3d . | 384 dream ove 14d . | 488 moonlight » WPI 
 256 o o’er s 14d . | 385 boat .. 3d . | 489 silent happiness = 
 286 ® Ditto ( a. T.1.B. ) ... 14d . | 386 Spring ’ sapproach , Seymour Egerton 3d . | 490 snowdrop eve - — o 
 287 shall win lady fair _ _ , , 14d . | 387 wild rose .. @ 3d . | 491 - day ... n 
 288 toil ... pat 14d . | 388 wood ... eo 3d . | 492 good - night Rhine . es | 
 28 g Allen - - Dale 14d . | 389 rose soul 14d . | 493 evening . - G. C. Martis ot 
 290 lovely Phillis ... = 14d . | 390 adieu wood @ 3d . 494 o , cruel fair W.S. Rockstro 4d 
 291 River Spirit song ( a.t.t.b. ) , , 3d . | 391 King Winter ... " 3d . | 495 Miller wooing .. , E. Paning 6 al 
 292 upona Spring - tideday _ , , 34 . | 392 Miller .. G. , Macfarren 14d . | 496 twilight dew J , L. owe 
 293 heed , ye shepherd | 393 mountain rill e ft : | 497 east indian 
 swain . - 14d . | 394 alli . 14d . | 498 Corinna eye C. H. Lloyd 3 
 294 spring return ( s. B.A. r. ‘ B. ) @ 2d . | 395 sleep ! birdis nest J. Barnby 3d . | 499 love love .. « G.B. Alles # 
 295 great god love ( 3 voice ) ae 3d . | 395 hus e death e H. Hiles 6d . | 500 T roubadour .. h , Leslie 
 296 dulcijubilo . Carol ... " 3d . | 307 evening ( hour ) Hy . Leslie - } 501 Lassof Richmond Hill , % tr 
 297 song Frank company _ , , 3d . | 393 bright morning star _ _ , , 3d . | 502 inthis hour softened   C. Pinsuti 
 298 bright - time _ , , 3d . | 399 boat song ( Hailtothe chief ) , , 14d . | 503 sea hath pearl 
 299 Winter song .. exe 0 3d . 400 thetriumphof Death C. Holland 3d . | 504 ye gallant man England e , ‘ Hecht 3 # 
 300 Bishop Mentz ox - 14d . | 40r bright morningstar Pierson 3d . | 505 Moorland witch i. 
 301 stray ... 2d . | 402 bright- haired morn S. Reay 3d . | 506 lover lass J. Bars 
 302 smoothly _ ... " 2d . | 403 Redo’erthe forest ... 3d . | 507 come live ' .S 
 303 let maye ... ad . | 404 sweetisthe breathofearlymorn , , 3d . | 508 look Spring b 
 304 list ! lady , coy 3d . | 405 wavelet ripple Ciro Pinsuti 6d . | 509 tellme , mournful C. Pinsut 
 305 o ye rose " 3d . 400 gaily sing play ° 6d . | 510 ThereismusicbytheRiver , # 
 306 sing chaunt ( 8 voice ) om 2d . | 407 gently fall evening Marenzio 3d . | 511 o sunny beam ... R. Schumann x 
 307 ditto ( 4 voice ) ad . | 408 lily white , crimson rose ( 5 v. ) , , 3d . | 512 o red , red rose ... " * 
 308 red wine flow ( t.1.8.8 . ) ee 2d . | 409 shepherd pipes(s5 v. ) gd . | 513 Wan jerer song e 3¢ 
 309 shoot , false love , care 0 19d . | 410 spring return ( 5 v. ) ... 3d . | 514 evening song ... " 
 310 laugh , youth , age ae 4d . | git rapid bound ( 6v , 3d . | 515 ah ! woe ... & Labee 
 31i garden fair 3d . | 412 Thosedaintydaffodillies(5v . ) Morley 3d . | 516 sweet evening hour ... S. Reay 
 312 adieu ! native shore 9 2d . | 413 dainty , fine , sweet nymph , , - 3d . | 517 Fairland , greet thee Ciro Pinsuti ¢ 
 313 purple glow forest ... 0 ad . | 414 shoot , false love , care 3d . | 518 Rise , fair Goddess ... h , Smart } ( 
 3r4 — apri defero 0 3d . | 415 o nymph ( 6 v. ) Palestrina 3d . | 519 garland fair J. L. Hatton 3 
 315 Chieftain tothe Highlands - ad . | 416 Yesingersall ... H , Waelrent 3d . | 520 maypole trip Hatton 1 ik m 
 3:6 wing Thule ° 0 2d . | 417 fie love ... G. A. Macfarren 14d . | 521 boatman good — F. Schira 1¢¢ 0 
 317 come , let merry ... - 2d . | 418 wind Autumn ! Chas , Oberthiir 2d . | 522 Theserenade ... . J. Brahms x 
 318 mihi est propositum ( A.T.B.B. ) , , 2d . | 419 softly fall shade E Silas ad . | 523 Vineta ... ove . " 
 319 light soul " 3d . | 420 ee little , love melong L. Wilson 2d . | 524 dirge ' Darthula " 
 320 Layagarland ... gee 3d . | 421 shall tell love Wesley 3d . | 525 asi fairClora ... F. Cordersé 
 321 summer y - come * ad . | 422 itw lover lass J. Booth rad . | 526 ! ! ye dame ... W. Bendall Fi 
 322 Cuckoo 3d . | 423 love’squestionandreply J.B.Grant ad . | 527 love dead . C , Wood 4 - 
 323 weep , alas ! om 3d . | 424 , loathe prpeantie % ) Lahee 4d . | 528 Norse Queen ’ s gift ... W. Hay 3 + 
 324 therei paradise(a . t.8.b. ) 3d . | 425 evening song ... ese . M. Hill 34 . | 529 Cavalry song ... C. A. Macirone 3 ' 
 325 o ! ye lady fair true _ _ , , 2d . | 426 Welcomedawnofsummer ’ ah » 34 . | 530 wind waft Vincent Wales . 
 320 war song Norman 427 charge Light Brigade Hecht 4d . | 531 Corin Cleora die { 
 Baron ove oe 2d . | 428 therei beauty mountain Goss 14d . | 532 Madeleine - J. Roecke 
 327 rose ... - 2d . | 429 o sweet Mary ( 5 v. ) 4d . | 533 earth , troubled voice Costa 3¢ 
 328 sweet asa flower ee 2d . | 430 Lo ! wheretherosy - bosom ’ dhour | » 44 . | 534 music , soft voice die A. King 4 
 329 praise good wine ( T.T.8.B. ) , , 2d . | 431 hereye glow - worm 4d . | 535 Thedaysoflongago ... B. Tours } 
 " { — — s Song(T.T.8.8 . ) , , ad , | 432 Bells St. Michael Stewart 4d . |536 present ... C. Carr Moseley ¥ 
 33 Di ( S.A.T.B. ) 5 , j * | 433 Cruiskeen Lawn ( 5 v , ) » 3d . | 537 triumph Victoria J. Staines 6 
 331 water Elle ( s. $ .a . t.b ) 0 ° 2d . | 434 wine cup circle 34 . | 538 thethree merry dwarf Mackenzie 4 
 332 ! ! Nigella ( 8 voice ) ae 2d . | 435 ye mariner England H. Pierson t4d . | 539 sleep , darling baby kicardo Mabllig 3 % 
 333 Sir Patrick Spens . ropart , , 44 . | 436 Vesper hymn ... Beethoven ad . | 540 rosy dawn " C. H. Lloyd # 
 334 snow fall Franz 14d . | 437 sorrow ... Naumann 2d . | 541 doughty deed C. Lee Williams ¥ 
 335 parting oss " ~ tad . | 438 Swallows ... - _ Pohlentz 2d . | 542 radiant sister Ros : al nd F , Ellicott « { 
 330 thefairesttime ... ... 14d . | 439 hope faith Weber 2d . | 543 Chloris , singing _ Pringle | 
 337 spring’sfaith ... os = 440 hark , hark , Lark . Kiicken 3d . | 544 blue- eyed lassie — F. Brandeis 2 
 338 song ep thd . | 44 t walk dawn .. Gade 3d . | 545 Bonnie Bell ... A.C. Pela 2 
 339 Amorningwalk ...   ... ye 3d . | 442 winterday ... A.J. Caldicott 4d . | $ 46 peace thee R.F. Ellicott 9 
 340 home thar l love ove F. Abt 14d . | 443 homeward ove Henry Leslie 4d . | 547 o mistress H. MacCuan 2¢ 
 341 eventide . oe - 444 tosea ! thecalmiso’er Marshall 4d . | 548 garden " bt 
 342 o thou world fair ... om 3d . | 445 rest hath come ... v 2d . | 549 lass abe 3 . 
 343 spring awake pam ie 14d . | 446 hymn moon Josiah Booth 4d . | 550 bird help ana : 
 344 night song » 14d . | 447 Brook « . ( C.G , Reissiger 3d . | 551 spring time . : e 3 
 345 evening glow w vood 34 . | 448 Secret ove * 3d . | 552 Rover joy . ns « = & 
 346 dost thou hear tree F. Hensel 14d . | 449 odourssweet ... r , Miller 3d . | 553 Evening song . - © " d 
 347 unknown land » 9 3d . | 450 onthe water ... ... R. de Cuvry 3d . | 554 flower ’ review o 3 
 348 Autumn ove ove o 14d . | 451 Water - lily ... -N. W , Gade 2d . | 555 Rosein October Wm . bib ‘ 
 349 morning greeting = - 3d . | 452 love F. Kiicken 3d . | 556 Hunters W. W. rane 4 
 350 woodland valley ... 14d . | 453 tree bud . 3d . | 557 inconstant R. Schuma ’ d. 
 331 wood glow 3d . | 454 Theresingsabird ... Franz Abt 2d . | 558 heath rcse ... " a4 . 
 352 love festive ... Mackenzie 3d . | 455 o world ! thou art . Hiller 4d . | 559 recruit " 3 . 
 353 autumn ... eco eco - 14d . | 456 winter song ... . H. Dorn 3d . | 560 Highland Lassie .. " 2 
 354 spring ... " 4d . | 457 arrow song W. Hay 3d . | 561 Rattlin ’ roarin ’ W illie lie f 
 355 day love .. wee " 3d . 438 king Queens Ciro Pinsuti 3d . | 562 lovely Adelaide Volks 
 350 star 459 ask heart ? es 3d . | 563 tothe wood .. Prescott ¥ 
 voyager ase - 14d . 460 Rhine Raft Song . ° 3d . | | 564 Douglas raid 0 . recat 
 357 hail chief « -   E. Prout 4d . | 461 silent tide ... oe ° 14d . | 565 hunter horn J. Ben 

 Gladstone 5 
 Cham poeys 34 
 + Lidyd 




 second serie 


 MERRY time MAYING 


 DIE WOLLUST DEN MAYEN 


 GERMAN FOLK - SONG 


 arrange voice 


 JOHANNES BRAHMS 


 english version W. G. ROTHERY 


 = — — 


 MERRY time MAYING 


 SS 


 7———4 


 SS 


 MERRY time MAYING 


 SSS 


 22 $ = . SS SS 


 MERRY time MAYING 


 SS 


 SS 


 — — _ — _ — CAS ER = 


 S55 


 — — EE 


 MERRY time MAYING 


 SSS 


 : — _ — _ — _ = = - ~ = = — = 


 BRBABRER REE E