


 MUSICAL TIMES 


 found 1844 


 publish month 


 ROYAL ALBERT HALL 


 concert . THURSDAY . NOVEMBER | ROYAL COLLEGE MUSIC 


 ROYAL ACADEMY MUSIC 


 650 MUSICAL 


 SOUTHPORI 


 MUSICAL festival , 


 OCTOBER 24 , 25 , 26 , 1906 . 


 MRS . HENRY J. WOOD . MADAME KIRKBY LUNN 


 MISS ALICE LAKIN 


 MR . JOHN COATES MR . EYNON MORGAN , 


 MR . FFRANGCON - DAVIES . 


 MR . FREDERIC AUSTIN MR . JOSEPH LYCETT . 


 SIR EDWARD ELGAR , M D LL ... 


 LONDON SYMPHONY ORCHESTRA 


 WIND 


 S CAVALIER song 


 ( NEW SYMPHONK 


 variation 


 \ DREAM GERONTIUS 


 ROYAL 


 MANCHESTER COLLEGE 


 NEW 


 STANLEY WITHERS 


 UNIVERSITY 


 DURHAM 


 UNIVERSITY COLLEGE 


 READING 


 DEPARTMENT MUSIC . 


 NATIONAL SOCIETY MU SICIANS 


 BIRMINGHAM 


 SCHOOL MUSIC 


 MIDLAND INSTIT 


 UTI 


 SESSION 


 1906 - 1907 . 


 VICTORIA COLLEGE 


 LONDON 


 incorporate 1891 


 MUSIC 


 INCORPORATED guild 


 BUS ANS 


 CHURCH 


 ASSOCIATE ( A.1.G.C.M. ) , LICENTIATE ( L.1.G.C.M. ) , FEI 


 NATIONAL CONSERVATOIRE 


 local MUSICAL examination 


 CORRESPONDENCE SCHOOL MU 


 LONDON . 


 GRADUATED postal lesson HARMONY 


 COUNTERPOINT , THEORY MUSIC , FORM 


 SIC 


 


 4.R.C.0 


 NATIONAL COLLEGE MUSIC 


 A.N.C. M. , L. M. , F.N.C.M 


 CHURC ' H ORGANISTS ’ SOCIETY 


 EXA}4 


 M. MA 


 N E 


 ibb & TILLETT PROFESSIONAL notice . 


 MUSICAL CONCERT agent 


 MADAME CLARA BUTT . { ange address . 


 system ALEXANDER GUNNER 


 soloist duettist . 


 O H 


 MISS AMY SARGENT MR . WILLIAM WILD 


 ( TENOR VOCALIS t ) . 


 


 MR . GE JORGE STUBBS MR . ARTHUR W. ALENN 


 MR . JAMES COLEMAN 


 MRO ARTHUR SEDGLEY 


 ; POIN FUGUE , form analysis , acoustic 


 perfect touch tone . NE , tt " lesson . P. 


 LONDON COLLEGE MUSIC 


 GREAT MARLBOROUGH STREET , LONDON , W 


 MUSICAL EDUCATION EXAMINATIONS . 


 HIGHER EXAMINATIONS , 1906 . 


 DIPLOMAS PRACTICAL MUSIC 


 licentiate ( L.L.C.M 


 associate ( A.L.C.M 


 TEA ! 


 COACH 


 SUCCE : 


 SEVEN 


 COUNT 


 R.C.O 


 ALI 


 L.R .. 


 HARMO 


 MX 


 F.R.CO 


 AR.C.0 


 MI 


 MUSICAL 


 LONDON COLLEGE MUSIC 


 TEACHER DIPLOMA . 


 DIPLOMAS THEORETICAL MUSIC 


 4.R.A.M. , F.R.C.O. ) , PIANOFORTE , HARMONY 


 LONDON 


 BOSWORTH EDITION . 


 ' S. COLERIDGE- TAYLOR 


 incidental music » STEPHEN PHILLIPS drama 


 produce nero 


 entr’acte ( * * nero " ) 


 EASTE RN = ANCE 


 MUSICAL TIME 


 S.—OCTOBER , 1906 . 6 


 OCTOBER 1 , 1906 


 USICIANS NATIONAL 


 PORTRAIT GALLERY 


 STANHOPE 


 MADAME VESTRIS . 


 CHARLES 


 1797 - 1856 


 drawing 


 MRS , JAMES 


 ER 


 OLOU ! 


 AL 


 MATTHEWS 


 RED E. CHALOD 


 MUSICAL TIM 


 6055 


 15 


 JOHN PYKE HULLAH , LL.D. 


 1812 - 1884 . 


 PEN ( draw SIR W B. RICHMOND , K.C.B. , 


 REV . JOHN CURWEN . 


 1816 - 1880 


 95 


 659 


 SIR ARTHUR SEYMOL 


 1842- 


 M.V.O 


 IR SULLIVAN 


 1890 


 1595 


 660 


 MUSICAL time 


 OCTOBER , 1906 


 PAGE . 


 BRIGAND . 


 WILLIAM SHIELD . 


 1748 - 1829 . 


 MUSICAL 


 1906 . o61 


 SIR HENRY 


 ROWLE\ 


 1786 - 1855 


 BISHOP 


 CATHERINE ( KITTY ) STEPHENS 


 ERW NTI 


 1794 - 1882 


 ainte 


 662 


 LADY VIOLINISTS 


 


 


 MUSICAL 


 MADAME MARA 


 SCHMELING 


 664 MUSICAL 


 benefit MRS . CHAZAL 


 MADAME G 


 UTHEROT 


 2 = = = SSS ES SS SS SS SS 


 1906 . 667 


 GIUSEPPE TARTINI 


 668 


 17¢ 


 MUSICAL time 


 FORGOTTEN CONCERT room . 


 MUSICAL 


 TIMES 


 OCTOBER 1 , 1906 . 671 


 condition 


 BERTHA HARRISON 


 MUSICAL 


 TIMES 


 074with Herr Arthur Nikisch Herr Michael Balling 
 conductor . addition rarely hear 
 opera ( England ) ' Der Freischiitz , ' ' Fidelio ' 
 ' Die verkaufte Braut ' ( Smetana ) , performance 
 Wagner ' der fliegende Hollander , 
 * ' Tannhiauser , ' ' Lohengrin , ' ' Die Walkire , ' ' Tristan 
 und Isolde ' ' Die Meistersinger . ' Mr. Dercy 
 Pitt associate Mr. Carl Ambruster 
 direction chorus , London Symphony 
 Orchestra negotiate perform 
 representation 

 Beethoven literature enrich 
 publication composer letter — critical 
 edition , volume , ' Beethoven Briefe und 
 Tagebuchblatter ' ( edit Dr. Fritz Prelinger , 
 Vienna ) , , time , complete edition 
 letter , Dr. A. C. Kalischer under- 
 editorship 

 Handel imperfect knowledge english 
 language amusingly illustrate autograph 
 score British Museum Chandos anthem 
 ) ' pant hart , ' , usual 
 mighty pen - stroke , write , ' fazzt hart . ' 
 slip pen 
 having write ' paint ' movement 
 thirteen time 

 percentage publication 
 pay cost production 
 interesting forego figure 

 manuscript Beethoven ' Waldstein ' sonata , 
 | consist thirty - oblong folio 

 page , 1 




 HEREFORD MUSICAL FESTIVAI 


 AURELIA 


 MUSICAL 


 TIMES 


 OCTOBER 1 , 1906 . 677 


 selection 


 PSALMS HYMNS 


 church ENGLAND 


 REV . CHARLES KEMBLE , M.A. , 


 MUSIC 


 select , arrange , partly C SEI 


 NDON 


 OHN F. SHAW & CO . , 48 . PATERNOSTER ROW 


 S. S. WESLEY . 


 675 


 WV 


 , 1906 


 MR . A. R. REINAGLE salary 


 A. R. REINAGLE , 


 ORGAN Grand Ul 

 symphony Beethoven Te deum Berlioz 
 bear 
 typical creation respective composer , 
 owe conception Napoleon . 
 , 
 originally bring existence . 
 artist 
 extravagant idea , Berlioz conceive thought of| day later Berlioz write , Liszt 
 glorify military renown Napoleon I. | 
 composition grand work epic | 
 dramatic interweave , entitle ' return 

 




 


 MUSICAL TIMES 


 OCTOBER 1 , 1906 


 ORGAN recital 


 ORGANIST , CHOIRMASTER CHOIR appointment 


 string INSTRU MENTS 


 CHOIR . SECOND CHOIR . PHIRD CHOIR . 


 1883 : 


 00 


 


 681 


 1855 


 682 


 MUSICAL TIMES 


 MUSICAL 


 , 1906 . 683 


 NE\ - SONGS 


 BROOKS RECEIVI 


 N REINAGLE , 


 O. G. SONNECI 


 PETER CORNELI 


 friend , BASIL JOHNSON 


 - song 


 + 5 pp — — _ — — — ' 


 : = = " — 


 . : = ~ — j ) _ — = — , 3 \ — \ , { 


 — _ ? — = . F 


 SUNG AUTUMN 


 = — - — _ ' 4 : 


 ' — — — — _ — — p 


 — — — — — $ _ _ _ _ 


 — _ ~ = — _ 


 2 1 . 


 } _ + @ : 6 } = = = | 


 2 7 = 4 


 SONG AUTUMN 


 ' SS 


 HEREFORD MUSICAL FESTIVAL . 


 ( SPECIAL correspondent 


 


 MUSICAL TIMES 


 OCTOBER 1 , 1906 . 689credit Dr. Sinclair , able conductor festival 

 ' introduction allegro ' string brilliantly 
 play composer direction . Dr. Sinclair 
 deserve credit finished performance Brahms 
 Symphony , symphony — Dr. Davies work 
 — hear festival . ' Messiah , ' ' Elijah , ' 
 ' hymn praise , ' standing dish festival , 
 occupy accustomed place . chamber 
 concert Nora Clench ( uartet play quartet 
 Beethoven ( op . 135 ) Tanéiew ( op . 7 ) , 
 orchestral concert Miss : Evangeline Anthony , Hereford 
 lady , play Mozart violin concerto . 
 lavish supply principal vocalist ; addition 
 mention recall — 
 alphabetical order — Madame Conly , Miss Gleeson - White , 
 Madame Agnes Nicholls , Madame Siviter ; Madame 
 Ada Crossley , Miss Muriel Foster , Miss Gwladys 
 Roberts ; Messrs. Beaumont , Ben Davies , William 
 Green ; Messrs. Dalton Baker , Ffrangcon - Davies , 
 Watkin Mills . - rate orchestra 
 seventy London player ( Mr. W. Frye Parker , leader ) , 
 organ Mr. Atkins morning 
 performance Dr. Brewer evening , 
 assume duty accompanist chamber concert 

 COMPETITION festival 




 MORPETH ( NORTHUMBERLAND ) . 


 PROMENADE concert 


 MUSIC BRISTOL . 


 ( correspondent 


 music GLASGOW . 


 ( correspondentmusic LIVERPOOL DISTRICT . 
 ( correspondent 

 impossible forecast season music Liverpool 
 keen sense satisfaction . Philharmonic 
 Society , usual , concert . 
 work perform Beethoven choral symphony , 
 Parry ' Pied Piper Ilamelin , ' ' creation ' ( 1 
 2 ) , Bach cantata ' Phoebus Pan , ' Finale 
 * die Meistersinger , ' Verdi ' Requiem . ' 
 special orchestral concert . Dr. Cowen 
 remain conductor 

 Ilallé Concert Society announce concert , 
 conduct Dr. Richter . season 
 Dr. Richter orchestra play Liverpool , 
 announcement cause general 
 interest 

 Franck ' Symphonic Variations ' pianoforte , Granville 
 Bantock ' Sappho ' prelude , Gluck overture ' Iphigenia 
 Aulis , ' Siebelius second symphony , _ incidental 
 music ' Pelleas Melisande , ' Paul Dukas ’ 
 ' L’apprenti Sorcier , ' 
 time Liverpool . Mr. Henry J. Wood conduct 
 Brahms symphony close season 

 Symphony Orchestra , compose chiefly 
 member Richter Philharmonic Orchestras , 
 warmly encourage success season , intend 
 concert Sun IlIall , direction Mr. 
 Vasco Akeroyd . symphony perform include 
 Tchaikovsky . 4 , Beethoven C minor , Cowen 
 * Scandinavian , ' Schubert ' Unfinished , ' Beethoven 
 * Eroica 

 Mr. A. P. Mignot arrange Schiever Quartet 
 concert , hold Hlardman Street Kooms 
 music - lover district welcome 
 announcement opportunity afford wish 
 distinguished enterprise season pronounced success 




 MUSIC MANCHESTER . 


 ( correspondent 


 692 


 MUSIC NEWCASTLE DISTRICT . 


 RRI INDENT 


 MUSIC 


 


 NOTTINGHAM DISTRICT 


 CORRESPONDENTThe Nottingham Sacred Harmonic Society , 
 direction Mr. Allen Gill , select Wagner 
 ' fly Dutchman ' concert , follow 
 Handel ' Acis Galatea ' Gounod ' Redemption 

 City Orchestral Concerts usual 
 performance , Beethoven fifth Tchaikovsky 
 pathetic symphony chief feature 

 Choral Union promote City Education 
 Committee student evening school , 
 conductorship Mr. Arthur Richards , Gade 
 ' Erl King daughter ' select performance 




 MUSIC SHEFFIELD DISTRICT . 


 ( correspondent 


 


 MUSICAL TIMES 


 OCTOBER 1 , 1906the choral orchestral society resume 
 activity — mainly confine rehearsal present — 
 promise interesting season . important 
 event performance , time city , 
 Elgar ' Apostles , ' Sheffield 
 Amateur Musical Society . concert fix 
 December 18 , Mr. Henry J. Wood conduct 

 Sheffield Musical Union promise Berlioz ' Faust , ' 
 Dr. Coward rely 
 picturesque performance , ' Israel Egypt , ' work 
 suited powerful chorus . engagement sing 
 Beethoven Choral Symphony ( ueen Hall , 
 Dr. Richter , Union fixture 

 Sheffield Choral Union unfortunately difficulty . 
 \ series excellent concert having result heavy 
 inancial loss , Society present continue 
 vocal class rehearsal choral work . Bach 
 ' St. Matthew ' Passion work study 




 BERLIN 


 COLOUNE 


 ELBERFELD 


 HAMBURG 


 LEIPZIG . 


 PARIS . 


 PESARO 


 MILAN 


 093 


 604 MUSICALmay , , aware 

 analyse 
 Grove ' Beethoven nd 
 Novello ) . 

 art Symphony C appear M Al 

 transpose 

 ee ( 1 ) portrait Beethoven appear 
 supplement M 1 Times January , 1901 . 
 2 ) new edition Grove ' Dictionary music 
 rate volume annum , 
 ably complete end 1908 

 musician ’ issue 
 work pr 




 content 


 special notice 


 dure L. { ST ' MONTH . 


 CH , J 


 LIMITED 


 C \VI NDISH , J. 


 E"¢ AR , 


 OODE RHAM , ALICE 


 FA publication 


 MR 


 ERNEST PIKE 


 TENOR ) 


 695 


 HOIRMASTE R 


 SSISTA ANT 


 CHOIRMASTER 


 W ANTED 


 school 


 annual include 


 contain 


 ( ention M teach 


 pheory question 


 nth 


 OCTOBER 


 MUSIC review 


 ' SCHOOL MUSIC review 


 ILLOWING MU 


 VELLO COMPANY 


 MUSICAL 


 scale 


 time 


 ° 30 


 3 4 


 200 


 710 


 term ADV ertisement 


 6 MUSICAL 


 time 


 OCTOBER 1 , 1906 


 ~“HOIR EXCHANGE , 136 , FIF th AVE . , NEW 


 WANTEI 


 N E.¢ 


 S \ 


 sale . VIRGIL PRACTICE CLAVIER 


 WW 


 PIANO , 


 professor singing , 


 VIOLIN 


 LARGE TEACHING ROOM 


 * uitable presentation . — SILVEI 


 TWE 


 D’AL 


 HARM 


 ANAL 


 COUN 


 DOU B 


 MUSICAL TIM 


 OLD FIRM 


 P. CONACHER & CO . , , | 


 SPRINGWOOD WORKS 


 HUDDERSFIELD 


 gold medal . 


 NICHOLSON CO . , 


 ORGAN BUILDERS , 


 PALACE YARD , WORCESTER . 


 ( establish 1841 


 PIANO pedal 


 organist 


 PIANO 


 ALMAINE 


 PIANOS 


 ORGANS 


 extremely suitable 


 season 


 performance 


 CHRISTMAS 


 SACRED CANTATA 


 solo voice , CHORUS , 


 ORCHESTRA 


 word select HOLY SCRIPTURE 


 music compose 


 ALFRED GAUL 


 


 FBENEZER PROUT work . 


 FUGUE . 


 : LOUIS SPOHR 


 ORIANA 


 collection early madrigal 


 british foreign 


 7 . NYMPHS SHEPHERDS dance ( 4 , ) ... GEORGE MARSON 


 36 . O FLY , LOVE ( 5 5 ,   ) ... THOMAS BATESON 


 ED 


 10 . L 


 12 . 


 13 . 


 14 . * 


 15 


 16 . 


 17 v 


 18 . 


 19 . 


 20 . 


 21 . 


 22 . 


 23 . 


 24 . f 


 28 . si 


 29 . 


 30 . 


 MUSICAL time 


 progressive 


 


 PIANOFORTE 


 edit , arrange group , fingering revise supplement 


 FRANKLIN 


 TAYLOR 


 2 } . " » 7 } § 2 . » 2 


 - book , price shilling 


 imt 


 BO'V 


 select PIANOFORTE study 


 progressively 


 FRANKLIN TAYLOR 


 set ( book ) , price shilling SIXPENCE book 


 company , limited 


 


 SECTION a.—technical practice . book 


 SECTION b.—studie . book 


 piece 


 5 . OG 


 MUSICAL TIMES 


 OCTOBER 1 , 1906 


 nthem trinitytide 


 ALPHA OMEGA 


 compose 


 CH . GOUNOD 


 LIGHT WORLD 


 compose 


 EDWARD ELGAR 


 COME , YE CHILDREN 


 compose 


 JOSIAH BOOTH . 


 complete list . 


 lute serie 


 ANTHE 


 LONDON NOVELLO comp 


 m advent 


 702 musical 


 century composer 


 16TH , 17th , ISTH 


 anthem 


 BATESON , TIIOMAS 


 BATTEN , ADRIAN ( /. 163 


 BECKWITH , JOHN CHRISTMAS ( 1750—1809 ) . 


 BLAKE , EDWARD ( 1708—1765 ) 


 BLOW , JOHN ( 1648—1708 ) . 


 BOYCE , WILLIAM ( 171 1779 ) 


 BYRD , WILLIAM ( 154 1623 


 CHILD , WILLIAM ( 1606 ? — 1697 


 CLARKE , JEREMIAH ( 1669 ? — 1707 ) . 


 CREYGHTON , ROBERT ( 16392?—1734 


 p o 


 CROFT , WILLIAM ( 1677?2—1727 ) . 


 DOWLAND , JOHN ( 1563 162 


 EBDON , THOMAS ( 1738—1811 


 FARRANT , RICHARD ( /. 1564—1580 ) . 


 GIBBONS , ORL ANDO ( 1583—1625 


 G REE NE , MAI R 1 ; ( 1696 ? — 1755 


 HAYES , PHILIP ( 1738—1797 ) . 


 HAYES , WIL L [ ( 1706—1777 ) . 


 HUMPHRYS , PELHAM ( 1647—1674 ) . 


 KENT , JAMES ( 1700—1776 


 KING , CHARLES ( 1687—1743 ) . 


 LOCKE , MATTHEW ( 1630?—1677 


 NARES , JAMES ( 1715—1783 


 PURCELL , HENRY ( 1658 ? — 1695 ) . 


 REDFORD , JOHN ( /. 1535 ) . 


 ROGERS , BENJAMIN ( 1614—1698 ) . 


 TYE , CHRISTOPHER ( 1497?—1572 


 WISE , MICHAEL ( 1646?—1687 ) . 


 service 


 OLD ENGLISH ORG music 


 prefatory note 


 LONDON : limited 


 NOVELLO COMPANY 


 MUSICAL 


 704 


 time 


 CHURCH music 


 service 


 anthem . 


 


 morning evening 


 service 


 GETHER W H 


 office HOLY COMMUNION 


 set MUSIC key G MINOR 


 


 NATHANIEL PATRICK 


 TRANSPOSED edition 


 CHURCH MUSIC 


 new anthem 


 ERNEST EDWIN MITCHELL . 


 HEAV ENL Y vision 


 CHORAL orchestral society . 


 everal choral work , 


 - song 


 composition 


 T. MEE PATTISON 


 original ORGAN composition . 


 practical method 


 | training chorister 


 RY 


 DR . VARLEY ROBERTS 


 < canticle 


 set anglican chant 


 compose 


 FREDERICK ILIFFE . 


 FI E 


 1 


 pil ( 


 SOR 


 


 


 


 tro 


 


 1906 


 - song 


 PETER CORNELIUS 


 english word . 


 MALE voice . 


 mix voice . 


 ; sott 


 NARCISSUS ECHO 


 CANTATA CHORUS , SOLI , ORCHESTRA 


 compose 


 EDWIN C. . 


 , BC IOKS 


 MALLINSON RANDALL . 


 church 


 G. EDWARD STUBBS . 


 practical hint training 


 CHOIR boy . 3 


 sing choral service . 


 : F. E. HOWARD . 


 W. H. HALL . 


 HYMN DIONYSUS 


 word 


 BACCH.E EURIPIDES 


 translation 


 GILBERT MURRAY 


 CHORUS ORCHESTRA 


 


 ERNEST WALKER 


 second edition 


 tory 


 MENDELSSOHN oratorio 


 ELIJAH 


 F. G. EDWARDS . 


 C.B. 


 956 


 


 publish 


 bible version 


 canticle 


 point chanting 


 


 extract preface . 


 PRESS notice 


 LONDON : NOVELLO COMPANY , limited 


 psalm 


 ce HEREFORD MUSICAL FESTIVAL , 1906 . | produce HEREFORD MUSICAL FESTIVAL , 1906 , 


 LIFT heart — 


 cre sympmony , f ELIZABETHAN 


 : -astoral | 


 compose IDYLI ; 


 ( o } 20 . ) 


 compose IY 


 FHE YORKSHIRE POS 


 YORKSHIRE POST . 


 : ( GLOUCESTER JOURNAL . 


 produce PHILHARMONIC SOCIETY concert , JUNE 14 , 1906 


 symphonic variation 


 african AIR 


 


 S. COLERIDGE - TAYLOR 


 TIMES . MORNING POST . 


 1906 


 produce HEREFORD MUSICAL 


 SOULS 


 psalm 


 


 FESTIVAL , 1906 


 RANSOM 


 POOR 


 SINFONIA SACRA ) 


 


 SOPRANO BASS SOLI 


 CHORUS ORCHESTRA 


 compose 


 C. HUBERT 


 PRICE 


 


 TIMES 


 DAILY TELEGRAPH 


 DAILY NEWS . 


 H. PARRY 


 SHILLINGS 


 DAILY CHRONICLE 


 TRIBUNI 


 GLOBE 


 ATHEN-€UM 


 YORKSHIRE POST 


 COMPANY 


 LIMITED 


 introduction 


 ALLEGRO OLD ENGLISH dance 


 STRINGS FREDERIC H. COWEN 


 QUARTET ORCHESTRA 


 MAYPOLE DANCE 3 ; MINUET D’AMOUI 


 PEASANTS ’ DANCE . 4 . OLD DANCE 


 MINI 


 TIMES 


 DAILY TELEGRAPH . 


 DAILY NEWS 


 EVENING STANDARD . 


 DAILY ¢ RONICLI 4 


 YORKSHIRE POST SUNDAY TIMES . 


 WESTERN DAILY PRESS 


 GLOBI . . 


 PA MALL GAZETTI GLASGOW HERALD 


 ASGOW NEWS 


 NOV 


 MUSICAL 


 _ _ CHURCH CANTATA . NEW ORGAN COMPOSITION 


 SEVEN PIECES 


 NOVELLO MUSIC primer EDUCATIONAL serie 


 = DR . 


 BREATHING 


 VOICE P RODU ction 


 i.—explanatory 


 lateral costal method breathing 


 special physical exercise attainment | choir 


 correct pose . \ 


 introduction , 


 


 ADES 


 LOV 


 


 TE 


 


 FI 


 


 711 


 DELES " 


 ORGAN 


 OXON 


 ARTHU R. S 


 AP 


 2 , WEDDING MARCH | 5 . MARCHE TRIOMPHALI ( MUS.D. , 


 HOLLOWAY 


 PEAL 


 INTE -RMEZZO 


 


 EDWIN 


 TI 


 IMPOSE 


 


 TERY POPULAR 


 IRGAN 


 


 EMARE 


 PIANOFORTE PIECE 


 HOLLOWAY 


 EASY ANTHEMS , 


 D MINOR 


 SS 


 ( NOVELLO edition 


 PIANOFORTE . — ORGAN 


 LOCAL CENTRE.—INTERMEDIATE grade . LOCAL CENTRE.—INTERMEDIATE GRADI 


 SINGING . 


 LOCAL CENTRE DVANCED GRADI LOCAL CENTRE.—INTERMEDIATE grade 


 : BARITONE . 


 10 


 . , BAS 


 SCHOOL EXAMINATIONS.—LOWER DIVISION MEZZO - SOPRANO . 


 REINE ¢ ; N BARITONE 


 


 SCHOOL EXAMIN 


 EI 


 PANSE N. 42 


 SCHOOL EXAMINAT 


 MEZZ 


 6 ASS . 


 class SINGING EX AMIN : ATION . 


 VIOLIN 


 LOCAL CENTRE.—INTERMEDIATE grade . 


 . LOCAL CENTRE.—ADVANCED grade . 


 ; SCHOOL EXAMINATIONS.—PRIMARY . 


 SCHOOL examination — elementary . 


 SCHOOL EXAMINATIONS.—LOWER division . 


 SCHOOL examination . HIGHE R DIVISION . 


 LOCAL CENTRE.—INTERMEDIATE grade . 


 LOCAL CENTRE.—ADVANCED grade . 


 1907 


 SCHOOL EXAMINATIONS.—PRIMARY . 


 — -RANO . 


 ATIONS.—ELEMENTARY 


 SOPRANO 


 CONTRALTO 


 TENOR . 


 BARITONE . 


 BASS . 


 IONS.—HIGHER DIVISION . 


 O - SOPRANO 


 CONTRALTO 


 TENOR . 


 BARITONE 


 NOVELLO 


 BALLAD 


 | MESHULLEMETH 


 orator 10 


 C. HUBERT H 


 JUDITH ? 


 PARRY 


 thou faithful U 


 death 


 ARIA " ST . 


 compose 


 MENDELSSOHN 


 NTO 


 PAUL 


 arrange VIOLONCELLO OBBLIG 


 J. W. SLATTER 


 ATO 


 FAR HEAVENLY 


 home 


 SACRED SONG 


 word write 


 HENRY FRANCIS LYTE 


 music compose 


 J. MARGETSON 


 CHE FARO SENZA 


 EURIDICE 


 THOU ART GONE , ALAS , " ) 


 OPERA 


 ORPHEUS 


 ose 


 transpose edition 


 BREITKOPF HARTEL , 


 GREAT MARLBOROUGH STREET , W 


 CLARISSE MALLARD 


 SONG - CYCLE 


 children 


 SONGS , DANCES , TABLEAUN vivant . 


 suitable school entertainment , 


 714 music 


 ANDANTE 


 ORGAN 


 ENRY SMART 


 ANDANTE ESPRESSIVO 


 symphony 


 ARTHUR SULLIVAN 


 NGEMENT PIANOFORTI 


 WILFRED BENDALL 


 ALLEGRETTO 


 SYMPHONY E 


 RTHUI SULLIN 


 krangement pianoforti 


 WILFRED BENDALL 


 SEASONS 


 SYMPHONIC SUITI 


 EDWARD GERMAN 


 SANDS 


 BALLAD 


 CHORUS ORCHESTRA 


 CHARLES KINGSLEY 


 CHARLES A. E. HARRISS 


 NEW CONCERT SONGS 


 


 DR . ARTHUR S. HOLLOWAY 


 ORGAN > 


 arrangement 


 edit 


 JOHN E. WEST 


 MACKENZIE 


 SCHU MANN 


 CESAR CUI 


 SCHUMANN 


 SCHUBERT PRELUDE ro IIL . ( Tut Avostuts 

 EDW ARD ELGAR 
 arrange G. R. Si Al 
 BEETHOVEN 
 arrange . 
 ADORAMUS TI HUGH BLAIR 

 arrange Hucu Bian 
 INTERMEZZO ( " Tue B . RISTOPHANES 




 ORGAN 


 transcription 


 GEORGE SL BENNETToF JuBAL " ) .. < A.C. MACKENZIE 1 
 . PRELUDE . — ( " Lonencrin " ) .. . WAGNER 1 
 ANDANTINO.—Sympeuony , . 4 , f minor ) 
 rSCHAIKOWSKY 2 
 . slow movement . - \NOFORTE concerto B flat 
 minor ) - TSCHAIKOWSKY 1 6 
 . CORONATION MARCH TSCHAIKOWSKY 2 
 . minuets.—sympnuonie tn c , G MINOR , 
 E FLAT ) . . MOZART 2 
 . minuet.—{sonata E Fiat ) . ( op . 31 , iii 

 BEETHOVEN 1 
 C. MACKENZIE 
 FINAL . - < ce " ) } — " ' bl pair 

 SIREN , ° c. H. H. PARRY 1 




 MENDELSSOHN 


 impro ) IPTU 


 O RC " N 


 compose 


 EDWIN H. LEMARE . 


 CHR\ 


 CHRIS 


 LET 


 HOSA 


 


 SONGS 


 


 METZL 


 LIGHT 


 GODARD 


 METZLER S CHRISTM , \S music 


 LET s unto BETH- SULLIVAN 14 } 


 METZLERS bound volume 


 suitable CHRISTMAS present s¢ ' hool prize 


 METZLER late novelty 


 selection sacred song 


 arrange pianoforte H. M. HIGGS 


 new composition ORGAN 


 VOW READY . 


 METZLER & CO . , LIMITED , 


 40 43 , GREAT MARLBOROUGH STREET , LONDON , W 


 CHAPPELL & CO.S NEW publication , — | 


 publish . 


 SONG word 


 - EDWARD GERMAN 


 price shilling net 


 MAUDE VALERIE WHITE . EDWARD GERMAN . 


 ‘ GOLDEN JUNE " maiden - maye . 


 ' SUMMER GARDEN " LOVE meant glad . 


 GUY D’HARDELOT . FRANCO LEONI . 


 " . " MERRY MAIDEN . " 


 ' think ' butterfly song . " 


 ' heart know " whe n come home . 


 TERESA DEL RIEGO . HERMANN LOHR . 


 BROWN eye . ' oh , forget . ' 


 O love father * 


 song SUMMER " hunt . " 


 1 " chain rose . " 


 ‘ PHYLLIDA " remember 


 " BELL W. H. SQUIRE . 


 " look , O HEART . " J : ING . 


 " REACH ERNEST NEWTON . 


 " claim . " forest . 


 GEORGE H. CLUTSAM . " LOVE ECHO . " - 


 . OS - 7 


 RED ROSE TREI FRANK LAMBERT . 


 " sweet , proud " bid GOOD - morrow 


 » . " bury ROSE . 


 WADDINGTON COOKE . " dear hand . " 


 PAUL A. RUBENS NOEL JOHNSON . 


 ' SUMMEI R " WILD ROSES . 


 HERBERT BUNNING . ROBERT CONINGSBY CLARKE . 


 revelation " BIRTHDAY SONG 


 SWEETHEART " dedication 


 BERNARD ROLIT " BETTY ’ way . 


 " little gold firefly ) " lute sing 


 complete uniform edition world - famous 


 GILBERT SULLIVAN OPERAS 


 MIKADO . pirate PENZANCE 


 gondolier . H.M.S. PINAFORE 


 YEOMEN guard . RUDDIGORE 


 PATIENCE . UTOPIA , LIMITED 


 IOLANTHE GRAND DUKE 


 £ 3 cash 


 prospectus send POST - free application 


 musicseller 


 SEVE 


 NOVELLO 


 - song 


 SECOND serie . 


 HENRY SMART 


 SEVEN SHAKSPERE song 


 G. A. MACFARREN 


 J. L. HATTON 


 HENRY LESLIE . 


 extra supplement 


 S - song book 


 collection 


 glee , 


 


 serie 


 


 


 21 


 madrigal . 


 FRANCESCO BERGER . 


 I. BAPTISTE CALKIN . 


 J. BARNBY . 


 G. A. MACF ARREN . 


 madrigal 


 separate number 


 SHAKSPERE song 


 G. A. MACFARREN 


 HENRY LESLIE . 


 HENRY SM ART . 


 SAMUEL REAY . 


 W. MACF ARREN 


 J. LEMMENS 


 HENRY SMART 


 CIRO PINSUTIL 


 1 t £ 


 HATTON 


 MALE voice 


 4 - 3 -9- 9 - 9 - 9 


 2020080 


 - ( S.S.A.T.B , ) 


 ( S.A.T.B. ) } 


 32 


 FRANZ ABT 


 A. C. MACKENZIE 


 E. PROUT . 


 J. L. HATTON 


 NR OO GNIS 


 SOP 


 ( second serie . ) 


 come , GENTLE SLEEP 


 - song 


 word write MRS . HEMANS 


 music compose 


 FREDERIC H. COWEN 


 CUME , GENTLE SLEEP 


 : — \ , — — _ — - = — 9—__9 — _ 9 - 9 _ |-9—__|—_9—"_4 — 


 come , GENTLE SLEEP . 


 ¢ — — — — — — - — — — 4- — — — _ — — -3 


 2 - 2 -@ 


 < = FS ES — _ = = = SS 


 come , GENTLE SLEEP . 


 ss — -_—- — — _ — — — — — _ 


 T J © Z ' . " 2 


 SE + 


 COME , GENTLE SLEEP 


 53Vov . XV . ( continue 

 Beethoven 
 Naumann 

 Corin Cleoradying 




 J. L 


 ~2686.6 . 5 


 PABBA ? e 


 1906