


 ROYAL CHORAL 


 ROYAL ALBERT 


 SOCIETY . 


 HALI 


 THURSDAY , MAKCH 


 HIAWATHA 


 DAME GLEESON - WHITI 


 ALFRED HEATHER 


 FRIDAY 


 MESSIAH 


 JOHN COATES 


 MADAME KIRKBY LUNN 


 MR.FREDERICK RANALOW 


 MR . ROBERT RADFORD . 


 BAND CHORUS , THOUSAND 


 ACADEMY 


 MARYLEBONE ROAD 


 MUSIC . 


 N.W 


 ROYAL 


 YORK GATE 


 KIN 


 MAJESTY 


 ROYAL COLLEGE MUSIC , 


 PPRINCE CONSORT ROAD , SOUTH KENSINGTON , S.W 


 H.R.H. PRINCE CHRISTIAN , K.G. 


 E ROYAL COLLEGE ORG < ANISTS 


 BACH PASSION MUSIC . JOHN ” ) , 


 SOHO 


 MUSICAL TIMES 


 SINGING - CLASS CIRCULAR 


 FOUNDED 1844 . 


 PUBLISHED MONTH . 


 HANDEL 


 MIDSUMMER TERM BEGINS MONDAY , 4 


 TEACHING TEACHERS 


 GUILDHALL SCHOOL 


 JOHN CARPENTER VICTORIA EMBANKMENT , E. ( 


 MUSIC 


 WEEKLY PR AC PICES CONDUCTED 


 ROYAL 


 MANCHESTER COLLEGE MUSIC 


 MIDLAND INSTITUTE 


 BIRMINGHAM 


 SCHOOL MUSIC . 


 SESSION 1913 - 1914 . 


 UNIVERSITY DURHAM . 


 MANCHESTER SCHOOL MUSIC . 


 \ ( M \ J 


 6 , WIMPOLE STREET , W 


 EDWARD H 


 | — COLLEGE MUSIC 


 “ 4 — 4 4 


 GREAT MARLBOROUGH STREET , LONDON , W. 


 2 EXAMINATION 


 HIGHER EXAMIN : NS , 1913 . 


 DIPLOMAS PRACTICAL MUSIC . , 


 LICENTIATES ( L.L.C.M 


 N. W NY 1 


 C LONDON COLLEGE MU SIC 


 TEACHERS ’ DIPLOMA . 


 DIPLOMAS ) THEORETICAL MUSIC . 


 MUSICAL . 


 


 ASSOCIATED BOARD 


 R.A.M. R.C.M. 


 LOCAL EXAMINATIONS MUSIC . 


 AMES MUIR , S 


 MORTIMER STREET , REGENT STREET , 


 LONDON , W 


 INCORPORATED GUILD CHURCH 


 MUSICIANS . 


 | \ XX\N XXNI 


 ASSOCIATE L.E.G.C.M. ) , LICENTIATE ( L.1.G.C.M FEI 


 LOWSHII F.1L.G.C.M EXAMINATIONS 


 COMPETITIONS 


 ILI EIT ! ! 


 ‘ LEWIS , W 


 WW 


 VICTORIA COLLEGE MUSIC 


 INTION 


 J D.C.1 P.E.1.S. , M D 


 ( H F.R.A.M 


 < HI ! 


 PIMES 


 WRITE FREE BOOKLET EXPLAINING THI 


 MR 


 YONAL 


 


 MUSIK 


 AL 


 PROFESSIONAL NOTICES 


 MISS ISABEL CLEAR ( CONTRALTO ) . 


 MISS LYDIA JOHN 


 CONTRALTO ) 


 WILE RID ABOR 


 A.R.A.M 


 ) 


 MR . PP RANCIS GLYNN 


 MR . SAMUEL MASTERS 


 


 MR . MONTAGUE 


 MISS 


 WINIEFRED MARWOOD 


 TIMES 


 BORWELL 


 MARCH , 1914 . 149 


 MR . LEONARD HU 3 BARD 


 MR . W. H. BREARE 


 PO STUDENTS ANI ) PROFESSION 


 | Z 1 


 \ H B H 


 LONDON COLLEGE CHORISTERS 


 COMPOSERS ’ MSS 


 MR.HE RBE RT M. ARKS(LR.AM . _ — — 


 MUSICAL 


 L.R. A.M. ( PAPER WORK 


 LATEST SUCCESSES 


 A.R.C.M. ( PAPER WORB ) 


 PERSONAL 


 EXAM 


 1 \ MISS 


 D ( | { \ F.R.C.O 


 M M 


 ] VW 


 DR . LEWIS ’ TEXT - BOOKS : 


 MR H. SCOTT - BAKER , A.R.A.M. , L.R.A.M. , 


 HSTEIN STU 


 MARCH 1 , 1914 


 COACHING DEGREES J .. R.A.M. , 


 BURSAES ANI ) - SEVEN SUCCESSES “ 


 7 ; XPERIENCED TEACHER 


 4 COMPOSITION , COUNTERPOINT , PLANOFORT } 


 P.R.CLO R.C.O. 1900 ‘ 


 P.R.C.O. , J A.R.C.O. , J 


 \ ISS MARGARET NG , LR A.M. R.C.M 


 CHRIST . CHURCH CATHEDRAL , OXFORI 


 | SOR SOLOIST SEEKS ENGAGEMEN ! 


 E ‘ ERY CONDUCTOR SECRETAR ' 


 ( CRANTHAM PARISH CHURCH . ORGANS 


 W " OOD GREEN WESLEYAN CHURCH 


 HARMONY 


 U 


 BAN 


 STAI 


 NX FORD 


 SCHOLA 


 \RSHIP ! 


 ARSHIP 


 MENTS 


 H. W 


 RETAR 


 AL 


 MUSK 


 MARCH 1 , 1914 . 151 


 NEW ZEALAND . 


 UNIOUE OPPORTUNITY 


 ACQU IR } \ PROSPEROUS UNENCUMBERED 


 BAND INSTRUMENT OUTFITTING 


 ) REPAIR : BUSINESS 


 TRINITY COLLEGE MUSK 


 PHEORY 


 SINGING H M. M 


 CERTIFICATES 


 SINGING . — ] 


 PIANOFORTE 


 ARTIST DIPLOMA 4 


 FELLOW ( F.T.C.L. ) . 


 DD 


 ICENTIATES ( 1 . 1T.C.L. ) . 


 ASSOCIATES ( A.T.C.1L 


 ASSOCIATES ( A.T.C 


 MUSICAL 


 PRINITTY COLLEGE MUSIC 


 ASSOCIATES 


 SHELLES 


 ( 2.4 M F. ¢ \ 


 ( H ( H ( 1 ) ( ( 


 ( ( H 


 M. ¢ ( \ ( 


 R. ¢ N ( VI ( H. ¢ \ 


 H \ M. | ! M HH 


 H S | H \ ( H \I H 


 \I \ N | 


 \ \ \ N \ 


 M J M 


 } } I. 


 M \ ] | 


 | 4 N 1 


 E. M. \. | 


 M } } . \\ ‘ \ W. 1 


 . \ H.W 


 CLARINET \ \ 


 ] \ ( E. | _ = 


 ¢ 


 BROADWOOD 


 GRANDS UPRIGHTS 


 ILLUSTRATED CATALOGUE APPLICATION , 


 BOSWORTH EDITION . 


 IMPORTANT NEW WORK 


 ALGERNON H. LIND 


 \ TREATISE 


 PYPICA ] EXAMPLES FRO - KNE 


 \ H. 


 BOSWORTH & CO . , , 


 GUIDE SOLO SINGIM 


 CONTAINING INSTRUCTIONS SINGIN 


 DETAILED ANALYSIS SOMI WELI 


 KNOWN WORKS SONGS 


 GUSTAVE GARCIA , 


 \ ( S M 


 MUSICAL 


 TIMES 


 MARCH , 1914 . 153 


 OS SINGING - CLASS CIRCULAR 


 MAKCH 1 , 1914 


 MARKEE — 


 SIR EDWARD E. COOPER 


 TON . 


 154 MUSICAL 


 UNKNOWN LITTLE - KNOWN 


 WORKS WAGNER 


 MARCH 1 , 1914 


 CC 


 MUSICAL 


 TIMESMARCH 1 , Igr4 . 155 

 Jow movement Beethoven fifth Symphony , 
 later ornamentation main melodic idea 
 style movement . 
 Altogether Fantasia means work 
 despised ; composition 
 Wagner period catch 
 decided note promise future 

 Polonaise 1 ) major hands ( 1831 ) 
 s ; conventional manner , 
 nteresting , original expect 
 wwerage young composer eighteen . ‘ 
 Amajor Sonata ( Op . 4 , 1831 ) flows glib 

 confident way characteristic early 

 ystrumental works , good points . 
 ‘ weakest movement — 
 amateurish fugue . ‘ expression 
 slow movement , general freedom 
 syle fugue . ‘ idiom 
 3a early Beethoven , 
 ecasionally writing suggests boy knew 
 smething Weber later Beethoven , 
 invention technique 
 equal imitating simpler models 

 day Symphony C major ( 1832 ) 

 work years varies quality 
 purpose puzzling way . 1832 
 wites ‘ King Enzio ” Overture , 
 nfuence , tells ‘ Mein Leben , ’ 

 Beethoven . plainly modelled dramatic | 
 “ . . + ‘ | 
 werture ‘ Egmont ’ ‘ Coriolan ’ type — 

 type Mendelssohn , ‘ Ruy Blas ’ 
 esewhere , cultivated , 
 adding . ‘ young Wagner 
 thorough grasp form . ‘ Overture 
 oncise balanced ; details 
 ‘ larly seen relation dominant idea . ‘ 
 thematic invention good , themes 
 expressive capable 
 dearing weight certain dramatic 
 development . writing fine Overture , 
 point presumption 

 Beethoven parent , capable 

 producing 1836 shapeless frothy 
 ‘ Polonia ’ Overture , oddest mixture 

 pseudo - Polish idiom cheap , assertive 
 melody ‘ Rienzi . ’ gives 
 loretaste later power climax - building , 
 onthe feeble amorphous work . 
 ‘ Rule , Britannia ’ Overture ( 1836 ) hardly 
 better : long - winded _ pointless 
 dissertation patriotic song , original tune 
 far best thing . ‘ Columbus ’ 
 Overture preceding year better . 
 style curious blend Beethoven , ‘ Rienzi 

 Italian opera : oddly anticipatory 




 MUSICAL 


 TIMES 


 MARCH , 1914 


 


 MUSICAL TIMES 


 MARCH , 1914 . 157 


 NEW MOUSSORGSKY . 


 JUSSOTYES : 


 159 


 FESTIVAI : soli 

 November 12.—-Morning : ‘ Missa Solennis , ’ Beet- 
 hoven ; Symphony C minor , Brahms ; Aria , ‘ Ah ! 
 Perfido , Beethoven ; Cantata , ‘ O Fire Everlasting 

 Bach , Evening : Overture ‘ Der Freischitz , ’ 
 Weber ; Motet ( ‘ chorus ) , Bach ; ‘ Daphne 
 Chloe , ’ Ravel , ( @ ) Nocturne , ( 4 ) Interlude , ( c ) Danse 




 MUSICAL 


 TIMES 


 MARCH 


 GREAT 


 SCHEME 


 5 000 


 MUSICAL CLI 


 OXFORD UNIVERSITY 


 - THOUSANDTH 


 1S07 - 70 


 CONCE 


 CLUI 


 MUSIC 


 15 


 14 , 16 , 17Nos . 1 , 2 , 4 , 5 , 
 Dr. Ek . Walker . 
 Trio E flat Pianoforte Strings , 
 Op . 1 , . 1 
 Allegro — Adag tabile 
 P .. Vie . 
 A. 
 fact Vice - Chancellor University 

 Beethoven 
 e Trio — Pre 

 Benecke , E. H. Donkin , 




 BACH 


 FUGUES 


 DAS MUSIKALISCHE OPFER 


 MUSICAL 


 1O2I , IQT4 

 preface fresh composition , 
 shows signs 
 improvisation find Fugue parts . 
 Chat fact main interest Fugues . 
 allow Bach having paper 
 thought spur moment 
 days previously , correcting 
 imperfect passage , 
 works record way improvising 
 old age . Beethoven , Mozart , Chopin , Franck , 
 known supremely gifted improvisa- 
 tion , 20th century practically lost 
 art ; count Fantasias 
 Impromptus , improvisations written 
 , faithful evidence 
 actually played Bach left Musical 

 Oftering 




 DIE KUNST DER FUGI 


 BACH 


 SACH 


 SY 


 1 1 


 


 168 


 TIMES.—MARCH , I9T4 


 MUSICAL 


 NEW HARMONY 


 . = + 4 " 4 — _ — . 


 


 COMPLEAT ORGANIST . 


 V. — HOBBIES 


 170 MUSICAL 


 USES 


 REFORM 


 REFLECTIONS 


 POST CORRESPONDENCE 


 XUM 


 


 MUSICAL 


 MARCH 1 


 IQ1T4 


 POMUSIC V 


 BEES ’ } 


 - BEES ’ PRIORY CHURCH : T. , WALMISLEY CENTENARY 


 


 MUSICAL 


 TIMES 


 MARCH 1 , 1914 


 EARLY BODLEIAN MUSIC : VOL . IIL 


 MSS 


 


 170 


 CHE 


 MUSICAL 


 , I9Q14 . 


 YOTES 


 TK 


 BOOKS RECEIVED . 


 ARTHUR M. FRIEDLANDER 


 MUSICAL 


 178 


 MUSIC FUTURISTSTO EDITOR ‘ MUSICAL TIMES . ’ 
 S1r,—I studying Schénberg ‘ Drei Stiicke 
 fur Klavier , ’ Op . 11 , fill dismay 

 imagine satisfied music 
 Bach , Beethoven , Brahms , Wagner ; Strauss , Debussy 
 Sibelius , calling stuff pieces ‘ music ’ ! 
 bound , ( eye ) certain 
 shape symmetry , played , 
 dissonances great unthinkable 
 impossible grasp composer aiming . 
 devoted jump minor ninth , 
 melodic progressions filling left- 
 hand parts . minor ninth discordant 
 interval . varied tonality 
 bar , discordance frightful . real ending 
 ; . 3 
 chaotic inane . , want ask — feel 
 sure thousands music - lovers 
 agree — : throw overboard suddenly 
 established canons rules musical art , 
 accept ears instincts tell hideous , 
 ultra - modern composers choose * 7h#s 
 music , /Azs new musical form present 
 ears unaccustomed , soon grow , 
 ( conventional mind ) strange new chords 
 tonal progressions evolved century music 
 

 believe . accept - known master 
 pieces divine inspirations , help 
 stuff writing little short 
 impertinence 




 SIMMONS 


 SF — E = 


 VA 


 VN 


 SS 


 2 — 9 = = = 


 — _ — — _ | 


 & Z 2 . * — * 


 \|G-—-—. = 25 > = SS . 


 ROSE VALLEY 


 LO & 


 VS " — — 


 ‘ 7 — _ 


 YS | = _ — 


 2 . © © « 6 


 — _ — S — 


 S—2 ! ¢ 


 SS = 


 — — _ _ ° " 


 SS SS SE 


 — _ _ — _ _ » , 2 — — 


 ROSE VALLEY 


 ~ } — _ _ — — 


 — _ — = XN 


 S — 7 _ . = 


 MU 


 VANITY VANITIE 


 ROP . BANTOCK NEW CHORAL WORK 


 TE 


 TIMES 


 MARCH 1 , 1914 . 185 


 OPERA : LONDON 1700 1740 . 


 


 SUCCEOESS 


 10.000 


 RD 


 MUSICAL 


 TIMES 


 JOSEPH 


 ROYAL CHORAL SOUVIETYLONDON CHORAL SOCIETY 

 policy Society bring forward new works 
 remedy neglect older works 
 fallen . pursuance second design Society chose 
 concert February 11 , Beethoven programme 
 consisting ‘ mount Olives ’ Mass D. 
 gratifying record large audience attended , 

 S 




 ROYAL OPERA , COVENT GARDEN 


 PERFORMANCES O1 


 PARSIFAL ’ LONDON 


 ROYAL PHILHARMONIC SOCIETY 


 MUSICALn February 14 
 ulant sedative 

 Sir Henry keeps hold public . 
 1 Strauss Overtures * Der Burger als 
 nd ‘ Ariadne Naxos . ’ interesting 
 mart fr att mversation , wit ! 
 » character f chamber - music 
 large " Stravinsky ‘ Fireworks , ’ 
 1 received performance England , 
 twisting , crackling mass sound kind 
 better tl inyone , wonderful 
 f orchestral invention . | Modern music 
 sed time , Sir Henry Wood 
 ntinually attractive performance Beethoven 
 nphony , work rarely finds way 
 gramme nowadays M. Alfred Cortot gave 
 vital reading Schumann minor Pianoforte 
 concert brought close Delius 
 DON IPHONY ORCHESTRA 
 narski prevented illness conductin 
 rt given Orches ( ue Hall 
 6 d Seftor Arbos wa t place . 
 ht , sympathy , effec f interpre 
 Dvorak * ‘ New World ’ Symphony , Brahms 
 theme Haydn ’ gave proof hig ! 
 , nd Mr. Paul Kochanski gave 
 ng Saint - Saéns Viol c » 
 M ! O ure ‘ Der Zauberflite ypened 
 
 mcert February 9 , Ilerr Steinbach 
 ind rovran sisted Beethoven 
 nd second Symphony Violin 
 Brahms , power d played 
 rpretations Symphonies wer ll 
 ind express delicate dignified , 
 s stra responded fully 
 ¢ rt Herr Br law Ilubermann 
 ete v strir 
 ESTRA 
 Beet n - W cert given 
 ler Mr. Land Ronald Queen Hall , 
 > seventh Symphony interpreted 
 ression , rhythmic interest , beauty 
 Wagner o stral excerpts ‘ Meister 
 vertur ‘ Siegfried Idyll , ’ Prelude 
 fr * Tristan und Isolde , ’ ‘ Tannhauser ’ 
 Madame Kirkby Lunn sang Wagner ‘ Triume 
 rzen , Beethoven ‘ questa tomba ’ 
 1 geriihret , ’ notable art 
 Young People organized 
 impton conur flourish 
 24 programme included 
 tte ’ suite , concertos 
 olin ) , Miss Madeline 
 Montrave sang , Mr. F. 
 lanatory remarks , Miss 
 tor 
 ( t y rising g Welsh 
 Mr. Cyr Jenkins , perf med 
 January 24 tl \lexandra Palace Choral 
 1S t ler Mr. Allen Gill direction . 
 antiquated phraseology usually associated witl 
 Ir ality foll ws - - date m dels , 
 mbit ind efiective writing . 
 S M Br s ‘ power sound ’ 
 Taylor ‘ ta Old Japan soloists 
 rt Miss Mary Leighton , Miss Dora Amell , 
 W yI nd Mr. Stewart Gardner . 
 rth Dr. R. R. Terry Bach chamber concerts 
 ut Westminster Cathedral Hall January 27 
 \ vere ‘ Meine Seufzer , meine Thranen , ’ 
 uw Seele riihmt und preist . ’ Madame Amina 
 nd Mr. F. A. Keene soloists 
 n C major pianofortes orchestra 

 TIMES 




 CHAMBER CONCERTSThe London Trio played works Schubert ( E ® 
 ind Brahms ( B ) ® olian Hall February 2 , ® 
 songs given Miss Ethel Maas 

 Perfect performances Beethoven ( ) uartet C ma 
 Op . 18 , Sir Charles Stanford ( Juartet G , Op . 9 % ® 
 Schubert Pianoforte trio B flat , Op . 99 ( Mr. Riche 
 pianist ) , riven Rosé Quarte 

 S 




 A‘T 


 M. N p- 99 , & 
 Ir . Riche 
 Quartet 

 Bechstein Hall February 3 . February 11 
 players heard ( Quartets Brahms minor , 
 Beethoven B flat ( posthumous ) , Mozart D minor 

 welcome revival Leyton House Chamber 
 Concerts began happiest auspices February 6 , 
 othe performers Rosé ( ) uartet played 
 Schubert ‘ Death Maiden ’ ( Quartet 
 Brahms B flat . works German songs 
 given Mr. Robert Maitland . second concert 
 fthe series , February 17 , Brodsky ( Quartet gave 
 excellent programme conjunction Mr. Percy Grainger . 
 Bechstein Hall , February 14 , Wessely Quartet 
 gave performance musicianly , refined , 
 sleasant String quartet M programme 
 included Schubert posthumous Quartet D minor 




 189 


 ITALS 


 CORRESPONDENTS 


 BIRMINGHAM 


 MUSICAL 


 BOURNEMOUTH . Overture ( . 3 ) 
 Symphony F 

 Concerts n giver 
 example : 
 Beethoven * Leonore 

 ; Tchaikovsky 




 TIMEStoo , selected greater works 
 | beaten track , following record : Mix 
 | Myrtle Meggy ( Pianoforte concerto Rimsky - Korsakoy 
 Mr. Theo de la Riviere , Municipal Orchestra ( Ballag 
 | viola orchestra , Schubert ) ; Mr. Alfred Kastne 
 | ( Concertstiick harp orchestra , Gabriel Piermé 

 harp solos ) ; Mr. Robert Pollak ( Beethoven Violip 
 concerto ) ; Mr. Ioan Lloyd Powell ( Pianoforte concer 
 C minor Rachmaninov ) . January 22 Mr. Edwarj 
 | German conducted compositions . 
 original outlook manifested 
 | construction Monday ‘ Pops , ’ 

 following programmes exemplifies . principa 
 | details follows : January 19 , ‘ Beethoven - Brahms 
 | programme , including Brahms - songs femal 
 | Voices , horns harp , Rondo Beethoven ’ : 
 | Pianoforte concerto . 1 , played Miss Nora Bradbury 

 January 26 , ‘ Wagner ’ programme ; February 2 , ‘ Th 
 evolution Symphony ’ — single movements 
 |Symphonies Haydn , Beethoven , Berlioz , Spoby 

 Mendelssohn , Schumann , Raff , Brahms , Tchaikovsky , 
 Glazounov ; February 10 , Italian music — ‘ William Te 
 | Overture ( Rossini ) , Aria Spinelli ‘ Basso Port 
 sung Miss Evelyn Harding 

 central attraction . January 23 Mr. Victor 
 Benham , pianist , proved claim seriow 

 attention , despite striking inequalities playing 
 week following Mr. Charles Fry displayed power 
 advantage selection musical recitations . Mis 
 Margaret Morris corfs de ballet — , itens 
 production ballet music Beethoven ’ 
 seventh Symphony — engagement unique interes 
 actual grouping dancers designs effecte ! 
 colour schemes beautiful , 
 problematical plan ballet k 
 considered conformity moods Beethover ' 
 noble music — actually , Wagner phrase , ‘ apotheos : 
 dance . ’ Visits Melsa , Mss 
 | Gladys Moger Miss Ada Thomas , Mr. Mrs. Denn 
 | Drew , Miss Marie Hall . performance th 
 Municipal Choir Orchestra Coleridge - Taylo 
 melodious ‘ tale Old Japan , ’ Parry masterly ‘ Bis 
 Pair Sirens , ’ Cowen setting ‘ John Gilpin 
 reflected considerable credit performer 
 Mr. Godfrey , directed affair . soloists , wi 
 sang excerpts Coleridge - Taylor popu 
 ‘ Hiawatha ’ trilogy , Miss Caroline Hatchard , Ms 
 Hilda Cragg - James , Mr. Sam Hempsall , Mr. Jule 
 Henry 

 addition concerts chronic 
 |a wholly delightful recital Dr. Georg Henschel : 
 | St. Peter Hall . isa appropmi 
 building recitals chamber music thant 
 Winter Gardens Pavilion , reason 1s 4 pt 
 sakes , artists exhibit coung 
 tackling monopoly ( undoubtedly ) 
 set matters musical municipal authoritie 
 view construed antagonistic opiiit 
 expressed beginning notes ; gener ! 
 admitted power vested authority & 
 result necessarily detrimental progress , espect # 
 artistic affairs 




 BRISTOL 


 


 MUSICAL TIsayers Miss Home Mr. Hunt ( viola ) , Mr. 
 Bucknall , Miss Rosa Button , Mr. Eric Luton ( violoncello ) , 
 nd Mr. C. Eyles ( double - bass ) . old - fashioned charm 
 f Bach illustration recognised , large 
 sdience evidently gratified concert generally . 
 Bristol Symphony Orchestra enabled 
 gcond concert season , held Victoria Rooms 

 2 , ‘ ebruary 4 , interest numerous audience programme 
 nts hich contained calculated appeal general | 
 Spohr , ff bearer . Overture Wagner ‘ Flying Dutchman , ’ | 
 vsky , ang   Beethoven fourth Symphony , Lalo ‘ Symphonie 
 Tel Espagnole ’ ( solo finely played Mr. Edgar Hawke ) | 
 Porto ’ principal features , Mr. F. S. Gardner conducted | 
 judgment . Miss Hilda Blake vocalist , 
 pianofor : fj sympathetic voice heard advantage 
 orchestn ! fy Landon Ronald ‘ weep Adonais . ’ 
 Hollman Redland Park Hall , February 5 , Clifton Choral | 
 ir . Victor ff Society gave concert presented Planquette 
 ir serion : comic opera , ‘ Les Cloches de Corneville , ’ Stanford 
 ; playing ; ff ctoral ballad , ‘ Revenge . ’ soloists opera 
 powes fj Miss Gladys M. Dyer ( Serpolette ) , Miss Winifred 
 ns . Mis   [ bomas ( Germaine ) , Mr. Lionel Dore ( Marquis 
 items , @ -spard ) , Mr. A. E. Stanley Hill ( Gobo Bailie ) . 
 eethover : jg lhe leader orchestra Mr. Harold Bernard , Miss 
 e interes   Hettie Applegate pianoforte , Mr. A. Ernest 
 ns efiected § Hill directed performance . works efiectively 
   aterpreted . choruses delivered unanimity 
 & @ wd brightness , orchestra share excellently . 
 eethover annual Post Office concert given Victoria 
 apotheos : Jf Sooms February 6 , thirty - fifth annual concert 
 elsa , Mis f Great Western Railway Employes ’ Widows Orphans ’ 
 rs . Dens : fund held February 14 Colston Hall . 
 ce th Mf Scasions large appreciative audience . 
 - Tavlot { t concert Band H.M. Scots Guards , | 
 tly ‘ Ble @ ‘ edirection Mr. F. W. Wood , played effectively . 
 n Gilpin 
 performe ! 
 loists , wi DEVON CORNWALL . 
 ek TOWNS . 
 Mr. Jule musical events numerous 
 ; lymouth past month important , 
 , chronic : ff 20d spirit progress evidenced nearly 
 enschel « § “ stance . Misses Lily Florence Smith secured Dr. 
 propria : ff Seong Henschel matinee January 21 , 
 ic & subscribers , attending numbers , thoroughly enjoyed 
 : isa pit fF ¢ Widely representative programme . Misses Smith 
 sre coung § “ troduced Strauss Sonata E flat violin 
 ) planotorte . | 
 zuthoritis § second Concert violin pianoforte ( 

 opin 
 gener 
 ithority 

 DEVONSHIRE TOWNS 

 eighth ninth Symphony Concerts , given 
 Torquay Municipal Orchestra January 21 February 4 , 
 chief works Beethoven ‘ Eroica ’ Mozart 
 G minor . second occasion M. Zacharewitsch 
 January 24 
 boy violinist , Karékjarto , played Mendelssohn Concerto . 
 Mr. Basil Hindenberg conductor 

 January 19 , Mr. S. W. A. Moyle gave violoncello 
 recital Exeter , Concerto - movement work 
 Jules de Svert . Miss Fifine de la Céte vocalist . 
 Plympton January 21 lecture ‘ Church music , ’ 
 given Mr. R. G. Cawse , illustrated choir 
 St. Mary Church . miscellaneous concert arranged 
 North Tawton , February 4 , Mr. T. Fisher , 
 contributors Miss Holman , Mr. Dryland , Mr. James 
 ( vocalists ) ; Miss J. Crews ( pianoforte ) ; Mr. C. G. Pike 
 ( violoncello ) . Barnstaple , February 16 , Miss Phyllis 




 CORNWALL 


 MUSICAL 


 DUBLIN . rrio E flat , Rut 

 Saéns Trio , Schubert instein 
 Vi ncello sona n B flat Tl Wessely © gave 
 perforr é Esposit ( Quartet ( ¢ ’ 
 hear oin Gl nov ( uintet major ( Mr 
 Clyde Twelvetrees second violoncello ) , Beethoven 
 ( Quartet , Op . 18 , . 1 . Mr. R. Goss - Custard gave organ 
 recital , Sapellnikov recital . 
 Woodbrook Saturd e usual Trios Dr. 
 Esposito , Signor Sim Clyde Twelvetrees 
 een supplemented M Kirkby Lunn , 
 wi tr ed ur accompanied 
 y Mr. Hamilton Harty ippointment felt 
 non - appearance v , announced 
 | ruary 7 Ma list 
 February 14 , Mr , ¢ er accompanist . Dr. 
 ( rles Marchant gave recitals St. Patrick 
 Cathedral February February 15 
 Dublin Ore tral Society gave concert 
 season Gaiety Theatre . programme ( conducted 
 y Dr. Esposito ) included Saint - S s Violoncello concerto , 
 Mr. Clyde Twelvetrees soloist , Debussy ‘ L’apres 
 mid | r Dvor s Sym } y , ‘ New 
 W 
 EDINBURGH . 
 la rts t Paters Orchestral series 
 k pla January 19 , Januar » , February 2 Al 
 firs ! ‘ rt - performance iven 
 Wagne Koyal ¢ ral Unior Madame 
 Kirk Coates , Mr. Charles Knowles , 
 Mr sustair vocal parts . Emil 
 Mlynarski conducted , secured good - round 
 performance . se ncert ted French 
 mus Khené Baton conductor . D minor 
 Symphony César Fra Symphonic - suite , 
 * Printemps , ’ f D portant novelti 
 concert ind included 
 performance f I'chaiko ncert 
 B flat minor , Josef 
 January 28 , | forte recital 
 compositions J. S. B ven 
 University Class Room 1 . 
 : Historical Concerts arranged Prof. 
 h concer n February 11 sted 
 English \ Isl P t ind 
 g list works performed ‘ 
 Anthony Holborne , _ 
 ‘ e viols ’ William Young , deserve mention . 
 seventh Classical Concert took place January 29 , 
 Geloso String ( ) uartet perf rmed time 
 Edinburgh audience . Ilaydn ( Quartet , Op . 64 , 
 Schumann Op . 41 , Beethoven Op . 18 , . 6 , gave 
 opportunities display wonderful powers 
 ensemble playing . Madame Bathori gave delightful readings 

 French German Lied 




 MARCH 1 , 1914 


 GLASGOW . 


 J Swhich Miss Ladowska associated 
 Cullen violinist . Classical Concert tl 
 February 3 attracted large audien doubtless 

 appearance townsman , Mr. Freder 
 Lamond , 
 Beethoven fourth Concerto Liszt Concert 
 E flat . special attraction 
 programme , included Schumann Symphon 
 numbers Debussy Weber . annual plebis 
 concert took place February 6 , 1 
 showed distinctly conservative desire hear 7 
 ivourites . Miss Carrie Tubb . T 
 ust closed remarkably succe 
 notable feature b 
 support extended series concerts 

 




 LIVERPOOL DISTRICT 


 _ — — _ 


 


 MUSICALMile 

 support merit . 
 january 20 Beethoven seventh Symphony played , 
 remarkably fine performance o 
 concerto B flat minor given Miss Tina Lerner . 
 Mile . Chaminade 
 tful example work gifted composer , 
 gnes Nicholls songs completed interest 
 mportance feminine element programme . 
 bruary 3 , Mr. Akeroyd submitted 
 Overture — 
 advantageously 
 Dvordk ‘ Carnival ’ Overture Saint - Saéns * Le Rouet 
 Chémet , brilliant solo 
 opportunity Saint - Saeéns 

 vocalist Mr. Fraser 

 Conducted Mr. Albert Orton , Walton Philharmonic 
 Society inaugurated fifth season January 28 , 
 performance Coleridge - Taylor ‘ tale Old Japan ’ 
 Elgar Choral ’ suite , ‘ Bavarian Highlands . ’ 
 attractive works choir eighty voices sang 
 extremely , thanks Mr. Orton enterprise , 
 small orchestra Hallé players , led Mr. J. E. Matthews , 
 materially assisted accompaniments . vocal 
 principals Miss Alice Shawcross , Miss Annie Beattie , 
 Mr , Lloyd Moore , Mr. W. Batey , principal bass 
 Hereford Cathedral . Dr. Stanley Dale presided 
 pianoforte 

 Dr. Brodsky selected Schubert posthumous ( Juartet 
 G minor , Beethoven ( Juartet C sharp minor , Op . 131 , 
 Brahms Pianoforte Quartet G minor , Op . 25 ( 
 Miss Marguerite Stilwell showed interpretative skill 
 pianist ) , concert January 24 , usual 
 quartet - playing heard keen enjoyment . Interesting 
 chamber concerts given Misses Helena , 
 Isabel Mary McCullagh January 19 , 
 Prescott Trio ( Mr. Arthur Catterall , Mr. E. A. Wright , 
 Mr. Stanley Prescott ) January 28 . programme 
 conccrt included Schumann ‘ Spanisches 
 Liederspiel ’ Branms ‘ Zigeunerlieder , ’ sung Miss 
 Edith McCullagh , Miss Helen Anderton , Mr. Roland 
 Jackson , Mr. Francis Harford . Prescott Trio 
 introduced interesting works Gabriel Faure 
 Pianoforte quartet C minor Sir Charles Stanford 
 Pianoforte quartet F , players reinforced 
 Mr. F. Weingaertner ( viola ) . outstanding 
 occasion successful pianoforte recital given 
 January 31 Mr. Frederic Lamond , especially 
 good fame Beethoven player ’ nce 
 Thirty - Variations Sonata C , Op . 2 , . 3 

 MANCHESTER DISTRICT 




 


 MUSICALAt Brodsky concert January 31 heard Brahms 
 early B flat Sextet , movement new Sonata 
 Sylvio Lazzari , Mr. R. J. Forbes joined Dr. 
 Brodsky . chamber concerts Max Mayer ( January 26 ) 
 Miss Edith Robinson ( February 2 ) introduced new 
 music distinction Reger Chevillard 

 second municipal ‘ Hallé * orchestral concert consisted 
 mainly - known works Beethoven , Liszt , 
 Wagner . Stimulated , doubtless , success 
 concerts , Societies offering Town Hall 
 Committee services season , Gentlemen 
 Glee Club Manchester Vocal Society 
 number . Society , January 21 , gave 
 concert safely reckoned 
 satisfactory given Mr. Whittaker guidance , 
 advanced programme better 
 appreciated 

 Glee clubs meeting social - cum - musical enjoyment 
 tolerably gumerous . recently 
 established ‘ Cantori ’ Society , ninth year , 
 conducted Mr. J. B. Cullen . usually 
 associate Schumann , Wolf , Brahms , Cornelius , Elgar 
 assemblies , ‘ ladies ’ evening , ’ eighty 
 memJLers ‘ Cantori ’ congratulated body 
 ‘ study - singing purely edification 




 NOTTINGHAM DISTRICT 


 SHEFFIELD DISTRICTThe Wagner programme chosen Shette 
 Promenade Concert served reveal steady improvemet 
 tone ensemble orchestra comes ng 
 | selection frequent rehearsal . Mr. Cecil Baumer playet 
 | MacDowell D minor Pianoforte concerto , number 
 Lieder tastefully sung Miss Lucie Rosenberg Ms 
 Mountain accompaniment . Mr. J. A. Rodgers conductet 

 Symphony Concert given Lyceum Theatr 
 Yorkshire Permanent Orchestra Harrogitt , 
 | direction Mr. Julian Clifford . temperate 
 - controlled performance Beethoven Symphony * 
 C minor given . Mr. Clifford played neatly , ® 
 soloist , cheerful brief Pianoforte concert 
 Orchestra heard Liszt Rhapsody . 
 Weber * Oberon ’ Overture 

 Chesterfield District Musical Union gave + 
 concert lighter music usual Drill Hall 

 _ 
 excell 
 bert Hal 
 Teachers ’ 
 gach abilit 
 oi Mr. H 
 corded 

 outs 
 s tl 
 ‘ mphony 
 ebuary 4 . 
 somes t 
 5 famil 
 et 
 ame pheno 
 inown Var 
 ethaps 
 vethoven 
 { Berlioz ar 
 ychestra , 2 
 Schubert 
 thor 1 
 uty ‘ Ble 
 melius ‘ 
 Saturde 
 best 
 new 
 ought 
 { Orcl 
 wpalar Vic 
 een heard 
 cing excell 
 music 
 aaggeratiol 
 Finlandia ’ 
 vere 
 alist . 
 promise , po 
 wlity . H 
 fies , Ja 
 erformance 
 lohnson , wl 
 arth Pianc 
 rfined , 
 oncerto , 1 
 Angel ’ pai 
 ther featur 
 th 
 utistic 
 Le 
 called * | 
 artet , 
 med 
 pnt N 
 Mr. Hemin 
 snowden ai 
 ave enjc 
 Miss Snow 
 ham , 
 nost sympa 
 Salready 
 t 
 tality , = ” 
 Beethoven g 
 ost pleasai 
 Messrs , 
 ecitals 
 olin 
 Sinding 
 fave pian 
 thich Fran 
 ileresting 
 $ favouri 
 Leeds Mus 
 powerful 
 Sonata 

 noteworthy 




 


 195 


 YORKSHIRE . 


 LEEDSFinlandia ’ Sibelius , great ‘ Leonora ’ Overture 

 vere features interesting programme . 
 calist Mr. Joseph Ireland , young bass great 
 omise , possessing voice unusually rich sympathetic 
 Harking , preceding concert 
 “ fies , January 24 , distinguished artistic 
 musician , 
 thnson , gave reading solo Beethoven 
 ath Pianoforte concerto brilliant , 
 Bach fourth ‘ Brandenburg ’ 
 Joncerto , Tchaikovsky ( ) minor ) Suite , 
 Angel ’ pantomime music ‘ Hansel und Gretel ’ 
 ther features concert 

 New 

 

 Mr. Fricker , conducted 
 0 occasions , successful obtaining 
 utistic satisfying performances . 
 Atthe Leeds Bohemian Concert January 28 Beethoven 
 called ‘ Harp ’ Quartet ( Op . 74 ) , Schubert 
 uartet , Tanéiev powerful ( Quartet B flat minor 
 med programme , played admirable 
 pit Mr. Cohen , Mr. Ghent , Miss Lily Simms , 
 January 20 Miss Marion Keighley 
 wowden brother , Mr. John Keighley Snowden , 
 ve enjoyable recital pianoforte violoncello music 
 Miss Snowden pianist great refinement sincere | 
 ‘ arm , interpretation pieces Debussy | 
 Mr. Snowden , scholar R.C.M. , 
 Salready accomplished violoncellist , fire 

 minor 

 t performance Bach Suite G gave great | 
 . artists joined 
 beethoven Richard Strauss , left 
 ost pleasant impression . . 
 Messrs. Richardson Maude gave Sonata 
 ecitals January 21 , playing Sonatas pianoforte 
 olin Beethoven ( G , ( Ip . 30 ) , Dvorak ( G , Op . 100 ) , 
 Sinding ( Op . 27 ) ; February 7 Miss Lilian Prust 
 ave pianoforte recital , ambitious programme , 
 “ hich Franck Prelude , Chorale , Fugue 
 f February 10 M. Sapellnikov , 
 $ favourite Leeds public , appeared 
 ‘ eeds Musical Evenings 
 powerful brilliant performance Liszt B minor 
 Sonata Schumann ‘ Etudes Symphoniques ’ 
 ‘ oleWorthy feature , produced great sensation 

 giving Sonatas 

 BRADFORD 

 Bradford subscription concert January 30 
 introduced M. Rachmaninov pianist composer , 
 played number compositions , including 
 strenuous Sonata B flat minor , remarkable vitality 
 crispness style . Mr. Felix Salmond gave violoncello 
 solos splendid fire , Miss Ruth Vincent 
 vocalist . concert series , February 13 , 
 introduced Berlioz ‘ Requiem , ’ heard 
 Bradford 1887 . occasion 
 advantage co - operation Hallé Orchestra , 
 Mr. Balling , Festival Choral Society , 
 result excellent - round performance , 
 feel music failed produce effect 
 concert room , especially 
 singularly devoid resonance St. George Hall . 
 fine performance Beethoven C minor Symphony preceded 
 * Requiem 

 Free Chamber Concerts , February 
 16 , Dvorak String quartet E flat ( Op . 51 ) , Mozart 
 Pianoforte quartet E flat , Sinding picturesque 
 Pianoforte quartet E minor , given Messrs. 
 Norton , Burfield , Turner , Drake , Mr. Midgley 
 pianist . Miss Judson vocalist . sonata 
 recital January 28 , given Mrs. Maria Herz , 
 joined Mr. I. W. Sugden introducing Korngold 
 recent Sonata pianoforte violin G , 
 heard Yorkshire , afforded fresh proof 
 precocious mastery composer . Miss Madge 
 programme Bradford 
 Permanent Orchestra February 14 , included Brahms 
 * Academic ’ Overture , Tchaikovsky ‘ Capriccio Italien , ’ 
 Grieg ‘ Sigurd Jorsalfar ’ Suite , Mr. Walter 

 impressive rhythm 

 Mr. F.- Mercer played solo Beethoven 
 C minor Pianoforte concerto , Miss Phyllis Lett 
 vocalist . 
 
 Wakefield Chamber Concert January 22 , Miss 
 Agnes Nicholls Mr. Hamilton Harty gave 
 enjoyable song recital . Miss Nicholls sang long 
 varied series songs , including new ones Mr. 
 Harty , ‘ Wake Feast ’ ‘ Rann Wandering , ’ 
 Irish themes , characterized great force 
 Mr. Percy Sharman chamber concert 
 York , January 26 , introduced new Pianoforte quartets , 
 Schumann charming work E flat , Gabriel Faure 
 ( Juartet C minor , , evincing highest 
 accomplishment , fails . Bach Concerto 
 D minor violins artistically played Mr. 
 Sharman Miss Leila Willoughby , Mrs. Burrell , 
 vocalist , introduced Beethoven arrangements 
 Scottish songs , original accompaniments 
 pianoforte , violin violoncello , sang 
 sympathetic style . members quartet 
 Miss Knocker , Mr. Groves , Mr. Padel . Mr. Hylton 
 Stewart Chamber Concerts Scarborough , January 21 , 
 Leeds String ( Quartet ( Mr. Cohen , Mr. Ghent , Miss 
 Simms , Mr. Hemingway ) played Beethoven ‘ Harp ’ 
 Quartet Schubert minor Quartet acceptably , 
 Miss Elsie Suddaby , promising young soprano , 
 vocalist . concerts , February 
 18 , Mr. Edgar Drake Quartet , Mr. Percy Richardson 
 pianist , played Pianoforte quintets Schumann 
 Brahms 

 TOWNS 




 MUSICAL 


 SUMMARIZED 


 MARCH 1 , I9T4 


 N ! ISTLE , STA 


 MUSIC PARISconcerts , times 
 week - days impossible hear symphonic 0 % 
 Paris . M. Pierre Monteux conce 
 devoted works MM . Paul Dukas , Debussy , 
 | second , entirely 
 French school , principal numbers Mall 
 ‘ Valses nobles et   sentimentales , ’ Fier 
 Schmitt ‘ Tragédie de Salome , ’ 
 vocalist Mlle . Suzanne Vorska . 
 Concerts - Sechiari given , 
 Serghéi Liapounov ‘ Rhapsody 
 orchestra . solos 

 Beethoven , Chabrier , Berlioz 

 Ravel 




 MUSICAL 


 


 TIMES 


 MARCH 1 , IQ 4 . 197 


 AMSTERDAM 


 BERLINA Brahms concert given baton 
 } celebrated Brahms conductor , Fritz Steinbach . 
 programme consisted Concerto violin , violoncello 
 orchestra ( Wlubermann Hugo Becker 
 soloists ) , Violin concerto , Symphony D 

 Jascha Spivakovski pianoforte recital included 
 performance seldom - heard ‘ Concerto 
 orchestra , ” Schumann . ‘ Musik fiir Orchester , ’ 
 k. Stephan , ‘ Sinfonischer prolog , ’ Boehe , 
 novelties Hausegger concert.—-—The sixteen 
 | year - old Austrian , Georg Szeli , appearance 
 composer , conductor pianist , withthe Bliithner Orchestra . 
 conducted Symphony B minor , _ played 
 Beethoven ‘ Emperor ’ Concerto . Leo Fall 
 finished new operetta , ‘ Young England ’ : 
 performance place West - End Theatre 

 BRUSSELs 
 Mozart charming ballet , ‘ Les Petits Riens , ’ performed 
 Paris 1773 , revived Theatre de la 
 Monnaie . ‘ Elektra ’ ‘ Salome ’ included 
 programme Richard Strauss [ estival 




 LUCERNE 


 198 MUSICAL 


 MUNICH 


 NICE 


 ARMAAn interesting concert works Arcangelo Corelli 
 b ¢ bs ~ 
 given recently . programme included famous 
 * hth Concerto Grosso , violins violoncello 
 6 . 
 string orchestra harmonium , Sonatas 

 Leopold von Auer created sensation 
 magnificent interpretation Beethoven Violin concerto 
 Beethoven evening given Société Imperiale de 
 Musique . Stravinsky Ballet - fragment ‘ Petrouschka , ’ 
 Glazounov seventh Symphony , Liszt ‘ Les Preludes ’ 
 Pianoforte concerto ( Risler _ soloist ) 
 excellently performed fifth Kussewitzki concert . 
 Strauss ‘ Don ( Juixote ’ Glazounov interesting fifth 
 Symphony performed perfection Mengelberg 
 auton . Rachmaninov splendid new choral work ‘ Glocken , ’ 
 chief feature fourth Siloti concert , gained 
 remarkable success composer conductorship . 
 fifth concert cf institution Gluzounov gave 
 1 brilliant interpretation eighth Symphony . 
 splendid performance Strauss ‘ sprach Zarathustra ’ 
 given distinguished conductorship Mr. 
 Albert Coates . programme concert devoted 
 works J. S. Bach , given choir soloists 
 Imperial Court Opera ( Siloti ) , comprised 
 * Trauerode , ’ * Magnificat , ’ Violin concerto 
 : flat , interpreted Albert Spalding song - recital 

 mmpositions Gerhard von Keussler , given A. Boruttau 




 IENNA , 


 MUSICAL TIMES 


 SCALE TERMS ADVERTISEMEN 


 SPECIAL NOTICE . 


 


 ANT ( 


 LOO } 


 ROW } 


 ( " ARSE 


 ( VER 


 AVIE 


 FLGAR 


 G ALUP 


 DRIDGE , 


 * ARCL 


 REEN 


 INE . V 


 


 


 MONTH 


 ANTOCK , 


 BLOOMER , G. 


 HM . 


 BROWN , J 


 CL 


 AVIES , 


 LGAR , 


 63 ) . 


 ALUPPI , B 


 45 


 REENE , MAU 


 COVER AUDE E. 


 EDWARD 


 GRANVILLE 


 RICE 


 444 


 85Voices , Chorus , Orchestra . Choruses , 
 words Solos . . 6d . 
 ‘ SOL - FA SERIES Edited W. G. 
 McNAUGHT : 
 . 2160 . ‘ ‘ Land o ’ leal . ” Scotch 
 Melody . — 1.T.B.B. 
 . Etuior Burron 1d . 
 2161 . ‘ * Great Sai Lord ” ( Die 
 Allmacht ) ~ F. , SCHUBER1 2d . 
 2162 . ‘ * Open gates righteousness . ” 
 Easter Anthem . MyLes B. Foster — 14d . 
 » 5 2163 . * * Loveisasickness . ” lour - Song . 
 \. W. MARCHAN ' 1d . 
 , 2164 . ‘ * Glory God Highest . ” 
 Chorus Christmas Oratorio . 
 J. S. Bacu = 2d . 
 5 » 21€6 . Vesper Hymn ( ‘ ‘ Lord , safe 

 night ” ) ( versions . ) BEETHOVEN 1d 

 MUSICAL 




 MONTH 


 N O13 


 PUBLISHED 


 H. W. GRAY CO . , NEW YORK . 


 TIMES . — 


 FESTIV AI 


 CLASSES OPEN UNITED KINGDOM 


 | HOIRS 


 | 


 ( ¢ ELY LYR , N.J 


 LEAMINGTON COUNTY 


 GREEN 


 DIEPPE GRAND 


 INTERNATIONAL COMPETITION 


 MARCH 1 , 1914 


 BRISTOL 


 INTERNATIONAL 


 EXHIBITION 


 MUSIC COMPE 


 JUNE 


 TITIONS 


 JULY 


 SYLLABUS READY 


 DEPUTY MONTHS 


 ( | VW . ) 


 RGAN SALE , 


 M | 


 N.W 


 1 P R 


 NORMAI 


 TIMES 


 


 MUSICAL 


 GOLD MEDALS 


 ESTABLISHED 1750 


 GR . AY & DAVISON 


 MALKIN PATENT PEDAL CO . , LTD . , | . = — 


 PANO PEDALS 


 NORMAN & BEARD 4 PRACTICAL GUIDE 


 PHE TIMES 


 NOVELLO COMPANY , NOVELLO ANI ) COMPANY 


 MUSICAL 


 TIMES 


 MUSIC LENT 


 PASSION LORD 


 ” P ASSION 


 HRIST . G. F. HANDEL 


 PASSION 


 ION W AYS L 


 N ISERERE MEI , DE 


 RGE C , 


 N ISE MEL DEUS 


 G. P. DA PALES RINA 


 STONE , 


 MV ISERERE MEI , DEU S. 


 STORY CROSS 


 VOICES ORGAN 


 WORI 


 REV . E 


 BUTTON , H. ELLIOT 


 S 


 MONRO 


 REPROACHES 


 GOUNOD , CH 


 LONDON 


 NOVELLO 


 WALKER 


 CS 


 “ SP 


 COMPANY 


 FOLLOWING COMPOSERS 


 MS 


 SERIES 


 LIMITED 


 B - E - R -- S - F 


 NOVELLO ANTHEMS LENT 


 1 4 4 . 


 MU 


 SUITABLE LENT 


 WATCH YE , PRAY 


 ( WACHET . BETET ) 


 CANTATA 


 LI 


 J. S. BACH . 


 PASSION 


 J. VARLEY ROBERTS . 


 VILLAGE 


 LENT 


 JOHN E 


 


 HOLY 


 MUSIC 


 WEST 


 MUSIC EASTER 


 \ 


 JOHN E. WEST . 


 P 


 M 


 OFFICE “ TE 


 KOR SIN 


 PASSION 


 DIRECTIONS 


 “ 


 USE CHURCH ENGI 


 YRIL W MILLER 


 COME 


 SE 


 ANTHEM . “ * ™ ® EAR 


 ORCHESTRA 


 GANIST 


 NEBR JE 


 NEW EDITION . READY 


 PENITENCE 


 PEACE 


 | . J. H. MAUNDER 


 MUSIC LENT EASTE 


 KEDUCED PRICE . 


 GING 


 BENEDICITE 


 


 


 FLAT 


 SACRED 


 HYMNS 1 


 V 


 TH 


 WORDS SE 


 


 ANTAB . 


 CRED PASSION HOLY REDEEMER 


 


 MUSICAL 


 CANTATAS LENT 


 STORY CALVARY 


 TENOR BASS SOLI CHORUS 


 DESE RT DOL OROSA 


 GARDEN DEVOTION 


 BARITONE SOLO CHORUS 


 ; CHORUS WORDS DERIVED MAINLY ANCIENT SOURCES 


 WORDS WRITTEN SELECTED MUSIC COMPOSED 


 VIOLET CRAIGIE HALKETT E. CUTHBERT NUNN 


 MUSIC COMPOSED 


 


 MEDITATION CONGREGATION 


 


 WORDS SELECTED WRITTEN 


 . ATT TRNCI RV 


 W. J. SPARROW - SIMPSON , M.A. MUSIC 


 D : ARKEST HOUR ( STABAT MATER 


 SOLI , CHORUS ORCHESTRA 


 SOPRANO , TENOR , BARITONE SOLI COMPOSED 


 JOSEPH BENNET'I 


 SELECTED H SCRIPTURES , INTERSPERSED 


 APPROPRIATE HYMNS , MUSIC COMPOSED 


 MUSIC COMI 


 SED 


 ? GETHSEMANE 


 JOSEPH BENNETT 


 ZE WILLIAMS . 


 B. HAL ‘ M.A 


 LONDON 


 MUSICAL 


 200 


 MUSIC 


 EASTER HYMN 


 SOPRANO TENOR SOLI , CHORUS , 


 ORCHESTRA ( ORGAN 


 


 GEORGE J 


 EMMAUS 


 BIBLICAL SCENE 


 BENNETT 


 SPRING SOULS - DA\ 


 CANTATA EASTER 


 MENDELSSOHN . BLESSING , HONOUR , GLORY , , 


 ANTHEMS EASTER 


 LUTE SERIES 


 EASTER 


 


 _ _ _ _ 


 FAVOURITES 


 WORLD - WIDE POPULARITY 


 * AWAKE , GLORY 


 , RISEN 


 PE 


 POPULAR EAS STER ANTHEM 


 CHORISTER AID 10 


 MONOTONING 


 FOSBERY , M.A. 


 * RYWHER : 


 


 MUSICAL 


 , IQT4 


 NOVELLO COMPANY 


 EASTER ANTHEMS 


 T. R 


 LONDON 


 GATES RIGHTEOUSNESS 


 DAY 


 _ E 


 LIMITED 


 MAUNDER 


 NOVELLO COMPANY , 


 ORGAN 


 PURLISHED | ORGAN 


 PHE BARD AVON : ‘ 


 . 


 ->ASSION SERVICE 


 GEORG C ‘ 


 MUSICAL 


 TIMES 


 MARCH 1 , IQI4 . 209 


 NOVELLO 


 EDITED 


 HENRY 


 LONDON 


 HANDBOOKS 


 HORAL TECHNIQUE 


 PUBLISHED 


 MUSICIANS 


 NEWMAN 


 INTERPRETATION 


 COWARD 


 ONON 


 PRESS NOTICES 


 TH 


 HARVEST 


 4 . 


 E MUSICAL 


 TIMES 


 MARCH 


 NOVELLO ANTHEM 


 WT 


 GENERAL 


 ADVENT 


 CHRISTMAS 


 EASTER 


 HARVEST 


 GENERAL 


 ADVENT 


 CHRISTMAS 


 HARVEST 


 GENERAL 


 ADVENT 


 CHRISTMAS 


 EASTER 


 HARVEST 


 GENERAI 


 ADVENT 


 CHRISTMAS 


 EASTER 


 HARVEST 


 GENERAL 


 ADVENT 


 EASTER 


 HARVEST 


 GENERAL 


 ADVENT 


 CHRISTMAS 


 WHITSUN 


 HARVEST 


 GENERAL 


 BOOK 


 NINEPENCI 


 ISSUED NET BOOK 


 ADDITIONAL HYMNS 


 TUNES 


 HYMNS ANCIENT MODERN 


 CHURCH HYMNAL 


 LONDON : NOVELLO COMPANY , LIMITED 


 SJSSUED NET BOOAK . 


 NEW CATHEDRAL PSALTER 


 CONTAINING 


 PSALMS DAVID 


 CANTICLES PROPER PSALMS . 


 EDITED POINTED CHANTING 


 WORDS . — 


 PSALTER CHANTS COMBINED . 


 MUSICAL TI 


 NOVELLOS 


 NEW SONGS 


 PRICE SHILLINGS NET 


 HUNTING SOUIRE . 


 WHITAKER 


 DREAMING 


 


 F ' YK 


 GLORY MORN 


 


 COUNTY PALATINE . 


 KINGSTON - STEWART 


 ONDON TOWN . 


 \V ! THIN 


 EYES . 


 THRO ’ POPPIES . 


 BOLD GENDARME . 


 NEWTON 


 ENTLEMAN JOHN . 


 SMILE 


 V ITH HEART . 


 WILSON 


 WAREING 


 THOMSON 


 THOMSON 


 DRAMATIC 


 UNWELCOME . 


 » ST . ANDREWS . 


 + HILLS 


 MARY E. COLERIDGE . 


 CYRIL BRADLEY ROOTHAM 


 SONGS 


 NEW POPULAR SONGS 


 JOSEPH H. ADAMS 


 SACRED 


 DIVINE LOVI 


 “ NAZARENE . 


 “ SUN SOUI 


 “ GENTLE SHEPHERD . 


 SECULAR : 


 “ WONDER . 


 “ BEHOLD DAWN , 


 “ PLANTER . 


 “ | TELL . 


 “ KINGDOM . 


 “ SPIRIT STORM . 


 “ SONG HOPE , 


 “ LITTLE DUTCH TILE . 


 “ ROSES . 


 SONGS 


 TENNYSON . 


 A. C. MACKENZIE . 


 WALKER 


 SONG 


 BARITONE 


 


 


 CHARLES DAWSON SHANLY . 


 : C. MACKENZIE 


 NGS 


 NGS 


 MUSICAL 


 ORIGINAL COM 


 ORGAN 


 PIECES 


 ORGAN 


 JOHN STAINER 


 BOOKS 


 BOOK 


 BOOK IL . | 


 ORIGINAL COMPOST TIONS 


 ORGAN 


 BASIL H. ARWOOD . | 


 COMMUNION F AJOR 


 REQUIEM & TERNAM 1 6 ] 


 ) SKETCHES 1 61 


 TIMES 


 ALBUMS 


 PAGEANT 


 MARCH 1 , 1914 . 213 


 NOVELLO 


 ORGAN 


 [ SELECTED PIECES . 


 INTERLUDES 


 FALSTAFF 


 EDWARD ELGAR 


 S 5 6 


 VOYAGE 


 SONG - CYCLE . 


 HAROLD ~ SIMPSON 


 A. VON AHN CARSE 


 LOVE 


 HUMAN LIFE 


 CHORAL SUITE . 


 CHILDREN VOICES 


 FEMALE 


 MALE 


 GR : \NVIL LE BANTOCK 


 NEW HUMOROUS - SONG S.A.T.B. 


 MORRIS MEN ENGLAND PERFECT PRONUNCIATION SPEAKING 


 FRENCH LANGUAGE . 1 C 


 ARRANGED PIANOFORTE SOLO 


 ; G. H 


 WEBSTER = 


 R N B O W TRAINING CHORISTERS 


 MUSIC READING LADDER BEGINNERS XPLAIN 


 SHILLING 


 PEOPLE 


 DENTS 


 


 NG 


 RS 


 MUSICAL 


 


 TIMES 


 MARCH 1 , 1914 . 21 


 CAMBRIDGE 


 RICHARD WAGNER 


 XPLAINED ACCORDING MUSICAL DEVELOP . 


 MENT MOTIVES , - MUSICAL 


 EXAMPLES . 


 NEW FOREIGN PUBLICATIONS 


 NOVELLO CAT ALOGUES 


 NOVELLO ' CATALOGUES 


 PIANOFORTE 


 CAMBRIDGE UNIVERSITY PRESS 


 SORIGIN OLD LEGENDS , UTS MUSICAI 


 MOTIVES EXPLAINED ORDER ORGAN HARMONIUM . 


 SCORES ORCIIESTRAL MUSIC . 


 FINE ST ENGLISH 


 CHAPPELL PIANOS 


 EXCELLED 


 EXQUISITE TONE , RESPONSIVE TOUCH , 


 REMARKABLE SINGING QUALITY , LASTING DURABILIT 


 MUSICAI 


 CHAPPELL PLAYER - PIANOS 


 CONTAINING 


 MODERN IMPROVEMENTS EXPRESSION DEVICES 


 50 . NEW BOND STREET , LONDON , W. 


 SOLE AGENTS : — 


 SELECTED 


 PIANOFORTE STUDIES 


 PROGRESSIVELY ARRANGED B 


 FRANKLIN TAYLOR 


 PRICE SHILLING SIXPENCE BOOK 


 ND COMPANY 


 LIT 


 GHAM 


 L 


 . » LTD 


 EXTRA SUPPLEMENT . 


 NOVELLO OCTAVO ANTHEMS 


 COMPOSED 


 H. MAUNDER 


 672 


 DAY 


 ANTHEM EASTER 


 COMPOSED 


 TENOR 


 ( 82 SSS 


 ORGAN 


 U.S.A 


 SS : = = SS SS SS 


 — — — — _ — — — — — — — TT = = = ; 


 SS - 


 | — _ — — _ 


 SS SS SS 


 — — _ - — 


 = = = = SSS 


 DAY 


 DAY 


 SSS SS < — EPP = 


 II 


 IM 


 DAY 


 SS _ ~. 


 NI 


 LL 


 DAY 


 DAY 


 7 — — = “ FP 


 DSU M 


 ENTRAN 


 LR.A.M.