


 MUSICAL TIMES 


 SINGING - CLASS CIRCULAR . 


 FOUNDED 1844 . 


 PUBLISHED MONTH 


 ROYAL CHORAL SOCIETY . CRYSTAL PALACE . 


 ROYAL ACADEMY MUSIC , MISS PERCEVAL ALLEN . | MISS ESTA D’'ARGO 


 YORK GATE , MARYLEBONE ROAD , N.W. MR . BEN DAVIES . MR . CHARLES SAUNDERS . 


 TUESDAY , JUNE 25 , 2.30 P.M 


 # E O USIC , MR . ROBERT RADFORD . 


 PRINCE CONSORT ROAD , SOUTH KENSINGTON , S.W. - IPE 


 MISS PERCEVAL ALLEN . 


 MADAME CLARA BUTT 


 KUM 


 MUSICAL T 


 358 


 IMES.—JUNE 1 , 1912 


 


 ASSOCIATED BOARD 


 LOCAL EXAMINATIONS MUSIC 


 SCHOOL 


 UNIVERSITY DURHAM 


 MANCHESTER SCHOOL MUSICPrincipal 

 Orchestral Concerts . Prospectus Secretary , Albert Square . 
 Orchestral Concert , June 22 . -rogramme includes : Symphony , 
 Jena , ” Beethoven , Overture , “ ‘ Wreckers , ” Dr. Ethel Smyth 

 ROYAL IRISH ACADEMY MUSIC 




 WESTLAND ROW , DUBLIN 


 MUSIC 


 IMPERIAL COLLEGE 


 CLAVIER HALL , HANOVER SQUARE , W. 


 EIDOPHONE DEPARTMENT 


 EDUCATIONAL DEPARTMENT 


 EXAMINATION DEPARTMENT 


 MUSICAL LECTURES . 


 SIGNOR CELLINI , 


 MADRIGAL SOCIETY 


 VICTORIA COLLEGE MUSIC , 


 LONDON . 


 INCORPORATED GUILD CHURCH 


 MUSICIANS 


 ASSOCIATE ( A.1.G.C.M. ) , LICENTIATE ( L.1.G.C.M. ) , FEL 


 COMPETITIONS 1912 


 REGISTER ORGAN VACANCIES 


 430 OFFERED PRIZES . 


 


 PIANC 


 L. M 


 MUS 


 SEY . 


 | , . . : . TJ 


 — LONDON , W.C. LONDON , W. 


 UM 


 SPRINGWOOD WORKS , 


 HUDDERSFIELD . 


 GOLD MEDALS 


 PIANO PEDALS 


 MUSICAL T 


 360 


 PROFESSIONAL NOTICES . 


 MISS ALICE HARE 


 SOPRANO ) . 


 MR . W. H. BREARE 


 STUDENTS PROFESSION 


 MISS DASIE E. AVIS 


 MISS LILY GRAHAME 


 ( CONTRALTO 


 MISS LYDIA JOHN ( LRA ™ M 


 CONTRALTO ) . 


 MR . SAMU EL MASTERS 


 MR . JOS . REED 


 MR . MONTAGUE BORWELL 


 BARITONE 


 WINIFRED MARWOOD 


 124 , WALM LANE , CRICKLEWOOD , N.W 


 HERBERT MARKS ( LRA.M. ) 


 ( BARITONE ) . 


 MR . HERBERT PARKER 


 ( BARITONE ) . 


 MR . M. MONTAGU - NATHAN 


 HERBERT WEATHERLY 


 ( CONCERT ORGANIST ) . 


 MR . W. H. GRIFFITHS 


 LONDON COLLEGE CHORISTERS . 


 COMPOSERS ’ MSS . 


 EVISION MUSICAL COMPOSITIONS 


 L.R.A.M. ( PAPER WORBR 


 LATEST SUCCESSES : — 


 OXFORD E 


 HEO 


 R.A 


 13 , F 


 CANDIDA ’ 


 R. E 


 F.R. 


 F.R.C.O. 


 R. F 


 POINT , FI 


 MUS . BAC 


 CAMBRIL 


 L.R.A.M. ( 


 HARMON 


 “ ELEMEN ’ 


 “ MATERL 


 ECI 


 40 


 


 


 3ING 


 VY , 


 361 


 MUS . DOC . EXERCISES , 2 . FINAL MUS . DOC , EXAM . , 2 


 CUM 


 EXAM . MUS . BAC . , 2 


 “ DR . LEWIS ’ TEXT - BOOKS 


 


 DRED SUC SSES ; A.R.C.M 1897 - 1911 , 


 A.R.A.M. , F.R.C.O. ) , PIANOFORTE , HARMONY , 


 COUNTERPOINT , COMPOSITION , ORCHESTRATION , 


 ORRESPON DENCE SCHOOL MUSIC , 


 37 , BERNERS STREET , LONDON , W 


 GRADUATED POSTAL LESSONS HARMONY , 


 COUNTERPOINT , THEORY MUSIC , FORM 


 


 OXFORD . 


 NEW COLLEGE CHORISTERSHIPS 


 KING COLLEGE , CAMBRIDGE 


 ST . MICHAEL COLLEGE , TENBURY 


 DURHAM CATHEDRAL 


 12 


 WANDS ORTH PARISH CHURCH.—SOLO 


 KING ( COL LEGE , CAMBRIDGE 


 JIANOFORTE - TECHNIQUE.—CORRESPON 


 DENCE LESSONS GIVEN MACDONALD SMITH 


 ESTABLISHED 1839 


 LIVERPOOL 


 CATHEDRAL 


 WORKS 


 DESIGNERS & BUILDERS 


 CHURCH & CONCERT ORGANS 


 LIVERPOOL 


 


 STR 


 ESTABLIS 


 RGA ! 


 ORG 


 HEF 


 EED 


 0.P.C 


 M.R.L 


 RG 


 


 363 


 KUM 


 FRIDAY , JUNE 


 MESSRS . PUTTICK & SIMPSON 


 SPECIAL HALF - YEARLY SALE 


 


 VALUABLE VIOLINS 


 PLACE 


 14 , 1912 


 STRADUARIUS , AMATI , GAGLIANO , RUGGERIUS 


 47 


 ESTABLISHED 1765 


 EED ORGANS 


 222 


 LEICESTER SQUARE , LONDON 


 10 


 USIC 


 STUDIO , 223 


 W.C 


 C. B.D. COPIER 


 ANDMASTERS CON ‘ DU C TORS 


 NORMAN & BEARD , LTD 


 PNEUMATIC PEDAL ATTACHMENT 


 PIANO . 


 LONDON , W 


 EQUAL TE MPERAMENT 


 THEORY PRACTICE 


 


 HENRY SPAIN . 


 364 


 , 1912 


 G. E. BAMBRIDGE , F.T.C.L. , F.R.A.M. 


 BROADWOOD 


 PLAYER - PIANOS 


 GRANDS UPRIGHTS . 


 ILLUSTRATED CATALOGUE APPLICATION 


 SACRED . DUETS 


 J. SEBASTIAN BACH 


 CONTENTS : 


 SAVIOUR . 


 ALAS ! SAVIOUR CHRIST TAKEN , 


 JESU , THOU SHEPHERD ART . 


 QUICKLY COME , O COME , LORD JESU 


 REVISED 


 NEW EDITION 


 ORGAN 


 JOHN STAINER 


 EDITED JOHN E. WEST 


 SEVEN SACRED SOLOS 


 EARLY ENGLISH SCHOOL 


 DR . MAURICE GREENE . 


 SHILLING 


 BOSWORTH & CO . , 


 HANOVER SQUARE , LONDON 


 PRICE 


 17 , W 


 ROYAL COLLEGE ORGANISTS . — 


 | EXAMINATIONS , JULY , 1912 


 FELLOWSHIP EXAMINATIONS 


 365 


 SINGING - CLASS CIRCULAR . 


 JUNE | , 1912 


 DR . CAMILLE SAINT - SAENS . 


 JS 


 XUMand inexhaustible capacity work . 
 born Paris , October 9 , 1835 . Having 
 misfortune lose father ( 
 Normandy ; mother Champagne ) 
 early , brought mother 
 great - aunt . earliest childhood evinced 
 great liking music , extraordinary musical 
 capacities . told having completed 
 year , received great - aunt 
 lessons pianoforte musical theory ; * 
 age play sight , 
 faultlessly , Grétry music pianoforte scores , 
 begun compose small songs pianoforte 
 accompaniment . relates , ‘ Essay 
 multiple resonance bells , ’ 
 gifted discriminating musical ear : 
 ‘ , strike common household 
 articles description ; candlesticks , glasses , 
 & c. , ask note produced ; 
 slightest hesitation 

 soon acquainted principles 
 orchestral music : friend family having 
 present copy Mozart ‘ Don 
 Giovanni ’ orchestral score , study 
 daily utmost eagerness . f age 
 seven , began receive pianoforte lessons 
 Stamaty , study harmony little - known 
 earnest cultured musician named Maleden . 
 6 , 1846 , Salle Pleyel , appeared 
 time public pianist , performing 
 Mozart Concerto B flat works Bach , 
 Handel , Beethoven . ‘ following year , 
 entered Eugéne Benoit organ class Paris 
 Conservatoire ( class obtained second 
 prize 1849 , 1851 ) began study 
 composition Halévy . presumed 

 Octave Séré : ‘ Musiciens francais d’'aujourdhui , ’ Paris , 1912 . 
 article Grove Dictionary adds detail , ‘ day 
 composer keeps little old - fashioned instrument dearly- 
 loved relative gave lessons 




 366THE MUSICAL TIMES.—June 1 , 1912 

 listen Beethoven symphonies : 
 surely insufferable punishment . ’ * 
 best opera , ‘ Samson et Dalila ’ ( begun 1868 ) , 
 rejected Parisian directors , ultimately 
 find champion Liszt , caused work 
 produced Weimar 1877 . 
 dramatic scores , ‘ La Princesse Jaune ’ ( Paris , 
 Opéra - Comique , 1872 ) , ‘ Le Timbre d’Argent ’ 
 ( Paris , Théatre Lyrique , 1877 ) , moderately 
 successful . opera , ‘ Etienne Marcel , ’ 
 shared fate ‘ Samson et Dalila ’ failing 
 Parisian directors . produced 
 Lyons ( 1879 

 composer evidently sowed seed 
 suspicion enlisting champions 
 modern art . early 1871 , better 
 protest universal antipathy evinced 
 living French composers , associated 
 Romain Bussine foundation 
 Société Nationale de Musique , object 
 produce new works French school.t 
 , gifted spirited 
 pugnacity , loth defend 
 brother - composers ’ cause articles 
 stung adversaries quick 




 191 


 KUM 


 367 


 ORLANDO GIBBONS . 


 368 


 4 - 2 


 _ _ _ 


 369 


 UM 


 SYNCOPATION EMPHASIS . 


 37 


 SD 


 SE — 


 6 2 - 4 = — — + - — — — — 


 SCHUMANNp eoetet fF fee ee , oP " ) 3 
 Z _ — — — — — — se — 4 | 
 sal 

 Ex . 15 ScHUBERT . Quartet minor , Op . 2 4 
 BEETHOVEN . Pianoforte Sonata , Op . 27 , . 1 , Finale . Byodel 37 3 

 Stee : 
 = F ] 6 ) Dur 




 371 


 SCHUMANNPPIPPEPIPPEr Prrrir 

 BEETHOVEN . Sonata F , Op . s , : 

 S 3 . W 3 

 Jdlddddisddd 

 BEETHOVEN . “ Sy mphony , 1st movement 

 aje|ozleeloee 




 B. 37 


 372 


 S52 


 ILE 


 373Occasional Wotes 

 programme forthcoming Triennial 
 Festival Birmingham shows decidedly progressive 
 tendency , a'though err gaiety . 
 ‘ Elijah ’ ( October 1 ) ‘ Messiah ’ 
 ( October 4 ) retained supports , committee 
 gone afield worthy enterprise . new works 
 Elgar ‘ music - makers , ’ Sibelius 
 fourth Symphony , ‘ song St. Francis , ’ Dr. 
 Walford Davies , orchestral work Mr. 
 Granville Bantock . Scriabine ‘ Prometheus , ’ 
 Sir Henry Wood understood consider 
 word modernism , given time 
 England . works representing present 
 generation Elgar ‘ Apostles , ’ Strauss 
 ‘ Don Quixote , ’ ‘ Dance seven veils ’ 
 closing scene ‘ Salome , ’ Delius ‘ Sea 
 drift . ’ Bach ‘ St. Matthew ’ Passion 
 given October 3 , remainder scheme 
 includes Verdi ‘ Manzoni Requiem , ’ Brahms ‘ German 
 Requiem , ’ Beethoven seventh Symphony , smaller 
 works excerpts Bach , Purcell , Haydn , Mozart , 
 Rossini , Verdi Wagner . _ _ accordance 
 wish Sir Henry Wood , general conductor , 
 orchestra reduced players 

 programme Bristol Festival , takes 
 place October 23 , 24 , 25 26 , instance 
 independence view , follows modern trend 
 direction musical drama . Saint - Saéns 
 ‘ Samson Delilah ’ Wagner 
 ‘ Der Ring des Nibelungen ’ presented 
 concert form . wonderfully ambitious project 
 outcome success _ similar 
 performance ‘ Die Walkiire ’ 
 Festival . effectiveness depend largely 
 contents printed programme . 
 complete text , interspersed _ profuse 
 stage directions scenic descriptions , 
 drive music home better thematic analysis . 
 seen concert performance long Wagner 
 excerpt robbed success the’careful expunging 
 matter explanatory stage situations 
 printed text . , 
 inconceivable piece mismanagement , 
 different English version employed 
 singers . Bristol authorities preserved 
 error ! conditions ideal 
 programmes , addition dramatic explanations , 
 judiciously chosen thematic elucidations 
 parallel columns text . remainder 
 Bristol programme includes ‘ Elijah , ’ ‘ Caractacus , ’ 
 concertos played MM . Paderewski 
 Kreisler 




 DEFINITION TERM 


 374THE MUSICAL TIMES.—June 1 , 1912 

 Beethoven symphony , Sunday , 
 April 28 , played prisoners jail 
 orchestra ? , honourand credit 
 Maidstone Orchestral Society Mr. F. Cole , 
 able conductor , day named performed 
 Beethoven second Symphony Maidstone Prison 
 audience 4400fthe inmates . programme 
 included ‘ William Tell ’ overture , Dvorak 
 ‘ Slavonic Dance ’ . 8 , ‘ Valse triste ’ 
 Sibelius . Mr. Cole , responding thanks 
 Governor Prison , said music 
 touched heart audience visit 
 vain . honour 
 Society generous recognition 
 mission music 

 SIR GEORGE C. MARTIN , M.V.O. 
 PRESENTATION DEGREE Mus . Doc . 
 OXON 




 ORATIUNCULA SCHOLA DIVINITATIS 


 NONIS MAIIS MCMXII 


 PARAPHRASE 


 1763 


 375 


 FRIEDRICH WILHELM MARPURG . 


 376 


 1858 


 XUM 


 377 


 SIR HUBERT PARRY SONGS 


 — — — — — = 4 - 5 = = = 


 SSS — — 


 STYLE SUBSTANCE 


 MUSIC 


 LITERATURE 


 TH 


 100- 379 

 classed best judges superior 
 Beethoven composers 
 living , lack substance caused 
 wither die tested flames 
 time . Mendelssohn style incomparably finer 
 Schumann , excellent 
 intentions remarkable facility composition 
 brought style 
 works life stronger substance 
 gave Schumann 

 substance necessarily theme . 
 theme , , plastic materials 
 artist works . poet takes 
 theme wayside flower , makes breathe anew 
 fragrance dead . substance 
 words flower beautiful 
 sweet smell , greatness Creator 
 allowing small creature great 
 delight 




 COMPETITIVE MUSIC 


 FESTIVALS 


 TIMESThe picture purposely somewhat overdrawn , 
 order criticisms follow 
 thought cavilling anenemy . greatest 
 friends Festival movement — , 
 pulling strings , think real chance 
 regeneration English musical taste — fears 
 ; fears range mainly 
 heads , briefly stated 

 1 ) main attention given vocal work . , 
 present state instrumental music country districts , 
 excusable tendency ; shelving 
 great problem . think passion 
 English choral music curse disguise , inasmuch 
 makes advance instrumental absolute 
 music impossible . towns England 
 fill huge building overflowing times year hear 
 work Handel ‘ Messiah , ’ fill 
 hear orchestral concert offering fare 
 Beethoven symphonies , fill theatre hear 
 ‘ Die Meistersinger , ’ small room hear string 
 quartet . want balance remedied ; 
 Festivals hope finding lever , 
 fight doggedly continuously instrumental music 

 2 ) supreme importance — possibly cardinal 
 point matter — music chosen 
 unquestionable worth . cases wise course 
 taken asking - class musician choose 
 entire list ; course commended Festival 
 committee . cases glance 
 syllabus approaching Festival wrings feelings 
 mingled sympathy competitors devote 
 time energy worthless trash , sorrow 
 great opportunities thrown away 




 380 


 PEDAL 


 ORGAN . 


 FROGGATT 


 _ — _ _ _ _ _ 


 25 


 XUM 


 388 


 POINTING PSALMS 


 ORGAN RECITALS 


 382volume , embracing period 1777 Mozart death 
 preparing ; authors appended plan wel 
 catalogue Mozart later works 

 method adopted MM . de Wyzewa de Saint - Foiy 
 original efficient . start follow ; 
 principle , proclaimed M. de Wyzewa introduction 
 interesting study biography , 
 genius , attention bestowed events thei 
 outer life ( especially men high genius concerneg 
 , carried far , help proper 
 understanding artistic creations , » 
 impediment mislead . way putting things 
 taken certain readers deliberate quest 
 paradoxical . fact flat contradiction th 
 methods nowadays systematically adopted . Hoy 
 far Frau von Wesendonck influenced Wagner } y 
 composed ‘ Tristan Isolde , ’ far ‘ Heiligenstag . 
 testament ’ brought bear Beethoven ; 
 | compositions , writers ’ favourite theme , 
 | considerations appear ‘ scientific 
 conduce fair ornamental anecdote . 
 whilst intrinsic study music far difficult 
 | Personally , help thinking mistake , 
 leads granted find 
 music . biography artist affords 
 data thinks works 
 bound correspond , inclined t 
 adjust impressions judgments fit 
 preconceived theory . Having years ago ( 
 endeavouring investigate Edgar Allan Poe works ) arrived 
 precisely corollary inexpedient 
 ‘ conclude life works , ’ mor 
 inclined agree M. de Wyzewa . ‘ Men genius ’ 
 says M. de Wyzewa , ‘ enjoy privilege leading lik 
 , , remains far fortuitox 
 events everyday life , life dreams 
 free creative activity brain sod 
 play far superior sundry contingencies 
 subjected . racial hereditary influences 

 Mr. J. Waugh ¢ ) wens , Whitefield’s — Offertoire F , Ba / / e 




 APPOINTMENTS . 


 NEW BOOK MOZART . 


 1764 ) , 


 ( 1764 - 1 


 ( 1772 ) 


 MM . 


 UM 


 MUSICAL TI 


 M.-D. CALVOCORESSI 


 354 


 PIANOFORTE MUSIC . 


 BOOKS RECEIVED 


 ORIGIN IRISH HARP . 


 EDITOR ‘ MUSICAL TIMES 


 DEAR S 


 XUM 


 385 


 ARTHUR T. FROGGATT 


 EDITOR ‘ MUSICAL TIMES 


 EDITOR * MUSICAL TIMES 


 FRANCIS W. GALPIN 


 FRESH LIGHT OLD ENGLISH AIRS . 


 EDITOR ‘ MUSICAL TIMES 


 MUSICAL TI 


 MES.—JUNE 1 , 1912 . 387 


 OPERA SEASON NEW YORK . LEEDS CHOIR PARIS 

 _ prologue great International Festival enacted 
 form visit choir Leeds Philharmonic 
 Society Paris , series concerts organized 
 M. Astruc behalf Société Musicale given 
 Trocadéro April 26 , 28 30 . Choir sang 
 Berlioz ‘ Requiem , ’ ‘ Messiah , ’ Beethoven Mass 
 D , performance clear plan 
 going far afield obtain choir interpret works 
 fully justified eyes Parisians . 
 opening concert audience deeply 
 impressed singing ‘ Nearer , God , Thee ’ 
 memory ‘ Titanic ’ disaster . Herr Weingartner 
 conductor concerts given Leeds Choir 
 remainder series . readings 
 individuality disconcerting 

 certainly ascendant matters operatic , 
 country , cogent reason 
 claim celebrity capable 
 singing English , Italian , French German,—a 
 circumstance worth consideration artists 
 lands . season alluded lasted - weeks , 
 time 186 performances given , New York 
 , including Brooklyn , Philadelphia , tournce , 
 operas produced numbering thirty — Italian , 
 German , French , American Bohemian . 
 list sight appears imposing , reality 
 variety suppose . Italian works 
 Verdi Puccini drawn , addition 
 ‘ Pagliacci ? ( Leoncavallo ) , ‘ Cavalleria Rusticana ’ 
 ( Mascagni ) , ‘ Gioconda ’ ( Ponchielli ) , ‘ Lucia ’ ( Donizetti ) . 
 German operasconsisted Wagner Humperdinck , 
 unimportant ones composers joined 
 majority—‘Lobetanz ’ ( Thuille ) ‘ Versiegelt ’ 
 ( Blech 




 XUM 


 389 


 DON QUICHOTTE 


 ROYAL OPERA , COVENT GARDEN 


 GERMAN SEASON 


 ITALIAN FRENCH OPERA 


 SHAKESPEARE ENGLAND . 


 OPENING CONCERT , II 


 DESERT ’ ALBERT HALL 


 MR . BALFOUR GARDINER CONCERTS 


 


 - - SONG S8.A.T.B. 


 ISIC , 


 XUM 


 SS 


 SSS 


 N — _ — — ' = P 


 SE SS = : 


 - OOS — 


 XUM 


 2S SSS SE SE 


 — _ — ~ — — — . — — — — _ _ - — — - — — — — — + — - — — _ — — $ + 


 ST 


 & — — — — — — — _ > — _ _ 


 = = = ES |S — 44 — 


 - _ ! 1 


 MR 


 CUM 


 395 


 MR . MONTAGUE PHILLIPS CONCERTTHE HANDEL SOCIETY 

 Beethoven ‘ Mount Olives ’ Humperdinck 
 ‘ Die Wallfahrt nach Kevlaar ’ programme 
 concert ( Jueen Hall 13 , Handel Society kept 
 reputation independence choice . 
 share taken choir performance ‘ 
 Mount Olives ’ merits scant 
 opportunities allowed . choralists wider scope 
 abilities Humperdinck charming work , 
 showed benefits training hands 
 Mr. S. Coleridge - Taylor . solo parts 
 works taken Miss Marietta Amstad , Miss 
 Mary Strangways , Mr. Wilbur Reed , Mr. Bevington 
 Rosse . orchestral numbers Beethoven ‘ Egmont ’ 
 Overture , Bizet ‘ L’Arlésienne ’ Suite , programme 
 concluded Schumann ‘ Requiem Mignon . ’ 
 audience , usual concerts , numerous 

 importa.t orchestral work 
 produced amateur orchestra , Mr. J. D. Davis 
 congratulated securing performance 
 Suite ‘ Cleopatra ’ hands Strolling Players , 
 Mr. Joseph Ivimey direction , April 23 . Based 
 Rider Haggard story , originally conceived 
 incidental stage version , work picturesque 
 suggestiveness facile colouring . soloists 
 concert Miss Carmen Hill Mr. Percy Grainger 

 Mr. Donald F. Tovey given season series ot 
 ‘ Chelsea ’ Concerts AZolian Hall , wisely retained 
 associated artistic 
 value . programme , given April 24 , contained 
 Pianoforte trios Brahms Schubert , varied 
 songs contributed Dr. Georg Henschel . 
 second , 1 , devoted chamber works 
 Mr. Tovey . , 6 , consisted Clarinet 
 Pianoforte sonata Mr. Tovey , Trio 
 instruments violoncello Brahms , Bach Suite 
 D minor violoncello . violoncellist Senor Casals . 
 fourth concert , 15 , consisted Chopin recital 
 Mr. Tovey . fifth , 22 , arranged 
 Sefior Casals Mr. Tovey play Beethoven 
 Sonatas violoncello pianoforte 

 Zolian Hall ‘ o’clock ’ concert given 
 April 18 , String quartet F Mr. H. Waldo Warner 
 played London String Quartet , 
 composer member ; Fantasia , ‘ Puck , ’ Mr. J. Speaight 
 introduced . April 25 , concert 
 series , players heard Tchaikovsky 
 programme , 2 number joined 
 Miss Mathilde Verne ina delightful performance Faure 
 Pianoforte quartet 

 interesting musical experiences arisen 
 presence Spanish violinist , Sefor de Manén , 
 country . performances 
 Beethoven ‘ Kreutzer ’ Brahms D minor Sonatas , 
 gave Bechstein Hall April 26 , conjunction 
 Mr. Frederic Lamond 

 season Queen Hall Symphony Concerts 
 came end April 27 Beethoven programme . 
 performance ‘ Leonora ’ Overtures Nos . 1 , 2 3 
 provided interesting study , ‘ Emperor ’ 
 Concerto , Madame Carrefio soloist , memorable 
 example combined brilliance dignity interpretation . 
 Symphony C minor . M. Jacques Renard 
 played violoncello solo Adagio 
 * Prometheus ’ Ballet music 

 Mr. Frank Merrick Madame Hope Squire ( Mrs. 
 Frank Merrick ) gave interesting concert Bechstein 
 Hall 3 , appeared capacity 
 composer . group songs , sung Mr. Gale 
 Gardiner , set pianoforte variations ‘ Black- 
 eyed Susan , ’ Madame Hope Squire showed interesting 
 individuality freshness thought . Mr. Merrick Trio 
 F sharp minor played Madame Hope Squire , 
 Mr. Willie Woltmann Madame Edith Evans 

 Mrs. Margaret Meredith gave concert works 
 Zolian Hall 9 , assistance London 
 Glee Club Mr. Arthur Fagge . simple dignity 
 style exemplified settings Kipling * Recessional ’ 
 Owen Seaman ‘ passing King Edward , ’ 
 ‘ Sursum Corda . ’ Miss Phyllis Lett Miss Fannie 
 Goldsborough interpreted groups Mrs. Meredith songs , 
 instrumental support given composer 
 pianoforte , Mr. G. Parkington ( violoncellist ) , Mr. 
 Julius Harrison organ 

 performance Symphony Mr. Frederic Lamond 
 Queen Hall 9 served reminder 
 an.able composer distinguished pianist . isa 
 genial , easily intelligible work , style 
 advanced period composition , occurred 
 1889 . Sir Henry Wood conducted Queen Hall 
 Orchestra Symphony accompaniments 
 Beethoven G major Pianoforte concerto , finely played 
 Mr. Lamond , Brahms Violin concerto , played 
 M. Szigeti 

 396 MUSICAL TIMES.—June 1 , 1912 

 small pianist , played ‘ Impromptu 

 Miss Speranza Calo , Bechstein Hall , April 24 — sacred 
 songs , Beethoven 

 interesting programme music harp | Mr. Leon Rains , Bechstein Hall , April 25 — ‘ Der Wanderer , 
 concerned given Mr. Alfred Kastner Steinway | Schubert . 
 Hallon . Suite Julius Wachsman harp , | yg , Zareh Tir 
 violin , viola violoncello given time | © 
 England , Fantasie Galeotti harp . Step ‘ : 
 \ new Suite Hilse flute harp , Liszt | Mlle . Johanna Ferina , Bechstein Hall , April 30 — ‘ Batti , 
 23rd Psalm soprano ( Miss Elisabeth Munthe - Kaas ) , harp | batti , ’ Mozart . 
 organ , performed , harps heard | Mr. Roland Jackson , .olian Hall , 1 — ‘ lover 
 arrangement ‘ Rakoczy March . ’ Mr. lass , ’ ./or / ey 

 Schwarz - Schwanenreich . ” Frau Hafgren - Waag Herr placido , ’ Verds . 
 Kirchoff vocalists . programme included | Mr. Mrs. Dennis Drew , Bechstein Hall , 15 
 excerpts Richard Wagner works . * O , John , ’ arr . Cectl Sharp . 
 Mile . Sonia Darbell , .Kolian Hall , 16 — ‘ Lamento 
 Suite flute small orchestra pianist , Mr. d’Ariana , ’ J / onteverde 

 ’ . S. Kelly , played Queen Hall Mr. A. Fransella 
 orchestra Sir Henry Wood direction 
 15 . refined , subtle , simple . Mr. Kelly PIANOFORTE RECITALS . 
 played Beethoven G major Pianoforte concerto . . ; P ‘ , . ' 
 , Miss Madeline Price , Bechstein Hall , April 18 — Chromatic 
 : \ pre Fantasia Fugue , Bach . 
 » Sme . > > > > 7 

 mallwood . : vey _ — little “ — Mlle . Germaine Schnitzer , Steinway Hall , April 19 , 26 , 
 ue Chet Concert Gs \fucem Elan tf Ue . G. A. 3 — Sonata Appassionata , Beethoren 

 C major , Brahms . 
 Miss Alice Jones , Steinway Hall , April 20 — Prelude , Ara 

 famous St. Petersburg Quartet gave Tchaikovsky - oe 
 salad ; . ; aged : wi Finale , César Franck . 
 concert Bechstein Hall 17 . 21 ee . . ‘ Pathétique ’ 
 joined Mr. Hans Ebell ideal performance Mr. Frederic Lamond , Bechstein Hall , April 24 — * Pathetique 
 Arensky Pianoforte quintet , heard separately in| 4nd ‘ Moonlight ” Sonatas , Beethoven . : ; 
 quartets Beethoven Schubert . concerts } Mr. T. P. Fielden , AZolian Hall , April 25 — ‘ Waldstein 
 showed qualities unsurpassed . Sonata , Beethoven . 
 Smee aee Mr. Alexander Raab , -“olian Hall , April 27 — Suite 
 Misses Adila , Jelly Hortense Ardnyi , assisted D minor , @ Albert . 
 Madame Fanny Davies , Mr. Frank Bridge , Mr. | > . Rumschiysky , Bechstein Hall , April 29 — Carnaval , 
 Percy , gave varied interesting concert Zolian , 
 Hall 17 . programme included Dvordk 
 Pianoforte quintet 

 Schumann , 
 Miss Kathleen Bruckshaw , olian Hall , April 30 — ‘ Tragic ’ 
 — _ — _ _ — ‘ Keltic * Sonatas , J / ac Dowell . 
 Herr Johan Wysman , Bechstein Hall , April 30 — Fantasia 




 EETHE MUSICAL TIMES.—Jvne 1 , 1912 

 Madame Carrefio , Queen Hall , 7 — ‘ Waldstein ’ 
 Sonata , Beethoven 

 Miss Lilian Gaskell , St. Jonh Hall , Richmond , 7 — 
 Ballade G minor , Brahms 

 Miss Marjorie Adam , Bechstein Hall , 10o — ‘ Capriccio 
 departure brother , ’ Bach 

 Mr. Egon Petri , Zolian Hall , 11 — * ‘ Waldstein Sonata , ’ 
 Beethoven 

 Madame Gabrielle Leschetizky , Bechstein Hall , 11 — 
 Humoreske , Schumann 

 atheme D , Brahms 

 Miss Evelyn Dawkin , AZolian Hall , 
 major , Op . 101 , Beethoven 

 Mr. Nathan Fryer , Zolian Ilall , 14 — Sonata , Op . 42 , | 
 Schubert 




 VIOLIN RECITALSMaster Joseph Kosky , Bechstein Hall , April 25 — ‘ Symphonie 
 Espagnole , ’ Za / o 

 Mr. Dettmar Dressel , Bechstein Hall , April 27 — Sonata 
 F major , Beethoven 

 Mr. Frederick Stock , Steinway Hall , April 29 — Chaconne , 
 Bach 




 RKECITALS CONCERTSM . Georges Pitsch ( violoncello ) , Bechstein Hall , 2 — 
 Sonata D , Bach 

 Miss Isobel Purdon ( violin ) Miss Celia Klein ( vocalist ) , 
 olian Hall , 4 — Sonata minor , Beethoven ; 
 ‘ laid earth , ’ rce 

 Mr. Arrigo Provvedi ( violoncello ) , Steinway Hall , 8 — 
 Introduction Polonaise Brillante , Chopin 




 CORRESPONDENTS 


 BOURNEMOUTHIn connection future , 
 place point emphasise fact 13 
 vital reorganization Borough musical arrangements 
 came force . ‘ double - handed ’ instrumentalists 
 away , henceforward Municipal 
 Orchestra Municipal Military Band 
 totally distinct bodies . financial considerations attaching 
 change complex , great credit 
 Mr. Dan Godfrey enabled launch 
 scheme hopes prove profitable 
 basis ; superfluous , course , speak 
 vastly increased artistic efficiency arise 
 new policy 

 Adverting concluding weeks winter series 
 Symphony 
 Concerts . request subscribers 
 excellent concerts Beethoven programme forward 
 thirtieth Symphony Concert April 25 , 
 interesting selection works comprising ‘ Egmont 
 Overture , C minor Symphony , Kondino E fiat 
 wood - wind horns ( charming little - known 
 composition appreciated Bournemouth ) , 
 G major Pianoforte concerto . large audience 
 rewarded fine orchestral playing , 2 
 delightfully expressive performance Concerto 
 hands Mrs. Farnell - Watson , talented artist 1s 
 associated Mr. Hamilton Law direction 
 Bournemouth School Music . Interest remaining 
 concerts concentrated Glazounow Symphony 
 . 7 , F , Wagner ‘ Siegfried Idyll , ’ Beethoven Ninth 
 Symphony ( choral section omitted ) , 
 formances Godard ‘ Concerto Romantique ’ violin 
 movements Reinecke Harp concerto Miss 
 Leila Doubleday Miss Jacoba Wolters ( Municipal 
 Orchestra ) respectively . - named artist hardly 

 _ 




 XUM 


 399BRISTOL 

 Bristol Choral Society April 20 gave miscel- 
 laneous concert Colston Hall large attendance . 
 Band choir numbered 500 , Mr. George Riseley 
 directing performance skill . choir 
 heard fine interpretation Stanford ‘ Revenge ’ 
 Elgar ‘ Bavarian Highlands . ’ Miss Lucy Nuttall 
 solo vocalist , afforded gratification charm 
 gave songs . Herr Bachus , pianist , 
 displayed great ability compositions Brahms , | 
 Chopin Liszt . band , Mr. Harold Bernard | 
 leader , executed ‘ Jena ’ Symphony C major , 
 Professor Stein believes early effort Beethoven . 
 melodious production , won applause 

 April 24 Bristol New Philharmonic Society held 
 concert Victoria Rooms gave satisfaction 
 excellent performances Haydn ‘ Spring ’ ( ‘ 
 Seasons ’ ) , Debussy ‘ Blessed Damozel , ’ Stanford 
 ‘ Songs Fleet . ’ principal vocalists Miss 
 Dorothy Silk , Miss Shepherd , Mr. David Appleyard , 
 Mr. Percy Heming . Mr. Harold Bernard leader 
 orchestra , Mr. Arnold Barter efficient | 
 conductor 

 Ambroise Thomas ) , brought dramatic capabilities 
 choir , good tone balance 
 heard pieces Sullivan , Miiller , Brahms , Reichardt , 
 Maunder Dudley Buck . event specially 
 important appearance Mr. William Henley , violinist , 
 remarkable virtuosity displayed somewhat small 
 pieces Tchaikovsky , Bazzini , Strelezki Vieuxtemps . 
 12 , choir United Methodist Free Church , 
 Ebrington Street , augmented voices , sang 
 choruses Handel , Mendelssohn Sullivan , Mr. W. 
 Quiller conducting , Mr. L. Liscombe playing organ 

 fault found final symphony concert 
 given Mr. R. G. Evans April 24 , liberality ot 
 programme . number second Symphony 
 Beethoven interpreted true musicianly feeling . 
 , songs Vaccaj Nevin , sung intense 
 power beauty Miss Eileen Buck , came lengthy 
 emotionally exhausting Concerto B flat minor 
 Tchaikovsky pianoforteand orchestra . Miss Florence Smith 
 interpreted solo wonderful resource , contributing 
 eloquent sincere manner fine performance 
 desired . ‘ Tannhiuser ’ Overture played . 
 band Duke Cambridge Middlesex 
 Regiment gave popular concert 1 , conducted 
 Bandmaster W. . Hawkins . According custom , Mr. 
 J. W. Newton compiled programme final symphony 
 concert Stonehouse 9 plebiscite . result 
 showed symphonies played 
 season—-Mozart ‘ Jupiter , ’ Dvordék ‘ New 
 World , ’ Schumann . 1 , Rubinstein ‘ Ocean ’ 
 — - named popular . ‘ King 
 Stephen ’ ( Beethoven ) , ‘ De Phédre ’ ( Massenet ) , ‘ Der 
 Freyschiitz ’ Overtures beaten ballot Wagner 
 ‘ Rienzi ’ ; suites characteristic pieces 
 Boellmann ‘ Variations Symphoniques ’ violoncello 
 orchestra received votes . 
 repeated effect , Mr. C. G. Pike soloist . 
 Miss Georgie Andrews sang songs 

 violin recital given Miss Grace Thynne 
 April 25 , important item ‘ Symphonie 
 Espagnole ’ Lalo . day , Mr. Reginald Waddy 
 closed series organ recitals Emmanuel Church 
 programme compiled plebiscite , choir singing pieces 
 Bullock , Stainer Handel 




 DEVONSHIRE TOWNS . 


 DEVON CORNWALL 


 TOWNSDr . D. J. Wood Orchestral Society Exeter gave 
 enterprising 

 spring concert April 22 , 
 undertake Beethoven Symphony ( . 4 

 Shamus O’Brien , ’ Scherzo 

 Mr. C. E. Bell leading 

 vocalist . Beethoven Overture , ‘ Leonore , ’ . 3 , 
 played Teignmouth Orchestral Society April 25 , 
 led Mr. S. Harris conducted Mr. A. J. James 

 numbers Haydn ‘ Oxford ’ Symphony Cc 




 CORNWALL 


 GLASGOW 


 LIVERPOOL 


 DISTRICT 


 XUM 


 401 


 MANCHESTER DISTRICT 


 NEWCASTLE - - TYNE DISTRICTSHEFFIELD 

 senior junior branches Sheffield 
 Philharmonic Orchestra gave successful concerts 
 Albert Hall . given April 19 brought 
 hearing Sheffield newly - found ‘ Jena ’ Symphony , 
 ascribed Beethoven . work played notable 
 finish , members heard advantage 
 German ‘ Gipsy ’ Suite Weber ‘ Euryanthe ’ Overture . 
 junior section played correctly carefully- 
 observed expression composer ‘ Nell Gwyn 
 Dances , tackled difficulties ‘ Hamlet ’ tone- 
 poem surprising ability . soloists Miss Sarah 
 Birch , Madame Isabelle Foister , Mr. W. A. Hamer . 
 Mr. J. H. Parkes conducted concerts 

 Chesterfield Orchestral Society - equipped 
 body , capable performing advanced music . 




 402on April 17 , Svendsen ‘ Carnival ’ Overture | Society unqualified success . programme , 
 lack | included Coleridge - Taylor ‘ Hiawatha Wedding - feast 

 grip consistency treatment Beethoven | ‘ death Minnehaha , ’ ambitious , 

 C minor Symphony , orchestra played , technically , 
 strings produce refined tone , 




 BRIEFLY SUMMARIZEDopened 1912 season giving orchestral choral 

 concert April 20 . programme included Beethoven 
 Pianoforte concerto . 4 , G , played Mrs. Alexander 
 Buchanan ( Miss Gertrude King ) , orchestra , 
 Mendelssohn ‘ Hebrides ’ Overture , Parry ‘ Blest Pair 
 | Sirens , ’ Gibbons ‘ Silver Swan , ’ Elgar ‘ love 
 dwelt Northern land , ’ German ‘ Welsh Rhapsody 

 Miss Maly von Trutzscheler contributed songs Schumann 
 Grieg , Massenet , Campra , grand aria Verdi ’ 
 ‘ La Traviata . ” Mr. Frank Proudman , musical director 
 Corporation Borough Organist , conducted 




 HERTFORI 


 KIBWORT 


 LEAMING 


 LEICESTE 


 MAIDST¢ 


 MALVER 


 NEATH . 


 OKEHA 


 403 


 S.A. , 


 UM 


 BERLIN 


 404 


 BRESLAU 


 BRUSSELS 


 CHICAGO ( U.S.A 


 CHRISTIANIA 


 DORTMUND 


 DRESDEN 


 RANKFORT . 


 HAMBURG 


 LEIPSIC 


 MAGDEBURG . 


 EE 


 MANNHEIM 


 MARSEILLES 


 MILAN 


 MOSCOW . 


 MUNICH 


 NICE 


 PARIS 


 405 


 PRAGUE 


 ROUEN . 


 ST . PETERSBURG . 


 , SCHWERIN . 


 STRASSBURG . 


 STUTTGART . 


 VIENNA 


 XUM 


 MONTH . 


 LLEN , G. P 


 N OODIE , J. 


 CHOC 


 ELBY 


 MITI 


 ULLI 


 HOR 


 TOM 


 TIL ! 


 RG 


 RA 


 R. B. , 9 


 412 


 S , XC 


 , 


 407 


 MITH , H. ARNOLD . — 


 YE , 


 \ TESLEY , S. S 


 MANCHESTER CATHEDRAL 


 


 RAND AZSOLIAN ORCHEST RELLE ORGAN . 


 R. B 


 NEW EDITION ( 1912 


 HANDBOOK EXAMINATIONS 


 MUSIC 


 ERNEST A. DICKS 


 PREFACE NINTH EDITION 


 MUSICAL TIMES 


 SCALE TERMS ADVERTISEMENTS 


 SPECIAL NOTICE 


 FRIDAY , JUNE 


 408 


 SERENADE 


 SMALL ORCHESTRA 


 PERCY PITT 


 CONTENTS 


 


 DAILY TELEGRAPH . 


 STANDARD . 


 DAILY GRAPHIC , 


 DAILY MAIL . 


 DAILY NEWS 


 SUBBAY TIMES . 


 BED - TIME 


 LITTLE SONGS GOOD CHILDREN 


 ELPHINSTONE THORPE 


 J. M. CAPEL 


 


 SHAKESPERIAN - SONGS 


 COMPOSED 


 1 . KNOW BANK . 


 ICICLES HANG 


 TELL 


 WALL . 


 1S FANCY BRED ‘ 


 ‘ DER GREENWOOD TREE 


 


 COUNTRY DANCE TUNES 


 COLLECTED ARRANGED PIANOFORTE 


 CECIL J. SHARP 


 COUNTRY . DANCE BOOK 


 CECIL J. SHARP 


 SOLEMN MELODY 


 COMPOSED 


 H. WALFORD DAVIES 


 ORCHESTRA 


 


 STRINGS ANI ) ORGAN , 


 VIOLONCELLO 


 - STUDIES 


 USE 


 SCHOOLS LADIES ’ CHOIRS , 


 


 HUGH BLAIR , 


 PREFACE DIRECTIONS PRACTICE 


 


 JAMES BATES 


 ES ANTHEMS CANTIONES SACRA 


 MUSICAL SETTINGS 


 TRINITYTIDE . ROMAN LITURGY 


 EDITED 


 COMPLETE LIST 


 | H E 4 


 46 . RECORDARE 


 KUM 


 CHANT COMMUNION SERVICE 


 SUITABLE HYMNS 


 ARRANGED 


 LIST HYMNS TUNES 


 PRICE FOURPENCE 


 NOI ISSUED NET BOOK 


 NEW CATHEDRAL PSALTER 


 PSALMS DAVID 


 CANTICLES PROPER PSALMS 


 EDITED POINTED CHANTING 


 PSALTER CHANTS COMBINED 


 LONDON : NOVELLO COMPANY , LIMITED 


 HY 


 USE 


 ART 


 A. M 


 NATIONA 


 G. C. 


 , 1912 . 41I 


 NOVELLO 


 HYMNS TUNES 


 UM 


 


 . ADAMS 


 H. . GAUNTLETT 


 A. SULLIVAN 


 TUNES 


 USE SCHOOLS CHILDREN FESTIVALS . 


 MUSIC COMPOSED ‘ 


 ARTHUR SULLIVAN , 


 MUSIC COMPOSED 


 J. STAINER , 


 A. SULLIVAN 


 NATIONAL HYMNS TUNES CHILDREN USE . 


 MUSIC COMPOSED 


 COMPOSITIONS 


 ORGAN . 


 PIANOFORTE . 


 ANTHEMS . 


 POPULAR CHURCH MUSIC 


 J. H. MAUNDER 


 SERVICES . 


 RGAN . 


 CHURCH CANTATA , 


 1/6 1S 


 ISSUED NET BOOK 


 ADDITIONAL HYMNS [ 32 


 USE 


 CHURCH HYMNAL . 


 THI 


 LONDON : NOVELLO COMPANY , LIMITED . 


 SHORT PRELUDES | NOVELLO 


 ORGAN _ | ; 


 HARVEST FESTIVAL MUSIC 


 CANTATAS . 


 SONG THANKSGIVING HARVEST CANTATA 


 SOPRANO , TENOR , BASS ( CONTRALTO ) SOLI SOPRANO ( TENOR ) CONTRALTO ( 


 CHORUS BARITONE ) SOLI CHORUS 


 SHAPCOTT WENSLEY JULIUS HARRISON 


 SOPRANO TENOR SOLI CHORUS 


 TENOR BASS SOLI CHORUS JOHN E. WEST . 


 WORDS HYMNS SELECTED WRITTEN . ; 


 THOMAS ADAMS , CHORUS ORCHESTRA 


 : FREDERIC H. COWEN . 


 TENOR BASS SOLI , CHORUS , ORGAN TH : GI E ANE R HARVEST 


 TENOR BASS SOLI , CHORUS , ORGAN TH E JU BI LEE CANTATA 


 SMALL ORCHESTRA SOLO VOICES , CHORUS , ORCHESTRA 


 HUGH BLAIR . C. M. VON WEBER . 


 HARVEST CANTATA HARVEST SONG 


 CHORUS , SEMI - CHORUS , ORGAN SOPRANO SOLO CHORUS 


 


 GEORGE GARRETT . C. LEE WILLIAMS . 


 HYMNS HARVEST SOWER WENT FORTH SOWING 


 HARVEST CAROL J. MAUDE CRAMENT . 


 JOY HARVEST SEA 


 HARVEST HYMN PRAISE COME , YE THANKFUL PEOPLE , COME 


 MUSICAL 


 WANDERING JEW . 


 CANTATA 


 PAUL ENGLAND . 


 FRIEDRICH HEGAR 


 


 AD SEX VOCES INEQUALES . 


 AUCTORE 


 CHRISTOFERO 


 RICARDUS R. TERRY 


 TYE 


 MISSA REGIA 


 


 FRANCIS BURGESS 


 ORGAN 


 MUSIC 


 C. LEE WILLIAMS 


 THREEPENCE 


 MUSIC 


 


 MIDSUMMER NIGHT DREAM 


 ‘ SCHOOLS COI 


 


 R. DUNSTAN 


 


 COLLEGES 


 USE 


 CHORISTER AID 


 MONOTONING 


 C. S. FOSBERY , M.A 


 20,000 


 \WEBSTER CHILD PRIMER 


 THEORY MUSIC 


 NEW REVISED EDITION 


 ENTS MUSIC 


 ELEN 


 NET BOOK 


 TECHNIQUE 


 


 EXPRESSION 


 PIANOFORTE PLAYING 


 FRANKLIN TAYLOR 


 EXTRACT PREFACE 


 NUMEROUS MUSICAL EXAMPLES 


 WORKS GREAT MASTERS 


 TTEE 


 415 


 NOVELLO ’ OCTAVO EDITION - SONGS 


 SELECTED LISTS RECENTLY 


 PUBLISHED - SONGS 


 MIXED VOICES 


 S.A.T.B 


 FEMALE VOICES 


 1912 


 SCITA AL 


 ORIGINAL 


 ORGAN 


 EDITED 


 EDWIN H. LEMARE 


 SERIES 


 COMPOSITIONS ORGAN 


 


 EDWIN H. LEMARE 


 SHORT POSTLUDES 


 


 ORGAN 


 1 % GRAND CH(CEUR 


 2 . ALLA MARCIA 


 3 . SIEGESLIED 


 4 POSTLUDE 


 5 . CONCLUDING VOLUNTARY 


 6 . POSTLUDE 


 ORGAN 


 TRANS SCRIPT IONS 


 A. HERBERT 


 FUNERAL 


 CHANSON DE NUIT 


 + . CHANSON DE MATIN 


 SOUTH 


 EDW ( RD ELGAR 2 


 CANTIQUE D'AMOUR THEO . WENDT 1 


 WAGNER 1 


 . AUF WIEDE RSEHEN H. BREWER 1 


 WAGNER 1 


 COMPOSITIONS 


 BREWER . 


 EDWARD ELGAR 2 


 EDWARD ELGAR 2 


 EDWARD ELGAR 2 


 EDWARD ELGAR 2 


 LLOYD 2 


 20 


 1 6 


 SEB 9 


 12 


 10 . 


 POPULAR MARCHES 


 


 ORGAN 


 VOLUME 2 . 


 SHORT PIECES 


 ORGAN 


 COMPOSED 


 JOHN E. WEST 


 ALI 


 TRC 


 FIR 


 XUM 


 1912 . 417 


 NOVELLO 


 COMPOSITIONS ORGAN 


 SIGFRID KARG - ELERT 


 CHACONNE FUGUE TRILOGY , 


 ORIGINAL COMPOSITIONS 


 


 ORGAN 


 COMPOSED 


 ALFRED HOLLINS 


 ORIGINAL COMPOSITIONS 


 


 ORGAN 


 COMPOSED 


 W. WOLSTENHOLME 


 SEVEN PIECES 


 ORGAN 


 COMPOSED 


 THEODORE DUBOIS 


 1 . PRELUDE | 4 INTERLUDE 


 CANTILENE RELIGIEUSE | 5 . PRIERE 


 3 . MARCIETTA | 6 . POSTLUDE CANTIQUE 


 7 . MARCHE - SORTIE 


 SE VEN PIE CES 


 ORGAN 


 ALEEARONS GUILMANT 


 CONTENTS : 


 | 4 . MINUETTO 


 WEDDING MARCH 5 . MARCHE TRIOMPHALE 


 ; BERCEUSE 6 . POSTLUDE 


 > , FANTAISIE SUR DEUX MELODIES ANGLAISES 


 OFFERTOIRE 


 CORONATION MARCH 


 ORCHESTRA . 


 COMPOSED 


 EDWARD ELGAR 


 CORONATION MARCH 


 


 HYMN 


 ORCHESTRA 


 COMPOSED 


 EDWARD GERMAN 


 LA SAVANNAH 


 AIR DE BALLET 


 ORCHESTRA . 


 COMPOSED 


 A. C. MACKENZIE . 


 ORCHESTRA . 


 COMPOSED 


 EDWARD ELGAR 


 ARRANGEMENT PIANOFORTE SOLO 


 


 SIGFRID KARG - ELERT 


 CHARACTERISTIC PIECES 


 VIOLIN PIANOFORTE 


 COMPOSED 


 C. H. LLOYD 


 ROMANCE 


 BASSOON ORCHESTRA . 


 COMPOSED 


 EDWARD ELGAR 


 SCORE 


 BAGATELLES 


 I. VALSETTE . 


 


 STRING ORCHESTRA , 


 COMPOSED 


 PERCY E. FLETCHER 


 NORWEGIAN MELODIES 


 ARRANGED 


 VIOLIN PIANOFORTE 


 


 VICAR BRAY 


 VARIATIONS 


 STRING ORCHESTRA 


 COMPOSED 


 ERNEST AUSTIN 


 KUM 


 419 


 NOVELLO 


 NEW SONGS 


 PRICE SHILLINGS NET 


 PILGRIMS . 


 GONG 


 SONGSTERS ’ 


 N SUMMER DAY . 


 HEART . 


 CHILDREN SLEEP . 


 SOUL 


 SONGS CHILDHOOD 


 COMPOSED 


 E. HAROLD DAVIES 


 HOLIDAY SONGS 


 MRS . ALEXANDER 


 LADY ARTHUR HILL 


 TWILIGHT SONGS 


 LITTLE CHILDREN . 


 FRED . E. WEATHERLY 


 LADY ARTHUR HILL . 


 MELODIOUS TECHNIQUE 


 PIANOFORTE 


 COMPOSED 


 J. A. O'NEILL 


 PROGRESSIVE STUDIES 


 PIANOFORTE 


 EDITED , ARRANGED GROUPS , FINGERING REVISED SUPPLEMENTED 


 FRANKLIN TAYLOR 


 - BOOKS , PRICE SHILLING 


 


 SELECTED PIANOFORTE STUDIES 


 FRANKLIN TAYLOR . 


 SETS ( BOOKS ) , PRICE SHILLING SIXPENCE BOOK 


 ED 


 KUM 


 


 SECTION A.—TECHNICAL PRACTICE . BOOKS 


 SECTION B.—STUDIES . BOOKS 


 CLOTH BINDINGS 


 PIECES 


 BFR RB BR 


 422 


 , 1912 


 14 


 16 


 NOVELLO 


 ALBUMS PIANOFORTE 


 STRINGED INSTRUMENTS 


 VIOLINS , VIOLA , VIOLONCELLO 


 17 


 18 . 


 22 


 LONDON 


 TH 


 BEETHOV 


 GARDINEK 


 SPEAIGHT 


 SPEAIGHT 


 423 


 MILITARY BAND 


 GEORGE MILLER , 


 HINTS 


 


 ELEMENTARY TEACHING 


 


 PIANOFORTE 


 CHIEFLY BOYS 


 EDWARD D. RENDALLINSTRUMENTAL . Net s. 
 Pianoforte , Violin , Viola 6 
 Violin Organ . = xtra V iolin 

 Bax , ARNOLD — Trio . 
 BeeTHOVEN.—Cavatina . 
 Parts , € d. ) ° 2 
 Bett , W. H.—Arabesque . Violin Pianoforte . 
 Arcadian Suite . Score . ee ee oo 
 Corver , F.—Elegy Orchestra , _ F ull Score > « 8 
 Conver , PauL — “ ‘ Dross . ” . Music - Drama words . . 3 
 Dixon , H. C.—Andante Religioso Violoncello Pianoforte 
 GARDINER , H. BaLrour — Quartet movement 

 Score - _ net 2 o| Parts ae 3 
 Hartey , Ly ovpb — Pieces . Violin Pianoforte .. o 9 
 Hurtstone , W. Y.—Variations Orchestra . Score .. 10 




 PIANOFORTE . 


 NNH NN HD HN NNNKNKRNNKHNKHD HUD HD HW D 


 SOMPAOMCIOAMROAMRADIOCOMAICCABRA 


 NEW FOREIGN 


 PIANOFORTE MUSIC 


 NEYMARCK , J. 


 CHAMBER MUSIC 


 SCHU RT 


 ORGAN HARMONIUM 


 BOSSI , M. E. 


 ; 


 FAHRMANN , H 


 VOCAL MUSIC 


 PUBLICATIONS 


 NET . 


 NNANKWN 


 4 0 


 3 0 


 5 0 


 20 


 20 


 5 0 ° 


 2 6 


 2 6 


 5 0 


 60 


 2 6 


 20 


 4 0 


 20 


 5 6 


 20 


 1 6 


 20 


 3 0 


 10 


 2 6 


 20 


 1 6 


 7 6 


 7 0 ° 


 2 6 


 2 6 


 LIZA LEHMANN — 


 GUY DHARDELOT — 


 FLORENCE AYLWARD — 


 TERESA DEL RIEGO — 


 DOROTHY FORSTER — 


 EMMELINE BROOK — 


 KATIE MOSS 


 NEW 


 LIZA LEHMANN 


 DOROTHY FORSTER 


 CHAPPELL & 


 LATEST SONG BALLAD 


 F. PAOLO TOSTI — 


 HUBERT BATH — 


 KENNEDY RUSSELL 


 BOTHWELL THOMSON — 


 ERIC COATES — 


 NOEL JOHNSON — 


 HAYDN WOOD — 


 TURLAY ROYCE — 


 GRAHAM PEEL — 


 FRANK LAMBERT 


 HERMANN LOHR 


 MONTAGUE F. PHILLIPS 


 CUS 


 SUCCESSES 


 EDWARD GERMAN — 


 HERMANN LOHR — 


 W. H. SQUIRE — 


 ROBERT CONINGSBY 


 CLARKE — 


 PERCY E. FLETCHER — 


 PAUL A. RUBENS — 


 ERNEST HALSEY — 


 MONTAGUE F. PHILLIPS — 


 POPULAR VOCAL ALBUMS 


 R. CONINGSBY CLARKE — 


 GRAHAM PEEL — 


 


 CONTR : 


 STRONG V 


 SYLL/ 


 EXAMI 


 EXAMI 


 


 HALF