


 ED 


 MUSICAL TIMES 


 FOUNDED 1844 


 PUBLISHED MONTH . 


 ROYAL CHORAL SOCIETY , QUEEN HALL 


 ROYAL ALBERT HALL 


 THURSDAY EVENING , 


 MENDELSSOHN 


 BLIJAN ’ 


 MADAME EMILY SQUIRE 


 MADAME KIRKBY LUNN 


 MR . LLOYD CHANDOS | 


 MR . DALTON BAKER 


 CHORUS 


 BAND THOUSAND . 


 ROYAL ACADEMY MUSIC , 


 TENTERDEN STREET , W 


 KING . 


 K.G. 


 R.A.M 


 ROYAL COLLEGE MUSIC , 


 CONSORT ROAD , SOUTH KENSINGTON , S.W 


 


 PRINCE 


 FRANK POWNALL 


 SYMPHONY 


 QUEEN HALL 


 CONCERTS 


 ORCHESTRA 


 JAN . 20 ; FEB . 3 ; FEB . 17 ; MAR . 3 B flat , Wind Instruments Mozart 
 Brandenburg Concerto . 6 , B flat , fos las , " Cellos 
 ind Basses Bach 

 perfo ‘ mance England . ) 
 Variz atic ns Original Theme Orchestra ( Op . 36 ) .. Elgar 
 Adagio Ballet Music ( ‘ ‘ Prometheus ” ’ ) ; Beethoven 
 Solo Violoncello — Mr. JacguEs RENARD . 
 Symphonia Domestica Richard Strauss 
 * ” onduc ted c omp . yser . ) 
 . RicHarp Strauss Mr. Henry J. Woot 

 uenteias ER 18 , 

 SATURDAY , 3 o'clock 

 Overture , ‘ * Le Nozze di Fig aro ” Mozart 
 Violin ¢ ‘ oncerto mz ujor Mozart 
 Overture , ‘ * Don Giovanni ‘ Mozart 
 Violin Concerto . 22 , minor , Viotti 
 Symphony “ 3 , EF . flat ( ‘ * Eroica ” ) Beethoven 
 Solo Violin — Herr Fritz KRrEISLER . 
 SATURDAY , DECE MBER 2 , 3 o'clock . 
 Adagio Fugue C minor , Strings Mozart 
 Symphony . 5 , E minor ( “ New World ” ) Dvorak 
 Concerto major , Pianoforte Orchestra . Liszt 
 Overture , ‘ * Euryanthe ” Weber 

 Solo Pianoforte Signor FERRUCCIO SONI , 
 SUBSCRIPTIONS : 
 Concerts £ 2 tos . £ 1 15s . 
 Fovr Christm : , £ 1 5s . 17s . 6d . 
 C hristmas , £ 5s . 17s . 6d . 
 Reserv ed , 7s . 6d . , 5S. 7U nreserved , 2s . 6d . 3 1s . 
 Tickets Usual Agents ; Chappell & Co. Box Office , Queen Hall 
 QuEEN Hatt OrcHEsTRA , Ltd. , 320 , Regent Street , W. 
 ROBE RT NEWMAN , M : anager 




 QUEEN HALL 


 LONDON 


 CHORAL 


 


 SEASON 


 SOCIETY 


 ARTHUR FAGGE 


 1905 - 6 


 CONDUCTOR 


 DECEMBER 11 , 8 


 “ SAMSON DELILAH 


 FESTIVAL SELECTION . 


 MARCH 19 , 8 


 SAINT - SAENS 


 ROYAL COLLEGE 


 ORGANISTS 


 R.C.O 


 698 MUSICAL 


 1905 


 GUILDHALL SCHOOL MUSIC . 


 ROYAL ACADEMY MUSIC 


 METROPOLITAN EXAMINATION , SEPTEMBER , 1905 . 


 SINGING . 


 PIANOFORTE PLAYING 


 ORGAN PLAYING . 


 ORCHESTRAL INSTRUMENTS . 


 VIOLIN PLAYING 


 VIOLONCELLO PLAYING 


 HENRY WILLIS & SONS 


 ORGAN - BUILDERS 


 SPECIMEN QUESTIONS 


 


 HANDBOOK 


 EXAMINATIONS MUSIC 


 ERNEST 


 DICKS 


 HUGO GORLITZ , 


 119 , NEW BOND STREET , LONDON , W. 


 KUBELIK SEASON , 1905 . 


 KUBELIK TOUR , 


 BOHEMIAN STRING QUARTET , 


 GREAT SUCCESS JOHN HARRISON , 


 GREAT ENGLISH TENOR 


 SPECIALTY 


 MADAME AMY SHERWIN 


 IMPORTANT ANNOUNCEMENT 


 MISS MURIEL GOUGH 


 MISS MARGARET BELLI , 


 MISS HOPE WARWICK , 


 MISS ANNE MALVERN 


 


 MISS JOAN ASHLEY 


 MR . JOHN HARRISON 


 ASSOCIATED BOARD 


 


 ROYAL ACADEMY MUSIC ROYAL COLLEGE 


 MUSIC LOCAL EXAMINATIONS MUSIC . 


 . MIDLAND INSTITU TE 


 MUSIC 


 B IRMING HAM 


 SCHOOL _ 


 SESSION 1905 - 06 


 UNIVE RSITY DURHAM 


 0C 


 


 1905 . 699 


 ROYAL 


 MANCHESTER COLLEGE MUSIC . 


 INCORPORATED GUILD CHURCH 


 MUSICIANS 


 ASSOCIATE ( A.1.G.C.M. ) , 


 LOWSHIP ( F.1.G.C.M. ) EXAMINATIONS , 


 F.1.G.C 


 LONDON . 


 INCORPORATED 1891 


 42 , BERNERS STREET , OXFORD STREET , LONDON , W 


 BOARD EXAMINATION . 


 PROFESSOR ELWIN 


 EDUCATIONAL DEPARTMENT 


 GEO . A. STANTON 


 F.1.G.C.M 


 NATIONAL COLLEGE MUSIC . 


 CHURCH ORGANISTS ’ SOCIETY 


 NATIONAL CONSERVATOIRE 


 LOCAL MUSICAL EXAMINATIONS 


 _ DIPLOMAS , ASSOCIATE , 


 EDUCATIONAL DEPARTMENT 


 LICENTIATE ( L.1.G.C.M. ) , FEL 


 PROFESSIONAL NOTICES 


 HANGE ADDRESS . 


 MISS LILLIAN DEWS 


 NOTE 


 MR . MRS . WALLIS A. WALLIS , I.S.M 


 | SEVCIK NEW VIOLIN METHOD . 


 HERR HEINRICH DITTMAR 


 NEW SEVC{[K VIOLIN METHOD . 


 MR . SIVEY LEVEY 


 RECITATIONS PIANO . 


 700 MUSICAL 


 1905 


 R. SAMUEL MASTERS 


 MISS FLORENCE BOWNESS 


 SOPRANO VOCALIST ) . 


 MADAME LOUISE BURNS 


 _ _ ( SOPRANO ) . 


 MISS MARIE HOPLEY 


 ( L.R.A.M. , I.S.M. ) , 


 ( SOPRANO ) . 


 10 , NORTH STREET , GOOLE 


 MISS 


 BEATRICE PALLISTER 


 SOPRANO 


 MISS AMY SARGENT 


 A.R.A.M. ( SOPRANO ) . 


 MISS ELLEN CHILDS 


 MADAME LESLIE DALE 


 CONTRALTO ) . 


 CONTRALTO 


 MR . GEORGE STUBBS 


 MR . HENRY BEAUMONT 


 ( GREAT ENGLISH TENOR ) . 


 MR . VIVIAN BENNETTS 


 MR . TOM CHILD 


 ( YORKSHIRE TENOR ) . 


 MR . ALFRED KENNINGHAM 


 MR . ERNEST PIKE 


 TENOR ) 


 MR 


 BREARLEY REDFEARNE 


 TENOR ) . 


 MR . GWILYM RICHARDS 


 ( TENOR ) . 


 MR . MURRAY RUMSEY 


 MR . WILLIAM A. SHEEN 


 MR 


 ALEXANDER WEBSTER 


 MR . DUDLEY MASTERS 


 BARI ’ TONE ) . 


 MR . DAN RICHARDS 


 A.R.A.M. BARITONE ) . 


 FI 


 MUSICAL 


 1905 . 7OL 


 MR . WILLIAM WILD 


 TENOR ) . 


 MR . HENRY SUNMAN 


 MR . ALFRED HAIGH 


 BARITONE 


 MR . GRAHAM SMART 


 TEWKESBURY FESTIVAL . — 


 SEPTEMBER 21 , 1905 . 


 BLIJAH 


 MR . ARTHUR WALENN 


 ( BARITONE ) . 


 DR . WALFORD DAVIES ‘ “ EVERYMAN 


 MR . FREDERICK POOLE 


 MUSICAL SKETCHES PIANO . 


 CONJU RING , VENT RILOQU ISM , HUMOROUS STORIES . 


 MR . DUTTON SOLO BOYS 


 MR . W. H. GRIFFITHS , 


 PROFESSOR LECTURER VOCAL SCIENCE 


 MR . HERBERT TRACEY   |L8 


 BASS ) . | 


 MB : HERBERT F. ELLINGFORD , F.R.C.O. , 


 : R.C.O. , 


 DR.E AGL EFI FIELD HULL , 9 , YORK PLACE , HUDDERSFIE LD . 


 PR C :O ) , 


 - SUCCESSES 


 1897 - 1905 


 A.R.C.M. , 1897 - 1905 , - 


 T. GEORGE CHAPEL , WINDSOR CASTLE . 


 XPERIENCED VISITING COACH , 


 NT 


 EW 


 $ 1,500 


 NGE . 


 NO- 


 . SE 


 VALUABLE VIOLINS 


 M ESSRS . PUTTICK & SIMPSON 


 WEDNESDAY , NOVEMBER 22 


 ANTONIUS STRADIVARIUS 


 NOVEMBER 6 


 47 , LEICESTER SQUARE 


 MONDAY 


 704 MUSICAL TIMES . OVEMBER , 1905 . 


 LOCAL EXAMINATIONS MUSIC . 


 HIGHER EXAMINATIONS MUSIC 


 SOUTH LONDON MUSICAL 


 CLUB 


 PRIZE COMPETITION 


 “ PUBLISHED 


 PRODUCED NORWICH MUSICAL FESTIVAL 


 PIED PIPE R HAMELIN 


 SET TENOR BASS SOLI 


 CHORUS 


 ORCHESTRA 


 


 SHILLINGS . 


 PRICE 


 BROADWOOD ‘ SURRENDER VALUE SYSTEM ” 


 _ _ _ CONDUIT STREE ’ T , BOND § ST REET , L ONDON 


 RECITATION - MUSIC SERIES 


 APPROPRIATE PIANOFORTE ACCOMPANIMENTS 


 10 . LOVER SAID 


 11 . LEGEND BEAUTIFUL 


 12 . THIN RED LINE 


 15 . FAIR HELEN 


 17 . BIRTH OPAL 


 18 . DEATH POTION 


 21 . DEAD SHIP 


 BOSWORTH & CO 


 5 , PRINCES STREET , OXFORD STREET , LONDON , W. 


 DAILY TECHNICAL STUDIES PIANOFORTE TUTOR 


 NOVELLO SCHOOL SONGS 


 CHILDREN SONGS 


 ( NURSERY RHYMES 


 706 


 MISERERE 


 


 CHOIR 


 D 


 


 V4 


 M. S 


 N. 1576 . B 


 SPECIMEN ARCADE 


 DEAD RISING THEIK TOMBS PUSHING 


 COFFINS 


 SCULPTURES . 


 OPEN 


 LIDS 


 REGISTER PRIOR MOORE , ¢. 1518 : 


 ORIGINAL FOOT SQUARE . LEFT HAND 


 JUGGLER } RIGHT LUTE PLAYER } ; 


 FIGURES INTERESTING SHOWING 


 COSTUME PERIOD 


 


 , 1905 


 WORCESTER 


 SOUTH - WEST 


 CATHEDRAL . 


 RIVER BANK 


 TI 


 799 


 CHOIR , LOOKING WEST : 


 KING JOHN TOMB 


 CENTRE 


 RUINS GUESTEN HALL BENEDICTINE MONASTERY , 


 STAND CANON GARDEN SOUTH CATHEDRAL 


 49 ) . 


 A.D. 1614 . 


 ORGANIST PRECENTOR 


 SCHOOLMASTER 


 CHORISTERS WORCESTER CATHEDRAL 


 ORGAN CONSOLE . 


 


 GENERAL 


 ACCESSORIES 


 NORMAN DOORWAY LEADING CLOISTERS . , 


 CATHEDRAL 


 714 


 SIR HENRY IRVING MUSIC 


 REMINISCENCES 


 SIR ALEXANDER MACKENZIE 


 IES , 


 — 


 ASIC , 


 H. IRVING . 


 SCHUMANN MUSIC ENGLAND 


 FELIX MENDELSSOHN BARTHOLDYIn order maintain chronological order , 
 turn Crystal Palace — fostering 
 home good true music . , 
 month , /wo performances D minor 
 symphony — unknown country — 
 igiven Sir ( Mr. ) August Manns . 
 ‘ dates February 16 March 15 , 1856 , 
 programme - book concert 
 following remarks appeared 

 Symphony performed Concerts 
 weeks ago . repeated order 
 opportunity forming better judgment 
 merit gained hearing . 
 comparatively little known England , music 
 Robert Schumann great popularity 
 Germany . , fact , forward 
 section musical public Germany , 
 rival Mendelssohn , admitted 
 admirers country fully numerous 
 Mendelssohn . difference 
 composers certainly immense . Schumann 
 melody Mendelssohn , 
 certain roughness abruptness harmonies 
 transitions composition , coupled forced 
 effects , look like striving originality , 
 Mendelssohn entirely free . , 
 absurd speak Schumann music 
 fashion critics . 
 delight large number musical people , 
 carries evidences genius 
 knowledge , contemptible , 
 believe . rate , judgment 
 formed till better acquainted 
 musical public England . 
 forgotten , compositions Beethoven , 
 Mozart , , long appear- 
 ance , received rapture 
 dislike different sections musical world 

 Symphony C obtain hearing 
 ‘ ngland year 1864 , , 30 , 
 performed , Sterndale Bennett direction , 
 Philharmonic . ‘ late Luigi Arditi 
 belongs credit having introduced fine 
 E flat ( Rhenish ) Symphony — noble 
 work shelved ? — English audience 
 Promenade Concert given Majesty 
 Theatre , December 4 , 1865 . occasion 
 ‘ German night , ’ ‘ New Grand Selection 
 Wagner Romantic Opera ‘ ’ Tannhauser ” ’ 
 presented . notice concert 
 Musical ( World refers symphony _ 
 ‘ wonderfully played , received great 
 favour — scherso , spirited charac- 
 teristic movement , loudly generally 




 718 MUSICAL 


 1905 


 G. GROVE 


 ELIZABETH MOUNSEY 


 2YNHRYH HHH 


 435 


 LY 


 1905 . 719 


 GRAND ORGAN 


 SWELL ORGAN . 


 PEDAL ORGAN . 


 OLD ORGAN KEYBOARDS ST 


 PETER CHURCH , CORNHILL , MENDELSSOHN PLAYED 


 1840 1842 


 GLASS CASE , RELIC PRESERVED , FIXTURE , POSSIBLE INCLUDE 


 DRAW - STOP KNOBS 


 PHOTOGRAPH 


 HOPS SEF . CHVRKCH ¥ Y METROPOLITANE 


 SPACE 400 YEARES , VNTO COMING S 


 AVSTIN APOSTLE ENGLAND . SENT 


 BISHOPS ¥ PALL REMOVED Y FORESAID CHVRCH | 


 18 CALLED CANTERBVRIE & REMAINETH 


 DAY . MILLET MONKE CAME 


 HEB REIGNED KING LAND BRVTE 


 OP REIGNE 77 YEARES HEE BV * 


 RIED ( CHRONICLES ! LONDON ANDAFTER 


 PLACE ¥ ORDER 8 " FRANCIS STANDETH 


 THEshe recently died , lived eighty- 
 years . deafness necessitated 
 resignation St. Peter organistship 1882 , 
 increased totally oblivious 
 tosound . took keen interest | 
 going , gave greater pleasure | 
 to.relieve solitude life recalling past | 
 events . tell , tea cups , ‘ old | 
 Sam ’ Wesley occasionally house 
 extemporize little organ ; Lablache | 
 sang little sitting - room ‘ shook house ! ’ | 
 oldest Associate Philharmonic Society 

 joined 1842—-Miss Mounsey remembered 
 time Dr. Joachim , boy thirteen , 
 played Beethoven violin — _ concerto , — _ 
 Mendelssohn conductorship , Society concert 
 1844 . ‘ remember Mendelssohn bright 
 look pleasure praise , ’ recalled , ‘ 
 rehearsal , amused . conductor , 
 turned young soloist , short jacket 
 turned - collar , follow dutifully 

 ( Mendelssohn ) — subordinate ’ position 
 appearing afford amusement . 




 722THE MUSICAL TIMES.—NovemBeEr 1 , 1905 . 723 

 bur 
 ” Bow Bells closely connected London life ! Beethoven ‘ Fidelio ’ produced Vienna 
 : new phase history special | November 20 , 1805 ; subsequent event came 
 ‘ Sig | interest . " peal — hung church St. Mary- | celebrated meeting Prince Lichnowsky house , 
 | le - Bow , Cheapside — long famous . | Beethoven , discussion , induced 
 thie } 14th century ordered person | shorten modify score . celebrate 
 Bars / seen armed streets , brewer open /| centenary production work , 
 doors ‘ curfew rung Bowe ’ ; in| given Royal Opera , Berlin , November 20 , 
 1469 Common Council decreed ‘ Bow bell/ original form , title ‘ Leonore , ’ 
 2 - 3 . nightly rung clock . ’ Shortly } originally given work composer . 
 ave , John Donne ( ? Dong ) , mercer , endowed office | hope report , special correspondent , 
 ‘ 373 Bow bell - ringer . bell usually rung | interesting commemoration . 
 1 proper time , apprentices ‘ 
 ond Cheap ’ told bell - ringer tolled bell 
 Se late , rhyming complaint following couplet : - seven years elapsed production 
 Sa Clerke Bow Bell , yellow lockes , Beethoven great opera 
 sas thy late ringing thy head shall knocks . performance England . took place 
 oe iii King Theatre , Haymarket , 18 , 1832 , 
 26 , clerk chimed : representation given German opera 
 Children Cheape , hold , company — visited 
 shall Bow Bell rung . shores—-under conductorship Herr Chelard . 
 yme Later , 1720 , Strype says : ‘ number company included Herr Schumann 
 : Seger : celebrated Madame Schroeder - Devrient , 
 melody bells , Bow , fire , surpasseth nn di Har ot h 
 fas tana ? personated Leonora . e Harmonicon , 
 musical periodical day , concluded long 
 notice performance words : 
 ters melodic charm Let , , true lovers music hear Fide / zo . 
 tral Bow Bells olden times , year 1823 ] think , , defect sameness 
 _ ordinary ding - dong type . need } want relief — feel note 
 ent new chimes presented opportunity restoring a| welcome sound — , heard 
 ide tuneful tradition . ; matter placed amply recompense little trouble 
 rd , ’ skilful hands Sir Charles Stanford , found } ¢xpense gy te [ Beethoven ] 
 necessary discard /wo melodies traditionally } ‘ Ue greatness sought instrumental 
 associated Master Dick Whittington , to| Compositions ; superior , notwithstanding 
 nay evolve fresh tune modelled lines old having followed said 
 van strain . discharged duty ingeniously sorme Ta * ern ote . ge Sona 3 - a. 
 > ; oe : found ‘ worlds exhausted , ’ genius ‘ imagined 
 successfully admitted . Adopting } jew . ; 
 ‘ ds , instalment system giving tune , Sir ; 
 ” Charles assigns notes quarter : 
 thy ~ 
 Ely oe } oe p= _ correspondent Shanghai sends following 
 | eS — — — interesting information : 
 ‘ Turn - gain . ’ September 9 , 9 P.M. , large 
 half - hour : enthusiastic audience , composed principally Chinese , 
 - roe - sprinkling Britishers , musical entertainment 
 : 2 » . * - » © given Union Church Hall 
 > Dy — — — aa members World Chinese Students ’ Federation . 
 lip ‘ Turn - gain , Whittington . ’ noticeable feature performance — 
 ritten r : kind given Shanghai — , 
 aa quarter : exceptions , vocal ose rendered 
 lated : es English , good English . 
 . 3 . é — — e - t ff ~ items calling special comment praise 
 ? SE ae Se - nae undoubtedly vocal solos — English 
 aie ‘ Turn - gain , Whittington , turn a- gain . compositions , music words — 
 ing ’ ae rendered finished faultless style . 
 tie hour tune completed : blending voices balance tone quartet 
 ; , 2 ° ar — : — sung Messrs. Chiu , Zau , Khoo , Chiu — left 
 ght . 4 . 6 6 , = sf little desired , contrast 
 “ igs ST Eanes : _ - singing usually heard Chinese men , high - pitched 
 ‘ Turn - gain , Whittington , thrice Lord Mayor London , ’ falsetto . Ina chorus sung choir Chinese ladies 
 ely eee 7 _ — : : entire absence approaching usual 
 tyes acre eee eg esynd Chinese falsetto pe eam vocal 
 ‘ rant , Bow Bells wilh ne tome Hf ie Nae ai ‘ performances Miss Chee Toy , young lady 
 t ¢ Se ee fresh erest ina melody | summers , distinctly good ; low notes 
 ‘ Londoners doubtless soon ! excellent ; dramatic manner 
 r familiar . young rendered songs highly amusing , 
 , SS delighted audience immensely . 
 er oa : oer ' pianoforte solos performed Misses Yen , 
 ; ( following notification appeared local } Sze , Zau rendered , Miss Sze 
 newspaper issued Surrey : highly praised artistic manner 
 : ‘ hs : : ich s aye sthoven favourite Sonata 
 br 5 . B. , Chimney Sweep , etc . , — — , begs inform C ileal gong ap Sapir fis : 
 pict Public owing increase business Aco . lie Fe lea ae 
 ; ‘ : firm fingering distinctive feature 
 ‘ ord ’ unable accept musical engagements Public performance . 
 Concerts , ete . songs Chinese words sung 
 patriotic drill . attractive item 

 gentleman evidently wishes clean 
 sweep professional engagements 

 turn round 

 Bash Beethoven 

 Church Organ Music 




 RADIANT MORN 


 FACSIMILE 


 FAMILIAR 


 REV . H. H. 


 PRECE 


 NTOR 


 PHRASE 


 WOODWARD 


 M.A. , MUS . ‘ B. 


 WORCESTER CATHEDRAL . 


 AUTOGRAPH 


 


 COMPOSER 


 B.A. 


 ICAL 


 1882 , 


 ROCHESTER CATHEDRAL 


 ORGAN RECITALS 


 ORGANIST CHOIRMASTER APPOINTMENTS 


 726 


 SIR HUBERT PARRY 


 ‘ PIED PIPER HAMELIN 


 728 


 ANTHEM CHRISTMAS 


 TENOR . 


 SING REJOICE 


 WP 


 6 SS RY 2 HD 


 AY 


 4S. ~ MD — 08 . — ) $ $ EE ; 


 : 1 S- : YY 


 SING REJOICE 


 _ _ — 4 — 


 MUSICAL TIMES _ 


 FOUNDED YEAR 1844 


 636 


 BIOGRAPHICAL SKETCHES SPECIAL PORTRAITS APPEARED 


 JULY , 1897 , OCTOBER , 1905 


 MADAME ALBANI 


 HERR EUGEN D'ALBERT . 


 RT . HON . LORD 


 ALVERSTONE , G.C.M.G. 


 PROF . ARMES 


 DR . ARNE 


 DR . EATON FANING . | 


 MISS MURIEL FOSTER 


 MANUEL GARCIA 


 MR . EDWARD GERMAN . | 


 MR . ALFRED GIBSON . 


 SIR JOHN GOSS 


 VINCENT NOVELLO 


 PROF . HORATIO PARKER . 


 SIR WALTER PARRATT , M.V.O , 


 PROF . PROUT 


 MR . ALBERTO RANDEGGER 


 DR . HANS RICHTER 


 MR . GEORGE RISELEY . 


 M. EMILE SAURET . 


 HENRY SMART 


 FATHER SMITH 


 SIR JOHN STAINER 


 SIR CHARLES STANFORD , 


 DR . CHARLES STEGGALL 


 DR . GREENE 


 SIR GEORGE GROVE , C.B. 


 SIR JOHN HAWKINS . 


 MR . GEORGE HENSCHEL . 


 DR . HENRY HILES 


 MR . A. J. HIPKINS 


 MR . ALFRED HOLLINS 


 THOMAS ATTWOOD 


 SIR W. STERNDALE BENNETT . 


 DR . BLOW 


 DR . BOYCE 


 SIR FREDERICK BRIDGE , M.V.O. 


 DR . BRODSKY 


 DR . BURNEY , DR . E. J. HOPKINS . 


 DR . HENRY COWARD . DR . JOACHIM . DR . RICHARD STRAUSS . 


 DR . F. H. COWEN . PROF . KARL KLINDWORTH . SIR ARTHUR SULLIVAN . 


 J. B. CRAMER . DR . C. H. LLOYD . MR . T. W. TAPHOUSE . 


 MR . EDWARD LLOYD . MR . FRANKLIN TAYLOR 


 DR . CROFT 


 MISS ADA CROSSLEY . 


 DR . W. H. CUMMINGS . | 


 DR . FRANK DAMROSCH . 


 MR . BEN DAVIES . SIR AUGUST MANNS 


 MISS FANNY DAVIES . SIR GEORGE C. MARTIN , M.V.O. 


 DR . ESPOSITO . HERR ARTHUR NIKISCH 


 REV . J. TROUTBECK 


 HERR FELIX WEINGARTNER . 


 SAMUEL WESLEY 


 DR . S. S. WESLEY 


 HERR WILHELM 


 FATHER WILLIS 


 DR . 


 MR . WALTER MACFARREN . 


 SIR ALEXANDER MACKENZIE 


 TRINITY , CAMBRIDGE . ST . GILES , CRIPPLEGATE . 


 KING , CAMBRIDGE . | ST . ANNE , SOHO 


 ST . JOHN , CAMBRIDGE . ST . ANDREW , HOLBORN . 


 CHRIST CHURCH , OXFORD.| ST . MARGARET , WEST MINSTER 


 CATHEDRALS 


 NORWICH 


 OXFORD ( CHRIST CHURCH ) . 


 PETERBOROUGH . 


 SALISBURY 


 BANGOR . 


 CHESTER . 


 CHICHESTER . 


 DURHAM 


 ELY . TRURO . NEW , OXFORD . | CHAPEL ROYAL . 


 EXETER . WELLS . ST . MICHAEL , TENBURY } FOUNDLING HOSPITAL . 


 GLOUCESTER . WINCHESTER . WINCHESTER . CHARTERHOUSE . 


 LICHFIELD . YORK . CLIFTON 


 RUGBY 


 LINCOLN . 


 CHRIST HOSPITAL 


 LONDON 


 MUSICAL 


 TIMES.—NOVEMBER 1 , 1905 


 ANTHEMS . 


 VIOLIN MUSICTo familiar earlier parts ‘ Modern School 
 Violin , ’ recently issued Fourth Book Studies 
 come somewhat surprise . exception 
 special studies authors Spohr 
 Kreutzer , contents devoted excerpts well- 
 known classical modern violin solos . 
 grouped sections , exemplifying branch technique 
 expected previously prepared Book IVa , 
 designed taken concurrently IVs . idea 
 excellent ; convincing student greatly 
 practice technique facilitates overcoming difficulties 
 invariably encountered advanced pieces 
 description , secondly keeping high 
 elevated aim engaged daily routine 
 drudgery purely mechanical exercises 

 single example present book suffice 
 purpose . section devoted ‘ Passages 
 formed Scales Arpeggi . ’ shown extracts 
 culled familiar works Beethoven , De Beriot , Saint . 
 Saéns , Mendelssohn Schubert , reference 
 suitable studies dealing matter Kreutzer 
 Fiorillo . Similarly treated subjects 
 ‘ Passages G string , ’ ‘ Firmness Stop 
 Intonation , ’ ‘ Solid Spring Staccato , ’ ‘ Octave Passages , ’ 
 ‘ Double Notes , ’ ‘ Harmonics , ’ & c 

 Junior Violinist Series continues supply young 
 players good material study recreation . 
 latest addition , Book 24 , contains ‘ Characteristic 
 Pieces ’ Herman Koenig , entitled , respectively , Romance , 
 Humoreske , Intermezzo Arioso . Short , melodious 
 effective solos , admirably suited 
 left position 




 - SONGS FEMALE BOYS ’ VOICES 


 BOOKS RECEIVED 


 SHEFFIELD MUSICAL FESTIVAL . 


 ( SPECIAL CORRESPONDENT 


 SS 


 03 . 


 W. S. 


 BRISTOL MUSICAL FESTIVAL . 


 ( SPECIAL CORRESPONDENTThe rest programme familiar lines . 
 began ‘ Elijah , ’ ended ‘ Messiah , ’ included 
 ‘ Lohengrin , ’ ‘ Dream Gerontius , ’ ‘ Mount 
 Olives ’ ( given old , , hoped , obsolete 
 guise ‘ Engedi ’ ! ) . * Messiah ’ ‘ Lohengrin ’ 
 given cuts , finishing thirteen 
 minutes midnight , assumed Bristol 
 people like plenty money , admitted 
 quality means sacrificed quantity , 
 Mr. Riseley , save slight inclination rush pace , 
 gave exceedingly good performances . energy 
 remarkable , choirmaster conductor , 
 thing Festival conduct 
 Mr. Holbrooke scena . large chorus , 460 voices , 
 produces hardly volume sound expect 
 numbers ; lack weight tone finds 
 North , excellent qualities , notably 
 pleasant , supple , vocal style , great refinement 
 power expression . band 90 — supplemented 
 Dr. Strauss work — excellent , Mr. A. W. Payne 
 leader , Mr. G. H. Riseley organist 

 miscellaneous features Festival included 
 appearance Madame Melba , sang - worn 
 examples Italian operatic music , attracted 
 biggest house Festival . Mr. Kreisler interpreted 
 Beethoven concerto magnificently , Misses Mathilde 
 Adela Verne played Mozart concertos 
 pianofortes ( . 17 , FE flat ) artistically , 
 taking solo Liszt E flat concerto 

 principal vocalists , addition 
 named , Miss Ada Crossley , Miss Muriel Foster , 
 Madame Kirkby Lunn ; Messrs. Coates , Ben Davies , 
 Lloyd Chandos ; Messrs. Ffrangcon - Davies , Francis Braun , 
 Andrew Black . Messrs. Greville Edwards C. T. 
 Budgett acted honorary secretaries , Mr. W. J. Kidner 
 retaining post secretary filled ably 
 good years past 




 AMERICAN WORCESTER FESTIVAL . 


 ( CORRESPONDENT . ) treated imparts composition distinction 
 Festival year concerts instead | possess 

 , , choir sang Mozart ‘ Kequiem,’| notable programme presented following night , 
 numbers ‘ Beatitudes , ’ including prologue , | principal works Mozart Concerto E 
 Bruckner ‘ Te Deum , ’ choral Beethoven | pianofortes , admirably played Misses Mathilde 
 Ninth Symphony , hymn conclusion } Adela Verne , Bach Brandenburg Concerto . 1 , 
 Wagner ‘ Kaisermarsch . ’ music choir learned | Dr. Strauss ‘ Symphonia Domestica . ’ Contrast scarcely 
 ah ovo , speak , selections César Franck | farther , Mozart Bach suffered 
 work . special delight note | inevitable comparison ways means 

 enthusiasm singers , firmness attacks , ; October 10 brought hearing 
 fine volume tone , nice attention expression . | England Herr Siegmund von Hausegger symphonic poem 
 difficulties Choral Symphony splendidly | ‘ Barbarossa . ” composer son writer 

 solo singing Festival patrons , | shepherd discovery spell - bound monarch depth 
 possible lift orchestral features | forest ; , called ‘ Awakening 

 dignity ought . , new | announces freeing Barbarossa return 
 composition American musician high rank | knights people . thematic material sufi- 
 brought forward , lighter measures , | ciently significant imposing work occupying fifty- 
 Beethoven Ninth Symphony , overture Bach | minutes performance . second movement 
 Suite D , Mendelssohn ‘ Italian ’ Symphony , second | interesting picturesque , spun , 
 ( ‘ Gretchen ; character piece ’ ) Liszt ‘ Faust ’ | ultra - development prevailing fault numbers . 
 Symphony , performed . Mr. Harold Bauer played | cleverness music indubitable , ambition 
 Tschaikovsky Pianoforte Concerto B flat minor , , composer greater power convincing 
 Mdlle . Inez Jolivet ( French violinist hailing | expression , great length chaotic nature 

 London , told ) , Lalo ‘ Symphonie Espagnole ’ 
 Sarasate ‘ Zigeunerweisen . ’ orchestral novelty | 
 symphonic poem entitled ‘ Cleopatra , ’ begins | 
 hint music waters Egyptian | 
 barge , ‘ gilded stern   outspread sails | 
 purple , ’ came sailing river Cydnus ‘ oars | 
 silver beat time music flutes fifes | 
 harps , ’ closes swelling union principal 
 themes , , wish , hear celebration 




 H. E. KREHBIEL 


 PROMENADE CONCERTS 


 ITALIAN OPERA COVENT GARDEN 


 SCOW 


 GLAZOUNOFF NEW VIOLIN CONCERTO 


 MUSIC BELFAST . 


 ( CORRESPONDENT 


 MUSIC BIRMINGHAM . 


 ( CORRESPONDENT 


 744 


 MUSIC BRISTOL DISTRICT . 


 ( CORRESPONDENT 


 MUSIC DUBLIN . 


 ( CORRESPONDENT 


 MUSIC EDINBURGH . 


 ( CORRESPONDENT 


 MUSIC GLOUCESTER DISTRICT . 


 ( CORRESPONDENT 


 MUSIC LIVERPOOL DISTRICT . 


 ( CORRESPONDENTwell known Dublin Ireland skilful } acceptable vocalist . principal orchestral item 

 organist , years conductor now| Beethoven Eighth Symphony 

 defunct Amateur Orchestral Union 




 — 0.2 . , conducted 

 second programme Liverpool Symphony 
 Orchestra , October 16 , included Beethoven Eighth 
 Symphony songs Miss Jaxon , Mr. S. Prescott 
 ‘ solo pianist , Mr. Akeroyd conducted . 
 pleasant place record complete artistic 
 popular success concert 

 visits Mischa Elman ( 
 appearance Liverpool , October 9 ) , Master Vecsey , 
 Madame Melba 




 MUSIC MANCHESTER . 


 ( CORRESPONDENTThe chief work programme Cowen ‘ John 
 Gilpin , ’ , despite absence orchestra , } 
 capital performance given , points ‘ humour | 
 ’ accentuated choir . October 19 
 high feast music set forth Hallé | 
 Orchestra , Dr. Richter conducted . programme | 
 comprised ‘ Oberon ’ overture ; . 3 Bach Branden- | 
 burg Concertos string orchestra ; Prelude 

 act ‘ Meistersinger ’ ; Strauss ‘ sprach Zara- 
 thustra , ’ Beethoven fifth symphony . band played 
 finely . Owing illness , sorry find 
 Signor Risegari , leader , with- 
 drawn list Orchestra 

 Mr. Wilhelm Backhaus retired professorship 
 pianoforte Royal Manchester College Music 
 owing public engagements 




 MUSIC NEWCASTLE DISTRICT . 


 ( CORRESPONDENTThe Stockton Thornaby Choral Orchestral 
 Society intend perform ‘ Elijah , ’ Brahms ‘ Song 
 Destiny , ’ Dvorak ‘ New World ’ symphony 

 Tynemouth Amateur Vocal Society somewhat 
 beaten track choosing Smieton ‘ Ariadne ’ 
 Anderton ‘ Norman Baron . ’ Beethoven ‘ Eroica ’ 
 Mozcart ‘ Jupiter ’ symphonies rehearsed , 
 works , Northumberland Orchestral Society 

 new choral society formed Newcastle 
 District Union Teachers 

 connection Sunderland Students ’ Society 
 interesting course musical meetings held 
 direction Mr. N. Kilburn , 
 splendid work cause musical education 
 public district . subjects Bach concertos , 
 Beethoven later quartets , works Brahms 
 taken , illustrations provided 

 syllabus Newcastle Literary Philosophical 
 Society includes lecture Mr. W. H. Hadow 
 ‘ Musical scales , influence composition 




 MUSIC SHEFFIELD DISTRICT . 


 ( CORRESPONDENT 


 


 MUSIC YORKSHIRE 


 CORRESPONDENTDr . Coward succeeded post choirmaster 
 conductor Leeds Choral Union , results 
 methods seen opening concert 
 season , October 15 , strongly coloured reading 
 Berlioz ‘ Faust ’ given , Madame Conly , 
 Messrs. Lloyd - Chandos , Thornton , Andrew Black , 
 principals 

 Handel selection season , Dr. Cowen 
 Scottish Orchestra appearing concerts . 
 Leeds Philharmonic Subscription Concerts promise 
 things Elgar ‘ King Olaf , ’ Brahms German 
 ‘ Requiem , ’ Volbach ‘ Raflfael , ’ choral pieces 
 ‘ Meistersinger ’ ‘ Lohengrin , ’ interesting revival 
 Beethoven cantata ‘ Der glorreiche Augenblick 

 Leeds Municipal Orchestra began operations 
 October 21 , programme cleverly contrived 
 celebrate Trafalgar centenary patriotic fashion , 
 time artistic interest . 

 Bradford season said begun 
 concert Permanent Orchestra October 14 , 
 programme illustrating French music played 
 Mr. Allen Gill direction . interesting incident 
 performance ‘ Memoriam ’ overture memory 
 Sir Henry Irving , died Bradford night 
 , body time taken 
 station journey London . October 
 20 Bradford Festival Choral Society gave , 
 Dr. Cowen direction , performance Saint - Saéns 
 * Samson Delilah , ) » Madame Brema , Mr. Evan Williams 

 Society proposes Verdi ‘ Requiem , ’ | 
 Beethoven Choral Symphony , Cowen ‘ John Gilpin , ’ 

 Faust,’—the naively styled prospectus 
 |a ‘ novelty’—are chief things conservative pro- 
 |gramme ilarrogate Choral Society . 
 enterprising Yorkshire Societies Middles- 
 brough Musical Union . season proposes 
 Dvorak characteristic ‘ Te Deum , ’ ‘ Sixth Chandos 
 Anthem , ’ Gounod ‘ Redemption , ’ pianoforte 
 concerto visit Bohemian String Quartet 
 add variety programmes weakening 




 BERLIN 


 COLOGNE 


 DRESDEN 


 GMUNDEN 


 HAMBURG 


 PARIS 


 TURIN 


 185 


 £ 800 


 747 


 BRIEFLY SUMMARIZED 


 748 MUSICAL 


 1905 


 CLAREMONT . 


 OMEG 


 CONTENTS 


 MUSIC ; 


 


 SCALE 


 MUSICAL TIMES 


 TERMS ADVERTISEMENTS 


 SPECIAL NOTICE 


 MONTH . 


 ALFE , M 


 HEN } 


 TONS , 


 IV 


 MUSICAL 


 750 1905 . 


 CONTAINS ! 


 LESSONS 


 SCHOOLS 


 RY QUESTIONS 


 HUDDERSFIELD SCHOOL CONCERTS 


 R- TRAINING 


 CAMBRIDGE — E RT 


 COMPETITIONS 


 SCHOOL MUSIC REVIEW 


 LLOWING MUSIC 


 MBER CON 


 PURCEI 


 SCHOOL SIGHT - SINGING READER 


 NSTRU MENTALIST 


 RGAN 


 RGAN 


 DRACTICE ROOM 


 PIANO , “ EMP RESS ” MODEL 


 116 : UIN SEAS 


 BRINSMEAD ) , 


 L. 280 


 SALE . KIRKMAN GRAND   PIANO- 


 SALE 


 POR SALE . 


 SILVER FLUTE 


 RUDALL CARTE 


 | CHORAL ORCHESTRAL SOCIETIES . ; 


 | EVERAL CHORAL WORKS , - SONGS , 


 T VIOLONCELLO HISTORY . 


 DI 


 B E 


 EL 


 Y 08 


 A. S 


 MUSICAL 


 1905 . 751 


 NORMAN & BEARD 


 PEDALS PIANOFORTES 


 ORGAN 


 NEW STOOLS 


 OLD FIRM 


 P. CONACHER & CO , 


 SPRINGWOOD WORKS 


 HUDDERSFIELD . 


 GOLD MEDALS 


 NICHOLSON CO , , 


 ORGAN BUILDERS , 


 PALACE YARD , WORCESTER . 


 ( ESTABLISHED 1841 


 NEW ORGAN COMPOSITION 


 INTRODUCTION , 


 


 “ ADESTE FIDELES ” 


 ORGAN 


 ARTHUR S. HOLLOWAY 


 MUS.D. , OXON 


 NEW CONCERT SONGS 


 DR . ARTHUR S. HOLLOWAY 


 NEW PIANOFORTE 


 DR . ARTHUR S. HOLLOWAY . 


 LOVE APPEAL 


 INTERMEZZO 


 PIECE 


 COMP OST TIONS 


 IVOR KINS 


 ANTHEMS 


 SERVICE . 


 - SONG . 


 SEVEN 


 - SONGS 


 ( MARIENLIEDER 


 PAUL 


 MUSIC COMPOSED 


 JOHANNES BRAHMS 


 DRAM ATIC POEMS 


 RECITATION 


 MUSICAL ACCOMPANIMENT 


 STANLEY HAWLEY 


 AY 


 READY 


 COUNCIL SCHOOL HYMN BOOK 


 COLLECTION HYMNS , PRAYERS , USE 


 COUNCIL SCHOOLS 


 COMPILED MEET PARTICULAR NEEDS NEW EDUCATION 


 AUTHORITIES ESTABLISHED ACT 1002 


 PRICES 


 PREFATORY NOTE MUSIC EDITION 


 PRESS NOTICES . 


 SCHOOL GUARDIAN 


 CHRISTIAN WORLD 


 BOOKSELLER 


 PUBLISHERS ’ CIRCULAR . 


 ABERDEEN FREE PRESS . 


 BRISTOL TIMES MIRROR . 


 SCOTSMAN 


 WESTERN MORNING NEWS . 


 CO 


 NEW NOVELLO 


 CHRISTMAS ANTHEMS . CHRISTMAS CANTATAS 


 | SING REJOICE STOR W.THLEHE ! 


 4 SHORT SACRED CANTATA 


 SHAPCOTT WENSLEY 


 LOVE DIVINE , LOVE EXCELLING 


 REV . E. VINE HALL . | JOHN E. WEST 


 


 B. LUARD - SELBY . HOLY CHILD 


 DAY ORGAN 


 COMPOSED 


 SIR FREDERICK BRIDGE . THOMAS ADAMS 


 


 H. A. MATTHEWS . CHRISTMAS EVE 


 TH E H EA VENS EC ‘ ( LA COMPOSED 


 NIELS W. GADE . 


 CHARLES MACPHERSON 


 BRUCE STEANE . CANTATA FEMALE VOICES 


 


 COMING KING 


 HARK ! MEAN HOLY SACRED CANTATA FEMALE VOICES 


 VOICES SUITABLE CHRISTMAS 


 WORDS 


 IELEN MARION BURNS 2 


 2 = = 


 CANTATA 


 POSED 


 


 PERCY E. FLETCHER 


 \OVELI CHRISTMAS CAROLS 


 STAINER , JOHN 


 SERIES 


 SECOND SERIES 


 21 


 135 


 


 1905 


 STER » MUSICAL 


 CANT 


 EDWARD ELGAR 


 MUSIC COMPOSED 


 IVOR ATKINS 


 FESTIVAL , 1905 


 DAILY TELEGRAPH 


 STANDARD 


 MORNING POST 


 DAILY NEWS . 


 MALL GAZETTE . 


 ATHEN - EUM . 


 YORKSHIRE 


 POST , 


 BIRMINGHAM DAILY POST 


 BIRMINGHAM GAZE TTE 


 DAL S 


 CHRISTMAS ORATORIO 


 SECTIONS 


 II . ) DAYS FOLLOWING 


 CHRISTMAS 


 CHRIST , NEW YEAR DAY . 


 TRANSLATION REV . DR . TROUTBECK 


 ENGLISH 


 CAROL AU NAD OL IG NOVELLO 


 SION 


 NEW 


 CHRISTMAS CAROLS 


 SERIES . FOURTH SERIES . 


 


 DOM SAMUEL G. OULD WRITTEN . 


 CONTAINING COMPLETE LATIN TEXT E. W. LEACHMAN 


 PRELUDE VARIED ACCOMPANIMENTS | . STAINER . 


 


 LUTE ” SERIES 


 CHRISTMAS CAROLS 


 ( 3 . CAROL , SWEETLY CAROL ... | 3 . LET MERRY 


 4 . CHRISTMAS BELLS . | 4 . HARK ! ANGELS SINGING . 


 ( 6 . HARK ! MEAN HOLY VOICES . 5 . SONG SHEPHERDS 


 77 ANGELS ’ CAROL . CHILD BORN 


 CONTENTS SECOND SET . CONTENTS FOURTH SET 


 1 . AWAKE ! AROUSE ! YE CHRISTIAN BAND . | 1 LIFT GRATEFUL VOICES . 


 { 2 RING , SWEET CHIMES . 2 . BRIGHTEST MORN . 


 ( 3 . BRIGHTEST BEST . » CHIMES SNOW . 


 ( 4 . HAIL ! HAPPY MORN . 4 ANGELS ’ SONG . 


 6 . CHRISTMAS EVE . 6 . HERALD BELLS . 


 7 , HARK ! BELLS . 7 . O DAY DAYS . 


 10 . NOEL . 10 ANGEL TIDINGS . 


 CONTENTS FIFTH SET . 


 PRICE , COMPLETE , NINEPENCE . 


 2 , YULETIDE BELLS . 5 . ANGEL MESSAGE . 


 . HAIL , WONDROUS MORN . 6 . OLDEN CAROL , 


 LONDON : NOVELLO COMPANY , LIMITED . 


 HARMONIZED E FLAT 


 MUSICAL 


 TIMES.—NOVEMBER , 1905 . 759 


 ADVENT HYMN 


 LOWLY GUISE THY KING APPEARETH . ” 


 SOPRANO SOLO CHORUS , ORCHESTRAL 


 ACCOMPANIMENT 


 COMPOSED 


 R. SCHUMANN 


 RANSLATED GERMAN FRIEDRICH & UCKERT 


 BLESSED | “ 


 WATCH 


 CANTATA ADVENT 


 SOPRANO SOLO CHORUS 


 


 HYMNS SUNG CONGREGATION 


 MUSIC COMPOSED 


 HUGH BLAIR 


 ADVENTS 


 CHURCH CANTATA 


 WORDS SELECTED WRITTEN THI 


 COMPOSED 


 GEORGE GARRETT , M .. A. , 


 BLOW YE TRUMPET 


 ZION 


 CANTATA ADVENT 


 COMPOSED 


 C. WARWICK JORDAN . 


 CONCERT ORGANIST 


 TRANSCRIPTIONS ORGAN 


 


 SONG ? AH , 


 EXTREMELY SUITABLE PERFORMANCE 


 SEASON CHRISTMAS 


 


 SACRED CANTATA 


 SOLO VOICES , CHORUS , 


 ORCHESTRA 


 WORDS SELECTED HOLY SCRIPTURE 


 MUSIC COMPOSED 


 ALFRED R. GAUL 


 MAGNIFICAT NUNC DIMITTIS 


 SET MUSIC KEY D 


 0 MEN VOICES 


 SONG EDEN TDD 


 CHORUS ORCHESTRA EM 


 WORDS TAKEN ‘ ‘ PARADISE LOST ” LAURENT DE RILLE . 


 PUBLISHED . 


 MUSIC COMPOSED 


 A. HERBERT BREWER 


 ATHEN - EUM . LONGFELLOW 


 BIRMINGHAM DAILY MAIL . HAMISH MACCUNN . 


 BIRMINGHAM GAZETTE EXPRESS 


 GLOUCESTER JOURNAL . 


 GLASGOW HERALD . | 


 7 . FANTAISIE SUR DEUX MELODIES ANGLAISES 


 MUSIC 


 MUSIC CHRISTMAS 


 VAUNDER 


 CHURCH 


 SERVICES . 


 ORGAN . 


 CHURCH CANTATA . 


 VH 


 CENTURION SERVANT 


 SHORT SACRED CANTATA 


 USE PLACES WORSHIP 


 F. W. PRIEST , A.R.C.O. 


 ANTHEMS 


 SAINTS ’ ADVENT 


 DAY 


 BASIL 


 


 


 HARWOOD 


 O GLORIOUS 


 


 CHRISTMAS CAROLS 


 NEW ANTHEMS 


 CHURCH MUSIC 


 HEAVENLY VISION . 


 COMPOSITIONS 


 DESCRIPTIVE CHORUSES 


 MUSICAL 


 1905 


 PARISH CHURCH 


 ANTHEM BOOK 


 EXTRACT PREFACE . 


 NEW NUMBERS 


 VILLAGE ORGANIST 


 SERIES PIECES | 


 CHURCH GENERAL USE 


 EDITED 


 F. CUNNINGHAM 


 


 


 WOODS 


 300 K 37 


 S0OK 39 . 


 


 CANTICLES NOTED 


 GREGORIAN TONES 


 


 LITANY RESPONSES 


 REPRINTED 


 MANUAL PLAINSONG 


 DIVINE SERVICE 


 


 NEW EDITION 


 PREPARED 


 GENERAL SUPERINTENDENCE 


 JOHN STAINER 


 


 MORCEAUX DE SALON 


 POUR VIOLON ET PIANO 


 PAR 


 CARL BOHM . 


 » , 2 BOURREE . 5 VALSE ETUDE , 


 » 3 GAVOTTA . , 6 CAPRICCIO FINALE 


 NEW EDITION , 


 MIYAKO - DORI 


 JAPANESE MELODIES 


 PAUL BEVAN , M.A. , F.S.A 


 ADDITIONS 


 CHRISTM : ‘ CAROLS 


 JOSEPH C. BRIDGE 


 STANDARD HARMON 


 MAX LOEWENGARD , 


 HARMONY 


 COMMUNION SERVICE 


 JONES 


 JOHN 


 NALE 


 TE 


 EAS 


 LIN 


 LONDON 


 MUSICAL 


 1905 . 763 


 COMPOSITIONS 


 


 REV . H. H. WOODWARD 


 RECENTOR WORCESTER CATHEDRAL 


 SERVICES . 


 ADAMS 


 ROSES 


 VIOLIN OBBLIGATO ) 


 ENGLISH , FRENCH , GERMAN WORDS 


 JOSEPH H 


 STUDY MUSIC 


 MEANS EDUCATION 


 ADDRESSES 


 GIVEN SCHOOLS 


 


 EDGAR MILLS 


 PREFACE 


 NARCISSUS ECHO 


 CANTATA CHORUS , SOLI , ORCHESTRA 


 COMPOSED 


 EDWIN C. 


 BLACKWELL , 


 MARSHALI 


 | SERVICES . 


 ANTHEMS . 


 764 MUSICAL 


 1905 


 NOVELLO SCHOOL SONGS . 


 GARLANDS SONGS | 


 CHILDREN 


 UNISON 


 ARRANGED SUNG 


 NOVELLO SCHOOL SONGS . 


 SCHOOL 


 SIGHT - SINGING READER 


 ( MOVABLE DOH METHOD 


 STAFF NOTATION ( INTERMEDIATE GRADE ) . 


 COURT CARD 


 SKETCH JUNIOR CLASSES 


 ACTS 


 WRITTEN 


 MADGE HART - DAVIS 


 ARRANGED 


 HART - DAVIS 


 


 MUSICAL 


 CHARLES 


 COMPOSED 


 PRODUCED CARDIFF FESTIVAL , SEPTEMBER , 1904 


 JOHN GILPIN 


 BALLAD CHORUS ORCHESTRA 


 POEM WRITTEN 


 COWPER 


 MUSIC COMPOSED 


 FREDERIC H. COWEN 


 TIMES 


 DAILY TELEGRAPH 


 STANDARD 


 MORNING POST 


 DAILY NEWS . 


 PALL MALL GAZETTE . 


 BEE QUEEN | 


 OPERETTA JUNIOR CLASSES 


 WRITTEN 


 P. H. CRIB 


 ALFRED 


 MOFFAT 


 DAILY CHRONICLE 


 


 THI 


 


 RA 


 


 UNISON SONGS PUBLIC SCHOOLS 


 OLD ENGLISH SONGS 


 NATIONAL 


 SIXTEEN NATIONAL SONGS : — 


 FOLK SONGS 


 NATION AL FOLK SONGS : — 


 CLASSICAL SONGS 


 THIRTY - CLASSICAL SONGSThe Fisherman . 
 Mermaid Song 
 wandering miller 
 Chloe ( sickness ) 
 Verdant Meadows .. 
 Welcome Spring 
 - 
 Sylvia 

 Schumann 
 Beethoven 
 Mendelssohn 
 . Handel 

 Handel 
 Giordani 
 Mozart 
 Beethoven 
 Schubert 
 Mendelssohn 
 Purcell 

 _ W. S. Bennett 




 PUBLIC SCHOOL SONGS 


 LONDON 


 PUBLIC 


 NOVELLO 


 SCHOOL 


 


 THIRTY - CLASSICAL 


 SONGS 


 SONGS . 


 149 . ) Irish Melody 
 Old English 

 Mendelssohn 
 Schumann 
 Handel 
 Schubert 
 Arne 
 Mendelssohn 
 Schubert 
 Schubert 
 Bennett 
 Schubert 
 Beethoven 
 Beethoven 
 Schubert 
 Schubert 
 Mendelssohn 
 Mendelssohn 
 Mendelssohn 
 /agner 
 Schubert 
 Sach 
 Schumann 
 Schumann 
 Schumann 
 Mendelssohn 
 Mendelssohn 
 Schumann 
 Haydn 

 Handel 
 Schumann 
 Schubert 
 Mendelssohn 
 Schumann 
 Schubert 
 Schubert 
 Schubert 
 Handel 
 Arne 




 ORIANA 


 COLLECTION EARLY MADRIGALS ( 


 BRITISH FOREIGN 


 2 . ANGEL FACE BRIGHTNESS ... ( 4 ,   ) .+ » DANIEL NORCOME 34 , 


 5 . CREATURES MERRY- MINDED ( ) JOHN BENET 34 . 


 7 , NYMPHS SHEPHERDS DANCED ( 4 , ) .+ . GEORGE MARSON 34 , 


 


 NOVELLO , EWER CO . , NEW YORK 


 MUSICAL 


 1905 . 797 


 JUSS 


 RODUCED 


 ODE 


 WI ! 


 SET CHORUS 


 SHEFFIELD MUS 


 PUBLISHED 


 PEASE 


 ND 


 ORCHESTRA 


 FESTIVAL , OCTOBER 5 , 1905 


 FREDERIC . CLIPGPE 


 VOCAL SCORE 


 TIMES 


 DAILY TELEGRAPH 


 MORNING POST 


 DAILY NEWS . 


 DAILY CHRONICLE 


 YORKSHIRE 


 POST 


 PRICE 


 COMPANY 


 MORNING 


 LEADER 


 SHEFFIELD DAILY TELEGRAPH 


 SHEFFIELD 


 INDEPENDENT 


 LEEDS MERCURY 


 YORKSHIRE DAILY OBSERVER 


 LIMITED 


 768 MUSICAL TIMES 


 BREITKOPF & HARTEL , 


 54 , GREAT MARLBOROUGH ST . , REGENT ST . , LONDON , W 


 STRING - ORCHESTRA 


 


 JUVEMLE AMATEUR ORCHESTRAL SOCIETIES 


 EDITED ARRANGED 


 DR . HEINRICH SCHMIDT 


 TEACHER ROYAL SEMINARY BAYREUTH 


 NOVEMBER , 19056 . second numbers short , pleasing classical movements Sonatas ( ) uartets , 
 String Instruments , number corresponds construction character 

 7 . Ifdesired , songs recitations introduced numbers . 
 Score , 3s . ; Piano Harmonium ( Organ ) , 1s . 6a . : Orchestral Parts , 8d . 
 BOOK I. 
 MOZART.—Overture ‘ ‘ ] Ratto del Seraglio . ” String - Orchestra ( Piano , Organ , Harmonium ad /7d . ) . 
 . SCHUBERT.—Minuet Fantasia Piano ( Op . 78 ) . String - Orchestra . 
 BEETHOVEN.—Scherzo Sonata Piano ( Op . 28 ) . String - Orchestra . 
 HAYDN.—Allegretto ‘ ‘ Military ” Symphony . String - Orchestra ( Piano , Organ , Harmonium ad /é/. ) , 
 BOOK II . 
 1 . GLUCK.—Overture Opera ‘ ‘ Iphigenia Aulis . ” String - Orchestra ( Piano , Organ , Harmonium , avd /id . ) . 
 2 . BACH.—Two Gavottes D major Overture ( Suite ) . String - Orchestra . 
 3 . MOZART.—Canzonetta Opera ‘ ‘ Don Giovanni . ” Pizzicato piece , Solo Violoncello . String- 
 Orchestra . 
 4 . SCHUBERT.—Military March ( Op . 51 , . 1 ) . String - Orchestra ( Piano Harmonium ad /é . ) . 
 BOOK III . 
 1 . DALL ’ ABACO.—Concerto da chiesa ( Op . 2 , . 9 ) . String - Orchestra ( a. Piano Duet , /. Organ 
 ( Harmonium ) , a. 4 . ad /z4 . ) . 
 2 . CHOPIN.—Nocturne E flat ( Op . 9 , . 2 ) . String - Orchestra . 
 3 . BEETHOVEN.—Minuet Fourth Quartet . String - Orchestra . 
 4 . CHERUBINI.—Overture ‘ Lodoiska . ” String - Orchestra ( a. Piano Duet , 4 . Organ ( Harmonium ) , a. 
 4 , ad /zb 

 GN 

 SON 

 BOOK IV . 
 MOZART.—Overture ‘ * Marriage Figaro . ” String - Orchestra ( Piano , Organ , Harmonium ad /zd . ) . 
 HANDEL.—Lento C : acerto B fiat . String - Orchestra . 
 HANDEL.—Minuet Concerto B flat . String - Orchestra . 
 BEETHOVEN.—Scherzo Piano Sonata ( Op . 2 , . 3 ) . String - Orchestra . 
 SCHUBERT.—Heroic March D major . String - Orchestra ( Piano Harmonium ad /7d . ) . 
 BOOK V. , ( 27 Press ) . 
 1 . MEYERBEER.—Coronation March opera ‘ ‘ Prophet . ” String Orchestra ( a. Piano Duet , ot 
 4 , Organ ( Harmonium ) , a. 4 . ad /1d . ) . 
 2 . SCHUBEKT.—Andante Piano Sonata major ( Op . 120 ) . String - Orchestra . 
 3 . HAYDN.—Minuet Symphony G major . String - Orchestra . 
 4 . MOZAKT.—Rondo Sonata , . 6 . String - Orchestra ( @. Piano Duet , 4 . Organ ( Iarmonium ) , 
 a. 4 . ad /74 

 wn + Ge tN 




 SOLE AGENTS 


 PAUL WERNER CELEBRATED DRESDEN PIANOFORTES 


 ML . 


 MR 


 110