


 ABILITI 


 the MUSICAL TIMES 


 and singing - class circular 


 publish on 


 ROYAL CHORAL SOCIETY 


 ROYAL ALBERT HALL . 


 GOUNOD ’S * MORS EF VEVA . " 


 GRESHAM COLLEGE 


 BASINGHALL STREET , E.C 


 the RONDO - FORM 


 SHAKESPEARE and MUSIC . 


 COLLEGE of ORGANISTS 


 J. FREDERICK BRIDGE , 


 HE SOCIETY of 


 AMINATION 


 ARTS PRACTICAL 


 the FIRST of 


 MUSIC 


 every month 


 ACADEMY of MUSIC , 


 ENTERDEN STREET , W. 


 ROYAL 


 A.C. MACKENZIE 


 CHESTER 


 TRIENNIAL MUSICAL FESTIVAL , 1891 . 


 TONIC SOL 


 FA COLLEGE 


 E TAMIR ATIONS 


 THI 


 MUSIC . AL INTERNATIONAL 


 COLLEGE 


 CHORAL and INSTRUMENTAL 


 SCHOLARSHIPS 


 HENRY TRUEMAN WOOD , 


 E NSTONE COLLEGE . 


 194 


 PROFESSIONAL notice . 


 MADAME CARRIE 


 N.E 


 XC 


 MISS BOOKER , L.R.A.M. 


 A.L.A.M 


 ISS ANNIE 


 NORLE DGE 


 PRI 


 MI 


 MA 


 FE ER 


 COUNTERPOINT , & 


 . NINTER RC 


 ( PRINCIPAL BASS of the ROYAL ITALIAN DURHAM 


 CORRESPONDENCE class 


 MISS ALICE MARY SMITH , 


 SOLO CORNETIST 


 MUSIC section . 


 196 


 INTERMEDIATE MUS . BAC . , LONDON , DECEMBER , 1890 ; 


 TEACHES HARMONY , COUNTERPOINT , ACOUSTICS , 


 48 


 CHARLES 


 " RENT 


 SCHOLARSHIP 


 COLLEGE , 


 SOPRANO VOC . AL IST 


 50 


 BY ILITARY BAND 


 ( RGANIST 


 gagement . 


 FOOT , 


 RAL 


 TER 


 50 


 NCY 


 SOLO VIOLINIST , 


 \ " ANTE D 


 " UNER . 


 SSIS ] ANT TUNER — 


 PIANOFORTE 


 N ASS 


 M USIC business . — want , 


 _ an age 


 N I two- MANUAL ORGAN ( 22 


 CHAMI SEER ORGAN SAL 


 PARO DEL 


 YARRODUS violin . — 


 198 the MUSICAL 


 MESSRS . BEARE and SON 


 34 , RATHBONE PLACE , LONDON , W. , 


 over three hundred 


 old violin , tenor , cello , 


 and DOUBLE bass . 


 7 QUEEN ’S MODEL 


 \MERICAN ORGAN CHAIRS 


 iment and MUSIC 


 NEWLY 


 PIANO 


 free . 


 supply 


 revise and illustrate catalogue 


 merchant , shipper , and the trade 


 violin and cello . 


 1878 ; PARIS , 1 79 : PARIS , 1559 , 


 WITHERS and CO . , 


 LONDON , W 


 WOLFE violin 


 KONIGSBERG & CO .. 


 I and 2 , CHISWELL STRERT , ONDON , 


 EC . 


 OLIN bow 


 WILLIAMS 


 COMPOSERS.—M ARRIOTT 


 uthor ’ work correct , revise 


 nist 


 PEDAL attachme ) 


 for pianoforte 


 equal to ORGAN practice 


 OR 


 ORG 


 T HE OLD FIRM 


 P , CONACHER & CO 


 SPRINGWOOD WORKS , 


 HUDDERSFIELD 


 two gold medal 


 D’ALMAINE ’S 


 PIANOS and ORGANS 


 NICHOLSON and CO . , 


 ORGAN BUILDERS , 


 PALACE YARD , WORCESTER . 


 ( establish 1841 . ) 


 JAMES CONACHER and son , 


 ORGAN BUILDERS 


 BATH BUILDINGS , HUDDERSFIELD 


 OWER 


 N R. DUTTON ’s SOLO boy . 


 M ® DUTTON ’s SOLO boy . 


 DIAPASON MUSICAL AGENCY , 


 55 , CHANCERY LANE , W.C. 


 J ] . B. CRAMER and CO . , 


 26 , CHURCH STRE ET , LIVERPOOL , 


 LORD STREET , SOUTHPORT 


 AUSTR AL LAN MANA ( 


 MR . JOSEF CANTOR ’S 


 " gem of the OPE 


 CONCERT COMPANY 


 RAS 


 Y PRINCIPLES 


 E ELE ) IENTAR\ 


 appendix contain music for practical use 


 EDWARD D. \V E y RENDALL . 


 jractical hint on BOY CHOIR 


 F. WEBER.—THE   pianist ’s practic : AL | 


 guide to theoretical knowledge and | 


 MASS 


 JUST PU B L ISHE D 


 IN C MINOR 


 SOLI , CHORUS , and ORCHESTRA 


 compose by 


 SOMERVELL 


 ARTHUR 


 LONDON & NEW YORK : NOVELLO , EWER and CO 


 LOND on 


 AND EXAMINATION.—INST 


 TRINITY COLLEGE 


 PRESIDENT : 


 LEVAN , 


 .ERS.E 


 3ONAVIA HUNT 


 HIGHER examination in MUSIC . 


 local examination in MUSIC . 


 FIFTEEN annual SERIE 


 10 


 ELLEY FISHER , S 


 ready shortly 


 the 


 CATHEDRAL 


 PRAYER book 


 be the 


 COMMON prayer 


 OF CHOIRS 


 OK of 


 with the music necessary for the USI 


 TOGETHER with the 


 canticle and PSALTER 


 point for chanting 


 AND 


 LONDON & NEW YORK : NOVELLO , EWER and CO 


 will be publish on MONDAY , MAY 


 r dedicate , by permission , to 


 the music 


 AND 


 WITH an IN 


 A , J. HIPKINS , F.S.A 


 WILLIAM 


 NOW 


 AN IDYL 


 A pictorial - music - play 


 the music compose 


 BY 


 HUBERT HERNOMER 


 the lyric by 


 JOSEPH BENNETT 


 R.A 


 201 


 RIL i , 1891 


 the MUSICAL time 


 and singing - class circular . 


 APRIL 1 , 1891 


 the registration of MUSICAL 


 teacher 


 the 


 EDUCATIONAL COUNCIL 


 COUNSES 


 mimet 


 CUS 


 i7 


 _ — _ . 


 the MUSICAL ti 


 1 + } 4 , , } ] 


 204 the MUSICAL ti 


 205 


 a plea for the " word . " 


 206and so if snook , Juggins , Muggins , and 

 tins undertake the task of bring Beethoven 

 ydn , Mozart , and Schubert " up to date , " their 

 be be he to read opposite the name of a 

 Beethoven - Goethe , " 
 * * Gounod - Longtellow 

 instance of the above practice might be multiply 
 ad imfinitum , but we will not weary our reader by 
 any unnecessary iteration . no one can deny the fact 
 that the writer of word receive scant recognition at 
 the hand of those who be responsible for the drawing 
 up of programme or book of word . it be not do 
 wittingly , we believe ; it be in great part an instance of 
 the survival of an unfit tradition , date back to the 
 day when vocal music be represent in its full 




 the AMERICAN COPYRIGHT ACT 


 207 


 AMR 


 44 


 208 


 74 


 10 


 brahm . hark , in thy mellow music , strong and sane 

 Beethoven ’s harmony vibrate again 

 and fill our listen spirit with amaze 

 and trample out the footprint of the dead 

 Dr. Hvusert Parry , lecture at the Royal 
 Institution , be report to have divide composer 
 broadly into two class — the practical - minded , who 
 write for the taste of the day ; and the idealist , who 
 defy the fashion and produce music regulate by 
 their own standard . among the first lot he place 
 Handel , Meyerbeer , and Mendelssohn ; among the 
 second , Bach , Beethoven , and Schumann . we 
 altogether decline to accept Handel and Mendelssohn 
 as mere time - server . 
 master with care , he will discover that instead of 
 go down to the taste of the public , they draw 
 public taste up to they , which be a very different 
 thing , and a point often lose sight of by hasty 
 critic . no man can create a fashion and also 
 slavishly adopt it . Handel and Mendelssohn create 
 a fashion . do Dr. Parry think they ought to have 
 disown it when universally take up 

 another new musical journal , the British Musician 




 211ir can not be too widely know that at the People ’s 
 Palace , in the Mile End Road , three recital be 
 | give every Sunday , in the Queen ’s Hall , on the fine 
 jorgan by Messrs. Lewis and Co. whilst with the 
 iworking class choral music be so extensively 
 | win appreciation , we can not but think that the 
 claim of the organ have hitherto be strangely 
 neglect , and we be glad to find that the East 
 |is now set so noble an example to the West of 
 | London 

 why do not Herr Stavenhagen choose a more 
 difficult piece ? " say a lady in our hearing at the 
 first Philharmonic Concert . ' do he not play it 
 finely , and quite in the spirit of Beethoven ? " say 
 her companion . ' oh ! yes , " be the reply , " but 
 I always hear that he could execute the most 
 |awful passage . " be the degree of difficulty 
 of each pianoforte piece state in the programme 
 and submit to the public before purchase ticket , 
 such disappointment as these would not occur 

 tue progress of Mr. Jacoby ’s Bill forthe suppression 
 of street music as a nuisance will be watch with 
 interest by other musician than organ - grinder . for 
 ourselves , we have no special feeling against the 
 itinerant dispenser of * * sweet sound , " but we would 
 help forward any movement to abate the distracting 
 nerve - destroy noise that make city life a burden . 
 ' let we have peace , " as far as that may be possible 
 in the midst of five million man . woman , and child , 
 to say nothing of horse , dog , and vehicle 




 212 


 I. 1891 


 at 


 ROYAL CHORAL SOCIETYPHILHARMONIC concert 

 there be a very excellent programme provide for the 
 opening Concert of the season at St. James ’s Hall , on the 
 5th ult . the new Shakespearian Overture ' ' Antony and 
 Cleopatra , ' by Anton Rubinstein , judge simply by its 
 merit as music , prove to be a remarkably vigorous 
 example of orchestral writing ; but whether its theme can 
 be construe into illustration of the various incident 
 of the tragedy must be leave to individual interpretation , for 
 the composer have supply no key to his intention in this 
 direction . the performance , under Mr. F. H. Cowen , be 
 excellent , the splendid quality of the orchestra be well 
 bring out . the symphony on this occasion be 
 Beethoven ’s in C minor ( no . 5 ) , which be give in the 
 manner customary with the Philharmonic band ; the opening 
 Allegro be , however , wanting in that clearness in the 
 " impassioned yet mysterious opening , ' the unison 
 phrase of four note , which Beethoven explain as " thus 
 Fate knock at the door . " the Andante be most 

 213 

 delicately present , and the remain portion of the 
 Symphony be excellently perform . Dr. Mackenzie 
 conduct his own graceful , original , and beautiful music to 
 ' ' Ravenswood , " ' which be hear for the first time at these 
 Concerts . the third entr’acte , the Courante in D minor , 
 be give with especial brilliancy , and be receive with 
 the hearty applause . the pianist , Herr Stavenhagen , 
 select Beethoven ’s Concerto in b flat ( no . 2 ) as his chief 
 solo , and give a reading of the Haydn and Mozcart - like 
 passage which be sympathetic and artistic , though it 
 be not throughout of equal excellence . in the second part , 
 his performance of the well - know Polonaise in a flat of 
 Chopin , and a melodious Pastorale of his own composition , 
 give great delight to the audience . Benedict ’s Overture to 
 ' ' the Tempest " ? end the Concert . Madame Nordica , 
 with splendid voice and declamation , give a noble reading 
 of the air from Gounod ’s ' ' Reine de Saba , " " plus grand 

 dans son obscurité , " and in the graceful Polacca from the 
 ' " Esmeralda " ' of Goring Thomas , supply a pleasing 
 | evidence of the versatility of her gift 

 the second Concert ( igth ult . ) be chiefly noticeable 
 |for the first performance in London of an orchestral 
 Symphony , write seventeen year ago , by Mr. C. E 
 Stephens , in competition for a prize which be not gain . 
 it be , perhaps , hardly astonishing that the work come to 
 a hearing only last year , and then at one of Mr. Stockley ’s 
 Birmingham Concerts . Mr. Stephens be not a young and 
 push man , about whom some curiosity be feel . he have 
 write much without win a prominent place among 
 composer , and that of itself be sufficient , as thing go , to 
 explain why his Symphony lie so long without a call to 
 the platform . but Mr. Stephens have not only learn to 
 labour ; he know how to wait , and to the wait man , 
 accord to the french sage , everything come soon or 
 jlater . we congratulate the composer on the opportunity 
 afford he by the Philharmonic director ; do so all 
 the more heartily because his work meet with cordial 
 applause , as a very clever and effective production after 
 the manner of the old symphonic master . Mr. Stephens 
 have obviously follow the bent of his sympathy in 
 choose a model . he have not emulate Beethoven for 
 some very good reason , nor have he follow in the wake 
 of Mendelssohn for other . Mozart , with his wealth of 
 tune and contrapuntal ingenuity , appeal to he as a 
 practicable example , and in the result we have here a 
 mozartian symphony , tuneful and contrapuntal , but with 
 good tune and good counterpoint . of the four movement , 
 we like the Finale least . it be entitle ' Il Carnovale , " but 
 apart from clever and abounding imitation it leave an 
 unsatisfactory impression . the slow movement be ex- 
 pressive , and the detail be somewhat elaborately work 
 with good effect ; the value of the Symphony lie , how- 
 ever , in the first Allegro , a strong example of its kind , and the 
 graceful Minuet with its two trio , the second found upon 
 the inverted theme of the first . here we see Mr. Stephens 
 at his good , and very good it be . if the composer have other 
 work of equal merit in his desk they should forthwith be 
 produce . the performance , conduct by Mr. Stephens 
 in person , be excellent , and at its close there be two 
 recall 

 the rest of the programme need not detain we . it 
 include the overture ' ' Carnaval Romain " and " ' Egmont " ; 
 Schumann ’s Introduction and Allegro for pianoforte and 
 orchestra , in which Mr. Leonard Borwick distinguish him- 
 self ; Max Bruch ’s well - know arrangement for violoncello 
 of ' Kol Nidrei , " charmingly play by Mr. Holmann ; and 
 two pianoforte solo . the vocalist be Madame Valda , who 
 sing Mendelssohn ’s " Infelice ’' very well . Mr. Cowen 
 conduct 




 LONDON SYMPHONY CONCERTS 


 214 


 1891 


 COVENT GARDEN THEATRE 


 BACH CHOIR CONCERTTHE MUSICAL TIMES.—Aprir 1 , 1891 . 215 

 in quarter where modern english composition have not , | considerable ability , and with what Sir Hugh Evans 
 as yet , find very hearty acceptance . ' the performance on | call ' possibility . " he select the concerto in b flat 
 the whole , and with the exception we have notice , be ( no . 2 ) of Brahms , and play in capital style , not perhaps 
 very satisfactory , Professor Stanford conduct with great | absolutely perfect , but still not without show a con- 
 skill , and the choir do their part with an evident sense | spicuous amount of ability . Miss Antoinette Trebelli , 
 of responsibility , and the laudable intention of do justice | exhibit great improvement in volume of voice and 
 tothe new work . the soloist , besides the tenor mention | artistic expression since her last appearance here , sing her 
 above , be Miss Liza Lehmann , Miss Hilda Wilson , and | song so as to secure the most cordial applause . 
 Mr. Watkin Mills ; for the performance of Beethoven’s| an attractive novelty be produce at the Concert of the 
 Choral Fantasia these excellent artist be reinforce by | 21st ult . in Grieg ’s music to Bjérnson ’s drama * Olaf 
 Miss Hughes and Mr. W. White . Mr. Leonard Borwick | Trygvason , " perform for the first time in England . the 
 play the pianoforte solo of the Fantasia with admirable | melody be peculiar , and recall some of the old church 
 vigour and intelligence ; he join Mdlle . Eibenschiitz in a | tone , such as the dorian and hypo - phrygian mode , and 
 fairly good reading of Bach ’s double Concerto in C major , | the archaic character produce be , if possible , intensify by 
 and the programme be complete by the first performance | the somewhat modern colouring impart by the orchestra 
 in England of the two newly discover sacred work by | figure . this be particularly noticeable in the dance 
 Schubert , the offertorium ' ' intende voci orationis mez , ' |measure which accompany the chorus at the word 
 for tenor solo and chorus ; and the melodious ' * tantum | ' * gladly we join in game , " the quaintness of which be 
 ergo , " for quartet and chorus , which be lately publish | far emphasise by the novel rhythm . the whole of the 
 in the Peters ’ edition . the vocal part of the latter be | performance by band and chorus be excellent , and 
 the only portion know to exist at the time of the publica- | Madame Emily Squire and Mr. W. H. Brereton lend 
 tion of the composer ’s sacred music in Breitkopf and | valuable aid in the solo assign to a Woman of the 
 Hartel ’s complete edition . | People , to Volva , and a High Priest . 
 | ' the remainder of the Concert be particularly pleasing , 
 \though little in the way of novelty be present . M. 
 CRYSTAL PALACE . |Ysave make his first appearance here and give a good 
 tue chief novelty in the programme of the Concert of | though not remarkably vigorous reading of Wieniawski ’s 
 the 7th ult . be the Concerto for pianoforte and orchestra , | Vi0lin Concerto in D , dedicate to Seftor Sarasate . M. 
 by Richard Burmeister , a musician of german extraction , | YSa¥¢ also play a prelude and Fugue by Bach extremely 
 now settle in America . it be play by the wife of | well , but his reading - of the introduction and Rondo 
 the composer , Ze Petersen , who , like her husband , be a | Capriccioso of Saint - Saéns be somewhat lack in 
 pupil of Liszt . she now hold the position of Court Drilliancy . the symphonic poem of the last - name 
 pianist to the Duke of Coburg and Gotha , and her qualifi- | composet ; entitle * * Le rouet d’Omphale , " give the band 
 cation as a pianist be of a high order . these be | 4 " admirable opportunity for the display of their artistic 
 show in the most satisfactory way by her sympathetic | skill , a quality which also distinguish the interpretation 
 performance of her husband 's work . though write by a | of anes s wentone te © Rienzi " and Verdi 's " * spring . 
 pianist , and replete with abundance of clever work , and | from the Ballet of ' * the Four Seasons . " in the last piece 
 full of opportunity for the exhibition of skill on the | Mt. G. A. Clinton ’s clarinet obbligato be greatly admire . 
 part of the player , the strong point of the Concerto be not | the same artist be also hear with pleasing effect in 
 to be find in the pianoforte part . the passage for the | Mozart 's recitative and aria ' * Ecco il puento , " which be 
 keyboard be dashing , if not brilliant , and they be cast in | most beautifully sing by Madame Emily Squire . Mr. 
 a mould which indicate conventionality rather than | Brereton ’s fine voice be well show in Purcell Psainadlann 
 originality . in deal with the orchestra the composer be " ' tise , ye subterranean wind . " the whole Concert , 
 altogether on different ground . though it be evidently his | conduct with great skill by Mr. Manns , possess an 
 design to make the accompaniment completely subordinate | # ™ 0unt of interest w hich be equal by its variety . 
 to the chief part , yet he could not conceal a picturesqueness | _ , the arrangement for the Great Triennial Handel 
 of treatment which make his scoring peculiarly attractive | Festival , to be hold in June , be now practically com 
 as well as of particular interest ' to musician . Mr. | Plete . the solo vocalist engage be — Madame Albani , 
 Burmeister have , it be understand , just complete a/| Miss Macintyre , Madame Emily Squire , Madame Nordica , 
 symphony for orchestra , which have be perform in | Miss Marian McKenzie , Madame Belle Cole , Mr. Edward 
 America . this will probably in due course find its way | Lloyd , Mr. Barton McGuckin , Mr. Santley , Mr. Bridson , 
 to England , where it be certain to receive a hearty welcome |2"4 Mr. Brereton . Mr , W. T. Best will be the solo 
 accord to its merit . jorganist ; Mr. Alfred J. Eyre be the organist to the 
 the overture to " twelfth Night , " by Dr. Mackenzie , | Festival . the chorus and orchestra will number 4,000 
 which be admirably play , demonstrate its fine musical | petformer . Mr. August Manns will be the Conductor , as 
 quality and the strength of its design , appeal with | before . the day of meeting be as follow : the great 
 increase interest even to those who have hear it before , | rehearsal , on Friday , June 19 ; " the Messiah . " on 
 and thus secure a genuine hearty welcome . there | Monday , June 22 ; the Selection , on Wednesday , June 24 , 
 be two piece by Berlioz , which have not be hear in jand Israel in Egypt , " on Friday , June 26 . the detail 
 the Concert - room before , both very clever , but neither of a | of the Selection Day programme be not yet complete . it 
 very exhilarating character . the first , a ballad for female /may , however , be mention that Handel 's ne 
 voice and orchestra , " La mort d’Ophélie , " be very | Concerto ( no . 4 ) in F will be perform . by Mr. W. T. 
 expressive and yet sad in tone . the second , also inspire | good ; a selection from the 95th Psalm , write by Handel 
 by Shakespeare ’s play , be a Funeral March after the death | 2 t Cannons , the magnificent seat of the Duke of Chandos ; 
 of Hamlet , in which the peculiar effect of the ejaculatory |the overture to " Semele " ; the overture he s the Opera 
 " ah , " repeat eighteen time by the chorus , be novel , and | " Giustino " ; a Minuet for string , from * * Berenice . " and 
 exhibit the unanimity of the expression of grief . the | the bourrée from the * Water Music , " with other work of 
 remainder of the Concert be take up by the performance | 29 interesting character will be give , 
 of the third act of ' * Tannhauser . " " Miss Thudichum ( who 
 also , by the way , give a bright and facile reading of | 
 Handel 's aria " ' Lusinghe pit care , " from " Alessandro " ' ) , | MONDAY and SATURDAY popular 
 Mr. E. Lloyd , Mr. Barrington Foote , and the Crystal CONCERTS 
 Palace choir , with the band , take part in the performance , | : i 
 which be conduct by Mr. A. Manns with noteworthy | in consequence of the early period at which Easter fail 
 ability . " | this year , the thirty - third season of these entertainment be 
 there be nothing in the way of novelty at the Concert | now at an end , and we be able to chronicle the last cight 
 ofthe ryth ult . Sterndale Bennett 's beautiful Symphony | performance of the series . on Saturday afternoon , 
 have often be hear before . it be always welcome , and |February 28 , a familiar programme be _ present , 
 be never more so than upon this occasion , for it be most | include Beethoven 's quartet in C minor ( Op . 18 , no . 4 ) , 
 carefully and beautifully play . the occasion also served | Schumann ’s Sonata in D minor ( Op . 121 ) , for pianoforte 
 to introduce Mr. Marmaduke Barton , a young pianist of |and violin , and Schubert 's Sonata in A minor ( Op . 42 

 216 

 the MUSICAL TIMES.—Aprit 1 , 1891 

 of Beethoven may be distinctly trace . on the whole , 
 however , we can not pronounce the work , even in its 
 improved form , one of Brahms ’s happy inspiration , 
 one of the most popular work in the entire repertory of 
 these Concerts be Bach ’s Concerto in D minor , for two 
 violin , and it be perform on this occasion by 
 Dr. Joachim and the spanish violinist , Mr. Arbos , 
 who , we understand , be for a time a pupil of the 
 great hungarian artist . though of course in breadth 
 of style and fulness of tone he can not compare with his 
 teacher , he be an extremely artistic and capable performer , 
 and the rendering of the work evidently give the high 

 one of the most important of the season , for it be head | delight to the audience , the last movement be redemande 

 perhaps as a whole the Quintet be not so remarkable for 
 originality in the high sense of the term as either of the 

 two stringed sextet . it be of course finely play , and 
 be receive with enthusiasm by a large audience , include 
 a number of eminent musician . the only other concerted 
 piece in the programme be Beethoven ’s trio in b flat 
 ( Op . 97 ) . the pianist of the evening , Mdlle . Ilona 
 Eibenschiitz , play Chopin ’s Etude in C sharp minor , from 
 Op . 25 — not the one ( op . 10 , no . 4 ) which be set down 
 for she — and also give the same composer ’s scherzo in 
 b flat minor with fair effect . Dr. Joachim repeat Bach ’s 
 ' * Chaconne ’' in his own inimitable manner , and Mr. 
 Orlando Harley render song by Mozart and Clay with 
 tasteful expression 

 on the follow Saturday the Quintet of Brahms be 
 repeat in the presence of an overflow audience , and 
 be again very warmly receive . Miss Fanny Davies , the 
 pianist at this Concert , content herself with two trifling 
 piece by Mendelssohn , and decline an encore . she 
 subsequently join Dr. Joachim in the Adagio from 
 Spohr ’s seventh Concerto in C , and in two intermezzo from 
 a set of five duet for pianoforte and violin , by Robert 
 Fuchs ( Op . 40 ) . they be effective little piece and make 
 the hearer wish to learn more concern a composer who 
 be as yet scarcely know in this country . Mr. Santley be 
 again the vocalist , his selection be Handel ’s fine air 
 ' " Nasce al Bosco ’' and Gounod ’s pretty song ' " ' Le nom de 
 Marie . " ' after the latter he be vociferously encore , and 
 to the great delight of the audience sing Gounod ’s 
 ' " * Nazareth , " in which he be still unequalled . Schumann ’s 
 trio in F ( op . 80 ) bring the programme to a close 

 satisfaction , especially in the first - name composer ’s lovely 
 song ' " * Ruhe siiss Liebchen . " " the Concert end with 
 Haydn ’s genial quartet in D minor ( op . 76 , no . 2 

 a Beethoven programme , on Saturday , the 14th ult , 
 draw an enormous audience , as indeed it be certain to 
 do , with the attraction of two such work as the Quartet 
 in C ( Op . 59 , no . 3 ) and the perennial ' * Kreutzer " Sonata , 
 both be splendidly interpret , and scarcely any among 
 the crowded assemblage leave before the last note have die 
 away . the pianist be Mr. Leonard Borwick , who give 
 a remarkably satisfactory rendering of the theme with 
 variation in e flat ( op . 35)—perhaps the most familiar ot 
 any of Beethoven ’s air with variation , form as it be on 
 the same subject as that of the final movement of the 
 ' * Eroica ’' Symphony . Mr. Norman Salmond revive an 
 air by the italian composer , Vincenzo Righini , who for 
 many year conduct the Italian Opera in Berlin , and also 
 write a number of work in various style , some of which 
 be still occasionally hear in Germany . among they be 
 an opera on the same subject as Mozart ’s ' ' Don Giovanni 

 the penultimate Monday Concert be chiefly noteworthy 
 for the absence of a pianoforte solo . Miss Fanny Davies , 
 whopractise this artistic self - abnegation , take part , however , 
 in Mendelssohn ’s Sonata in D , for pianoforte and violon- 
 cello ( op . 58 ) , and in Mozart 's trio in E ( no . 6 ) , both very 
 popular work . Beethoven ’s quartet in F minor ( op . 95 ) , 
 less frequently perform than several of its companion , 
 commence the programme ; and Dr. Joachim repeat 
 once more his inimitable rendering of Tartini ’s ' 11 Trillo 
 del Diavolo , " add by way of encore a transcription of 
 Schumann ’s * abendlie . " " Mr. Plunket Greene be more 
 than usually successful in his vocal selection . they 
 include Schubert ’s beautiful ' Litanei ' ? and three of 
 Professor Stanford ’s charming irish song , the whole be 
 perform with so much expression as materially to raise the 
 young vocalist in the estimation of his hearer 

 the present , or rather the late season , have be conspicu- 
 ous for the number of pianist , and at the last Saturday 
 Concert another new comer appear in the person of Miss 
 Adelina de Lara , a pupil , we believe , of Madame Schumann . 
 as the young lady ’s effort be confine to two minor 
 piece of Chopin , we can not form a _ comprehensive 
 judgment as to capacity , but her playing be at any rate 
 correct and refined . Miss Eibenschiitz also appear and 
 give Liszt ’s Transcription of Bach ’s Organ Prelude and 
 Fugue in A minor , and Mr. Joachim play Leclair ’s familiar 
 Sarabande and Tambourin , all three soloist be encore . 
 the concerted work be Mozart ’s Quintet in G minor 
 and Beethoven ’s trio in e flat ( op . 70 , no . 2 ) , and the 
 vocalist be Miss Marguerite Hall , whose rendering of 
 song by Schubert , Henschel , and Goring Thomas be un- 
 exceptionable 

 the final performance on Monday , the 23rd ult . , be very 
 attractive , although the piece in the programme and the 
 artist who take part be less numerous than use to be the 
 case at the last Concert of the season . Brahms ’s new Quintet 
 be perform for the third time , and the player be now 
 familiar with their duty give a magnificent interpretation 
 of a work that be evidently destine to bask in the sunshine of 
 popular favour . Mr. Piatti appear to much advantage as 
 a composer in a Serenata in D , for two violoncello . it be 
 an extremely elegant piece in the purely italian style , and 
 be beautifully write for the solo instrument . play to 
 perfection by the composer and Mr. Whitehouse , the 




 p+ 95 ): 


 217 


 MDLLE . JANOTHA ’S concert 


 ROYAL ACADEMY of MUSICROYAL COLLEGE of MUSIC 

 Tue Concert Hall at Alexandra House be most inconveni- 
 ently crowded on February 27 , when the pupil give one 
 of their enjoyable Orchestral Concerts . the programme 
 which be , as usual , a model of its kind , open with 
 Beethoven 's ' " * egment ’' overture and close with 
 Brahms ’s second Symphony . the former receive an 
 almost wholly satisfactory rendering , but in Brahms ’s work 
 a similar high standard be not always reach . the 
 glorious first movement and the brilliant Finale go 
 excellently whenever the enthusiastic young player could 
 revel in aloud tutti , but where clearness , refinement , and 
 expression be want the result be somewhat 
 disappointing . this remark apply especially to the 
 highly original and weirdly fascinating Adagio , which 
 demand the most painstaking interpretation to make it 
 enjoyable or even intelligible . the quick tempo adopt 
 by Professor Holmes rob this movement of much of its 
 significance and do not allow of its wealth of detail and 
 sonority of orchestration be fully bring out . Miss 
 Ethel Webster sing Cldrchen ’s song ' t Die Trommel 
 gerithret , " ' from ' ' Egmont , " and Mendelssohn ’s " ' infelice , " ' 
 in the former of which her fresh , resonant soprano voice 
 tell with much effect , while her pronunciation of the 
 difficult german word be most satisfactory . Mr. 
 Stanley Blagrove play Joachim ’s Nocturne in A for 
 violin , which do not altogether suit his style . Mr. Landon 
 Roland give a refined and intelligent performance of 
 Schumann ’s rarely - hear Concert Allegro for pianoforte 
 ( Op . 134 ) , and Miss Maud Fletcher once more prove her 
 ability as a violoncello player by a finished and impressive 
 rendering of Bruch ’s ' " Kol Nidrei , " which be in danger of 
 become thoroughly hackneyed 

 at the follow Concert , on the 4th ult . , a set of three 
 ' ' Liebesbilder , " ' for viola and pianoforte , by Emil Kreuz , an 
 ex - student of the College , be play . the young com 




 218 


 159 . 


 WIND INSTRUMENT CHAMBER MUSIC 


 societywhat be to follow , be somewhat confused and capable of 

 misinterpretation . the theme of the second section 
 ( andante con variazioni ) , although stamp upon the mind by 
 be first play upon the pianoforte alone , be rather want 
 in distinctiveness ; but the duty subsequently allot to the 
 respective instrument secure attention and evoke curiosity 
 for the precede vagueness or uncertainty the Saltarello 
 make amend . here there be unmistakable spontaneity . at 
 the close of the performance , Mr. Cusins — who play the 
 tax pianoforte portion — be warmly compliment , 
 the Concert begin with Beethoven 's octet in e flat ( Op . 
 103 ) , for two oboe , clarinet , horn , and bassoon , not a 
 composition in which the master appear at his good , not- 
 withstanding that here and there his power of grip the 
 listener be manifest . the final piece be Ratt ’s pleasing 
 Sinfonietta in f major ( Op . 188 ) , for flute , oboe , 
 clarinet , horn , and bassoon ( two of each ) , to which 
 ample justice be do by Messrs. Frederic Griffiths , 
 A. Tootill , Malsch , E. Davies , George and James Clinton , 
 A. Borsdorf , T. Busby , J. Wotton , and F. James . Mr , 
 Charles Winterbottom play the double - bass part in Mr 
 Cusins ’s new Septet . owe to Mr. G. A. Clinton be 
 engage in each of the instrumental piece , it be decide 
 to substitute for Macfarren ’s ' ' pack cloud away " ( in 
 which he be announce to give the clarinet obbligato ) the 
 Polacca from A. Thomas ’s " Mignon . " as Miss Clara 
 Leighton sing this excerpt with much fluency , the 
 audience have no cause to regret the change . the vocalist ’s 
 second essay be Proch ’s showy Air with variation 

 WESTMINSTER ORCHESTRAL SOCIETY 

 PIANOFORTE recital 

 as yet the season have not be prolific in these enter- 
 tainment , and there be some , we fancy , who will feel 
 inclined to say ' for this relief much thank . ' perhaps 
 after Easter foreign pianist will visit we again in shoal as 
 they do last year , but at present they seem content to stay 
 away . on Thursday afternoon , the 12th ult . , however , Miss 
 Agnes Zimmermann , one of the most justly esteem of 
 our resident pianist , give a recital at the Princes ’ Hall , and 
 secure a large audience . the principal piece in her pro- 
 gramme be Beethoven ’s Sonata in D minor ( Op . 31 , 
 no . 2 ) and Schumann ’s ' Etudes Symphoniques . " her 
 playing be noteworthy for purity and good taste , but more 
 vigour might have be infuse , especially in the second 
 great variation and in the brilliant Finale . among the 
 minor piece be a fugue in A minor , by Bach ; two of 
 Scarlatti ’s trifle ; an Arietta , by Leo ; and other piece by 
 Handel , Chopin , Paderewski , Henselt , Cipriani Potter , 
 and Rubinstein . Miss Zimmermann receive much and 
 deserve applause for her refined and correct interpretation 
 of the whole of these well - choose piece 

 Miss Dora Bright ’s Recital in the Princes ’ Hall , on the 
 23rd _ ult . , be also numerously attend . this young 




 PY . 


 the MUSICAL TIMES.—Aprit 1 , 1891 . 219 

 lady have make a reputation for herself , alike as an executant | which cause the general effect to be unsatisfactory . 
 and a composer , but she do not appeal in the latter | Beethoven ’s concerto in G and E flat and Schumann ’s 

 capacity to her audience on the present occasion . her 




 HAMPSTEAD CONSERVATOIRE 


 LONDON SUNDAY SCHOOL CHOIR 


 GUILDHALL SCHOOL of MUSIC 


 TRINITY COLLEGE 


 1,500 


 ROYAL institution 


 220 


 MUSICAL association 


 ROYAL ITALIAN OPERAMr . AuGustus Harris ’s season will open at Covent 
 Garden Theatre on the 6th inst . , when Gluck ’s ' " Orféo , " 
 with Mdlle . Giulia Ravogli , of course , in the title - réle , will 
 be present ; an elaborate mise - en - scéne and ballet will 
 replace the meagre representation of the pleasure of the 
 Elysian Fields witness at the performance of this opera 
 last year 

 it will be see from the important list of opera enumerate 
 below that a season of great promise be before we ; among 
 the important revival will be include Halévy ’s ' La 
 Juive , ’' Wagner 's * * Tannhauser " ' and " Flying Dutchman , " 
 Gounod ’s * Mireille , ’' Beethoven ’s ' Fidelio , " and Flotow ’s 
 " Martha . " Wagner 's " Siegfried " will be give in Italian ; 
 and Gounod ’s * Philémon et Baucis ’’ and Massenet ’s 
 " Manon " in French . the question of the production of 
 Mascagni ’s ' * Cavalleria Rusticana " ' be not settle . with 
 reference to this work sad news come to hand from Vienna 
 that the young composer be in a die condition . Verdi 's 
 " Otello " will definitely be give . the remain opera 
 select for performance are—‘‘Le Prophéte , ’' ' Les 
 Huguenots , ' " ' " * Don Giovanni , " ' Le Nozze di Figaro , " 
 " Guillaume Tell , " " Il Barbiere di Siviglia , ’' ' " Faust , " 
 ' Roméo et Juliette , " ' " ' Lohengrin , " ' ' Die Meistersinger , " 
 ' " ' Aida , " ' Rigoletto , " ' La Traviata , ' ' Il Trovatore , " 
 " Lucia di Lammermoor , " ' * * La Sonnambula , " ' ' * Mefisto- 
 fele , " ' ' ' Carmen , " ' and ' * * Esmeralda 

 the following artist will appear — soprano : Mesdames 
 Albani , Melba , Eames , Sybil Sanderson , Arkel , Tavary , De 
 Lussan , Teleki , Kate Rolla , Behrend , Pinkert , Bauer- 
 meister , and Sofia Ravogli ; contralto : Mesdames Richard , 
 Risley , Agnes Jansen , and Giulia Ravogli ; tenor : MM . 
 Jean de Reszké , Van Dyck , Perotti , Ravelli , Lubert , 
 Gultery , Rinaldini , Corsi , Bieletto , and Montariol ; bari- 
 tone : MM . Lassalle , Devoyod , Sieste , and Maurel ; 
 bass : MM . Edouard de Reszké , Plancon , Isnardon , 
 Abramoff , Fiegna , Miranda , Castelmary , Vaschetti , and 
 Ciampi 




 M. MASSENET ’S " LE MAGE 


 MM . 


 221 


 OBITUARY 


 222 


 MUSIC in BIRMINGHAM . the note of preparation have be sound , and ere 
 long we shall be in the full tide of Festival work . the 
 first meeting of the general committee be hold at the 
 Midland Institute on Friday , February 27 , Dr. Wade in 
 the chair , an announcement be make of the most 
 important new work that would be produce . these 
 include a Requiem Mass by Antonin Dvorak , which , it be 
 hope , the composer will conduct in person ; a dramatic 
 Oratorio , ' ' Eden , ' " ' by Professor Villiers Stanford , the 
 book by Mr , Robert Bridges ; a short Cantata by Dr. A. 
 C. Mackenzie , be a setting for chorus and orchestra of 
 Dryden ’s paraphrase of " Veni , Creator Spiritus ’’ ; and a 
 vocal Duo by Goring Thomas . an invitation have be 
 extend to Sir Arthur Sullivan to compose a work ex- 
 pressly for the Festival , but circumstance do not admit 
 of its acceptance . among other work new to our 
 Festival programme will be Bach ’s Passion Music , St. 
 Matthew ; Dr. Hubert Parry ’s ' ' blest Pair of siren , " 
 and Berlioz ’s ' ' Faust . " " Dr. Richter have delegate to Mr. 
 Stockley the duty of conduct Handel ’s ' Messiah , " 
 which mean that the Robert Franz score will not be use 
 again , this , although acceptable to many musician , be 
 never kindly take to by the public , accustomed as it be 
 to Costa ’s more glittering effect . the Leeds plan of 
 issue serial ticket be to be adopt , and other effort will 
 be make , not too soon , to bring the management of the 
 celebration up to date 

 the third of Messrs. Harrison ’s Popular Concerts take 
 place in the Town Hall on Monday , the 2nd ult . , when Sir 
 Charles Hallé with his orchestra pay his annual visit to 
 the Midland metropolis . the Symphony be Beethoven 's 
 no . 8 , in F , the first and last movement of which be 
 rather tamely perform , but the lovely Allegretto be give 
 to perfection , as be also the Minuet . Grieg ’s ' " Peer 
 Gynt ' be shorn of its first number , apparently for the 
 purpose of allow for an encore of the ' Trold - dan , " 
 which , of course , be redemande . the suite be beauti- 
 fully play , and now , having be hear here three time , 
 may be allow a rest . a magnificent performance of 
 Wagner ’s ' ' Meistersinger ’' Prelude be the great feature 
 of the Concert . Miss Nettie Carpenter , who replace 
 Madame Néruda as violinist , give a very fine exposition of 
 the second Concerto in D minor of Wieniawski , and quite 
 charm her hearer by her dainty execution in Sarasate ’s 

 J 6s 




 NO . 2 ) , 


 JESU , WORD of GOD INCARNATE 


 ANTHEM for LENT . 


 A LTO 


 2 +09 


 ORGAN . 


 CTES 


 cte . 


 AVE VERUM 


 104 


 SS 


 ‘ NSTHE MUSICAL TIMES.—Aprix 1 , 1891 

 Beethoven ’s Choral Fantasia be give , with Dr. Rowland 
 Winn at the pianoforte , and Mr. Horace Wilson and Mr. 
 Fred . Bates assist as vocalist . the Concert be under 
 the direction of Mr. George Halford 

 MUSIC in BRADFORD . 
 ( from our own correspondent 




 227 


 MUSIC in DUBLIN . 


 from our own correspondent 


 MUSIC in BRISTOL . 


 ( from our own correspondent 


 228 


 EDINBURGH and the EAST of 


 SCOTLAND 


 MUSIC infrom our own correspondent 

 Ture Annual Concert of the Philosophical Institution , 
 which take place on the rith ult . , be look upon as the 
 close of our regular ' importation ' ? music season , and in 
 programme and performance be always calculate to 
 remove unpleasant taste and cleanse the public palate . 
 Dr. Joachim , Signor Piatti , and Miss Fanny Davies be , 
 as usual , the instrumentalist , and in their solo , as 
 well as in an interesting trio by Brahms ( Op . 8) and 
 Beethoven ’s beautiful Op . 70 , they fulfil all expectation . 
 the vocalist be Madame Amy Sherwin . she win 
 encore for a charming song by Georgette Peterson , " Ein 
 Traum , " and also for Viardot ’s " ' Aime - moi , " an adaptation 
 of a Chopin Mazurka . ' song my mother teach I , " a 
 quaint bohemian melody by Dvorak , be also very success- 
 fully sing 

 on the same afternoon ( the 11th ult . ) Dr. Joachim be 
 present at the open meeting of the Edinburgh Bach 
 Society ( third season ) . a large attendance of member and 
 friend testify to the growth of the Society and to the 
 interest it be awaken . Mr. Lichtenstein be in the chair , 
 in the unavoidable absence of the President , and Mr. 
 Franklin Peterson ( Hon . Secretary ) submit an encour- 
 age report . there be now considerably more than 100 
 member belong to the Society , and there be a substantial 
 surplus carry over from last year . Dr. Joachim compli- 
 mente the Society on its aim and work , and say that all 
 musician unite in reverence the name of Bach , ' the 
 great and everlasting fountain of all modern harmony . " 
 he also warmly praise the excellent performance , by Miss 
 Lichtenstein , Messrs. Dace , Collinson , and a string quintet 
 ( Messrs. Waddel , Mackenzie , Craig , Gallrein , and Laubach ) , 
 of the Triple Pianoforte Concerto in D minor ; and speak of 
 two historical performance which he have hear in former 
 year by Mendelssohn , Moscheles , and Thalberg in 
 London , and by Madame Schumann , Mendelssohn , and 
 Hiller in Leipzig . Mr , Collinson also play the C sharp 
 minor prelude and fugue 




 229 


 music in GLASGOW . 


 ( from our own correspondentwork be give in St. Mary ’s Parish Church , Partick ; and 
 on the roth ult . the seventh concert by the Glasgow 
 Quartet Society take place . on this occasion Mr. Sons 
 and his coadjutor show a remarkable advance on their 
 previous effort ; there be an altogether delightful perform- 
 ance of Haydn ’s engaging quartet in G ( Op . 64 ) , and in 
 Mendelssohn ’s ever - welcome C minor Trio the executant 
 be thoroughly at home . in the last - name piece Mr. 
 Philip Halstead win fresh laurel as the exponent of the 
 pianoforte part . so good a player can not , it would seem , 
 be retain in Glasgow , the young artist having resolve to 
 venture upon a London career 

 Mr. Hall Woolnoth , another excellent local pianist , have 
 also decide to settle down on the bank of the Thames , 
 and Glasgow amateur can only express their regret at the 
 loss of a couple of such talented musician . these feeling 
 be make fully manifest , it ought to be say , on the after- 
 noon of the 14th ult . , when Messrs. Halstead and Woolnoth 
 give the first of a series of Recitals on the plan carry out 
 last season with such remarkable success . the bill of fare 
 include Beethoven 's so - call ' ' Pastoral ' ? sonata , Men- 
 delssohn ’s Fugue in D major , and a store of good thing 
 from the pen of Schumann , Nicodé , Gouvy , and Gade , 
 which amateur seldom meet with in Concert programme 

 MUSIC in LEEDS and HUDDERSFIELD 




 MUSIC in LIVERPOOL and DISTRICT . 


 230 


 MUSIC in MANCHESTER . 


 ( from our own correspondent 


 MUSIC in OXFORD . 


 ( from our own correspondent 


 231 


 MUSIC in SHEFFIELD . 


 ( from our own correspondentsary by the purpose for which it be write , may , however , 
 be omit in performance . the Cantata as a whole be a 
 work that do the high credit to Mr. Coward . the 
 orchestration be admirable throughout , and his vocal writing 
 be happy and effective . the performance be in every 
 respect worthy of the work . the soloist be Miss Kate 
 Flinn , Miss Dews , and Mr. J. Browning . Mr. J. Peck lead 
 the band , Mr. J. W. Phillips be organist , and the com- 
 poser conduct . ' the story of Bethany " can be con- 
 fidently recommend to provincial choral society and 
 choir . the narrative be interesting , and the music 
 excellent 

 the Hanover Choral Society give a Concert on the 
 same date , singe excerpt from the work of Haydn 
 ( the ' creation ’' ) , Beethoven ( ' ' mount of Olives ’' ) , 
 Mendelssohn , and Gounod . Miss Dews and Mr. W. 
 Foxon be the vocalist . Mr. J. W. Phillips play organ 
 solo , and Mr. T. Morton conduct 

 on the 17th ult . Sir Charles Hallé revisit the town , 
 accompany by Miss Alice Gomez as vocalist , Mr. 
 Willy Hess as solo violinist , and six of the lead 
 member of his famous Manchester orchestra . Hummel ’s 
 Septet in D minor , Brahms ’s Trio in e flat , and other piece 
 be successfully perform 




 232Mr . Cuares Fry ’s Recital ofthe ' ' Merchant of Venice , " 
 with Sullivan ’s incidental music , at the Birkbeck Institution , 
 on the 18th ult . , attract a very large audience , who be 
 very hearty in their appreciation of the artistic combina- 
 tion of recitation and music set before they . with the aid 
 of a small but efficient orchestra ( string and pianoforte ) , 
 lead by Mr. T. E. Gatehouse , and conduct by Mr. 
 Berthold Tours , a spirited reading of Sir Arthur Sulli- 
 van ’s charming and appropriate music be give , the 
 Bourrée especially narrowly escape an encore . Mr. 
 Edwin Bryant sing the Serenade with much effect , and 
 Pinsuti ’s part - song ' tell I where be fancy breed ' be 
 sing by Miss Willis , Miss Tombleson , Mr. Bryant , and Mr. 
 Burgess in the third act . completeness be give to the 
 Recital by some short but very etfective entr’acte movement 
 write by Mr. Tours and Mr. H. M. Higgs , notably 
 the March write by the first - name composer for the 
 Trial Scene . Mr. Fry be particularly successful in the 
 scene between Shylock and Tubal , and in the Trial Scene , 
 and he be recall very heartily at the end of the Recital 

 Tue Bow and Bromley Institute Choir give a performance 
 of Beethoven ’s Mass in C , on the 14th ult . , before an 
 audience that fill the Institute Hall to its utmost 
 capacity . the principal be Miss Naomi Hardy and 
 three student from the Royal Academy of Music — viz . , 
 Miss Violet Robinson , Mr. Maurice Aubrey , and Mr. B. 
 Mayne . the accompaniment be perform by a capital 
 band , mostly amateur , aid by Mr. Fountain Meen at the 
 organ . the work be receive with many demonstration 
 of approval , the beautiful Benedictus especially make a 
 deep impression . in the second part the band play 
 Auber ’s Overture ' * Marco Spada " with great spirit , the prin- 
 cipal each contribute a song , and the choir sing Gounod ’s 
 ' " * by Babylon ’s Wave . " Miss Hardy ’s singing of Grieg ’s 
 setting of Solveig ’s Song ( ' * Peer Gynt ’' ) and of Henschel ’s 
 Spinning Wheel Song , and Miss Robinson ’s reading of 
 an old french air , ' * Marguerite , ' deserve special com- 
 mendation . the Concert be conduct by Mr. W. 
 G. McNaught 

 Miss IsABELLA DONKERSLEY , lately a pupil of the Royal 
 College of Music , whose violin playing have be frequently 
 notice with approval , give a Concert at Kensington Town 
 Hall on the afternoon of the 12th ult . , presumably to mark 
 the close of her student ’s career and her first appearance 
 as a public performer . the result may well be describe 
 as thoroughly satisfactory . the young lady have a remark- 
 ably fine tone and an excellent command of expression , 
 which quality be well exhibit in Brahms ’s last Piano- 
 forte and Violin Sonata , and in Bruch ’s romance in a 
 minor , to which Miss Donkersley do full justice . she also 
 lead Mendelssohn ’s Quartet in e flat , for string , and 
 Schumann ’s " Fantasiestiicke " ( Op . 88 ) , with great ability , 
 and what remain to be add to make she a finish 
 quartet player we have no doubt industry and artistic zeal 
 will soon supply . Miss Donkersley be ably assist by 
 several of her late fellow - student , Miss Annie Fry , Mr. W. 
 Stephenson , Mr. A. Hobday , and Miss Maud Fletcher 

 in which to hold its rehearsal and performance . on the 
 12th ult . the choir , assist by the orchestral band ally to 
 the Society , give a performance of Schubert 's " Song of 
 Miriam " before a large audience . this fine dramatic 
 | work be give with considerable effect , although the 
 | choir be not numerous enough to balance the somewhat 
 powerful body of string in the band . Miss Naomi Hardy 
 sing the soprano solo ( which have an extraordinary range } 
 with ample power and fine expression . in the miscella 

 neous part of the Concert the most noticeable piece be 
 the excellent violin playing of Miss Gwynne Kimpton in 
 , the Air Varié by Vieuxtemps , and the neat fluent playing 
 of Miss Marion Clapton in the Rondo from Beethoven 's 
 | Concerto in C major . 
 W. G. McNaught 

 the Society be conduct by Mr 

 Mr. W. pe MAnsy SERGISON direct a performance of 
 the first and second part of ' the redemption " at St. 
 Peter ’s , Eaton Square , on Thursdays , the 5th and 12th ult , 
 and on Good Friday , with organ , harp , and trumpet 
 accompaniment , all without Conductor . the chorus 
 singer have all be prepare by he , and the great 
 number of the soloist be his private pupil — Mr. Charles 
 Ackerman , Masters Wood and Simons ; narrator , Mr. W. 
 Halker Boult . at the two Thursday performance Mr. 
 Dalzell , of Westminster Abbey , sing the tenor solo , 
 Mr. Gregory Hast take they on Good Friday . Mr. 
 Sergison also accompany on the organ a performance of 
 the St. Matthew Passion of Bach , which be give on 
 Thursday , the roth ult 

 on Tuesday , the roth ult . , Miss Ethel and Mr. Harold 
 Bauer give one of their agreeable Chamber Concerts at the 
 Princes ’ Hall . unfortunately the event clash with the 
 Concert of the Bach Choir , and this , together with the 
 repellent weather , doubtless unfavourably affect the 
 attendance . the programme be by no mean of a 
 hackneyed character , among the piece be Spohr ’s double 
 concerto in B minor , for violin , which be perform by 
 Mr. and Miss Winifred Bauer , and also Liszt ’s rarely- 
 hear " Concerto Pathétique " ' in e minor , for two pianoforte . 
 Mr. Bauer ’s principal solo be Bach ’s ' * Chaconne . " Miss 
 Ethel Bauer play Beethoven ’s Sonata in F sharp ( op . 75 ) 
 |and also some piece by Chopin , include the Polonaise 
 ' ( Op . 53 ) in a flat 

 a successful concert be give by Mr. W. H. Eayres , 
 ' the well know violinist , on the 3rd . ult . , at Holloway Hall , 
 ‘ in aid of the North London Nursing Association . the 
 _ concert - giver be assist by Miss Agnes Larkcom , Miss 




 M.L 


 233 


 review 


 235 


 foreign note . upon the modest personality and simple habit of the 
 pianist composer , ' * with whom have pass away the last of 

 the real pupil of Beethoven who have imbibe the spirit of 

 his composition from the personal demonstration thereof 
 by the master 

 a project for the erection at one of the public place at 

 that capital of the combine statue of the three great 
 german classic , Haydn , Mozart , and Beethoven , be obtain- 
 e influential support at Berlin , and a committee have 
 already be form for the purpose of carry it out 

 for the forthcoming representation of ' Parsifal , ’' 
 " Tristan und Isolde , " and ' ' Tannhauser " ' at the Bayreuth 
 Festspielhaus , the following cast of the leading part have be 
 definitely arrange — viz . , for ' * Parsifal ’' : MM . Van Dyck 
 and Griining , Parsifal ; Grengg and Wiegand , Gurnemanz ; 
 Reichmann and Scheidemantel , Amfortas ; Mesdames Mal- 
 ten , Mailhac , and Materna , Aundry . for " Tristan und 
 Isolde ' : MM . Alvary , Tristan ; Wiegand , Marke ; Plank , 
 Kurwenal ; Madame Sucher , Jsv / de . for ' * Tannhauser " ' : 
 MM , Alvary and Van Dyck , Tannhduser ; Reichmann and 
 Scheidemantel , Wolfram ; Doring , Landgraf ; Mesdames 
 Sucher and Mailhac , Venus ; the part of Elizabeth have not , 
 asyet , be finally cast . chorus and orchestra will , with 
 few exception , be identical with those of the Festspiele in 
 1889 . MM . Levi , of Munich , and Mottl , of Carlsruhe , 
 will again be the conductor 

 a reproduction in photogravure of the portrait of the 
 Countess Therese von Brunswick , Beethoven ’s * * Unsterb- 
 liche Geliebte , " will shortly be publish by authority of 
 the Beethoven Haus , of Bonn 

 an interesting exhibition relate to the life and work of 
 the poet Grillparzer be just now on view at the new 
 Rathaus , of Vienna . 
 both Beethoven and Schubert , be himself an enthusiastic 
 music lover , and have study counterpoint under Sechter . 
 among the exhibit relate to the art , mostly contribute 
 bythe Viennese Gesellschaft der Musikfreunde , there be a 
 tumber of song compose by the poet 

 the german opera at Rotterdam , which have be 
 tarye on a struggle existence for some year past , 
 8 now defunct . there be also a french operatic 
 company station in Holland , which , however , appear 
 ‘ o meet with scarcely well support . the public — more 
 ‘ specially the middle class — very naturally prefer to 
 fear opera sing in the native tongue , for which every 
 opportunity be afford in a country which possess , 
 moreover , several concert institution of the very high 
 order 

 already announce , in July next , at Aix - la - Chapelle — viz 

 Haydn ’s ' * season , " ' scene from ' " ' Faust ' ? ( Schumann ) , 
 | Beethoven ’s C minor Symphony and Brahms ’s Symphony 
 lin F , Concerto for two orchestra ( Handel ) , Beethoven 's 
 | Pianoforte Concertoin E flat major , and Berlioz ’s * ' Carnaval 
 | Romain . " Mr. Eugene d’Albert will be the solo pianist . 
 | the most important performance which have as yet take 

 place outside of Italy of Mascagni ’s opera * Cavalleria 
 | Rusticana ’' be give at the Imperial Opera of Vienna , 
 |}on the 2oth ult . , inthe presence of the Emperor . it wasa 
 | great success , and the director and the artist be call 
 | before the curtain repeatedly 




 236Mr . Frederic Lamond , the gifted scottish pianist , give a 
 very successful concert lately at Frankfurt - on - Main , and 
 his performance be refer to in most appreciative and 
 sympathetic term in the local press 

 two remarkable special performance of Beethoven ’s 
 " Fidelio ' ? take place on February 22 and 23 , at the 
 Meiningen Hof - Theater , the receipt be devote to the 
 Beethoven - Haus Fund , at Bonn . ' the art - love duke 
 of the principality have take a personal interest in the 
 mounting and rehearsing of the noble work , the performance 
 of which be describe as one of surpass excellence . the 
 chorus more especially produce an indescribable effect , 
 the body be recruit by a number of well - train 
 amateur of both sex , some of they belong to the 
 high circle of the town 

 a Symphony in B minor , by the russian composer A. 
 Borodin , be perform last month , for the first time in 
 Germany , by the Mannheim orchestra , under the con- 
 ductorship of Herr Felix Weingartner , and be receive 
 with considerable favour on the part of a critical audience 




 CORRESPONDENCE 


 the late E. A. SYDENHAM . 


 to the editor of ' * the MUSICAL TIMES . " the MUSICAL ' TIMES.—Apri . 1 , 1891 . 237 

 ap . if = i icable for | Henry Beaumont , and Mr. Musgrove Tufnail . ~ Dr. Abram give as a 
 late Mr. E. A. Sydenham . would it not be practicable - solo the first and third movement of Beethoven 's ' ' Sonata Pathétique " 
 other organist to endeavour to take the same course and | ( Op . 13 ) , both of which be play with artistic finish and expression . 
 thus acknowledge ina practical way the good work , as a | in the evening a special service be hold , when Spohr 's Calvary be 

 30 § essfully | give with very great effect by Dr. Abram ’s Choral Union and the 
 church composer , that the late gentleman so successfu y choir of the church , accompany by Mr. E. Kennard , and the whole 

 accompany all communication . emphasise the noteworthy episode in the career of this veteran society 
 we can not undertake to return offer contribution ; the author , | one of its member have draw up and print in pamphlet form a few 
 therefore , will do well to retain copy . | " record , " cull from the minute of the Society and other source 

 copy of which be distribute to the audience at the Concert . the 
 aim of the Philharmonic have always be the improvement of instru- 
 mental music in the city , and the performance of the band at their 
 Jubilee prove that the aim have be a true one , for the work select 
 Mozart 's Symphony ( no . 6 ) ' Jupiter , " ' Schubert ’s " unfinished " sym- 
 phony in b minor , the overture to Der Freischiitz , and Romberg 's 
 overture in D ( Op . 60 ) , be capitally play under the bdton of Dr. 
 Horace Hill ; the delicate shading require in Schubert 's lovely music 
 be especially emphasise . one of the feature of the Concert be 
 Beethoven 's quintet ( Op . 16 ) , plave by Mr. Kingston Rudd ( pianoforte ) , 
 ( 2 ) the salary be usually pay out of the Parish fund , and the | Mr. E. V. Davis ( oboe ) , Mr. W. L. Crosby ( clarinet ) , Mr. W. Brighton 
 Churchwardens usually fix the sum . if the incumbent fix the | ( bassoon ) , and Mr. A. Borsdorf ( horn ) ; while Mr. Crosby , in conjunc- 
 salary it would probably render he personally liable for its payment . |tion with Mr. Rudd , give a fine reading of the second and last 
 ( 3 ) the Churchwarden would render himself personally liable for the | movement of Weber 's Grand Duo in e flat ( Op . 48 ) , for clarinet and 
 payment of the Organist 's salary . see " organ and organist , " by pianoforte . Miss Ada Loaring be the vocalist engage . an interest- 
 W.C. A. Blew , M.A. ( Reeves , Fleet Street ) . e incident in connection with the Jubilee occur at the rehearsal 
 on Wednesday evening , when the conductor and leader ( Dr. Horace 
 — — Hill and Mr. F. W. B. Noverre ) be present with handsome 
 + | testimonial — Grove 's " Dictionary of Music " to Dr. Hill , and to 
 BRIEF SUMMARY of cou ntry NEWS . | Mr. Noverre a handsomely frame proof of the etching by Lowenstam 
 we do not hold ourselves responsible for any opinion express in | 0 m the picture by Bruck Lajos , * the Quartet . " 
 this summary , as all the notice be either collate from the local| Presrox.—An interesting lecture on Handel be give by Mr. 
 tapers or supply to we by correspondent . | E. Minshall , Organist and Director of the Music at the City Temple , 
 CuarELTOWN.—The Choral Society give their annual Concert in the | iM connection with the Wesleyan Literary Society , on the oth ult . 
 Wesleyan Chapel on the r6th ult . the work perform be Rossini ’s | 5¢l¢ction from several oratorio be excellently perform by solo 
 tabat ’ Mater and Mendelssohn 's Hymn of Praise . the principal | vocalist and a choir under the direction of Mr. T. Hogg , who preside 
 be Miss Marjorie Eaton , Mrs. Creser , Mr. Seymour Jackson , and Mr. | & t the organ . 
 ] . Tillington . Miss Eaton be encore for the " inflammatus , " a| SHEERNESS.—The Choral Society give their third Concert at the 
 compliment which she share with Mrs. Creser for the duet ' Quis est | Victoria Hall on the 3rd ult . , under their Conductor , Mr. W. H. 
 Homo . " the chorus do their share of the work well . Mr. Peck , of | Shrubsole , with the aid of Mrs. Isabel George , Mrs. Sutton Shepley , 
 Sheffield , lead the band , and Mr. J. Sool conduct . | Mr. J. Gawthrop , Mr. Sutton Shepley , and an orchestra compose of 
 |member of the R.E.(Chatham ) , Admiral 's Band ( Sheerness ) , and 
 | member of the Society , with a chorus of eighty voice . Handel 's 
 | Dettingen Te Deum form the first part of the programme . the 
 second part be miscellaneous , and among the most pleasing number 
 be " O memory " ( Leslie ) , " in this hour " ( Pinsuti ) , " spin 
 wheel quartet " ( Marta ) , by the soloist ; cornet solo ( " * lost chord " ) 
 by Sergt . Conquer , R.E. ; ' ' haste thee , nymph , " and Faning 's " song 
 of the viking , " by the chorus . Mr. A. E. Black be the accompanist 

 notice be send to all subscriber whose payment ( in advance ) be ex- 
 hauste . the paper will be discontinue where the subscription be 
 not renew . we again remind those who be disappoint in 
 obtain back number that , although the music be always keep 
 in stock , only a sufficient quantity of the rest of the paper be 
 print to supply the current sale 

 h.—(1 ) Lhe incumbent have virtually the appointment of the organist 

 CuicHESTER.—The Annual Concert of the Temperance Choral 
 Society be give on the oth ult . , when Gaul ’s Holy City , Mendelssohn 's 
 hear my Prayer , and selection from the work of Beethoven , Handei , 
 and Gounod be perform . the solo vocalist be Miss Mary 
 Richardson , Miss Ethel Smith , Mr. Charles Pillow , and Mr. George 
 Fielder ; solo violin , Mr. A. G. Whitehead ; harmonium , Mr. H. P. 
 Allen ; pianoforte , Mrs. Dean . Mr. Seymour Kelly conduct 

 ForpHAM , CAMBRIDGESHIRE.—A very successful Concert be give 
 othe 2nd ult . in the National Schoolrooms . the vocalist be 
 Miss Agnes Walker , Madame Lyndsey , Mr. Holberry Hagyard , and 
 Mr. Schenk . Miss Agnes Walker give an excellent interpretation of 
 " Leonore ' and " the spanish Gipsy . " the duet , " in the dusk of the 
 twilight , " by Miss Agnes Walker and Madame Lyndsey , be encore 

 the principal part be sus 

 York.—The Musical Society give a Concert in the Festival Concert 
 Room on Tuesday , the roth ult . , when the principal performer be 
 Miss Florence Bethell , Miss. Kate Lewis , Mr. Braxton Smith , 
 Mr. Ffrangcon Davies , Miss Donkersley ( solo violin ) , _ and Miss 
 Kate Ross ( pianist ) the conductor be Mr. R. Burton . 
 vocal selection from the work of Spohr , Gounod , Benedict , Barnby , 
 Costa , Mendelssohn , Rossini , ca Beethoven , set to word of sacred 
 import , be give in the first part ; some madrigal , song , and a 
 portion of Mendelssohn 's Loreley in the second part 

 OrGAN AppoiIntTMENTS.—Mr . F. Brayshaw , Organist and choir- 
 master to Bromfield Paris sh Church , near Ludlow.—Mr . Frank E. 
 Bessell , Organist and choirmaster to Caynham Parish Church , near 
 Ludlow.—Mr . Arthur G. Charles 
 Katherine Cree Church , City.—Mr . J. G. Cooper , Organist and choir- 
 master to the Parish Church , Biggleswade , Beds.—Mr . F. J. Dugard , 
 organist and choirmaster to St. Clement 's , Bournemouth.—Mr . 
 } . Herbert Chalmers , Organist and choirmaster to Holy Trinity 
 Church , Henley - on - Thames.—Mr . Henry A. Hurdle , organist and | 
 choirmaster to the Parish Church , Weymouth . — Mr. Arthur Mangel- | 
 worff , organist and choirmaster to the Parish Church , Ottenham , | 
 Cambridge.—Mr . Richard A. Northcott , Organist to the Swiss Church , 
 Endell Street , Long Acre.—Mr . George F. Mountford , Organist and 
 choirmaster to the Paris h Church , Mullingar , Ireland.—Mr . John 
 Symons , Organist and choirmaster to St. Mary 's Church , Spital 
 Square.—Mr . Leonard M.S. O'Connor , 
 Oxford.—Mr . W. E. Bell Porter , Organist and choirmasterto St. 
 Paul ’s , Worcester.-Mr . Stretton Swann , Organist to St. Olave 's , 
 Southwark.—Mr Henry S. Webster , Organist and choirmaster to St. 
 Mark ’s , North Audley Street.—Mr . S. R. Young , to St. Andrew 's , 
 Peckham 




 content 


 e ) 


 INN NVNNNHN 


 NNNN 


 NR ND 


 I , 1891 . 


 - the ) MUSICAL time 


 scale of term for advertisement 


 special notice . 


 | not later than the twenty - third 


 | of each month 


 NEY , revise , and enlarge edition 


 TEW , revise , and enlarge edition 


 MADAME HADIN 


 LONDON ORGAN SCHOOL and 


 COLLEGE of MUSIC . 


 ORGANIST 


 RE- 


 MR . TUDDENHAM ’S ) 


 | MUSICAL AGENCY 


 _ 304 , REGENT STREET , OXFORD CIRCUS , W. 


 £ 20 HYMN tune competition . £ 10 


 full anthem for whitsuntide . 


 let not your heart be trouble 


 compose by 


 CALEB SIMPER , 


 LORD , O JE RUSALE M 


 PRAISE the 


 will greatly rejoice in the LORD 


 sixty - one 


 melody and unfigure bass 


 candidate for DIPLOMAS 


 BY 


 I.C.0 


 MR . W. B. HEALEY ’S 


 17 , GREAT MARLBOROUGH STREET , W. 


 ( next to MESSRS . ERARD’S. ) 


 telegraphic address — * ' HEALEY ’s AGENCY , LONDON 


 VAL , in O¢ 


 BERTHA MOORE EMILY SPADA 


 MARIE TITIENS 


 MEREDYTH ELLIOT 


 AGNES JANSON 


 AND 


 LENE KEHEW 


 CHAS . BANKS 


 DWIN HOUGHTON 


 BRANSCOMBE 


 C. CHILLEY 


 RAN TON SMITH 


 JURWARD LELY 


 HOLBERRY HAGYARD 


 IRLANDO HARLEY 


 WILLIAM NICHOLL 


 YYVED LEWYS 


 ERCY PALMER 


 AND 


 PHILIP NEWBURY 


 DEWS 


 PATTI WINTER 


 CARLOTTA DESVIGNES 


 MARY MORGAN 


 ALICE STEEL 


 AND 


 MARIE ATHOL 


 ANDREW BLACK 


 BANTOCK PIERPOINT 


 BARRINGTON FOOTE 


 EDWARD GRIME 


 W. H. BRERETON 


 HERBERT THORNDIKE 


 EDWARD OWEN 


 JOHN GRITTON 


 HENRY POPE 


 R. HILTON 


 CHARLES MANNERS 


 JOHN PROUSE 


 M. MAYBRICK 


 W. LUDWIG 


 AND 


 SIGNOR FOLI 


 instrumentalist 


 humorous and musical recital . MR . ALAN CAMPBELL , MUSICAL SKETCHES 


 W. B. HEALEY 


 17 , GREAT MARLBOROUGH STREET , W 


 SOLO PIANIST 


 MR 


 ALEXANDER LUCYLate Pupil of the Royal Conservatorium , Leipzig , Germany 

 Mr. Lucy play three of Beethoven ’s Sonatas ir : " that he have a powerful touch be evident by hi 

 first part , the third of which , at least the Appassionata , rendering of Liszt 's ' Rhapsodie Honegroise * ' ( no . 12 

 thoroughly capable musician , able not only to play , but to the close and during the recital Mr. Lucy be warm ! 
 play well and with thought and feeling the by no means applaud . " Evening News , January 14 , 18go 

 eee ee si in the procramme Te plavs Pe : : . , 
 easy selection set down in the programme . .. . he play selection from Mozart , Liszt , Beethoven , Chopin , and 

 py t , ynilar } } h aid Pa yaieaq ] 
 > manner now popular without the aid of < isica tia Si ' ; 
 in the manner now popul 1 € aid of a musical Mendelssohn be choose for the pianoforte , Mr. Lucy 

 ore . a — ee f his accom o the fea f ooing . — 1 9 ae 
 score , and the fact of his accomp ! 1 g the teat of goINs show remarkable talent . ”—Scottish Leader , January 1 ; 
 through each of these item in turn correctly be evidence of 
 a musical memory of no ordinary kind . ’—North British ee : . 
 ' " : " Mr. Lucy have a most gratifying reception . his per 

 h 
 Jaily Mail , December 6 , . 
 . 1 tl 1 formance be clever and accomplished exhibition of sol 
 ' * he play three Beethoven ; ' Favs ee ; 
 ; play pianoforte playing of the modern school North Brit 
 Appassionata , from memory and al , 
 Quy subadid , LeEDIuUary 3 % , LOgO 
 ake , . , Daily 3 ¥ 3 , Ldgo . 
 ciently noteworthy performance . the good thing he do — 
 oe * 66 tt 1 ¢ a ] + > ar M se nant afr 
 : be ee n this part also the accomplished young pianist , Mr. 
 was Mendelssohn ’s Rondo Capriccioso , which he render e i . > | 
 give two solo — Liszt ’s ' Rhapsodie Hon 

 ID 

 finger , and with a fine most intelligent variation of 

 pias " ' ee . heartily encore , and in each case the encore be obligingly 
 light and shade . this be follow by Liszt ’s ' Rhapsodie : Hit 
 ae : re ' 5 respond to with another piece . ”-——North British Dai 
 Hongroise ' ( no . 12 ) , in which reticent and tasteful com- 
 ‘ . ; er Mail , March 8 , 18go . 
 mand of a powerfu ! touch and fine expressive feeling be 9 
 ~ , ' Bak : . " Mr Seer a eae » solos incipal featur 
 alternately show . the more exacting work of Beethoven 's Mr. Lucy ’s pianoforte solo form the principal feature 
 ; ee ff theevenins . and the - ac lishe alent yung 
 Sonata ( Op . go ) in e minor be well execute , and he % te evening , and te accomplished and talented young 
 pianist show at his good . he give item from Beethoven 

 Chopin , and Liszt , and in all of they display 




 24 , 1991 


 81 , POLLOKSHAWS ROAD , GLASGOW , 


 SCOTLAND 


 DANIEL MAYER , 


 CONCERT and OPERA AGENT , 180 , NEW bond str 


 list of artist . 


 vocalist 


 MEZZO - SOPRANO 


 CONTRALTO 


 ROYAL ENGINE } 


 and 


 244 


 anthem 


 LORD , we know not 


 anthem for whitsuntide 


 compose by 


 » . C. COOKE , 


 A CLOSER WALK with GOD 


 anthem for WHITSUNTIDE 


 compose by 


 SINCLAIR DUNN . 


 3Y 


 E. A. SYDENHAM . 


 a congregational setting of ° 


 festival anthem 


 CHURCH MUSIC 


 EDWARD BUNN 


 the prece and response 


 with the litany 


 also the 


 POPULAR 


 anthem 


 service . 


 SECULAR . 


 ANTHEM.—I will not 


 special WHITSUNTIDE music . 


 CHURCH MUSIC 


 BY 


 THIRSTETH 


 MY SOUL 


 NOT 


 the 


 CATHEDRAL PRAYER book 


 be the 


 BOOK of COMMON PRAYER 


 WITH the music necessary for the use of choir 


 together with the 


 canticle and PSALTER 


 point for chanting 


 edit by 


 AND 


 extract from editor ’ preface . 


 edition . 


 LONDON & NEW YORK : NOVELLO , EWER and CO 


 246 


 the BRISTOL TUNE - book 


 to match EITHER edition 


 the BOOK of PSAL‘S 


 DIBLE version 


 the ANGLICAN 


 TU _ -B BOOK 


 anthem . 


 . THUS SAITH the LORD , I ( * ISRAELI 


 THY W ‘ or KS PRAISE 


 THEE , O LOR 


 E.C , 


 ERLIOZ ’S TE DEUM 


 TZOR MALE V OICE CHOIR.- 


 — the NATIONAL 


 CHURCH MUSIC 


 BY 


 5 OXON 


 J RE ‘ SPONSI : 


 second serie 


 INGE 


 " ALTER and 


 ‘ the ANGLICAN CHANT . -BOOK , 


 JOULE 'S COLLECTION 0 chant , 57 


 YOULE ’S 


 J CANUM . 1 


 TOULE ’S 


 two anthem , S 


 DWELLINGS . 


 _ CHORI ANGLI . 


 DIRECTORIUM CHORI 


 ANGLI 


 * he ORDER for the HOLY COMMUNION , 


 TE DE UM IN F 


 compose by 


 T. MEE PATTISON . 


 IF YE 


 NEW 


 LOVE I 


 ME THY WAY 


 HURCH , 


 BOOK , 


 NGLI 


 NGLI 


 NION 


 3ACH 


 E THY 


 TE DEUM LAUDAMUS 


 IN the KEY of G 


 BY 


 GEORGE 


 TE DEUM 


 LEES 


 MAGNI FCAT 


 HOLD 


 ADAMS 


 MORNING 


 5 , IS . 


 the ST ORY of 


 A SACRED CANTATA 


 FOR SOPRANO , CONTRALTO , LAN BARITONE SOLI 


 CHORUS and O STRA 


 the MUSIC COMPO 


 DAVID and SAUL 


 AN ORATORIO 


 FOR SOLI , CHORUS , and ORCHESTRA 


 the word write 8 


 DR . BROWN 


 the music compose by 


 CANTAB 


 BETHANY 


 the TEN VIRGINS 


 A SACRED CANTATA 


 for four solo voice and choru 


 alfre R. GAUL 


 JOAN of ARC 


 A DRAMATIC CANTATA 


 ALFRED R. GAUL 


 UTMOST success by 


 " AL CHORAL SOCIETY 


 produce with the 


 BIRMINGHAM FESTI 


 SOO 


 : NOVELLO 


 now ready 


 NOVELLO ’S CONCERT EDITION , 


 the 


 SOLO MUSIC 


 MENDELSSOHN ’S 


 ELIJAH 


 IL dite , with mark of expression and phrasing , by 


 ALBERTO RANDEGGER 


 PREFACE 


 ALBERTO RANDEGGER . 


 LONDON and NEW YORK : NOVELLO , EWER and CO 


 NEW edition . just publish 


 seven marche 


 FOR 


 PIANOFORTE 


 MENDELSSOHN 


 LONDON and NEW YORK : NOVELLO , EWER and CO 


 TWELVE VOCAL duet for school use 


 VOCAL trio for school use 


 just publish 


 the bird SEVEN 


 ALFRED R. GAUL , REV . EV . HAL L , M.A 


 COT 


 new humorous part - song . 


 two - part song 


 for 


 twelve canon 


 for two - part FEMALE choru or two 


 SOLO voice 


 CARL REINECKE 


 SONGS of the F OREST 


 six two - part song for lady ’ voice 


 EDWARD OXENFORD 


 JOHN KIN ROSS . 


 PENCE EACH 


 thirteen 


 two - part song 


 BY 


 F , MENDELSSOHN BARTHOLDY . 


 TWOPENCE EACH . 


 six 


 PWO - part anthem 


 for lady ’ or boy ’ voice 


 BY 


 MYLES B. FOSTER . 


 KE song 


 boy ’ voice 


 FOSTER . 


 two - pa 


 for lady ’ or 


 MYLES 


 two - p exercise 


 JAMES GREENWOOD 


 two - part solfeggi 


 in the PRINCIPAL MAJOR key 


 design for the practice of chorister 


 and vocal class generally . 


 BY 


 JAMES HIGGS 


 minute ’ exercise 


 part , for the use of singing 


 class in school 


 FLORENCE A. MARSHALL 


 PRICE SIXPENCE 


 five 


 in two 


 LONDON & NEW YORK : NOVELLO , EWER and CO 


 write by 


 HERMAN MERIVALE ’S dram . 


 A. © . ML . ACKE NZIE 


 VOL . IL , N 


 lister 


 252 


 M. PICCOLO 


 DOLO 


 SALVA NOS 


 LINT 'S 


 SUITABLE 


 ROSA 


 DOMINE 


 ETERN 


 VN 


 VERSE . 


 RSE , 


 ORSBORKN and 


 TUCKWOOD , 64 


 successful 


 FOR EASTERTIDE 


 BERNERS STREET 


 SSFUL song 


 SANCTA MARIA . 


 CROSS . 


 the SOLDIER of 


 the two choir . 


 LONDON , W 


 reduce price of 


 OUSELEY and MONR ’S 


 point PSALTER 


 LONDON & NEW YORK : NOVELLO , EWER and CO 


 ARTHUR W. HINKLEY , the 


 NEW SACRED CANTATA . ublishe on the ist of each month . 


 compose by 


 WALTE LYL I. BIGGS 


 IHE organist and composer of 


 ST . PAUL ’S CATHEDRAL 


 ORATORIOS COKONINI , " CARLO . 


 twelve song for CONTRALTO , TENOR , 


 the word write by : 


 SONG compose by 


 WILLE M COENEN . , , 2 LOCHINVAR . 


 | original composition 


 = ~ PIANOFORTE 


 PREF AEE 


 LONDON & NEW " YORK : NOVELLO , EWER and CO 


 CHAPPELL & CO . 's publication . © 


 VOICE training exercise 


 EMIL BEHNKE 


 AND 


 CHARLES W PEARCE 


 PRICE eighteenpence . in cloth board , three shilling 


 popular number of 


 complete list on application , 


 new work for singing class . 


 CHAPPELL ’s PENNY operatic part - song 


 for SOPRANO , ALTO , TENOR , and BASS . 


 ORCHESTRAL and chorus part of the above may be have on hire 


 CHAPPELL & CO 


 50 , NEW BOND STREET , W. , and 15 , POULTRY , E.C