


 TITHE MUSICAL TIN 


 AND SINGING - class circular . 


 found in 1844 . 


 publish on the first of every month 


 ROYAL CHORAL SOCIETY 


 I , 1913 


 FHE ROYAL COLLEGE of MUSIC , 


 PRINCE CONSORT ROAD , SOUTH KENSINGTON , S.W 


 ROYAL ALBERT HALL . 


 and other CHRISTMAS MUSIC . _ — _ — — 


 MISS VERA GILI : 


 ' _ the ROYAL COLLEGE of ORGANISTS . 


 THURSDAY , JANUARY 1 , 1914 , at 8 


 ROYAL 


 MR . BEN DAVIES . 


 1D EVANS MANCHESTER COLLEGE of MUSIC 


 MR . DAVID EVANS 


 LENT TERM begin MONDAY " I " 


 ENTRANCE E XAMINA TON , THU RSDAY JANU ARY8 _ PIRMINGHAM & MIDLAND INSTITUTE 


 MANCHESTER SCHOOL of MUSIC 


 the GUILDHALL SCHOOL of MUSIC . 


 JOHN carpenter ST . , VICTORIA EMBANKMENT , E.C 


 1913 


 COLLEGE of MUSIC , 


 LONDON , S.W 


 the ROYAL 


 SOUTH KENSINGTON , 


 competition for 


 fourteen FREE OPEN scholarship 


 PIANOFORTE 2 VIOLONCELLO 


 ORGAN [ TRUMPET .. I 


 the 


 ASSOCIATED BOARD 


 for local examination in MUSIC 


 96 , WIMPOLE STREET , W 


 special short course for teacher . 


 ZOLIAN HALL , NEW BOND STREET , V 


 ME , AMINA GOODWIN . 


 47 , MORTIMER STREET , REGENT STREET , 


 LONDON , W. 


 incorporate guild of church 


 musician . 


 ASSOCIATE ( A.1.G.C.M. ) , LICENTIATE ( L.1.G.C.M. ) , FEL . 


 competition for 1973 . 


 REGISTER of ORGAN VACANCIES 


 VICTORIA COLLEGE OF MUSIC , 


 LONDON . 


 incorporate 181 . 


 GLASGOW 


 CHORAL ( competition ) festival 


 fourth year . 


 ST . ANDREW ’S HALL , GLASGOW . 


 FRIDAY and SATURDAY , MAY I and 2 , I9I4- 


 MORECAMBE MUSICAL festival . 


 OFFICIAL syllabus of the competition 


 now ready . 


 27 


 one account for all publisher 


 MURDOCH ’ S CA salooue now ready 


 1 VIOLIN MUSIC , . EDUCATIONAL MUSIC , 


 D , PIANO , ORGAN , and MUSIC store , 


 461 and 463 , OXFORD STREET , W. 


 ORIANA MADRIGAL SOCIETY . 


 NO . — — 


 L. M. EHREMAYER , 


 — 27 , CHANCERY LANE , LONDON , W.C 


 PROFESSIONAL notice . 


 MISS ESTELLA LINDEN 


 MISS LYDIA JOHN ( ARAM ) 


 ( CONTRALTO 


 MR . JOHN COLLETT 


 TENOR ) . 


 MR . FRANCIS GLYNN 


 MR . SAMUEL . MASTERS 


 MR . BEN MORGAN , ARCM . 


 IR ) 


 MR . MONTAGUE BORWELL 


 WINIFRED MARWOOD 


 124 , WALM LANE , CRICKLEWOOD , N.W. 


 HERBERT MARKS ¢ ( L.R.A.M. ) 


 BASS 


 MR 


 CHARLESWORTH GEORGE 


 ( BASS - BARITONE 


 COMPOSERS ’ MSS . 


 IR 


 LEWIS ’ text - book : 


 late SUC ( esse : — ; ; coaching for degree . L.R. : 1897 - 1913 , one 


 ECHSTEIN HALL studio , 32 , 34 , 36 , 38.3 


 ccesse 


 781 


 VSS MARGARET YOUNG , L.R.A.M.,A.R.C.M 


 M.A 


 MANCHESTER CATHEDRAL CHOIR . — 


 ST . GEORGE 's CHOIR SCHOOL , PARIS 


 LL SAINTS ’ , MARGARET STREET , CHOIR 


 IPON CATHEDRAL.—ALTO L AY - CLERK 


 TANTED.—TENOR SOLOIST . 


 KING 's 


 COLLEGE , CAMBRIDGE 


 RGAN PEDALS ( R.C.0 . ) for sale 


 CONCERT ASSOCIATION 's list of artist 


 usic work of every description . 


 BRINSMEAD PIANOS 


 KENTFORD , SUFFOLK , 


 10 . 3.13 


 JOHN BRINSMEAD & SONS , LTD 


 18 - 20 , WIGMORE STREET , LONDON , W 


 VALUABLE VIOLINS 


 next half - yearly auction sale 


 OF VALUABLE 


 VIOLINS , VIOLONCELLOS , BOWS , ETC . 


 include 


 example of some of the well - known ITALIAN , FRENCH , GERMAY , 


 AND ENGLISH maker 


 will take place on 


 TUESDAY , DECEMBER 16 


 establish 1794 . LONDON 


 th 


 practical method of 


 training choriste RS 


 783 


 the old firm 


 SPRINGWOOD WORKS 


 HUDDERSFIELD 


 two gold medal 


 J. VARL EY ROBERTS 


 A PIPE with A . 


 distinguished CLIENTELE 


 CO . , 2 22 


 UNBAY MFG 


 TAVISTOCK STREET , W.C 


 GRAY & DAVISON 


 ORGAN BUILDERS , 


 PRATT STREET , N.W 


 48 , SOUTHFIEL LD ROAD , OXFORD . 


 128 , HOLT ROAD , LIVERPOOL . 


 MES 


 new edition , with additional 


 the MU SIC of the bible 


 WITH 


 FROM J 


 development of 


 J. STAINER 


 illustration 


 INSTRU MENTS 


 WITH supplementary note 


 F.L.S 


 A FINE MODERN VIOLIN 


 SOLD by W. E. HILL & son 


 at their place of business 


 140 , NEW BOND STREET 


 LONDON , W 


 PIANO pedal 


 EVERY - ORGAN IST 


 NORMAN & BEARD ’S 


 PNEUMATIC PEDAL attachment 


 FOR the PIANO 


 PIANO ‘ PEDALS 


 754 


 SHELLEY FISHER 


 EVE of ST . AGNES 


 CANTATA 


 AND ORCHESTRA 


 the 


 FOR SOLI , CHORUS , 


 JOHN KEATS 


 FRANCIS BARNETT 


 JOHN 


 CHORAL TECHNIOUE and 


 interpretation 


 HENRY COWARD 


 BROADWOOD 


 PLAYER - PIANOS 


 grand and upright . 


 ILLUSTRATED catalogue on application 


 THE ORGAN 


 BOSWORTH & CO . ’S " 


 CHRISTMAS CAROLS ] 25 


 ancient and modern source | 


 CHRISTMAS anthem | " 


 M.V.O. , = ' I 


 AND SINGING - CLASS circular 


 3e 


 786 


 _ S 


 1909 . 


 m. F 


 787 


 1909 . , . 


 list of work . 


 PIANOFORTE SOLO 


 PIANOFORTE 


 DUET 


 CHAMBER MUSIC 


 song . 


 ORCHESTRAL MUSIC . 


 DRAMATIC MUSIC , ETC 


 WORD - PLAY in MUSIC . 


 I , 1913 


 -3—$ _ = = = ™ 


 — — = SS 


 789it should be note that in just intonation the 
 jifference between these synonym would be 
 qually apparent éefore resolution ; the perfect 
 fourth with its smooth vibration ratio of 3:4 
 yould please the ear as much as _ the 
 augmented third ( ratio 512 : 675 ) would 
 disturb it . the tempered scale in make 
 they equal reduce the euphony of one and the 
 acophony of the other , but in so do do not 
 and can not give they identity of connotation ; it 
 oly achieve identity of physical impression . it 
 isincontestable that purely diatonic and consonant 

 ic such as the ' Old Hundredth ' or almost 
 b isth - century writing lose its chaste physical 
 beauty by the equal temperament bargain . on the 
 ather hand , if euphony be at all time an object then 
 discord as a whole stand to gain smoothness by 
 he transaction , though the writer can not resist the 
 conviction that poignancy may often be well than 
 compromise . however that may be , the fact of 
 interest and importance which arise clearly at this 
 pint and lie beyond dispute be this : all the 
 discord which variously divide the octave into 
 equal portion and all the synonym of vary 
 signification enumerate above have only be 
 nade possible by the adoption of the temper 
 wile . in just intonation they simply cease to 
 aist . anyone who have listen to a diminished 
 sventh when justly tune will probably have 
 teen strike by the sense of discomfort produce 
 by the teasing inequality of the interval . and 
 amyone who have be thrill by Beethoven ’s 
 masterly play upon chord at important moment 
 wch as in this too well - wear instance 

 that 
 formin 

 and it be noteworthy that 

 nable Bach , and subsequently Beethoven 

 Schubert , Brahms , Wagner , Franck , and a host of 
 other composer , to open new harmonic door at a 
 touch 




 TALLIS and WALTHAM ABBEY . 


 the MUSICAL 


 VIII 


 the MUSICAL TIM 


 ES.—DECEMBER 1 , 1913 . 791 


 79 


 SCHOPENHAUER and MUSIC . 


 794 


 the COMPLEAT ORGANIST . 


 CO . 


 c.0 . — ' 


 00 ; : : 


 796 


 the MUSICAL TIM 


 V10U ! ° : : ' ' 


 note on some interest ORGANS 


 AT MAGDEBURG . 


 3.-—ST . JAMES ’S CHURCH 


 _ _ 


 W. M. 


 799 


 ORGAN recital 


 appointment 


 I , 1913 


 801 


 book receive . 


 319 


 25 


 VOCAL 


 exercise 


 BY 


 PORPORA 


 to the EDITOR of ' the MUSICAL TIMES 


 GEORGE R. CEILEY 


 AN OMISSION . 


 to the editor of ' the MUSICAL TIMES 


 director of STUDIES , 


 FRESH light on old english air 


 the BRITISH GRENADIERS 


 1710 


 version of 1760 


 the BRITISH GRENADIERS ( 1760 


 the MUSICAL 


 the BRITISH GRENADIERS ( 1901 ) . 


 _ @_§ » 


 WILHELMUS VAN NASSOUWE ' ( 1581 


 the difficulty of COUNTERPOINT 


 SS SS SSS 


 804 


 6 - 2 = = =] 


 805 


 reciting to MUSICno mean necessary , as not a single note be sing ; it be 
 .. Mf tttitely speak : " in short , it be a recitative with 
 " h instrument , only the actor sfeak the word instead of 

 singe they . if you be to hear it , even with the 
 pianoforte , it could not fail to please you ; if it be 
 bec   moperly perform you would be quite transport . 
 4 ican answer for this ; but it require a good actor 
 + shoul or actress . 
 there be no record of the performance of this work ; but 
 that the master be still favourably impress with the 
 > chanel Bethod be clear , as he employ Melodrame in his opera 
 ' haide . ' we know that Beethoven introduce melodrame 
 wi inthe prison scene in ' Fidelio ' with great effect , and Weber 
 spe bo employ it in the incantation scene in ' Der Freischiitz . ' 
 .d nee ' later , Mendelssohn adopt the device in his ' Athalie , ' 
 ' e weg Adtigone , " and ' ( Edipus , ' while it be still more 
 > Goi pominently and effectively employ by Schumann in his 
 t it ey Manfred " ; rarely have a more beautiful and touching effect 
 prope " wen create than by his accompaniment to the invocation to 
 ' Astarte . " many modern composer have accept the idea , 
 wilde mominent example be Liszt ’s ' Lenore , ' Richard Strauss ’s 
 cess ' Enoch Arden , ' and Grieg ’s dramatic setting of ' Bergliot . ' 
 too twas reserve , however , for Sir Alexander Mackenzie to 
 ould tevelop the method to the full extent in his ' dream of Jubal , 
 ' poem with music , ' the word of which be write by 
 ecret the late Joseph Bennett , the eminent critic of the Dazly 
 that vaph , and in the production of which Mr. Fry be 
 ‘ not wa te as reciter . here about 250 line of poetry 
 , modi " t accompany throughout by the orchestra , and it be 
 og whit " mainly the most remarkable work of the kind ever write . 
 e tm inthe music accompany the recitation , the distinguished 
 methinle " poser have give some of the most delicate and 
 mode " tutiful of his creation . 
 until & Mr. Fry state that probably the most prolific writer of 
 those " Seal recitation be Mr. Stanley Hawley , who have , he 

 help ! » write music for over fifty poem . 
 : s of at he conclude by say that he think he have give 
 _ _ — § " tent reason to show that the method of associate 




 the WILLIAM LUDWIG MATINEE 


 AN appreciation 


 ENGLISH . 


 GRAND OPERA IN 


 JOAN of ARC 


 TRISTAN and ISOLDA 


 GIU 


 the ( 


 the 


 TANNHAUSERThe health of the new Honorary Freeman , Mr. Landon 
 Ronald , be propose by Sir Edward Ernest Cooper . he 
 say the Musicians ’ Company have one important distinction 
 — that it represent a live art which be a universal 
 language . he refer to the distinguished ability of 
 Mr. Landon Ronald as a conductor , and say he be a 
 composer of melody , an important matter in these day 

 1 for B on December 3 and 10 , two lecture will be give at the 
 jowilg BH Royal Academy of Music by Mr. Oscar Beringer . the 
 ubject be ' english clavier music of the 16th-18th 
 century , ' and ' french and german clavier music of the 
 ith-18th century . ' 
 the George Mence Smith Scholarship for a non - student 
 2 gar ' play good voice and musical aptitude be open for 
 clade @OMPettion , the last day for receive entry be 
 Uecember 10 . 
 sont a chamber concert be give by the Academy in the 
 bike 's Hall on November 3 . movement from concerted 
 work by Beethoven , Mendelssohn , and Dvorak , be play , 
 of wd asong ' La Rose ' by Mr. Adolf Hallis , a student , be 
 for the first time 

 10 ! Mr. Landon Ronald , in respond , make an optimistic 
 charac speech as to the quality and prospect of british music . his 
 s28 tir } : > . sympathy be strongly with the young generation of 
 uiliett IE GUILDHALL SCHOOL of MUSIC . composer who be struggle for recognition . but even 




 808 the 


 1913 


 the LIVERY CLUB dinner 


 BACH chamber concert 


 RAILWAY MUSICTHE PHILHARMONIC SOCIETY 

 Strauss ’s ' Festliches Priludium , ' hear at Queen 's Hi 
 for the first time in England on November 4 , provet ! 
 thorough - go /zéce a ' occasion . the purpose of the wo 
 and its unusual demand for orchestral resource we 
 describe in our November issue . the object of & 
 increase in string power be to provide balance toa bi 
 array of brass . no new effect of string writing 
 through . it be bombastic music , impose in more 
 than one , and good food for the fiery pride of a Gem # 
 festival gathering . it contribute to the interest of ® 
 occasion by provide ninety - six string player for ® 
 performance of Percy Grainger ’s ' Mock Morns , ® 
 Beethoven ’s fifth Symphony . here the result sono 
 and richness be magnificent , although at time too m ® 
 so to be entirely manageable , even by Herr Mengelleg i 
 the Morris be mockery 4 la Pélissier . senor Joan Mane 
 give a fine interpretation of Lalo ’s ' Symphonie Espagn ® ® 
 the ' Kaisermarsch ' of Wagner , at the beginning of 
 programme , somewhat take the wind out of Strauss ’ s 

 a startling innovation be make on November 20 , whe ! 
 large part of the programme be supply by the Ons 
 Madrigal Society , under the direction of Mr. Chat : 
 Kennedy Scott . in a selection of madrigalian muisc a 




 TENO 


 part song for § 8.A , T.B 


 — _ , — _ 2 


 SERS 


 SS 


 — _ — -—_N 


 P I I 


 LAN 


 SS 


 ES 


 53 — — — } * — SS + SES TY 


 the ISLET 


 LACIN 


 WON 


 816 


 the NEW SYMPHONY ORCHESTRA 


 QUEEN ’S HALL ORCHESTRALOND 

 Beethoven ’s 
 direction 

 of high quality 




 the 


 LONDON 


 ONthe 

 interpretation 
 Symphony , Strauss ’s ' Tod und Verklirung , ' 
 * Faust ’ Overture , and Beethoven ’s Violin concerto . th 
 soloist be Miss Isolde Menges , whose reading be oni 
 level with the rest of the evening ’s performance in beig 
 sound and reliable , but uninspiring 

 ROYAL 




 CHORAL 


 CHORAL 


 _ _ 


 SOCIETY 


 SYMPHONY ORCHESTRAThe new policy of this organization , by which new work 
 and british work be exclude from the programme , hx 
 be triumphantly vindicate at the first two concert , for 
 the Queen ’s Hall be practically full on both occasion . 0s 
 October 27 the ancient habit of include two Symphonis 
 in one programme be imitate , and Brahms ’s third ai 

 fifth be give under 
 the performance , though not memorable , wer 
 passage 
 individual thoughtfulness and breadth of interpretative 
 Beethoven ’s Overture , ' Leonora ' ( no . 3 ) , open the 
 between 
 ' Brandenburg ' Concerto No . 6 , in b flat , which be score 
 for viola , violoncello , double - bass , and pianoforte 

 Herr Steinbach again conduct on November 10 , ani 
 Beethoven ’s _ eighth 

 Steinbach 




 society . 


 eein be Hiall on October 25 , tbe programme consist of a Mozart 
 \urtet in b flat , Gliere ’s Quartet in g minor , and 
 Shubert ’s string quartet in C ( with Mr. Crabbe as second 

 woloncello ) , the playing be of delightful quality 
 throughout . 
 customa } f twoconcert have be give at Bechstein Hall by the 
 Freden ft Fonzaley Quartet . on October 28 , the programme 
 andard osiste of Beethoven ’s quartet in C minor ( Op . 18 ) , 
  sociel } : Hi Shubert ’s ' Der tod und das Madchen ' Quartet , and a 

 strike Hi Sonata by Leclair for two violin 

 the ' Van Buren Ladies ’ Orchestra , ' a new organization 

 the Rosé Quartet play on behalf of the Classical 
 Concert Society at Bechstein Hall on October 29 , and again 
 reach the high level of human perfection in quartet 
 playing . they be assist by Mr. F. S. Kelly in give 
 a Brahms programme , in which the c minor String quartet 
 ( op . 51 , no . 1 ) and the Pianoforte quartet in A ( op . 26 ) 
 be the chief work . at the next concert of the Society ’s 
 series , which take place on November 5 , the same body 
 play quartet by Mendelssohn ( in e flat ) , Beethoven ( in 
 e minor ) , and Frank Bridge — the three ' idyll . " song 
 be give by Madame Julia Hostater 

 an excellent concert of chamber music take place at the 
 Royal College of Music on October 23 . Tchaikovsky ’s 
 d major string quartet be the chief concerted number . 
 the novelty be Mr. F. Purcell Warren ’s ' Miniature Suite ' 
 of pleasant , light , descriptive music . at a similar concert 
 of equal merit , give on October 30 , the principal work 
 play be Fauré ’s Pianoforte quartet in C minor and 
 Brahms ’s String sextet 




 VOCAL recital 


 PIANOFORTE recital 


 818 


 VIOLIN recital 


 other recital and concert . 


 MUSIC IN PARIS 


 819place exactly sixty - seven year and six month after the 
 Mter ’s first appearance as a pianist ( May 6 , 1846 , in the 
 Salle Pleyel 

 the well - know critic , M. Emile Vuillermoz , have of late 
 een pass severe criticism on Beethoven ’s music . ' the 
 day shall come , ' he write , ' when one will be able to assert 
 that the great and good of Beethoven ’s genius be not of 
 prely musical order , and that the sublimity of certain 
 utistic ideal may be easily satisfy with trite melody , 
 eaventional harmony , and dull orchestration . Beethoven ’s 
 mbition go far than the ear . ' the following week 
 he remark that ' even in the fourth Symphony ( more 
 ceerful than her eight sister ) the hollow , meagre 
 uchestration sound cruel to our 20th century ear 

 consider the recent case of Paul Dupin and 
 Emest Fanelli , remorselessly boom as composer of genius , 
 M. Louis Laloy write an article to show that in either case 
 the lack of discrimination display by enthusiast have 
 as harmful to the very object of the misplaced , 
 ephemeral enthusiasm as it be unsustainable 

 the Société J. S. Bach will give concert on December 19 
 ( Weinachts oratorium ' ) ; February 27 ( mass in b minor ) ; 
 and March 27 ( ' Matthdus ' Passion 

 a Société Palestrina have be found , with the object 
 of‘forwarde the cause of spiritual art , and more specially , 
 Church music . ' its head be M. Léon Saint - Réquier . the 
 fist concert will comprise work by Bach , Beethoven , 
 Franck , d’Indy , and Chausson . M. Vincent d’Indy be to 
 keture on ' spiritual art 

 _ the first concert of the Conservatoire be devote to 
 Schumann ’s ' Faust , ' which be also give on November 23 , 
 atthe Concerts Colonne 




 MUSIC in RUSSIA 


 ST . PETERSBURG . 


 MOSCOW 


 by our own correspondent 


 BIRMINGHAMThe Birmingham Choral and Orchestral Association hold 
 their first popular Saturday night concert in the Town Hall | 
 on October 18 , give a performance of Berlioz ’s dramatic 
 legend , ' Faust , ' which fully tax their power . the | 
 attempt , laudable as it be , prove an ambitious effort on 
 the part of an amateur musical organization , and it would | 
 have be more gratifying if they have choose a less exacting 
 and light work for their inaugural concert of the season . 
 the principal be Madame Florence Parkes - Darby , 
 Mr. Richard Ripley , Mr. Arthur Cranmer , and Mr. Charles 
 Leeds . Mr. Joseph H. Adams conduct 

 the Midland Musical Society ’s first concert of the current | 
 series take place in the Town Hall on October 25 , the 
 programme then provide be of a classical type , such as | 
 one rarely hear at a popular Saturday night concert , and | 
 consist of Bach ’s Motet for double choir , ' be not afraid , ' | 
 Hubert Parry 's ' bl Pair of siren , ' Beethoven ’s C minor | 
 Symphony , Weber ’s Overture to ' Oberon , ' and Grieg ’s | 
 * Peer Gynt ’ Suite . the choir be especially excellent in | 
 Sir Hubert Parry ’s glorious work , the voice be quite | 
 remarkable in power and excellently balanced . the feature | 
 of the Bach motet lie in the due observance of rhythmical | 
 accent and distinctness of phrasing . the orchestra give an | 
 intelligent performance of the Symphony , gratify in every | 
 way . the second part of the programme be of a | 
 miscellaneous character . operatic excerpt be give by 
 Miss Minnie Barlow and Mr. Charles Mott , and Mr. A. J. 
 Cotton conduct with skill and judgment 

 the Chappell Ballaa Concert Party give a concert in the 
 Town Hall on October 20 . Mr. Max Mossel ’s first Drawing 
 Room Concert of the present series of four be give as 
 usual in the Grosvenor Room of the Grand Hotel on 
 October 30 . Miss Irene Scharrer , a favourite pianist at 
 Birmingham , be support by Miss Daisy Kennedy , the 
 australian violinist , in a delightful performance of Strauss ’s 
 Sonata for pianoforte and violin . Miss Jean Waterston sing 
 artistically , and Mr. G. H. Manton accompany . through 
 the instrumentality of Miss Elma Baker , her teacher , 
 Miss Cecilia Innis , a new contralto gift with a voice of an 
 excellent and rich timbre , give a vocal recital at Queen 's 
 College on October 30 with much success . Master Paul 
 Beard , the clever boy violinist , play a number of piece 
 with remarkable tone - power for one so young , and with an 
 astonishing command over all form of violin technique . 
 Mr. G. H. Manton be the accompanist 




 bournemouthrevival of Tchaikovsky ’s unequal Pianoforte concerto in g| upon the same instrument , Miss Gertrude Winchester , who 
 n lieder be render noteworthy by the splendidly finish , if | possess a rich contralto voice , contribute song at 
 slightly unemotional playing of Miss Johanne Stockmarr ; | interval . on November ( 5 the monthly recital upon the 
 cte by and Glazounoff 's fine Violin concerto be dexterously | organ at St. Mary Redcliffe Church be undertake by 
 at th | , perform by Miss Ivy Angove . Dr. A. H. Brewer . 
 the Monday ' pop , ' also , have not seek for approba- in the Public Hall , Shirehampton , on November 5 , the 
 balance| tin in vain . on October 20 a ' Shakespeare ' programme | Avonmouth and Shirehampton Choral Society give a concert 
 wrchesin ws give , to which song be contribute by Miss Nina | under the direction of Dr. R. Vaughan Williams and Mr. 
 Samuell - Rose . russian music occupy the programme on | P. Napier Miles , and there be a numerousattendance . the 
 ra tober 27 , with M. Mendelvitch as violin soloist . the } choir give excellent performance of three elizabethan 

 k follow bring an ' Opera ' programme , in which|song by Dr. Vaughan Williams , viz . , ' sweet day , ' 
 Perkiss yournemouth ’s leading soprano , Miss Nora Read , give much | * Willow song , ' and ' O _ mistress mine . ' a _ part - song , 
 pleasure with her reading of Weber 's effective aria , ' ocean , | ' Nocturne ' by Mr. Napier Miles , be another successful 
 thou mighty monster . ' a selection from Brahms fill the | feature . Miss Maja Kjohler delight with some swedish 
 reir firs bill on November 10 , when the sonata in F for pianoforte and english folk - song , and Miss Dora Bright give 
 er 8 , the | ad violoncello be capitally play by Miss Edith Leah ( of | pianoforte solo . haa 
 vote ty @ Bournemouth ) and Mr. S. Coélho ( of the Municipal ; by arrangement of the joint committee of the Ladies ’ 
 is birth ( Orehestra ) . Musical Club and the Bristol Musical Club , there be a 
 miscellaneous fixture have be extremely numerous and | performance by the Flonzaley String Quartet at Victoria 
 mpletel aried . Miss Adela Verne ’s first - rate interpretation of ] Rooms on November 7 . these fine player give Haydn ’s 
 das solo   Beethoven ’s ' Emperor ' Concerto must be place on record . | quartet in D ( Op . 64 , no . 5 ) , Hugo Wolf 's ' italienische 
 there be no occasion , however , to dwell upon the detail | Serenade , ' and Schubert ’s Quartet in D minor , and their 
 . Frank & % the Chappell Ballad Concert Party ’s entertainment , | able interpretation afford pleasure to a large audience , who 
 nomen & Yhich be neither well nor bad than most affair of the | cause the composition of Hugo Wolf to be repeat 

 and the & kind ; nor , perhaps , need we criticise Mr. Mark Hambourg’s| the Bristol Choral Society , on November 15 , at Colston 
 Beethoven recital , as the artist be somewhat swallow up| Hall , give their first concert of the season , and under the 
 nize by | the virtuoso . a week of Russian Ballet have its moment | direction of Mr. George Riseley perform Coleridge - Taylor ’s 
 ce atthe @ extreme pleasure as well as period of dullness . unqualified | ' Kubla Khan ' ( with Miss Phyllis Lett as soloist ) and 
 HI String fF mterest , on the other hand , attend the farewell visit of | Max Bruch ’s ' Lay of the Bell , ' the principal vocalist be 
 siste @ § chmann , who , although his performapce may not be| Miss Lilian Dillingham , Miss Lett , Mr. Frank Mullings , 
 Yebussy ’s f way on the same elevated plane , will long be remembered|and Mr. Frederic Austin . the choir and orchestra 
 najor fr for his attribute of genius , and his few limitation forget . | number 500 . both work be admirably give , and 
 cellent other event deserving mention be a recital of the song of | be highly appreciate by a large audience 

 4 Winn , | Montague F. Phillips , give by Miss Clara Butterworth , a 
 s of the & " ty charming singer ; and a ballad concert by Miss Alys 
 Bateman and party . much commendation must be bestow DEVON and CORNWALL . 
 upon the violin and pianoforte recital by Madame Beatrice uit aninheees Shiai 

 the only Boheme combination of male voice who be gain a reputation for 
 he into — _ — — beautiful tone and artistic performance , give piece by 
 although Gounod and Sullivan , and Mr. W. H. Stowell be hear as 
 siderable BRISTOL . violoncello soloist 

 s , where Mr. Hubert Hunt ’s chamber concert at the Victoria| two special effort on behalf of the sufferer of the welsh 
 pts fot Brooms on October 27 be specially interesting on account colliery disaster be make at Plymouth on November 6 
 orchestt bf the performance of Beethoven 's septet in e flat , which |@94 13 . the first be a miscellaneous concert , for which 
 sstionable By . not be give publicly at Bristol for many year . the the Pier Pavilion be lend by the management . so generous 
 ce assist yer be the follow : Mr. Hunt ( violin ) , Miss Gladys | WS the assistance give that not a farthing have to be deduct 

 viola ) , Mr. Roger Bucknall ( violoncello ) , Mr. Jules | from receipt for expense , and the sum of £ 44 be hand 
 art baw Son Hemel ( clarinet ) , Mr. F. T. Stephens ( horn ) , Mr. c,|t © the charity . the Plymouth Orpheus Male Choir 
 gramme B Barman ( bassoon ) , Mr. G. Weiss ( double - bass ) . | an| ( conductor , Mr. D. Parkes ) be the promoter of a concert 
 acellent interpretation of this fine work be forthcoming . | ! " the Guildhall on the latterdate . they sing several piece 
 isgood ® Bi ty , quartet , Mozart ’s in 1 ) and Schumann ’s in a minor | € xcellently , and also secure the service of solo artist . 
 concer Ht ip 41 , no . 1 ) , be effectively play by Mr. Hunt and | the profit amount to upwards of £ 50 . 
 , ed Biren Miss Gladys Home ( viola ) , and other DEVONSHIRE town . 
 nee . violoncello ) . 5 ; 
 ere the Bristol Royal Orpheus Glee Society on October 30 ] the Dohnanyi Quartet in d flat , Op . 15 , be admirably 
 bue a peare in the Shire Hall , Gloucester , on behalf of the| play at Torquay by the Haydn String Quartet when they 
 ae ter and District Commercial Travellers ’ Association . | open their seventh season on October 23 . Beethoven be 
 y pica ltere be a large audience who , by their frequent applause | represent by no . 1 of Op . 18 , and Miss Wressell Macey 

 a tunifeste the gratification which they experience . | sing song by Stanford . the Isca Glee Singers at Exeter 




 822 


 1913 


 CORNWALL 


 DUBLIN . ianoforte recital by Dr. Esposito . his programme include 
 ebenent Op . 31 , no . 2 , Schumann ’s ' Carneval ' and an 
 attractive group of piece by Alessandro and Domenico 
 Scarlatti , Marcello , Galuppi , and Grazioli 

 on November 10 , Signor Simonetti , Mr. Clyde Twelvetrees , 
 and Dr. Esposito give a trio recital , play work by 
 Mozart in b flat , and Brahms in c minor ( Op . io1 ) . the 
 programme also include Beethoven ’s Op . 30 , no . 2 , in 
 c minor . Miss Fanny Davies give a pianoforte recital on 
 November 17 

 at Woodbrook Concert Hall a series of Saturday afternoon 
 concert start on October 25 . the programme have be 
 give by our local instrumental trio ( Signor Simonetti , Mr. 
 Clyde Twelvetrees , and Dr. Esposito ) , Mr. Goss Custard 
 ( organist of St. Margaret ’s , Westminster ) , and Mr. George 
 Hewson ( organist of the Chapel Royal , Dublin Castle ) . the 
 organ be a beautiful instrument recently erect by the 
 olian Company . vocalist who sing be Madame Borel 

 ee 
 Mr. Melfort Dalton , the Carlton Quartet ( Miss Lily 
 Whittaker , Miss Edith Mortier , Mr. William Lew , 
 Mr. A. G. Birch ) , and Mr. Percy Whitehead . } , 
 Instrumental Trio , perform on alternate Saturdays , intey 
 to play Beethoven ’s trio in chronological order 

 on November 16 the ninth season of the Suniy 
 orchestral concert begin in the Antient Concert Roo 
 the programme include Beethoven 's fourth and Mozy 
 G minor Symphonies 

 the Sackville Hall Saturday popular concert organixg 
 by Mr. Robert Harrison and Mr. Sealy Jeffares be in jy 
 swing , and cater for large audience at price range fim 
 threepence to one shilling for admission 




 EDINBURGHThe outstanding event of the past month be the visi 
 the Hallé Orchestra , under the conductorship of Mich } 
 Balling . two concert be give by this combination g 
 player , and these form the first of the Classical Series ¢ 
 concert arrange by Mr. Simpson . on November 31 
 Wagner programme be plan , to give an idea of Wagner ) 
 growth as a composer . the Symphony in C be introduce 
 to the Edinburgh public at this concert , and have a condi 
 reception . the ' Rienzi , ' ' Faust , ' and ' Meistersinge 
 overture , the Prelude from ' Tristan , ' the Bacchan 
 from ' Tannhauser , ' and the ' Siegfried Idyll , ' complet 
 the programme 

 on November 4 a classical programme be submit 
 the fifth Symphony of Beethoven and a Spohr Concerto , wit 
 Miss Menges as soloist , be the chief item . brilliant 
 the only term applicable to the success of this venture , x 
 the bringing of this band to Edinburgh may be call 

 Paterson 's Orchestral Concerts open on the succeedig 
 week under Mlynarski as conductor ( for the fourth year ) , 0 
 November 10 Elman be the attraction in the Beethom 
 Concerto , and the chief orchestral item be Elgar ’s ' Enigm 
 Variations . " on November 17 , a Wagner - Tchaikovsy 
 evening be give , with Reger ’s Concerto for orchesn 
 open the programme . Ellen Beck be vocalist in th 
 wagnerian excerpt 




 GLASGOW 


 823certo , with 
 Brilliant i 
 enture 

 succeed 
 year ) . Ot 
 Beethoven 
 5 ' Enigm 
 haikovsky 

 orchestn 
 list in the 

 an audience which completely fill St. Andrew ’s Hall . the 

 nel of the Orchestra be practically the same as last year , 
 and their playing at the opening concert be a foretaste of 
 " to come during the season . M. Mischa Elman , who be 
 soloist , give a performance of Beethoven 's Violin concerto 
 ghich confer a note of distinction upon the concert . the 
 other orchestral number be Weber 's ' Jubilee ' Overture , 
 Elgar 's ' Enigma ' variation ( capitally play ) , and 
 Glazounoff 's ' Carneval ' overture . as indicate , the come 
 season promise to be a highly successful one , for it begin with 
 amuch - increase subscription list , and the Orchestra ’s list of 
 gutside engagement be quite full . the City Corporation 
 have engage the Orchestra for six ' People ’s ' concert as 
 against four last year , and it be rumour that if these be 
 sficiently support a further extension may be make next 

 t. the first of the Saturday Popular Orchestral Concerts 




 LIVERPOOL and DISTRICTThe Tchaikovsky concert of the Philharmonic Society on 
 October 28 be remarkable for the impressive performance 
 direct by M. Safonoff of the ' Pathetic Symphony , ' of which , 
 wa work inscribe to he , his knowledge be intimate and 
 illuminating . M. Safonoff have materially increase his 
 rpatation here as a conductor of first - rate power , and not 
 oly in Tchaikovsky ’s music . he bring with he a 
 plendidly - equip violoncello player in M. Belooussoff , of 
 Moscow , whose artistic reputation be fully maintain in 
 the ' Rococo Variations ' in A , Op . 33 . |the choral feature 
 ofthe evening be the ' hymn to the Trinity , ' which be 
 beautifully sing under Mr. Harry Evans ’s direction 

 the presence of Signor Busoni at the third concert on 
 November 11 give a strong personal interest to the 
 programme , to which he contribute in a three - fold capacity 
 ssolo pianist , composer , and conductor . it be in the first 
 ofthese rdle that Busoni appear to chief advantage , and 
 his performance of Beethoven ’s C minor Pianoforte concerto , 
 which the orchestra be conduct by Mr. Harry Evans , 
 w marked by the high feature of musicianship , as well 
 s by a technique of extraordinary masterfulness . his 
 individuality as a player be far exhibit in the 
 Andantino from Mozart ’s ninth Concerto as arrange for 
 panoforte solo without orchestra . Signor Busoni direct his 
 ' lastspiel ' overture , a clever , brisk piece , avowedly in the 
 mozartian manner , and as conductor of Mozart ’s g minor 
 symphony he appear to advantage in an unaffected 
 tading which give general satisfaction . Miss Tilly 
 Koenen , who be accompany by Mr. Bennett North , sing 
 tmestly in song by Schubert and Brahms . the choral- 
 snging in Brahms ’s ' lullaby ' be a delightful feature of the 
 mme . Mr. Harry Evans can well explain how the 
 0 command such a beautiful tone , and that in 
 passage which chiefly lie high . there be no mistake 
 te sincerity of the encore — a rare compliment as regard 

 choir 




 824 the 


 1913 


 MANCHESTER and DISTRICT 


 the 


 1913the month bring some uncommonly interesting chamber 
 concert , and pride of place must go to the three great - niece 
 Joachim , the Misses von Aranyi , who come to the second 
 Gentlemen ’s Concert on November 12 . Bach ’s C minor 
 Concerto for two violin ( the accompaniment to which be 
 gren in a specially - write pianoforte arrangement ) be a 
 wonderful presentment of perfectly - match style in noble 
 asic . the Spohr Duet in concerto form , for two violin 
 lone , bring back to memory the day when Joachim and 
 lady Hallé bewitch we by its grace 

 il luck dog the first Bowdon chamber concert , for in 
 tum Szigeti , Thibaud , and Hamilton Harty fall out of the 
 heme , Mr. O’Connor Morris take the latter ’s place and 
 gaharewitsch be the violinist . the London party of 
 it - player who have before visit various Lancashire 
 tate join Mr. Morris in Beethoven and Mozart 
 quintet , solo on the various wind - instrument lend 
 iwersity to the programme 

 the open Brodsky Quartet concert bring Miss Tina 




 NEWCASTLE and DISTRICTThe city and district owe a deep debt of gratitude to 
 Mr. Beecham for his enterprise in present the Denhof 
 Operatic Festival performance at the Theatre Royal from 
 November toto 15 . as the attendance be not so good as 
 the merit of the scheme deserve , it be to be fear that 
 Newcastle also owe Mr. Beecham something in current coin 
 of the realm . the performance reach a high standard 
 than anything we have hitherto hear in the North , especially 
 in regard to the orchestra . the opera produce be 
 ' Tristan and Isolda , ' ' the Magic flute , ' ' the flying 
 Dutchman , ' ' Elektra , ' ' the Rosebearer ' ( ' Der Rosen- 
 kavalier ' ) , ' the mastersinger , ' and ' Orpheus , ' the last 
 at a matinée on the Saturday . detail be unnecessary , as 
 the performer be all so well know and have already be 
 chronicle . the sensation of the week be Mr. Frank 
 Mullings ’s fine performance of the part of Tristan . he be 
 well known on the concert platform here , and his débit 
 in opera be look forward to with keen anticipation . the 
 result be a triumph for english operatic art . another 
 event that should be chronicle be the appearance of 
 Madame Gleeson - White as Senta in ' the Flying 
 Dutchman ' — a part which she take at short notice , to 
 replace Miss Agnes Nicholls , who be unable to appear . 
 Mr. Frederic Austin also do splendid work during the week , 
 be equally good in tragedy and comedy . Mr. Frederick 
 Ranalow be another singer who create a favourable 
 impression . ' Elektra , ' as usual , provoke endless discussion , 
 but ' Der Rosenkavalier ' draw one of the big house 
 of the week and be hail with delight by everybody . 
 the house be fill on the Saturday evening , when 
 ' the mastersinger ' be produce . it be altogether a 
 memorable event for Newcastle , and prove conclusively 
 that some of our english singer have both voice and 
 dramatic instinct equal to any demand that operatic art 
 can make upon they 

 the Geloso Quartet , of Paris , give the second concert of 
 the Darlington Chamber Music Society on October 30 , in 
 the Mechanics ’ Hall . there be a large attendance , and 
 great enthusiasm on the part of the audience . the player 
 be remarkable for their perfect ensemble , fine rhythmic 
 power , and the clarity of their phrasing . Debussy ’s Quartet 
 in G minor , Beethoven 's C sharp minor Quartet ( Op . 131 ) , 
 and Mozart ’s Quartet in D minor ( no . 13 ) , form the 
 programme 

 on Wednesday , October 29 , in the Market Hall , 
 Richmond , Yorks , the Yorkshire Permanent Orchestra , 
 under Mr. Julian Clifford , give a concert at which a large 
 and fashionable audience be present . the programme 
 include Beethoven ’s ' Egmont ' Overture , Mozart ’s second 
 Rhapsody , the ' theme and variation ' from Tchaikovsky ’s 
 third Suite , and a fine ' Valse de Concert ' of Glazounoff . 
 Miss Groschel , of Richmond , play the solo part in 
 Mendelssohn ’s ' Cappriccio Brillante ' with clear technique 
 and beautiful tone . the concert have be promote by Lady 
 Evelyn James , who take the great interest in the musical 
 development of the district . on Wednesday , November 12 , 
 the first concert , of the present season , for young people be 
 give at Polam Hall Schoolinthe evening . the programme 
 be provide by Mr. Albert Fransella ( flute ) , Miss Héléne 
 Dolmetsch ( viola da gamba and violoncello ) , and Miss 
 Dorothy Moggridge ( pianoforte ) , with Mr. T. Henderson as 
 lecturer . < a brief outline of the history of the instrument 
 be give , and Mr. Fransella and Miss Dolmetsch then 
 display to the young people their various technical and 
 tonal power . the illustration be a Trio for flute , gamba , 
 and pianoforte by Leclair , a Prelude ( unaccompanied ) , and 
 ' division on a ground ' for viola da gamba solo , by 
 Christopher Sympson , Handel ’s Flute sonata in A minor , 
 Bach ’s Sonata in G minor for viola da gamba , two 
 Scarlatti piece for pianoforte solo , and a Boccherini Sonata 
 in G for violoncello . this programme have also be give 
 in the afternoon at the Training College by kind permission 
 of the principal , Miss Hawtrey 

 Mr. C. J. Bishenden give another of his lecture - concert 

 the lecture on ' the development of the string quartet , ' 
 give by Mr. Allen Gill at the University College , prove of 
 increase interest . the first , on October 23 , entitle ' Apt 
 for voice and viol , ' cover a long period ; the illustration , 
 mainly choral , be very numerous and similar , no less than 
 seven example be take from the work of Dowland . 
 the second , on October 30 , give more scope both to the 
 lecturer and the performer . the example include 
 movement from quartet by Haydn , and Mozart ’s Quartet 
 in D minor in its entirety 

 the series be conclude on November 13 , when the 
 work of Beethoven and Mendelssohn be draw upon . 
 the subject of the lecture and the example be ably 
 treat and prove highly interesting . it should be 
 mention that the vocal illustration at the first lecture 
 be give by member of the Sacred Harmonic Society , 
 and the instrumental item by Mr. F. Mountney , Miss 
 Una Truman , Mrs. Marshall , and Mr. Edwin Thorpe . 
 much interest be take in these lecture , and further 
 research in the realm of chamber music would prove a 
 welcome and a useful subject for future discourse . on 
 October 21 an interesting sonata recital be give by 
 Mr. Edwin Thorpe ( violoncello ) and Mr. John Cullen 
 ( pianoforte ) , when an interesting programme include 
 sonata by Brahms in e minor ( op . 35 ) , Grieg in a minor 
 ( op . 36 ) , and Rubinstein in d major ( op . 18 

 the Sacred Harmonic Society open their season with a 
 fine performance of Elgar ’s ' King Olaf , ' on November 6 . 
 the solo be give by Madame Gleeson - White , Mr. 
 Alfred Heather , and Mr. Stewart Gardner . the choral- 
 singing be especially fine in the ballad , ' the guest be 

 J. A. Rodgers direct a pertormance of the ' Erig 
 Symphony in which the orchestra surpass its previgg 
 good , and Miss Yvonne Astruc play Bach ’s Violin concen 
 in A minor in superlatively artistic style . Miss Hep 
 Blain be the vocalist 

 a well - plan series of chamber concert , organize ly 
 Miss Marie Foxon , be inaugurate on November , 
 when the Flonzaley Quartet be hear in Dvyorg , 
 Quartet ( Op . 61 ) , Beethoven ’s Op . 18 , no . 4 , a » 
 Sammartini ’s ' sonata a tre ' for two violin and ’ ¢dy 
 the refinement of the tone and the polished ensemble of ty 
 quartet party be their chief merit , and give in 
 pleasure . the large audience indicate revive inter 
 chamber music in the city 

 M. de Pachmann ’s farewell recital find the Albert Hi 
 with every seat sell , and large audience have attend ; 
 week ’s representation of ' Iolanthe ' by the Croft Hy 
 Operatic Society , conduct by Mr. W. H. Dawn 

 Mull ' ) ; Quickstep ( ' Inverness gathering ' ) ; gaelic Melody | suitable lightness of touch , and Strauss ’s * Tod Wil 
 ( ' baloo , baloo ' ) ; and Reel ( ' the de’il amang the ] Verklirung , ' which make a distinct impression . p - 
 tailor ’ ) . choir be hear in Bach 's eight - part motet , ' come , J Tetina 

 the suite be the outcome of a recent visit by the|come ' ( conduct by Mr. Fricker ) , and Beethoven 's Shel 
 composer to Scotland , where he hear indigenous tune | very characteristic or interesting ' calm sea and prosper I , Jul 
 play at musical gathering , generally in two - part | voyage . ' the Leeds Choral Union , on November i ! Jali 
 and very primitive harmony and _ progression he | repeat , again with the help of the Sheffield Masice tan 
 conceive the idea of embody these experience in } Union , Bantock ’s choral Symphony , ' Atalanta in Calydon , it the 
 a permanent form , and with a nucleus of such suggestive | under Dr. Coward ’s direction . though it do not surpas Atthor 
 material plus his own resourceful musicianship and | the performance of last spring , and in some point seemet Vouart , 
 free - handed scoring , have produce a suite of considerable | hardly equal to they , it be a notable effort , and the by 
 musical value and obvious attractiveness . the Dirge , | movement for female voice only be very charmingly 0 % w tle 
 : though the short , be one of the fine section . it is}| the programme be make up with some chorus rot x 
 graphic music , record the impression of a visit to Mull , | ' Israel in Egypt ' ( sing with organ accompaniment ) , anc 
 and be veritably a sea - picture . solo violin , viola , and ’ cello| Mr. Frederick Dawson ’s very brilliant pianoforte - playi ® inter 
 be use against the full mass of string ( mute ) with striking } on November 8 , at the first of the Saturday Orchest Tidonce 
 effect . the Gaelic Melody , a slow , croon song , be the most | Concerts,—organized last season in continuation 0 i Vis , Ea 
 modern in feeling as it be the most sensuously beautiful of } Municipal Concerts , which the municipal authority be 
 the division of the Suite . the lively movement be | established,—Miss Fanny Davies appear for the first tm 

 the MUSICAL TIMES.—DEcEMBER 1 , 1913 




 827Qctober 25 with a Wagner programme , Mr. Robert 

 ranize by Charlesworth be the vocalist . on November 5 the 
 ember , | Leeds Bohemian Concerts — among the few that can boast 
 Dvordk ; ff of increase support — begin their fifteenth season , and 
 > . 4 , aiff introduce a string trio by Akimenko — say to be for the 
 nd ‘ cela frst time in this country , an exceedingly well - write work 
 ible oft [ p for a difficult combination of instrument . |Chausson ’s 
 ve in ifal Pianoforte quartet , and Schumann ’s more familiar 
 coll of the same kind , make up the programme , and be 
 well play by Messrs. Herbert Johnson ( pianoforte ) and 
 Ibert Hal & Cohen , Miss Lily Simms , and Mr. Hemingway . on 
 attend ; f October 28 , at one of Messrs. Haddock ’s ' musical 
 ‘ roft Hal Evenings , ' Miss Pauline Sant Angelo give a pianoforte 
 " recital ; and on November 10 Moriz Rosenthal give a recital , 
 s give it : the ' Appassionata ' Sonata , Schubert ’s Fantasia in G ( a 
 20 . tri masterly interpretation ) , and Brahms ’s ' Paganini ' Variations 
 is due th be outstanding feature in his programme . at the 
 rk . Bob second of the Musical Evenings , on November 18 , Mr. 
 task inth | Theodore Byard give a vocal recital . 
 e peculiar 
 nds . th BRADFORD . 
 ontrol ai the Bradford Subscription Concerts be in the happy 
 age giv f psition of have a ' full house ' always assure they , since 
 y- MotB the first and second seat be entirely appropriate by 
 € point ® sbscriber . at the concert on October 31 Mr. Balling 
 against tit BF onducte the great part of the second and third Acts of 
 sal of chat Parsifal ' ( the same selection he introduce at Manchester 
 works , at B ius season ) . Madame Gleeson - White and Mr. John Coates 
 ible . ltt F be again excellent representative of Kundry and Parsifal ; 
 the chot § yi , Knowles be the Klingsor and Gurnemanz , and 
 loists Wet b i Robert Maitland the Amfortas . the Bradford Festival 
 y Brearles F Choral Society and the Hallé Orchestra take part in a 
 Dr. Cowart performance which , good as it be , do not quite convince 
 estra , af oe that ' Parsifal ' could be make really effective in the 
 concert - room . on November 1 the Bradford Permanent 
 Orchestra open their twenty - second season , Mr. Fricker 
 beng on this occasion the conductor , and introduce 
 Saint - Saéns ’s Pianoforte concerto in G minor , a work which 
 sie ia the well suit Mr. Frederick Dawson , who play the solo part 
 * a with all the brilliance and piquancy it demand . on 
 . yaa November 12 the Bradford Old Choral Society , conduct 
 ee eh Mt. E. J. Pickles , give Bantock ’s early work , ' the Fire- 
 sas a woshipper , ' with Miss Esta d’Argo , Mr. Alfred Heather , 
 = ad Mr. Montague Borwell as soloist . the choral - singe 
 os bes w characterize by freshness and precision , and reach 
 * ~ sal ) high level of excellence . a chamber concert on 
 to conta November 14 , at which Beethoven ’s string quartet in 
 al Socitis C minor ( Op . 18 , No . 4 ) be play by Mr. Kefer , Miss 
 somal Friedman , Mr. Campbell , and Mrs. A. T. Priestman , 
 - _ include the record of Bradford ’s activity during the month . 
 ae other town . 
 ye wih the Huddersfield Choral Society , under Dr. Coward , 
 : tod wd gan their season on October 31 with Bantock ’s ' Christ in 
 inn Gp Miderness , ' announce , by a singular misunderstanding , 
 ome , Jes 4 ' new work . ' it be first perform at Gloucester 
 ‘ oven ’s 0 Festival six year ago , and have since be hear 
 prosperos Sheffield . Miss Esta d’Argo , Mr. Frank Mullings , and 
 vember I Mt. Julien Henry be the principal in a performance of 
 ld Musi § the powerful singing of the choir be the chief 
 n Calydon , ' ature . Elgar ’s ' king Olaf ' be also in the programme . 
 not surpas mt the Wakefield Chamber Concert , on November 5 , the 
 nts seem Catterall String Quartet be hear in work by 
 + , and . Schubert , and Novacek , and Miss Alys Gear be 
 ingly sing & vocalist . on November 10 , Miss Vera Dawson , 
 ruses { r00 4 Iikley pianist , give a chamber concert at Ilkley , with 
 ment ) , and ' sistance of the Ellenberger Quartet , the programme 
 rte - play work by Beethoven , Mendelssohn , and Goldmark 

 Hartley , and Cohen give a chamber concert at which they 
 play sonata for pianoforte and violin , Mr. Hayle be 
 the vocalist 

 for the first of the subscription concert , Mr. Balling and 
 the Hallé Orchestra visit Hull on October 29 , the 
 programme include Beethoven ’s C minor Symphony and 
 Liszt ’s Pianoforte concerto in e flat , with Mr. Frederick 
 Dawson as soloist . the familiar ' Tannhauser ' Overture , 
 which end the concert , furnish the fine orchestral 
 performance of the evening . on November 14 the Hull 
 Harmonic Society , under Mr. Walter Porter , give 
 Coleridge - Taylor ’s ' Hiawatha ' trilogy , with Miss Eva 
 Rich , Mr. Webster Millar , and Mr. Robert Charlesworth 
 a principal , who contribute materially to the excellence 
 of a broad and expressive performance of the work , 
 and on November 18 the Hull Vocal Society , under Dr. 
 E. H. Smith , give a concert of unaccompanied choral 
 music 

 the Mather Subscription Concert , on October 30 , be 
 sustain by three young artist , Miss Phyllis Eyre ( violin ) , 
 Miss Ruth Eyre ( pianoforte ) , and Mr. Gordon Cleather 
 ( baritone ) , who afford a very enjoyable programme , the 
 interest of which be sustain without have recourse 
 to the sensation of virtuosity 




 BRIEFLY SUMMARIZED . 828 the MUSICAL TIMES.—Decemper 1 , 1913 

 NEWTON Ansot.—The concert give by the Newton | Liszt , Verdi , and Wagner , be announce to be hel 
 Abbot Wesleyan Church Choir on November 6 be highly | Leo Liepmannssohn on November 21 - 22.——A hj 
 successful . the chief work in the programme , barnby’s| interesting sketch - book of Beethoven , hitherto unkno 
 ' Rebekah , ' be perform with certainty and expressive | be recently sell with other autograph and document } 
 effect under Mr. Coleridge D. White ’s conductorship . the| by Ignace Moscheles , the famous composer and pig ! 
 choir also show good power of sonority in chorus from this sketch - book , contain among other good thing : 
 ' Elijah ' and Handel ’s oratorio . the soloist of the | first detailed draft of the ' Missa solennis ' ( Op . 123 , in } 
 occasion be Miss E. Pascho , Mr. Alfred Wills , and | be at first in the possession of Aloys Fuchs , who bo 
 Mr. J. B. Martin . at the sale of Beethoven ’s belonging at Vienna in 1827 , j 

 READING.—The Misses Fife open a further series of | 1830 , Aloys Fuchs present the sketch - book to Mendelssiy 
 chamber concert at the Town Hall on November 17 . Mr. | 28 4 token of friendship . in 1832 Mendelssohn give & 
 Hans Wessely , Miss Eveline Fife , Miss Dorothy Jones , | precious relic to Moscheles.——The * Lohengrin ’ hoy 
 Mr. W. E. Whitehouse , and Miss Katherine Eggar play a refer to in a recent number be not to be sell , 
 Pianoforte quintet by Miss Eggar , and the four string player the Berlin butcher . the King and the Prince of Samp 
 give Dohnanyi ’s quartet in d flat . song be contribute | have take an interest in the matter . the hous 
 by Miss Pattie Hornsby . it be gratifying to note that these | to be buy by a rich music - lover of Dresden , ang 
 concert be prosper , as be show in the fact that four building to be form into a Wagner Museum.- 
 instead of thee concert per year be to be give in the | pa . ber meer ng - a e+ seed > — 
 wesent and future season . | ' ak » Mas be select president of the Aca 
 Master - school for Cuneta — * Die musik seit Ric 
 Wagner ' be the title of a new work by Dr. Walter Niemm 




 BRUSSELS . — 


 : CASSEL . » A 


 BERLIN . new Pianoforte concerto by the same distinguished composer , Milliet anber 
 will be produce here in February , 1914.——The first | = COLOGNE eaploye 
 chamber music concert of the Trio , Marie Soldat - Réger , eer , Varket 

 Fanny Davies , and Pablo Casals , will take place on ] at the opening of the musico - historic Museum , found Onoed 
 December 10 at the Kéinigliche - Hochschule fiir Musik . — — | by Wilhelm Heyer , a very interesting historical concert BA ’ , 
 Humperdinck ’s new opera , ' Die Marketenderin , ' be to be| place . the programme include work by Bernat Me Sha 
 produce at the Royal Opera House on December 31 , 1913 . | Pasquini , Milandre , Bach , Bull , Handel , and Ramet Novem } 
 — August Strindberg ’s fairy - play , ' Die Kronbraut , ' with | perform on old instrument . the soloist be Madan Futhcoe 
 music by August Enna , the eminent danish composer , have | Wanda Landowska ( the celebrated clavecinist ) , N. Voge Deembe 
 be successfully present for the first time under | ( Amsterdam ) , A. von Neste ( Brussels ) , and G. Kimsky ( ti 
 Herr Enna ’s direction . a concert give by the royal ] conservator of the Museum ) . Heinrich Marschoet 
 Court and the Cathedral Choir be always an event of| famous opera , ' Templer und Jtidin ' ( produce in 1829 
 public interest . the prominent feature of the last| Leipsic ) have be successfully revive at the Opem 
 programme be Bach ’s Motet ' Singet dem Herrn , ' and | Pfitzner ’s version , under the direction of Walter Gaeta 
 Caldara ’s melodious ' Regina Ceeli .. ——during next spring the opera ' Fennimore , ' by Frederick Delius , will 
 the Philharmonic Orchestra will give a first hearing of | produce here during the season . 
 Franz Mikorey ’s ' Sinfonia engadiana , ' under the composer ’s 
 direction . two highly interesting novelty be on the = fa : 
 programme of the Sinfonie - Verein . these be Max Bruch ’s } the recently discover ballad * Scholastika , ' by Ke 
 late work , a Concerto for clarinet and viola with orchestra , | Loewe ( the world - renowne _ ballad - composer ) , will 
 and a Serenade for orchestra by Robert Kahn.——During | produce at the second concert of the Konzert - Gesellschit 
 the season Saint - Saéns ’s opera ' Proserpine ' be to be perform 
 for the first time at the Deutsche Oper.——A great music a 
 festival devote entirely to swedish music be plan by at a recent concert Berlioz ’s ' Symphonie Fantastiqe 
 M. Marteau . the event will take place in the spring | fullowed by the same composer ’s ' Lelio , ' achieve a gee 
 of 1915.——Bach ’s solo - cantata , ' Mein Herz schwimmt in | success under Mengelberg ’s baton , with Dr. Ludwig Will 
 Blut ' ( discover by M. Martienssen at the Royal Library , | as soloist . — — ' Der Zwerg und die Infantin ' ( the Dwa 
 Copenhagen ) , be to be sing for the first time at the Luther- | the Infanta ) , a dance - play in two tableau by Bernard 
 Kirche.——An important sale of autograph , include } have be successfully produce at the Opera Hous 9 
 fragment and manuscript by Beethoven , Brahms , Chopin , | Dr. Rottenburg 

 DU REN ( RHINELAND 




 FRANKFURT 


 829 


 LEIPSIC 


 MILAN 


 MUNICH 


 NICEA . K.—Korngold appear to be the Peter Pan of music , 
 for he will not grow up . when first mention in these 
 column , in June , 1910 , he be thirteen year old . last 
 month he be announce as fourteen 

 P. L.—Mr . Louis Schloesser ’s personal reminiscence of 
 Beethoven ( translate by his son , the late Adolf Schloesser ) 
 be publish in the J / usical Times for April and May , 
 1894 ( no . 614 and 615 

 NORTHERNER.—A list of the musical setting of 
 Tennyson ’s poem would fill page of our Journal . Novello 
 & Co. will send you a list of those they publish if you 
 apply for it 




 FLETCHER 


 content 


 s09 


 the 


 musical time 


 scale of term for advertisement 


 3 4 


 2 0 


 4 0 ° 0 


 7 10 


 special 


 FRIDAY 


 notice 


 DECEMBER 179 . 


 dure the last month . 


 ENDERSON , A.- 


 TOVELLO ’S CHRISTMAS CAROLS 


 th . 


 UBINSTEI 


 CHOOL MUSIC review . 


 » 1176 . 


 » » 1177 . 


 1179 


 1183 


 JAREING , 


 A. B 


 44 


 A. B. 


 W. G 


 publish for 


 the H. W. GRAY CO . , NEW YORK 


 anthem and carol 


 anthem . 


 CHRISTMAS carol in booklet . 


 EDWYN A. CLARE ’S favourite 


 CHRISTMAS anthem 


 CHORISTER ’s aid to 


 MONOTONING 


 FOSBERY , M.A 


 THREEPENCE 


 BENSON 


 A. " 1831 


 NOVELLO 


 MR . GEORGE 


 TENOR ) . 


 S.W 


 MR . ERNE ST . P ENFOLD 


 21 


 MISS ISABEL 


 C LI E , AR ( CONTRALTO 


 RGANIST.—FIRST CHU rch of ' CHRIST 


 VACATION CONFERENCE 


 musical education 


 JANUARY 5 to 10 , 1914 , 


 AT 


 F.RAL 


 ARTHUR J. HADRILL , 


 PUBLISHED 


 WALKER of the 


 SONG 


 BARITONE 


 the snow 


 FOR 


 CHARLES DAWSON SHANLY . 


 MACKENZIE 


 A practical guide 


 the 


 theory of music 


 contain 


 numerous test - question with answer 


 BY 


 JULIA A. O'NEILL 


 TUDENT te : ACHER . 


 NCE 


 F.RAM 


 1913 . 833 


 mer 


 IDE 


 SIC 


 nswer 


 music for advent 


 WATCH YE , PRAY YE 


 WACHET , BETET ) 


 A CANTATA 


 CHORUS , and ORCHESTRA 


 compose by 


 J. S. BACH 


 for SOLI 


 ADVENT HYMN 


 " in LOWLY GUISE THY KING APPEARETH " 


 for SOPRANO SOLO and CHORUS , with orchestral 


 ACCOMPANIMENT 


 compose by 


 R. SCHUMANN 


 bless be they who 


 watch 


 A CANTATA for advent 


 for SOPRANO SOLO and CHORUS 


 with 


 hymn to be sing by the congregation 


 the music compose by 


 HUGH BLAIR 


 the two advent 


 A CHURCH CANTATA 


 the word select and write by the 


 compose by 


 BLOW ye the trumpet in 


 zion 


 A CANTATA for advent 


 WARWICK JORDAN 


 the collect 


 for the first three sunday in advent 


 set to music by 


 S. S. WESLEY 


 adapt and arrange as anthem by 


 SIR FREDERICK BRIDGE , C.V.O. 


 1 . ALMIGHTY GOD , o give we grace . 


 NOVELLO and COMPANY 


 834 


 anthem for 


 the " lute " SERIE 5 


 LONDON 


 CHRISTMAS 


 of CHRISTMAS anthem 


 ARRA 


 ~~ 4 2 


 RAR ERE RARER REM 


 25 


 CHRIS 


 th 


 STMAS anthem 


 just publish 


 IS be the month 


 BY 


 E. W. NAYLOR 


 OF the father ’s LOVE 


 BEGOTTEN 


 DWARD C. BAIRSTOW 


 recently publish 


 BREAK forth into JOY 


 IN 


 ARISE , SHINE , O JERUSALEM 


 BY 


 WALTER G. ALCOCK 


 A stable lowly 


 CAROL - ANTHEM 


 OLIVER KING 


 RY 


 THOMAS ADAMS 


 0 COME 


 REDEEMER of MANKIND 


 ARTHUR W. MARCHANT 


 REJOICE : greatly 


 OD 


 AUGHTER of ZION 


 CHARLES H. LLOYD 


 O HOLY NIGHT 


 BY 


 ADOLPHE ADAM 


 AS ANTHEM for SOPRANO ( or TENOR ) 


 SOLO and CHORUS 


 NOVELLO ’S SCHOOL song . 


 FOLK - SONG carol 


 collect and arrange by 


 CECIL J. SHARP 


 complete , PRICE NINEPENCE . 


 BY 


 JOSEPH C. BRIDGE , 


 OLD english carol 


 traditional and original , 


 JOHN , STEPHEN , innocent , 


 by the 


 REGENT STREET , W 


 CHRISTMAS CAROL 


 O FRAGRANT the lily 


 word by 


 music by 


 ALFRED J. EYRE . 


 8 36 


 10 


 " 11 


 12 


 13 


 14 


 15 


 " 16 


 " 17 


 " 18 


 * 19 


 * 20 


 NOVELLO 'S CHRISTMAS carol 


 CHRISTMAS carol new and old 


 first serie . 


 third serie . 


 CAROLS for CHRISTMASTIDE 


 TEN CHRISTMAS carol 


 TWELVE " old carol 


 CHRISTMASTIDE CAROLS 


 CAROLS for CHRISTMASTIDE 


 twelve new CHRISTMAS carol 


 _ — _ — _ _ — _ 


 ASTIDE 


 23 


 29 


 NOVELLO ’S CHRISTMAS 


 M9 


 50 


 BS 


 composition 


 ADVENT and CHRISTMAS music . 


 CHRISTMAS carol . 


 ORGAN MUSIC . 


 A CANTATA 


 AND ORCHESTRA 


 FOR SOLI , CHORUS 


 compose by 


 CHRISTM . AS CAROLS 


 J. P. HARDING 


 ND BEST of the son O 


 ANY 


 BRIGHTES1 the morning . | 


 there DWELT in OLD JUD - EA , 


 re duce price . 


 NEW edition . now ready 


 PENITENCE 


 PEACE 


 J. H. MAUNDER 


 original COMI osition 


 for the 


 ORGAN . 


 22 


 DOWN . 


 ANTHEM . " * ™ ® an CONE 


 the 


 CE 


 839 


 BETHLEHEM 


 for four solo voice and choru 


 the word write and arrange by 


 E. CUTHBERT NUNN 


 the music by 


 J. H. MAUNDER 


 the 


 CANTATAS for CHRISTMAS 


 the nativity 


 for SOPRANO , TENOR , and BASS SOLI , and 


 CHORUS 


 the word and hymn select and the music 


 THOMAS ADAMS 


 story of BETHLEHEM CHRISTMAS CANTATA 


 the word write by 


 SHAPCOTT WENSLEY 


 the MUSIC for SOPRANO , TENOR and BASS SOLI , 


 CHORUS and ORGAN 


 compose by 


 JOHN E. WEST 


 CHRISTMAS EVE 


 FOR CONTRALTO SOLO , CHORUS and 


 ORCHESTRA 


 compose by 


 NIELS W. GADE 


 CHRISTMAS scene 


 FREDERIC H. COWEN 


 CHRISTMAS ORATORIO 


 J. S. BACH 


 before 


 FOR SOLI and CHORUS 


 the word by 


 DAFFORNE BETJEMANN 


 the MUSIC by 


 JULIUS HARRISON 


 ROSE 


 the HOLY CHILD 


 FOR SOPRANO , TENOR , and BASS SOLI , 


 CHORUS and ORGAN 


 compose by 


 THOMAS ADAMS 


 YULE- TIDE 


 THOMAS ANDERTON 


 the PALING 


 OF the STARS 


 A CHRISTMAS HYMN 


 BY 


 CHRISTINA ROSSETTI . 


 BY 


 B. J. DALE 


 the 


 1913 


 NOVELLO ’S list of 


 work suitable for 


 PRESENTSBERLIOZ — A _ treatise 

 orchestration .. 
 BEETHOVEN — Sonaras . 
 folio , cloth , 21 

 FREDERICK BRIDGE 




 A. ZIMMERMANN , 


 CATHEDRAL PARAGRAPH PSALTER — 


 CHRISTMAS CAROLS new and old — paper cover , each , 5 . ; paper board , each 6 

 J. B. DYKES — Hymn Tunes and Litanies .. cloth , gilt 5 
 F. G. FDWARDS — the History of Mendelssohn 's " ' Elijah ' 
 cloth 3 
 J. W. ELLIOTT — National Nursery Rhymes 
 paper board , net , 3 . 6d . ; cloth , gilt , net 
 - Hymn Tunes cloth , gilt 1 
 CARL ENGEL — the Literature of National Music cloth , net 5 
 — — research into the early history of the Violin Family 
 cloth , net 7 
 SIR GEORGE GROVE — Beethoven and his nine Symphonies 
 cloth , net 6 
 HANDEL — " Messiah " whole calf , gilt edge , folio , 34s . ; cloth 10 
 — — ditto . facsimile of the Autograph Full Score 

 cloth , red edge 
 EDUARD HANSLICK — " the beautiful in Music . " 
 by Gustav Conen 




 MORITZ HAUPTMANN- 


 21 


 LONDON 


 NOVELLO 's collection of word of anthem — 


 volume of ORGAN music 


 suitable for present 


 LONDON : NOVELLO and ' company , limited 


 just issue . 


 suitable for present and CHRISTMAS gift 


 the CATHEDRAL PSALTER 


 with proper psalm 


 point for chanting , word only 


 TOGETHER with the 


 miniature music edition of HYMNS ancient and modern 


 CATHEDRAL PRAYER book 


 with canticle and psalter point for chant 


 TOGETHER with the 


 miniature music edition of HYMNS ancient and modern 


 1889 edition 


 the new CATHEDRAL PSALTER 


 the psalm of DAVID 


 TOGETHER with the canticle and proper psalm 


 edit and point for chant by 


 word only . > 7 


 LONDON : NOVELLO and company , limited 


 ADVENT 


 L8NT 


 ASTER 


 now issue as a net book 


 additional hymn 


 with tune 


 for use with 


 HYMNS ancient and modern 


 or any other church hymnal . 


 content : — 


 ° 4 300 K 13 . 


 LONDON : NOV ELLO and COMPANY , limited 


 produce at the LEEDS MUSICAL FESTIVAL 


 FALSTAFF 


 SYMPHONIC - study 


 for full orchestra 


 EDWARD ELGAR 


 miniature score , 


 FULL score and orchestral part on hire 


 the TELEGRAPH 


 the MORNING POST 


 the DAILY GRAPHIC 


 the DAILY MAIL 


 the DAILY NEWS 


 the DAILY CHRONICLE 


 EVENING NEWS 


 the 


 MYSTIC TRUMPETER 


 POEM 


 BY 


 WALT WHITMAN . 


 for BARITONE SOLO , CHORUS , and ORCHESTRA 


 HAMILTON HARTY 


 the TIMES 


 the DAILY TELEGRAPH 


 the MORNING POST 


 the STANDARD 


 the DAILY MAIL 


 the DAILY NEWS 


 the PALL MALL GAZETTE 


 OUR music reading LADDER for beginner 


 WI 


 ESTRA 


 er 


 song from 


 just publish 


 the 


 PLAYS 


 OF 


 WILLIAM SHAKESPEARE 


 with 


 the 


 dance 


 and dance by 


 MUSIC 


 WRITTEN and compile by 


 MRS . G .. T 


 KIMMINS 


 BERMONDSEY GUILD of PLAY 


 { with incidental 


 content 


 recitation 


 the step 


 song , dance , description , and 


 illustration 


 LONDON 


 FRENCH 


 musical diction 


 an orthologic method for acquire a 


 perfect pronunciation in the speaking 


 and especially in the singing of the 


 FRENCH LANGUAGE 


 BY 


 C. THURWANGER 


 what be MUSIC 


 H. HEATHCOTE STATHAM 


 111 , ST . MARTIN ’S LANE , W.C 


 NOVELLO and COMPANY 


 LIMITED 


 NATIONAL 


 NURSERY RHYMES 


 with sixty - five illustration 


 engrave by the 


 BROTHERS DALZIEL 


 the music by 


 J. W 


 ELLIOTT 


 COMP OSITION 


 ALFRED R. GAUL 


 to be ready dure JANUARY , 


 posthumous cantata 


 entitle 


 the BARD of AVON 


 SUNG AT 


 the MEMORIAL SERVICES of 


 the composer 


 the SILENT LAND 


 part - song for unaccompanied choral singing . 


 two hymn 


 KINDLY LIGHT . . no shadow yonder 


 1 . lead 


 the 


 PRINCE OF PEACE 


 A SACRED CANTATA 


 for four solo voice , CHORUS , 


 ORCHESTRA 


 AND 


 _ them 


 anthem 


 there be shepherd " ~~ 


 three carol for CHU RCH use 


 " " ANGELS from the REALMS of glory " 


 * " CHRISTMAS bell " * * yuletide 


 four dramatic song 


 1 . imagination . 


 2 . UNWELCOME . 


 ST . ANDREW'S. 


 4 . OVER THE HILLS . 


 MARY E. COLERIDGE 


 BRADLEY ROOTHAM 


 CYRIL 


 new and popular song 


 JOSEPH H. ADAMS . 


 SACRED : — 


 " DIVINE love . " 


 LORD be my SHEPHERD . 


 " the NAZARENE . " 


 " SUN of my SOUL . " 


 " the GENTLE SHEPHERD 


 the 


 SECULAR 


 IT WONDER . " 


 * behold the dawn , " 


 " the planter . " 


 I should tell you . 


 " my kingdom 


 the SPIRIT of the storm . 


 * a song of hope . " 


 " the LITTLE DUTCH TILE . 


 " AMONG the rose . " 


 IF 


 three song 


 BY 


 LEE WILLIAMS . 


 UIDE US , HEAVENLY father , 


 four song 


 TENNYSON 


 MACKENZIE 


 A. C 


 EDI 


 NGS 


 1913 


 847 


 just publish 


 EARLY BODLEIAN MUSIC 


 introduction 


 to the study of some of the 


 old LATIN musical MSS 


 BODLEIAN LIBRARY , OXFORD 


 EDWARD WILLIAMS BYRON NICHOLSON 


 M.A. 


 ( BODLEYV ’ LIBRARIAN ) . 


 WITH seventy - one collotype 


 FACSIMILES 


 SHEPHERD FENNEL ’S dance 


 CROWN of INDIA . SUITE 


 LIFE MOODS 


 the BAMBOULA 


 PETITE SUITE de CONCERT 


 HAWKES & SON 


 NEW foreign publication 


 PIANOFORTE MUSIC 


 CHAMBER " MUSIC . 


 ORGAN and HARMONIU M 


 VOCAL MUSIC . 


 NET . 


 1 6 


 2 6 


 2 6 


 1913 


 CHAPPELL & 


 LATEST SONG and BALLAD 


 S. LIDDLE — 


 1913 


 CO.S 


 SUCCESSES 


 EDWARD GERMAN — 


 HERMANN LOHR — 


 LIZA LEHMANN — 


 GUY D’HARDELOT — 


 A. HERBERT BREWER — 


 ERIC COATES 


 FLORENCE AYLWARD — 


 TERESA DEL RIEGO — 


 DOROTHY FORSTER — 


 LESLIE ELLIOTT — 


 KATIE MOSS 


 SHERIDAN GORDON 


 LEOPOLD ASHTON — 


 PAUL A. RUBENS — 


 HAYDN WOOD 


 FRANK BRIDGE 


 GRAHAM PEEL 


 MONTAGUE RING 


 PERCY WHITEHEAD 


 KENNEDY RUSSELL 


 R. CONINGSBY CLARKE- 


 HUBERT BATH — 


 GODFREY NUTTING 


 RAYMOND 


 LOUGHBOROUGH- 


 ALFRED HARRISS — 


 ROBERT COVERLEY 


 MONTAGUE F. PHILLIPS 


 NEW SONG ALBUMS 


 LIZA LEHMANN — 


 MONTAGUE F. 


 FRANK LAMBERT — 


 PHILLIPS 


 GRAHA 


 GUY D’HARDELOT 


 DOROTHY FORSTER 


 MARJORIE HOPE LUMLEY 


 HERMANN LOHR — 


 R. CONINGSBY CLARKE- 


 AND of ALL 


 EERUSRUERE 


 SFBFESSIRGESE 


 FSFE S FRESSSES 


 LIPS 


 IL 


 extra supplement . 


 NOVELLO ’S OCTAVO anthem 


 compose by 


 JOSEPH H. ADAMS 


 TO my friend FOB COLEY , ESQ 


 SUN OF my soul 


 G24 — = ? 


 ORGAN , - 


 SUN of my soul . 


 | . ADAMS . : : . 


 — — _ _ — 


 Y of my SOUL . 


 MALAWI 


 SUN of my soul 


 YY = > — — 


 SUN of my soul 


 - _ = * B 


 CS SS : SS SES ES ST ES = : — 


 SUN of my soul 


 SUN of my soul 


 SS 


 oh 


 nloist 


 CHEST 


 extra supplement 


 review 


 marking 


 scheme 


 scale of mark 


 A b 


 10 30 


 10 30 


 = 20 


 10 30 


 10 30 


 10 30 20 100 


 10 30 20 100 


 10 30 20 100 


 30 20 100 


 10 30 20 100 


 10 


 30 


 20 


 100 


 the LONG PHRASE 


 DER MUSENSOHN ’ 


 SCHOOL CHOIR competition in SOUTH 


 AFRICA 


 COMPETITION 


 CHOIR competition 


 KAROO PUBLIC SCHOOL CHOIR competition . 


 D. A 


 the SCHOOL MUSIC 


 I , i913 


 date of competition and name of 


 secretary . 


 1913 . 


 MUSICAL FESTIVAL 


 OAKLANDS CONGREGATIONAL CHURCH ( SHEPHERD 'S 


 HUDDERSFIELD 


 MANCHESTER 


 KNIGHTON 


 OAKHAM 


 14 , 15 


 17 . VW 


 22 , 23 , 24 


 CHELMSFORD ( CENTRAL and 


 24 , 25 


 USICAL 


 EXTRA supplement 


 the ROYAL NATIONAL E 


 DIFFICULT MUSIC and 


 marking . 


 method of 


 choral gymnastic 


 AN examiner ’s method . 


 1913 


 marking system 


 technique and interpretation 


 utility of marking 


 xum 


 ight 


 IQ ! 3 . 3 


 the old english 


 competition ? 


 MUSICAL 


 CENTRAL TEMPERANCE HALL 


 MIDDLESBROUGH 


 GRAND MUSICAL CONTEST , 


 A GRAND concert 


 MALE - voice choir 


 PITTSBURG ( U.S.A 


 MORRISTON ( SOUTH WALES 


 competition and name of 


 secretary . 


 date of 


 marking SCHEME use 


 for choral class . 


 10 20 20 80 unior pianofortr . . a ae ' ' 
 J appeal be entirely confine to East Cheshire . it be all very wel 

 test : tee ge r a Past _ Op . 3 , no . 2 ( Chopin ) . organize , and there isan obvious pleasant spirit of co - operation 
 _ aenee ' : onata Pathetique " ( Beethoven ) . between those who manage and those who be manage , 
 ist . Evelyn Graham ( Lockwood ) . | twenty - eight choir of various constitution enter . a fer 

 SENIOR PIANOFORTE . | school that have enter and prepare the music wer 
 : i i ‘ salina : _ .| unfortunately prevent from compete owe to illness ! 
 test : first movement , sonata in F , Op . 54 | child . but all that come , both junior and senior , show 

 Beethoven ) . . : | vocal capacity and an earnest desire to profit . among the 

 Scherzo in ( sharp minor , Op . 39 ( Chopin ) . preenn in " he school class there a the Presben 




 CHOIRBOYS 


 TIVAL 


 PEOPLE ’s PALACE , 


 NAVAL and MILITARY MUSICAL UNION 


 metronome rate . 


 date of competition and name of 


 secretary . 


 1913 


 AVENSY 


 the SCHOOL MUSIC 


 REVIEW — APRIL 1 , 1913 


 the SCHOOL MUSIC 


 ADULT choir . 


 CHILDREN ’s competition . 


 CHURCH and CHAPEL choir . 


 CHORAL society . 


 the SCHOOL MUSIC 


 1913 


 MANCHESTER TONIC SOL - FA FESTIVAL 


 WANSBECK ( MORPETH ) . 


 village choral society . 


 ( from a correspondent 


 124 


 27 


 11,30 


 P , ' N 


 2 the SCHOOL MUSIC 


 the WEST LINDSEY MUSICAL FESTIVAL this very successful event be in its second year . it be the 
 fruit of the labour of the Hon . Mrs. Sandars , an accom . 
 plished amateur musician who reside near the town . the 
 entry be very satisfactory , although some have to with- 
 draw owe to illness . fifteen school be represent on 
 the junior day . the test have be very well select . in 
 one class for unison singing , six school sing ' by dimpled 
 brook ' ( Arne ) and the action - song ' manner ' ( Fletcher ) , 
 all the performance be good , and some be up to the 
 high standard to be hear anywhere in the kingdom . 
 the Beckingham Council School ( Mr. W. Arthur ) sing 
 almost perfectly , and gain 193 mark out of 200 . Morton 
 Church of England School ( Mr. N. Bradbury ) give such a 
 wonderful performance of the action - song that I felt 
 compel to award they full mark . almost equally good 
 performance be give by Gainsborough Parish Church 
 j}and Ropery Road Council School . _ it be not that here and 
 there a school sing well , but that the general average be % 
 high 

 a child ’s concert wind up this section of the Festival . 
 | on the same evening there be adult solo - singing class , 
 and a quartet for string lead by Miss G. MacRae , and it be 
 | state that all the vplayer have ' strad . ' the test be 
 Beethoven ’s Quartet No . 4 , in C minor , Op . 18 . it wasa 
 difficult test , but it be quite well play . for the second 
 day entry have be receive from thirteen place , 
 | and villager troop in to sing quartet , female - voice 
 trio , male - voice piece , and mix - voice _ part - song 
 in addition , all the principal choir have _ leame 
 ' Hiawatha ’s Wedding - feast , ' and have to submit to bk 
 test by a selection from that work . Gate Burton 
 do excellently in the female - voice trio class , as well as in 
 the class for Iarge village , in which the test be Macfarren ’s 
 ' sand of Dee ' and the ' Hiawatha ' selection . the 
 Gainsborough Choral Society give a fine performance of 
 Leslie ’s ' lullaby of life ' and Edward German 's ' my 
 bonny lass . ' other noteworthy class be those for 
 Church choir , in which St. John ’s Church and the Wesleyan 
 Choir , both of Gainsborough , show first - class training 

 the concert be remarkably successful in every way . the 
 large hall be cram , and many be turn away . 
 Coleridge - Taylor ’s work receive every possible justice , 
 | especially as Mr. Gervase Elwes sing the tenor solo . Mis 
 Marjorie Hayward play violin solo in her good style , and 
 the Rev. C. H. Scott , a very competent musician , conduct 




 the SCHOOL MUSIC 


 DOUGLAS ( the MANX FESTIVAL ) . 


 CHURCH and CHAPEL CHOIRS 


 CORNWALL COUNTY FESTIVAL . 


 SECONDARY SCHOOLS . 


 the SCHOOL MUSIC 


 1913 


 the WEST LINDSEY MUSICAL FESTIVAL it be not that here and 

 a child ’s concert wind up this section of the Festival . 
 on the same evening there be adult solo - singing class , 
 and a quartet for string lead by Miss G. MacRae , and it be 
 state that all the+players have ' strad . ' 
 the combine school sing together at the end of the | Beethoven ’s Quartet no . 4 , in c minor , Op . 18 

 the test be 
 it be a 
 for the second 
 thirteen _ place 




 review 


 the SCHOOL MUSIC 


 1913 . 3 


 DOUGLAS ( the MANX FESTIVAL ) . 


 CHORAL society . 


 CHURCH and CHAPEL CHOIRS 


 CORNWALL COUNTY FESTIVAL . 


 SECONDARY school . 


 4 the SCHOOL MUSIC 


 1913 


 other result 


 Y.M.B.C. , 73 . 


 ASHBOURNE ( DOVE and CHURNET VALLEYS 


 CHURCH or CHAPEL CHOIRS 


 71 


 MIXED - voice choir . 


 2 the SCHOOL MUSIC 


 FULL orchestra . 


 CANTATA CLASS , 


 SOLO SINGING 


 FESTIVAL , BIRMINGHAM . 


 MIDLAND 


 SCHOOL 


 am 


 EXTRA supplement . 


 mix - voice choir 


 FEMALE - voice prize choir 


 the SCHOOL MUSIC 


 AN ADJUDICATOR ’s tour . 


 NORTH NORTHAMPTONSHIRE ( OUNDLE ) , . — 


 the SCHOOL MUSIC 


 AYRSHIRE FESTIVAL , KILMARNOCK . 


 FEMALE - voice choir . 


 the SCHOOL MUSIC 


 the BERKHAMSTED and _ DISTRICT 


 COMPETITIVE MUSICAL FESTIVAL 


 PEOPLE ’s PALACE ( EAST LONDON 


 CHORAL SOCIETIES 


 ELEMENTARY SCHOOLS 


 the SCHOOL MUSIC 


 FEMALE - VOICE choir . 


 CHURCH and CHAPEL CHOIRS 


 CHORAL SOCIETIES 


 the SCHOOL MUSIC 


 OXFORD ( the three county festival 


 child 


 adult 


 A. M 


 A. M 


 2 the SCHOOL MUSIC 


 the SCHOOL MUSIC 


 choir connect with industrial undertaking , 


 MALE - voice 


 FEMALE - voice 


 mix - VOICECHILDREN ’s choir 

 test : ' Piper ’s song ' ( Rutland Boughton ) . 
 * Elfintown ' ( Bantock ) . 
 ' Vesper hymn ' ( Beethoven 

 2nd . St. Margaret ’s Higher Grade , Liverpool ( Mr. Johann 
 Leopold ) . 
 Heaton Boys ’ Choir ( Mr. C. Milne Rooks ) . 
 Ist Birkdale ( Mr. A. E. Parr 




 action - song . 


 FEMALE - voice choir . 


 the SCHOOL MUSIC 


 CHELMSFORD 


 date of competition and name of 


 secretary . 


 1913 


 ROYAL NATIONAL EISTEDDFOD of WALES ( ABERGAVENDY ) . 


 H. P 


 OF 


 ENNY ) . 


 extra supplement 


 review 


 NONCONFORMIST CHOIR FESTIVAL , 


 SOPRANO 


 CONTRALTO 


 tenor . 


 the SCHOOL 


 1 , 1913 


 the ASSOCIATION of MUSICAL COMPETITION 


 festival 


 100,000 


 191 3 . 3 


 technique 1n conducting . 


 the school 


 1913above all , study the meaning of the word in vocal , and 
 the emotional character in vocal and instrumental music , and 
 make every detail subservient to this , and a means of 
 realise it , remember that pace , rhythm , phrasing , light 
 and shade and colour be not the end itself , but the mean to 
 that end 

 Mr. Harry Evans , who follow Dr. Bairstow , with the 
 permission of Lady Mary Trefusis be allow to put 
 himself ' out of order ' on the plea that much that have be 
 say on the previous day deserve some more consideration . 
 Prof. Hadow have give , as usual , a fascinating address , 
 yet even he have give some of his listener a sudden bump 
 when he bring they to earth with the suggestion that 
 * ' Acis and Galatea ' be the one perfect thing for the 
 competition Festival . but most experienced critic would 
 agree with his plea for the repetition of a great piece of 
 music . instance be well know of a great piece of music 
 which at first be inadequately perform , but after a 
 lapse of a few year the add experience of the choir 
 have make the same piece a joy to listento . a feeling of 
 pessimism be create yesterday , since the impression be 
 leave that not only be ' bad music ' choose , but that it 
 be deliberately choose ! if an examination of last season ’s 
 Festivals be make , it would be find that not only be 
 there a great improvement but that comparatively little ' bad ' 
 music be choose . surely every one endeavour to choose 
 good music ? < a suggestion be make that a body of expert 
 be elect to advise on the selection of music for the various 
 competition . but who be the expert ? one expert would 
 tell they that Beethoven have say the last word in music . 
 another , that good music die with Brahms ! then there be 
 the expert who hold that England have produce only one great 
 composer — Purcell . on the other hand , we would be tell by 
 an expert that Elgar be the one and only english composer . 
 another would tell we that we could not have too much Bach 
 and the Madrigals , but on all account to ' shun the fifth - rate 
 music of Elgar ! ' what kind of a programme would these 
 expert devise ? Mr. Herbert Thompson make a most 
 valuable suggestion with regard to the soloist — that they 
 should prepare a group of song , the judge to make the 
 selection at the competition . that be probably the depart- 
 ment where the pot - hunter be find . the big Festivals 
 of Morecambe , Blackpool , and Birmingham find they must 
 give money prize , and it would be well not to discuss they any 
 far . one only hope that they would not increase the 
 money prize , as in the case of welsh competition . in 

 more concerned with the pace — whether it be 84 or 8$~ 
 than with the interpretation of the music ! perhaps some 
 conductor be so concerned with the technique , that they 
 leave the real interpretation until the last moment . in his 
 ( Mr. Evans ’s ) experience , it be far well to fire the imagina . 
 tion of the singer at the outset . explain the poem , then play 
 it over and emphasise the beauty of the musical setting . the 
 next step be to let they learn the music in whole phrase ; 
 before add the word . this method make difficulty of 
 notation and rhythm disappear to a great extent , and the 
 singer have a goal to work for . anothe : advantage of this 
 method be that the singer be encourage to ' use their 
 ear ' and to sing into the harmony . modern music , and 
 certainly the music of the future , would probably demand more 
 use of the ear than the eye ! in spite of all criticism — and 
 there be a danger of over - criticism by new critic who 
 suddenly ' discover the movement ' and proceed to advise 
 that it all be pull down and build up accord to their 
 view — the Competition Movement be the only ' live ' 
 movement in music in the country , and it have make good 
 music the absolute need of a great many people 




 view 


 extra supplement 


 1913 . 5 


 the school 


 1913 


 1913 . 7 


 BRISBANE , QUEENSLAND . 


 PROVINCIAL CHOIRS 


 MADRIGAL class 


 : ' MALE- voice choir . 


 5 MORE 


 XUM 


 XUM 


 NATIONAL BROTHERHOOD FESTIVAL 


 the 


 SOLO SINGING . 


 british music exhibitiontest : ' happy day ' ( W. Sanderson 

 Marjorie Brown . 
 joy ’ Soo . 
 test : ' under the greenwood tree . ' 
 Reginald Wright . 
 JUNIOR PIANOFORTE , 
 test : ' Larghetto ' ( Beethoven ) . 
 Frank K. Owen . 
 SENIOR PIANOFORTE 

 test : ' bavarian dance , no . 1 ' ( Elgar 




 MALE - voice quartet . 


 mix - voice quartet . 


 SOPRANO SOLO , 


 CONTRALTO SOLO . 


 TENOR SOLO . 


 date of competition and name of 


 secretary . 


 1913 . 


 IF 


 PSS 


 review 


 extra supplement 


 BLACKPOOL 


 OCTOBER 


 the 


 MUS 


 SICAL FESTIVAL 


 DRAMATIC 


 CONTRALTO , 


 1913 


 SHOIR,~ 


 P. 14 


 the SCHOOL MUSI 


 RECO 


 RD 


 ' 7 VIOLONCELLO . cold winter , villain that thou / ae 
 | test : ' secret * ( Schubert 

 art ' 
 ' yver , vous mestes quun ist . Bertha Street . 
 TT " boy . 
 villain ' 
 2 test : ' the swallow be fly west © ( Brahms ) , 
 horal son : * on Jordan ’s bank Var Bruck 7 . Il . Proctor Moorhouse . 
 word . : , , > ( | Bertie Gamble . 
 ret ) 9 ' att - sony * since first I see your face ' ... lord en a ¥ 
 ° a PiANOFORIE TRIv . 
 i ; ; ' » ( Arr.by Granvill a . 
 harmonized air ... * .\nnie Laurie Rantock ( six entry . ) 
 ( UA . , , 
 Is will test : trio in FE flat , Op 1 , no . 1 ( Beethoven ) , 
 of the B National ww . * God save the | dre . by Edward | ist . Mrs. F. Yardley ’s Trio , Solihull . 
 anthem | King ? Elgar .2nd . the Willans Sugden Pianoforte Trio , Keighley 

 4 the 




 FEMALE - voice 


 1913 


 1 - 12 . ) 


 WA 


 extra supplement 


 the HALIFAX MADRIGAL SOCIETY ’s 


 COMMAND performance at WINDSOR 


 CASTLE 


 PIANOFORTE . 


 VIOLIN . 


 VIOLA . 


 VIVLONCELLO . ist . Burley Copley , Jun. 
 VocaL Sutous , 
 Girls . 
 test : * secret ' ( Schubert ) . 
 Ist . Bertha Street . 
 Boys 

 test : ' the swallow ‘s fly west ( Brahms ) . 
 ( IL . Proctor Moorhouse . 
 | Bertie Gamble . 
 PIANOVORITE TRiv . 
 ( six entry . ) 
 test : triv in e flat , op 1 , no . 1 ( Beethoven ) . 
 Mrs. F. Yardley ’s Trio , Solihull . 
 the Willans Sugden Pianoforte Trio , Keighley 

 Ist 




 SCHOOL MUSIC 


 2 the 


 1913 


 STRING quartet . 


 operatic ( quartet . 


 mix - voice quartet . 


 STRING ORCHESTRA . 


 FULL ORCHESTRA . 


 MALE - VOICE 


 HAS 


 RUUD 


 VIOLIN 


 FEMALE - voice CILOIRS . 


 SOUTHEND and SOUTH - EAST ESSEX MUSICAL 


 PIANOFORTE SOLO . 


 VIOLIN SOLO . 


 CHAIR EISTEDDFOD in LONDON at CENTRAL 


 HALL , WESTMINSTEKR 


 1913 


 PIANOFORTE . 


 NEW JEWIN EISTEDDFOD , ALDERSGATE 


 STREET , LONDON 


 the MYTH AGAIN