


 MUSICAL time 


 found 1844 . 


 publish month 


 _ S 


 ROYAL CHORAL SOCIETY , QUEEN HALL , 


 ROYAL ALBERT HALL . LONDON 


 society 


 " REVENGE BRAHMS ’ " requiem " 


 MISS GLEESON - WHITE 


 MISS EMILY FOXCROFT MR . BERTRAM MILLS : 


 QDE NORTH - EAST WIND 


 MR . KENNERLEY RUMFORD 


 BAND CHORUS , thousand 


 MISS EVANGELINE FLORENCE 


 MADAME CLARA BUTT 


 MR . WILLIAM GREEN 


 MR . D. FFRANGCON - DAVIES . | QUEEN HALL 


 SYMPHONY concert 


 TENTERDEN STREET , W. QUEEN HALL ORCHESTRAProspectus , entrance form , information 

 F. W. RENAUT , Secretary . | overture , ' ' Leonora , " . 3 ; wi , Beethoven 
 pe : | Inflammaius ( ' * Stabat Mater " ) .. aa ee .. Dvorak 
 GUILDHALL SCHOOL MUSIC . symphony . 7,inc .. ; ws ; Schubert 
 minute Ludgate Hill , Fleet Street , | Capriccio Espagnol ty Rimsky - Korsakoff 

 Blackfriars Station ( District Railway 




 subscription : 


 MORECAMBE 


 musical festival , 


 adjudicator ? 


 WALFORD DAVIES 


 ASSOCIATED BOARD 


 


 ACADEMY MUSIC ROYAL COLLEGE 


 EXAMINATIONS MUSIC . 


 UNIVE RSITY DURHAM 


 


 ROYAL 


 MUSIC LOCAL 


 BIRMINGHAM MIDLAND INSTIEUES 


 SCHOOL MUSIC 


 BANTOCK 


 SESSION 1905 - 06 


 ROYAL 


 COLLEGE 


 MANCHESTER MUSIC . 


 NATIONAL COLLEGE MUSIC . 


 CHURCH ORGANISTS ’ society 


 CECILIA guild . 


 HUGO GORLITZ 


 119 , NEW BOND STREET , LONDON , W. 


 1905 


 | KUBELIK SEASON , 


 KUBELIK TOUR 


 BOHEMIAN STRING QUARTET , 


 | GREAT ENGLISH TENOR 


 SPECIALTY 


 MADAME AMY SHERWIN 


 IMPORTANT announcement 


 MISS MURIEL GOUGH 


 MISS MARGARET BELL , 


 MISS HOPE WARWICK , 


 MISS ANNE MALVERN 


 


 MISS JOAN ASHLEY 


 HARRISON 


 INCORPOR . ATED GUILD CHURC H 


 musician 


 MR . JOHN 


 1.G.C.M. ) , FEL 


 LOWSHIP ( F.1.G.C. EXAMINA TIONS , 


 VIC TORIA COLLEG E 


 LONDON 


 incorporate 18 1 


 MUSIC 


 | BOARD EXAMINATION . 


 PROFESSOR ELWIN . 


 EDUCATIONAL DEPARTMENT . 


 GEO . A. STANTON 


 F.1.G.C.M 


 LG H 


 LESEY 


 F.R.C.O 


 NATIONAL CONSERVATOIRE 


 local MUSICAL examination 


 BACH 


 NOVELLO school song . 


 CHILDREN song 


 NURSERY RHYMES 


 JOHANNES BRAHMS 


 MARY BRADFORD WHITING 


 SEVEN 


 - song 


 ( MARIENLIEDER ) 


 music compose 


 JOHANNES ES BR : AHMS 


 


 


 professional notice 


 change address . 


 MISS EVELYNE KING , L.R.A.M. 


 MISS LILLIAN DEWS 


 MR . WILLIAM D. VINCENT 


 MR 


 MR . MRS . WALLIS A. WALLIS , I.S.M. 


 APOLLO VOCAL QUARTETTE . 


 JOHN MAYNARD . 


 PET HERIC K QUARTETT . 


 PAKES 


 MUSICAL 


 772 


 IME 


 S.—DECEMBER , 1905 


 SOUTHWARK GLEE SINGERS 


 MR . F. MANN DYSON MR . MURRAY RUMSEY 


 MR . RICHARD EVANS MR . HARRY EVANS . 


 MR . SIVEY LEVEY 


 recitation PIANO 


 NTLEY 


 L.R.A.M 


 MISS FLORENCE BOWNESS 


 MISS 


 4 4 4 


 GERTRUDE FLETCHER 


 MISS ESTELLA LINDEN 


 MISS 


 BEATRI CE BALL STER 


 MISS ETHEL RADBURN 


 ( SOPRANO ) . 


 MISS AMY SARGENT 


 A.R.A.M. ( SOPRANO ) . 


 MISS GERTRUDE WESLEY 


 MADAME LESLIE DALE 


 ( CONTRALTO ) . 


 MR . TOM CHILD 


 ( YORKSHIRE TENOR 


 CONTRALTO ) 


 MR . GEORGE STUBBS 


 MR . HENRY BEAUMONT 


 ( GREAT ENGLISH TENOR ) . 


 MR . A. LIVINGSTONE HI RST 


 PHILHARMONIC . 


 MR . ALFRED KENNIN NGHAM 


 change address 


 MR . HENRY PLEVY 


 ( TENOR 


 MR . 


 BREARLEY REDFEARNE 


 ( TENOR ) . 


 MR . GWILYM RICHARDS 


 ( TENOR ) . 


 LW 


 


 


 1905 . 7 


 MR . MURRAY RUMSEY 


 MR . WILLIAM A. SHEEN 


 MR . THURGATE SIMPSON 


 MR 


 ALEXANDER WEBSTER 


 MR . WILLIAM WILD 


 ( TENOR ) . 


 MR . MONTAGUE BORWELL | 


 ( BARITONE 


 


 MISS WINIFRED MARWOOD | . | 


 MR . ALFRED HAIGH 


 BARITONE ) . 


 MR . DUDLEY MASTERS 


 BARITONE ) . 


 MR . DAN RICHARDS ( RAM 


 BARITONE ) . 


 MR . HENRY SUNMAN 


 ( BASS ) . 


 MR . HERBERT TRACEY 


 MR . GRAHAM SMART 


 TEWKESBURY FESTIVAL . — ' ' ELIJAH . " 


 SEPTEMBER 21 , 1905 . 


 MR . ARTHUR WALENN 


 ( BARITONE 


 DR . WALFORD DAVIES " everyman . " 


 MR . JAMES COLEMAN 


 BASS 


 ELIJAH . 


 MR . FREDERICK POOLE 


 MUSICAL sketch PIANO . 


 conjuring , ventriloquism , humorous story . 


 MR . DUTTON SOLO BOYS 


 74 musical 


 H. GRIFFITHS , 


 professor lecturer VOCAL science 


 MR . W 


 HOPE despair pianist 


 tone HARSH ? 


 wrist finger stiff ? 


 BRILLIANT OCTAVE - playing 


 


 CLEAN 


 SSOR BRITTON 


 MANCHESTER 


 PROF E 


 CHORLTON - CUM - HARDY 


 EXPERT EXAM . coach 


 impossible 


 success GUARANTEED ! failure 


 DR . EAGLEFIELD HULL , 9 , YORK PLACE , HUDDERSFIELD 


 ty - success ; 


 - 


 r.a.m. 1897 - 1905 , fif 


 97 - 1905 , 


 success 


 R. a. B PLAID 


 OSTAL LESSONS , HARMONY 


 EK . TA 


 YLOR 


 R. HERBERT F. ELLINGFORD , F.R.C.O 


 A.R.C.O 


 D * : WARWICK — F , 


 1 mony , COUNTERPOINT , DOUBLE COUNTERPOINT , 


 O PROFESSIONAL VOCAL student 


 T. GEORGE CHAPEL , WINDSOR CASTLE . 


 SS . 


 IELD 


 C0 : 


 SON 


 NTS 


 .NCY 


 ILE . 


 


 MUSICAL 


 EXPERIENCED visiting 


 A\XFORD , NEW COLLEGE . CHORISTER 


 RENT COLLEGE , DERBYSHIRE . — 


 


 G ' ? OUCESTER CATHEDRAL . — BASS 


 


 COACH,| CT 


 HOIR EXCHANGE , 136 , FIFTH AVE . , NEW 


 ESIDENT MUSIC mistress REQUIRED 


 T ° ? PIANOFORTI 


 BRANCH MUSIC 


 ESTABLISH 


 776 MUSICAL 


 1905 


 LONDON 


 INSTITUTED 1872 


 HIGHER examination MUSIC 


 BRANCH B 


 INSTRUMENTAL VOCAL 


 ROYAL COLLEGE MUSIC , 


 PRINCE CONSORT ROAD , SOUTH KENSINGTON , S.W 


 FR ANK POWNALL 


 COLLEGE 


 ROYAL ORG . \NISTS 


 CONTAINING 


 BROADWOOD ' ' SURRENDER VALUE SYSTEM 


 TOBIAS MATTHAY : 


 principle 


 PIANOFORTE - playing 


 school - book base author 


 advice teacher . 


 act TOUCH 


 analysis synthesis PIANO - TECHNIQUE 


 practical 


 teaching material 


 E. KROSS 


 ETUDEN ALBUM 


 BOSWORTH & CO . , 


 DAILY technical study tutor 


 pianoforte 


 TEM 


 IQUE 


 MER . 


 ROSS . 


 ROSS . 


 DECEMBER 1 , 1905 


 MAGDALEN COLLEGE , OXFORD 


 FOUNDER tower quadrangle . 


 MS . 


 east end CHAPEL . 


 M.A 


 1899 


 780 


 view college PRESIDENT garden . 


 ORGAN , ANTE - chapel . 


 M.A 


 782 musical 


 1905 


 GREAT ORGAN 


 SWELL ORGAN 


 PEDAL ORGAN . 


 1848 


 


 1905 . 783 


 w chapel , bell - tower , - door pulpit . 


 347 ) , 


 interior hall , panelling erect i54i 


 A.S. MCMV 


 786 


 DR . J 


 organist 


 VARLEY ROBERTS . 


 instructor chorister , 


 SCHUMANN 


 SCHUMANN MUSIC ENGLAND . 


 MUSICAL TIM 


 ES . — DECEMBER , 1905 . 787 


 _ — _ a// ' time 
 England ' certainty determine , 
 probability english introduction 
 place credit Sir August Manns , 
 conduct performance . certain 
 selection ' Manfred ' 
 time country Crystal Palace 
 April 25 , 1874 , english word having 
 adapt Mr. C. Barry . perform- 
 ance complete work , text recite 
 ( Mr. Charles Fry ) , Mr. George 
 Halford , Town Hall , Birmingham , 
 April 16 , 1896 

 March , 1868 , Mr. Adolph Schloesser , 
 ardent admirer composer , series 
 Schumann evening Beethoven Rooms , 
 Harley Street , introduce follow 
 work english audience 

 Fantasie Stiicke pianoforte clarinet , Op . 73 . 
 Fantasie Stiicke pianoforte , violin , violoncello , 
 Op . 88 . 
 Stiicke m 




 unknown portrait handel 


 portrait HANDEL : plaster cast SIR JOHN SOANE museum 


 LINCOLN INN FIELDS 


 MUSIC EMPIRE , 


 ANDREW MARVELL . 


 ( 1621 - 1678 


 79 


 ' © MURDER flat ! " 


 PIANO SOLO 


 792 


 ST . CECILIA DAY celebration 


 BISHOP LONDON music 


 TCHAIKOVSKY . * 


 1840 - 1893ashe record . exploit musical | , write age - , : 
 rodis y , musical propensity regard | devour impatience master 

 ' uscless trifling , friend suggest | English master Dickens easily , devote 
 avocation inspector meat lucrative } hour day occupation , 
 suitable calling life . educate School exception breakfast , dinner , necessary walk , 
 jurisprudence St. Petersburg , Tchaikovsky obtain | literally spend minute hurry madly 
 apost Ministry Justice , 1862 , the| end . certainly disease . 
 age - , enter Conservatoire 
 Music St. Petersburg , Anton Rubinstein | english author great impression 
 found previous year ( 1861 ) . he}upon George Eliot . connection 
 study harmony composition Rubinstein , | M. Modeste Tchaikovsky relate specially interesting 
 original method teach young idea | incident : 
 shoot . MSCARCE , set Tchaikovsky time discuss subject new opera . 
 task orchestrate Beethoven D minor pianoforte ] peter [ lich favourite author later life George 
 sonata different way , young } fliot . travel abroad come 
 student ' elaborate arrangement , intro-| fine book , Zhe Mil/ Floss , 
 duce english horn manner unusual ] time consider rival Tolstoi 
 accessory , master reprimand him| writer fiction . Adam Bede , Silas Marner , 
 severely . " warm lifelong affection , , Middlemarch stir great enthusiasm , 
 sprang Tchaikovsky brother | read . care 
 Rubinstein , Anton Nicolas ; occasion Romola , particularly fond scene 
 lend composer pathetic sy mphony clerical Life . time seriously contemplate 
 dress coat order youth — libretto opera Zhe Sad 
 elie ° pessi : ortune Rev. Amos Barton . whe wish 

 attend ball . Conservatoire Tchaikovsky Sale ache oes ghar fi 

 write ( letter ) : | note , ' reply Tchaikov sky , ' shall publish work 
 laugh heartily Dickens /%ckwick Papers , | exactly stand . ' . 
 share mirth ; early creation , 

 thought incite wild hilarity . Irecommend | Beethoven late , setting Schiller ' Ode 
 ye fo read bok s want rea fiction [ joy " fourth symphony minor , 

 ; al po dedicate ' good friend ' ) favourite 
 , later life letter composition . look fifth symphony 
 biographer - brother , Modeste , sound pathetic ( e minor ) failure . ' 




 MR . RANDEGGER NORWICH 


 FESTIVAL 


 3 ; . ° | 5 : 


 


 


 795 


 SIR ALEXANDER MACKENZIE 


 SCHOLARSHIPS composition 


 prize 


 796 


 EXETER CATHEDRAL COLLEGE VICARS CHORAL : 


 quincentenary celebration : 


 1405 - 1905 


 HALL COLLEGE VICARS EXETER CATHEDRAL , 


 NMERAN ARC CIRSE 


 


 1905 . 797 


 REV 


 CUSTOS 


 WILLIAM DAVID , M.A 


 COLLEGE VICARS , EXETER 


 endowment country church 


 organist 16th centurythe London Church Choir Association hold thirty- ee cana 

 second annual Festival St. Paul Cathedral October 26 , Dr. A. B Plant Ton Hall . Burton - ontrent.—= 
 service include new elaborate setting Triumphal March Moline . , 
 Magnificat Nunc dimittis key b flat , compose . Asthor ( ' . Tatexesll . St. Alphage , London Wall . — 
 Mr. Montague I. Phillips . anthem Sterndale | \farche Pontificale , fang ; 
 Bennett ' o , know find , ' Mr. Charles H. Gregory , St. John Baptist , Leyton- 
 Beethoven ' hallelujah " ( ' Mount olive ' ) . special | stone.—Cantiléne , Wksckies . oo 

 hymn - tune compose Mr. G. C. Richardson , Mr. Mr. C. S. Jekyll , St. Paul , Cliftonville . — Moderato , en 
 Carter Jenner , Rev. G. C. E. Ryley , Dr. Walford | forme d’ouverture , Smart y 
 Davies . music impressively render | fy , | Adelberg Lawson , St. Paul Presbyterian Church 




 BL 


 


 1905 . 799 


 organist choirmaster appointment 


 book receive 


 HANDEL , ERBA , URIO . 


 editor ' MUSICAL TIMES 


 P. ROBINSON 


 SCOTCH ANCESTRY MACFARRENS . 


 editor ' MUSICAL TIMES 


 WESTERN AUSTRALIA . 


 opening 


 802 


 DUNEDIN CHIMES . 


 editor ' MUSICAL TIMES 


 PAGET COLE 


 DREAM GERONTIUS ' VIENNA 


 SPECIAL correspondent 


 


 DREAM GERONTIUS ' ABERDEEN , 


 DREAM GERONTIUS ' 


 ALEXANDRA PALACE 


 - song 


 SS 


 PP 


 WEF 


 _ — _ — — = l — _ _ 


 _ _ _ _ ... SRR — _ = 


 MOON SOFT SPLENDOUR 


 807 


 NORWICH MUSICAL FESTIVAL . 


 ( special CORRESPONDENTThe conductor - composer include Sir Charles 
 Stanford , open Festival fine performance 
 Leeds Te Deum , Sir Edward Elgar , 
 ' Apostles ' meet interpretation realize 
 mood music , , think , regard 
 fine achievement Norwich Chorus . Sir Edward 
 conduct brilliant introduction Allegro string ; 
 Sir Alexander Mackenzie beautiful orchestral ballade 
 ' La Belle Dame sans Merci ' ; Sir Frederick Bridge 
 ' Morte d’arthur ' overture . Dr. Walford Davies 
 introduce deeply impressive ' Everyman ' overture , 
 , unwisely discard prelude 
 cantata , form fine commentary . Dr. Frederic 
 Cowen conduct spirited performance ' John Gilpin ' ; 
 Mr. Edward German ' Welsh Rhapsody , ' 
 Mr. Arthur Hervey tone - poem ' East , ' 
 hear Cardiff Festival 
 year ago , inclusion programme furnish 
 compliment Cardiff striking 
 hardly design . Mr. Frederic Corder 
 clever musical - song canonic form female 
 voice bring close long list , include 
 contemporary composer , certainly 
 hall - mark Norwich Festival 1905 

 choice modern music leave little room 
 great classic , ' Messiah ' ' 
 hymn praise * , careful sympathetic 
 performance provide final scene act I. 
 ' Parsifal , ' , course produce 
 proper effect concert - room , _ 
 incongruous usual amid surrounding . Mr. Kreisler 
 play violin concerto Bach ( e ) Bruch ( g 
 minor ) , , concerto Brahms Sheffield 
 Beethoven Bristol , complete quartet ' b ’ ' 
 great artist interpret October Festivals 

 follow example Birmingham 1903 , 
 precedent set engage orchestra ev 4 / oc instead 
 recruit source occasion , service 
 London Symphony Orchestra secure 
 Festival , , apart obvious advantage belong 
 organize band , doubtful 
 come successfully trying ordeal play 
 seventeen different conductor successive 
 day . unfortunate orchestra 
 hand symphony programme — 
 Tchaikovsky e minor 




 808the MUSICAL TIMES.—DEcEMBER 1 , 1905 

 BEETHOVEN ' LEONORE . ' 
 ( special correspondent 

 look strange theatre bill Royal 
 Opera House Berlin evening November 20 
 announcement ' Leonore , ' opera act , 
 Beethoven , ' time . ' strange 
 look general public ; 
 study life great composer aware 
 opera ' Fidelio , oder Die eheliche Liebe , ' produce 
 Vienna , Theater der Wien , November 20 , 
 1805 , perform time . city 
 hand french troop , Beethoven patron 
 friend flee . great work produce 
 distressing circumstance , 
 surprising fail . critic prin- 
 cipal paper complain opera . < Ad//gemeine 
 Musik Zeitung music remarkable 
 invention , ' Leonore ' Overture 
 . 2 , precede opera , 
 stand comparison composer 
 ' Prometheus . ' critic present day venture 
 express . performance 
 Prince Lichnowsky , Seyfried , Clement , prominent 
 musician fight — right term — hour , 
 finally obtain Beethoven promise great 
 cut opera follow 
 year prune pencil vigorously work , 
 violent scene Baron Braun 
 composer , opera shorten , place 
 great hurt music , success 
 previous year . Beethoven , , 
 performance , withdraw score 

 utter mistake think version 
 sort sketch , fill 
 powerful experienced hand . kind . 
 late version certain gain , certain 
 loss . ' Leonore ' mere historical interest , 
 present Berlin , opportunity study 
 sinall point difference , weigh effect 
 important , think . ' Leonore ' 
 colour individuality ; contain 
 3eethoven dramatic , powerful writing . 
 dramatic point view , , act 
 great ' Fidelio 

 refrain enter detail ; , 
 help music - type example , interesting 
 . performance little need . 
 work good goodwill , vary success . 
 cast follows:—Leonore , Frau Plaichinger ; Florestan , 
 Herr Kraus ; Marzelline , Frau Herzog ; Rocco , Herr Kniipfer ; 
 Don Pizarro , Herr Hoffmann ; Don Fernando , Herr , 
 , Mr. Griswold . Dr. Richard 
 Strauss conduct ably , portion 
 work appeal far strongly . 
 scenery costume new . work 
 December 1 10 . remain 
 man restore score . 
 Dr. Erich Prieger , Bonn 

 year worshipper Beethoven 
 zealously try gather complete material 
 original score . pass 
 hand Schindler , friend biographer 
 composer , remainder scatter direction . 
 Dr. Prieger work find miss sheet 
 form story romantic interest ; autograph 
 belong Schindler long time 

 3erlin Royal Library . man thoroughly earnest 
 carry idea . world general 
 scarcely understand trouble thought 
 labour love cost . , success 
 crown effort , day 
 detailed account research ; 
 gather complete score version , 
 complete material second 




 AUXETOPHONE 


 ROYAL CHORAL SOCIETY 


 LONDON CHORAL SOCIETY . 


 ' APOSTLES 


 GWEN 


 r00 


 809 


 ITALIAN OPERA , COVENT GARDEN . 


 ' MEFISTOFELE ' " ANDREA CHENIER 


 GWENEVERE ' CORONET THEATRE 


 COMPETITION festival 


 QUEEN HALL ORCHESTRANovember 14 , 1895 , Steinway Hall , Messrs. G. 
 | H 

 Saint - George . remainder selection 
 November 4 consist Elgar ' Enigma ' variation , 
 Adagio Beethoven ' Prometheus ' music , Dr. Richar¢ 
 Strauss ' Sinfonia Domestica . ' - work 
 conduct composer 

 old master reign supreme concert 
 November 18 , programme comprise Mozart ' Nozze 
 di Figaro ' ' Don Giovanni ' overture , composer 




 810the MUSICAL TIMES.—DeceMBerR 1 , 1905 

 violin concerto , Viotti violin concerto minor , 
 Beethoven ' Eroica ' symphony 

 revival Viotti 

 LONDON SYMPHONY ORCHESTRA 

 November 6 , Queen Hall , concert 
 second series enjoyable music - making 
 , Dr. Hans Richter , chief chieftain , 
 conduct Titanic force famous . 
 broad - minded broad - shouldered , Dr. Richter 
 select programme range Weber 
 Richard Strauss — include gem Brahms 
 lovely ' variation theme Haydn ' Beethoven 
 - fresh ' Eroica ' symphony , 
 year old . noble creation , 
 ' Euryanthe ' overture symphonic poem ' § 
 sprach Zarathustra , ' London Symphony Orchestra fully 
 sustain reputation splendid tone 
 attainment perfection interpretative 
 excellence 

 programme second concert season 
 November 23 follow 

 und Isolde ' ( Wagner ) . conductor , Herr Peter Raabe . 
 occasion specially interesting fact 
 introduce London audience Herr Peter Raabe , 
 conductor Dutch Opera House Amsterdam , 
 director Munich Kaim Orchestra , 
 reference p. 795 . experienced 
 resource imagine fine performance 
 - piece secure . reading 
 symphony , , specially impressive 
 Strauss Wagner selection 

 Joachim Quartet begin series concert 
 Bechstein Hall November 20 , programme 
 entirely devote Beethoven sixteen 
 string quartet . Dr. Joachim associate usual 
 colleague — Messrs. Halir , Wirth , Hausmann . 
 play need record 

 Royal Amateur Orchestral Society , conduct 
 Mr. Ernest Ford , begin thirty - fourth season 
 November 15 ( Jueen Hall . important feature 
 programme Haydn ' Oxford ' symphony , 
 render admirable crispness verve . feature 
 evening engagement Mischa Elman , , 
 play great expression brilliancy 
 Wieniawski ' Faust ' fantasia , present Mr. II . M. 
 Morris , behalf Society , gold watch 
 chain . vocalist Miss Elizabeth Parkina 
 Mr. Lane Wilson 

 811 

 Messrs. Fryer , Newmann Walenn open 
 second season trio concert November 18 , Steinway 
 Hall , Sir Hubert Parry pianoforte Trio b minor . 
 effective performance genial melodious work 
 applaud . concerted composition 
 Beethoven pianoforte Trio b flat ( Op . 97 ) , 
 work Mr. Hugo Heinz dramatic rendering 
 Herr A. von Fielitz song - cycle ' Eliland 

 Mr. Albert Spalding , young american violinist , 
 study Florence Paris , successful 
 début Queen Hall November 21 concert , 
 enjoy co - operation Mr. Henry J. Wood 
 orchestra . Mr. Spalding tone somewhat thin , 
 sweet true , playing distinguish refine- 
 ment executive facility . Miss Amy Castles 
 reappearance country absence year . 
 interval acquire perfect control 
 fine soprano voice , 
 finished artist 




 recitalsnoveltie programme cheer heart critic , 
 lady ask hear sixteen new song consecutively , 
 experienced listener apt somewhat 
 dazed . crave excuse 
 comment detail Mdlle . Marie Altona programme 
 recital ( Bechstein Hall , November 16 ) , 
 mention ' lie glowing summer ' ' thou art 
 sun ' Arthur Hervey , ' greek song ' Cyril Scott , 
 ' Fra Campi ' Giuo Calcaterra , ' Pour Consoler ' 
 Louis Ancel 

 year age , Mr. Frank Merrick 
 enjoyable pianist - day ; reading 
 essentially sane time imagination 
 power . singularly sensitive touch ally great 
 technical brilliancy , quality force 
 interpretation Beethoven ' Appassionata ' sonata 
 piece carry conviction recital 
 November 16 Bechstein Hall 

 Miss Esther Palliser enjoyable vocal recital 
 November 18 Bechstein Hall , introduce new 
 song great merit british composer . | 
 mention ' Prospice , ' Liza Lehmann ; ' 
 , ' D. Elliot ; ' dream ' ' Dove , ' 
 Landon Ronald , ' Willows , ' Cyril Scott . 
 Miss Palliser ask subscriber December series 
 recital Bechstein Hall encouragement 
 young british composer 




 MUSIC VIENNA . 


 ( special CORRESPONDENT 


 MANDYCZEWSKI 


 MUSIC BELFAST . 


 ( CORRESPONDENThis precocious talent 

 ( Jueen College concert begin appearance 
 November 10 11 Kruse Quartet , 
 excellence need speak . performance 
 Beethoven great Op . 131 magnificent 

 MUSIC BIRMINGHAM . 
 ( correspondent 

 Mr. Max Mossel drawing - room concert open 
 October 26 Grand Hotel . Miss Marie Hall , 
 closely associate Birmingham , farewell 
 appearance prior american tour . Mr. 
 Mossel Bach Concerto D minor 
 violin , play number solo , accord 
 enthusiastic reception . Mdlle . Tosta de Benici 
 audience refined pianoforte playing , Madame 
 Zara Minadieu successful vocal contribution 

 Halford Concert place Town Hall 
 November 7 . orchestral number Beethoven 
 overture ' Zur Weihe des Hauses , ' Haydn Symphony C 
 ( . 1 Salomon set ) , Tchaikovsky Elegy string , 
 Wagner ' Meistersinger ' overture . Haydn 
 symphony string reduce number , near 
 approach ' old Papa ’ orchestra possible 
 effect , excellent result . Mr. Fritz Kreisler , 
 fine performance solo Mendelssohn 
 violin concerto , ably support orchestra . 
 playing Wieniawski ' Airs Russes ' ( orchestral 
 accompaniment ) recall 
 time , encore grant concert . Mr. 
 Halford receive hearty welcome resume duty 
 conductor.——At second concert , November 21 , 
 programme consist Elgar ' Froissart ' overture , 
 Svendsen symphony D ( Op . 4 ) , Wagner ' 
 flying Dutchman ' overture . Mr. Percy Grainger create 
 great sensation soloist Tchaikovsky pianoforte 
 Concerto b flat minor , piece Schumann 
 Liszt 

 second Harrison Concert , hold Town Hall , 
 November 13 , London Symphony Orchestra appear 
 time Birmingham Sir Edward Elgar 
 conductor . programme include overture ' 
 South , ' introduction Allegro string , 
 song - cycle , ' sea picture , ' Miss Edna Thornton 
 vocalist . piece Morart ' Figaro ' overture , 
 slavonic dance Dvorak , symphony 
 Brahms . conductor orchestra receive ovation , 
 concert highly appreciate 




 813 


 BRISTOL 


 correspondentmusic 
 ( 

 Clifton Chamber Concerts resume 
 November 2 , large attendance 
 Victoria Rooms . executant Messrs. Herbert 
 Parsons ( pianoforte ) , Maurice Alexander Hubert Hunt 
 ( violin ) , Ernest Lane ( viola ) , Percy Lewis ( violoncello ) . 
 Beethoven ( Juartet f major ( Op . 59 , . 1 ) 
 Dvorak ( Juartet e flat major concerted 
 production , receive excellent interpretation . 
 Mr. Parsons play César Franck Prelude , Chorale 
 Fugue , Mr. \lexander play Tchaikovsky Meditation 
 Scherzo ( Op . 42 ) . vocalist Mr. Arthur Walenn 

 November 6 jubilee St. John ( Bedminster 
 parish church ) celebrate special musical service , 
 augment choir 150 surpliced singer 
 draw daughter church St. John , 
 accompany efficient orchestra , Mr. F. S. 
 Gardner leader . Mr. C. W. Stear ( organist 




 MUSIC EDINBURGII . 


 ( correspondentat ' Historical Concerts " 
 November 15 University Music Class - room , 
 Professor Niecks direction , Mdlle . Wanda Landowska 
 highly interesting successful harpsichord pianoforte 
 recital illustrate ' J. S. Bach contemporary . ' 
 note contribute Reid Professor Music 
 programme usual instructive nature 

 Edinburgh Amateur Orchestral Society — 
 thirty - fourth year existence — concert 
 season November 20 . long useful 
 career , flourishing condition 
 present , high aim clearly demonstrate 
 quality music perform . Weber ' ruler spirit ' 
 overture ; Beethoven 2nd Symphony ; Elgar ' 
 javarian dance ' ; prelude Massenet ' Eve , ' 
 piece render high style amateur 
 attainment . Mr. T. H. Collinson ably conduct , 
 vocalist evening Miss Ella Platt 

 death Mr. Robert A. Marr refer p. 791 




 MUSIC GLASGOW . 


 ( correspondent . ) chamber concert organize Pollokshields 
 Philharmonic Society attend . 
 ( October 30 ) Messrs. Henri Verbrugghen ( violin ) 
 Philip Halstead ( pianoforte ) play Haydn Sonata . 1 

 G , Beethoven ' kreutzer , ' Kubinstein Sonata 
 G ( Op . 13 

 programme second concert , 
 November 6 , wholly sustain Verbrugghen 

 Juartet ( Messrs. H. Verbrugghen , B. Macgrath , D. Nichols , 
 J. 
 Quartet . 5 

 Messias ) . lead item Beethoven 
 Dvorak ( Quartet F ( ' 
 Nigger 

 concert Choral Orchestral Union 




 814 


 MUSIC LIVERPOOL DISTRICT . 


 ( correspondent 


 MUSIC MANCHESTER . 


 ( CORRESPONDENTThe Gentlemen Concerts - commence October 23 , 
 Dr. Richter , course , conduct . Haydn ' clock ' 
 symphony , overture ' Zauberflote , ' fourth 
 Bach Brandenburg concerto — violin , flute , 
 string orchestra — programme . Miss 
 Schiinemann vocalist . young Arthur Catterall , 
 playing Mendelssohn violin concerto , exhibit 
 increase maturity style . second concert , 
 November 8 , form afternoon recital , 
 Mr. Kreisler play Miss Beatrice Elliott sing 

 November 1 Brodsky Quartet 
 series chamber concert , programme consist 
 Haydn quartet ( G ) , Brahms pianoforte quartet 
 ( Op . 60 ) , Beethoven quartet b flat ( op . 130 ) , 
 Mr. Wilhelm Backhaus pianoforte Brahms 
 quartet . season net proceed series 
 concert -- contribute Students ’ Sustentation Fund 
 Royal Manchester College Music — 
 £ 165 . second Brodsky ( uartet concert , 
 November 22 , Mozart quartet D , . 10 
 sreitkopf & Hartel Catalogue ; Beethoven pianoforte 
 trio e flat ( op . 70 , . 2 ) ; Brahiis Sextet g 
 ( op . 36 ) constitute programme 

 generous list artist Mr. Brand Lane 
 series subscription .concert , October 28 , contain 
 Madame Suzanne Adams , Miss Marie Brema , 
 Mr. John Harrison , Mr. Santley , shine 
 enticing Mr. Kubelik . second concert , 
 November 11 , excellent performance ' Elijah , ' 
 principal Miss Helen Jaxon , Miss Dora 
 ( local artist ) , Mr. John Coates , Mr. Dalton Baker . 
 second Harrison concert London Symphony 
 Orchestra engage , Sir Edward Elgar conductor . 
 new work programme composer- 
 conductor Introduction Allegro string orchestra 
 quartet — ancient design , romantically modern spirit , 
 shakespearian motto attach , ' smile 
 sigh 




 musical1905 . 815 

 violin ) , Mr. William Warburton ( violoncello)—gave 
 chamber concert November 7 , _ — especially 
 playing Beethoven trio D major ( . 1 op . 70 ) — 
 thoroughness College teaching 
 skill student . series Mr. Cross popular 
 weekly concert commence October 28 . St. Peter 
 Church , centre city , doom . hasan 
 excellent organ , fine vox humana stop ; 
 late Mr. J. St. J. B. Joule honorary organist — post 
 hold year — choir - singing equal } 
 church , Cathedral . 
 ex - chorister Cathedral form association 
 help friendship sake . October 28 hold 
 second annual social gathering . Bishop present , 
 approving humorous speech 
 occasion 

 Schiller - Anstalt concert , 
 Mr. Pablo Casals ( violoncello ) , Mr. Max Mayer 
 ( pianoforte ) , play Brahms Sonata ( Op . 38 ) ; 
 Schumann Adagio Allegro ( Op . 70 ) ; Beethoven 
 seven variation ' zauberflite ' duet . Mr. Casals 
 solo Bach Sonata . 3 , C 

 Mr. Egon Petri succeed Mr. Wilhelm Backhaus 
 professor pianoforte Royal College Music 
 Manchester 




 MUSIC NEWCASTLE DISTRICT . 


 ( correspondentthe Bohemian String Quartet open season | 
 Newcastle Chamber Union Society November 10 | 
 success . return visit Mr. E. H. | 
 Lemare Dr. Peace , Kubelik appear 
 town district 

 November 15 Mr. N. Kilburn deliver interesting 
 lecture Sunderland ' Beethoven Later ( Juartets , ' 
 illustration . South Shields Orchestral Society , 
 season existence , rehearse 
 symphony , Mozart C ( ' Jupiter , ' ) , 
 Beethoven C minor , Mendelssohn ' Italian , ' 
 addition Beethoven ' Egmont ' overture , Brahms 
 ' hungarian dance ' Schubert ' Rosamunde ' ballet 
 music 

 MUSIC NORWICH DISTRICT 




 correspondent 


 music NOTTINGHAM DISTRICT . 


 ( correspondentmiss Barbara Thornley , pianoforte recital 
 November 8 , hear great advantage work 
 Chopin Brahms . sonata violin 
 pianoforte composer support Miss 
 Marie Hore , Nottingham violinist great promise . 
 vocalist Mdlle . Luquiens , introduce 
 attractive composition Miss Thornley . violoncello solo 
 ably render Mr. Cyril Clensy 

 new feature Nottingham season intro- 
 duction cheap chamber concert , promote Mr. 
 Jannsen , Hull . , 
 support , November 9 , bohemian 
 Aus meinem Leben , ' 
 Scherzo ( Cherubini ) , Beethoven ( quartet F major . 
 Miss Olitzka , vocalist evening , charm 
 audience varied selection song 

 vocal pianoforte recital November 15 
 Miss Gertrude Foster Miss Florence Schmidt , 




 MUSIC SHEFFIELD DISTRICT . 


 ( correspondentmusic YORKSHIRE . 
 ( correspondent . ) 
 leed 

 Philharmonic Society concert , 
 November 8 , Beethoven cantata ' glorious hour 

 Der glorreiche Augenblick ) , write Congress 

 Vienna 1814 , . use occasionally 
 hear substitute libretto , ' praise 
 Music , ' public 
 country original guise , new translation 
 Mr. W. A. Phillips employ occasion 
 time . doubt cantata essentially piece 
 d’occasion characteristic , 
 beethovenish touch , highly interesting anti- 
 cipation Choral Symphony . couple 
 Elgar ' King Olaf , ' work fresh charming 
 surprising hear Leeds . 
 finished refined performance work 
 , little great variety realize 
 romantic feeling ' Olaf ' demand . 
 Sir C. V. Stanford conduct , Miss Agnes Nicholls , 
 Mrs. James Wilson , Mr. W. Green Mr. Gordon Heller 
 form capable , - balance quartet 

 Leeds Bohemian ( Quartet ( Messrs. Elliott , Wright , 
 Moxon Bolton ) begin seventh season chamber 
 concert October 25 , varied 
 interesting programme , include quartet Haydn ( 
 b flat , op . 76 , . 4 ) , Beethoven ( F , op . 18 , . 1 ) , 
 quartet D minor Leeds musician , M. A. E. 
 Grimshaw , strong favourable im- 
 pression season repetition fitting tribute 
 excellence . November 2 Mr. Johan Rasch , young 
 dutch violinist settle Leeds , recital 
 afford ample proof - rate quality 
 virtuoso artist . Leeds Musical Union , male- 
 voice choir , November 6 programme 
 chief feature Elgar set - song 
 Greek Anthology , duet 
 pianoforte , play artistically Messrs. H. P. 
 Richardson Mr. Noel Bell , Society conductor . 
 appearance Franz von Vecsey Messrs. 
 Haddock musical evening , Mr. FE . H. Lemare 
 municipal concert , require mention , 
 word recital Mr. T. Tertius 
 Noble ( York Minster ) organ St. Bartholomew 
 Church , Armley , noble instrument , 
 great german builder , Schulze , peculiar 

 dignity grandeur tone — church organ true 

 BRADFORD 

 Bradford subscription concert resume 
 | November 3 , Hallé Orchestra , Dr. Richter , 
 | programme include Beethoven Eighth Symphony , 
 | Mendelssohn Violin Concerto ( Kreisler ) , Richard Strauss 
 ' Till Eulenspiegel , ' Elgar ' Cockaigne ' overture , 
 | Wagner ' Walkiirenritt , ) programme suited 
 | capacity band conductor , exceedingly 
 | fine performance result . Miss Amy Castles 
 | vocalist , sing florid operatic song brilliantly , 
 | Bradford Old Choral Society opening concert 
 October 31 , Mr. Fitton direction , ' Elijah * 
 | work choose . Mr. Dan Price sing Prophet 
 | artistically sincere dramatic feeling , 
 | efficiently fill Miss Taggart , Miss Annie 
 Grew , Mr. Fred Fallas . chorus sing pleasantly , 
 robust tone accustom 
 West Riding . Madame Melba appear Mr. Ilarrison 
 concert October 27 , Miss Atkinson , local pianist , 
 November 10 , help Mr. Rawdon Briggs 
 excellent quartet , capital programme chamber music , 
 include Brahms g minor pianoforte quartet 
 Schumann familiar work combination 

 TOWNS 

 ars é 
 |the ' Harrogate Festival . ' programme include 
 | Haydn symphony , creditably perform , 
 ithe violin , large proportion 

 lady , acquit , 
 | Mr. Haddock training good _ results.——-The 
 | Halifax Orchestral Society , Mr. Van Dyk 
 |the conductor , late great progress 
 |enthusiastic lead , interesting concert 
 | November 9 , programme include Beethoven 2nd 
 | Symphony , ' Freischiitz , ' ' Di Ballo ' ' Lohengrin ' 
 ‘ overture , , , exceedingly 
 play . Mr. Ben Calvert vocalist , introduce 
 clev song local musician , Mr. C. Barber ' 
 king.——The Wakefield Chamber Concerts , 
 November 16 , open fresh season Cathie ( Juartet , 
 Miss Ada Collier associate 
 spirited performance Dvorak pianoforte ( Juintet . 
 Glazounow ' Novelletten ' string quartet 
 play , Miss Barbara Brooke appear vocalist .. — 
 October 24 28 Huddersfield Glee Madrigal 
 Society programme - song 
 like , Mr. Ibeson conductorship 

 conce ! 
 people 
 Februz 
 novelt ! 
 idyl 




 817 


 BRIEFLY summarize 


 818september 8 11 , accompaniment orchestra . 
 soloist Miss Kirkwood , Miss Gertrude Lonsdale , 
 Mr. Harold Wilde , Mr. Watkin Mills . 
 able conductorship Mr. W. Paget Gale , | 
 great success 

 GRAHAMSTOWN.—An ' evening Beethoven ' 
 Athenxum , October 12 , Mr. W. Deane , 
 read short account composer life work . 
 musical illustration include Axdanée 
 ' Septett , ' sonata , Op . 12 ( movement ) , | 
 romance violin , ' Sonata appassionata . ' Mr. W. 
 Deane solo pianist , Mr. Bernard Streatfield solo 
 violinist 

 HEBDEN BripGE.—The concert season 
 Choral Harmonic Society Co - operative | 
 Hall November 7 , ' Hiawatha Wedding feast ' 
 miscellaneous selection perform . choir 
 sang great credit orchestral accompaniment 
 play discretion . tenor solo 
 Coleridge - Taylor cantata excellently sing Mr. 
 Charles Saunders . Mr. Walter Bolton violoncello solo 
 feature second 

 accompany ) , - song ' dim - lit wood ' ' love 
 song ' Brahms , MacCunn ' O art thou dream , ' 
 Jackson ' Lord Ullin Daughter , ' Taning ' 
 vagabond . ' orchestral selection , devote com- 
 position Sir Edward Elgar , spirit 
 effect . consist ' pomp circumstance ' 
 ( . 1 ) ' Imperial ' Marches , ' contrast , ' ' Serenade 
 Mauresque , ' ' Chanson de Matin ' ' Chanson de Nuit . ' 
 Mr. Charles Gray conduct 

 KILMARNOCK.—An _ interesting pianoforte recital 
 Mr. Tom B. Robertson Art Gallery 
 November 1 . Beethoven Sonata C minor ( Op . 13 ) , 
 new Berceuse Valse brillante Paul Ambroise , 
 piece Chopin , Brahms Liszt , play 
 Mr. Robertson , assist Miss Margaret Horne 
 ( violinist ) Mr. David D. Slater ( vocalist ) . practically 
 programme Renfrew October 

 LEAMINGTON . — Madrigal Society miscellaneous 
 concert Winter Hall November 9 , prominent 
 feature programme Elgar ' Banner 
 St. George . ' ' Imperial March , ' concert overture 
 ' Cockaigne ' * ; Mackenzie ' Britannia ' overture | 
 Cowen ' old english Dances . ' composition 
 render efficiency orchestra , choir | 
 display marked improvement work , especially 
 cantata . Mr. E. Roberts West , conduct , 
 appear solo pianist Schumann Concertstiick 
 G , orchestra instance conduct 
 Mr. H. A. Heden 




 BH . 


 M. C 


 MAUI 


 SEQUE 


 J. M. 


 819J. M. H.—Considering age advise | 
 viola , useful , popular 
 instrument . arrange lesson | 
 Guildhall School Music , able obtain 
 reliable teacher Forest Gate branch London | 
 Academy Music 

 Mr. Randegger Norwich Festival ... « - 794 
 Sir Alexander Mackenzie scholarship 
 composition prize ce es 795 
 Church Organ Music ( illustrate ) saa « ee 700 
 review ean e 799 
 correspondence 463 ce ... 800 
 ' dream Gerontius ' Vienna ass ‘ nd ... 802 
 ditto ditto Aberdeen aaa 802 
 ditto ditto Alexandra Palace ... 802 
 Norwich Musical Festival 807 
 Beethoven ' Leonore ' 808 
 Auxetophone . dae onal San aoa ... 808 
 Royal Choral Society ... sas ptr aaa aes ... 808 
 London Choral Society pre ges das ... 868 
 Italian Opera Covent Garden : pry 809 
 ' Gwenevere ' Coronet Theatre ed aa ... 809 
 Competition Festivals ... aie 809 
 London Concerts Recitals 809 
 music Vienna aa rs aa ahs 
 " Belfast — wa " ee ee es ace 6892 
 9 Birmingham ... ; aa tea sse " « « G94 
 - Bristol ae ies ay ... 813 
 ' Edinburgh ... ed ae Sea ake sao 
 + Glasgow ee aa pre « se S853 
 , Liverpool District ... oe ai ace cons 
 x Manchester ... ¥ vn ; 814 
 ye Newcastle District ... ae bea wag eee 
 Norwich District " ee coe ace , 
 Nottingham District Sa = Saeed 
 ‘ Sheffield District aa aa ae ? ee 
 " Yorkshire ... + ... 816 
 Country Colonial News ... atl eae ? 
 Answers Correspondents ... aa eae si9 
 MusIc : 
 - song : ' moon soft splendour . ' 
 Charles Wood 803 

 extra supplement number 




 820 


 dure month . 


 REENWOOD , REV . F. W. 


 — CHRISTMAS CAROLS 


 222 


 HERBERT W. SCHARTAU 


 _ — _ 


 CH ! 


 HA\ 


 HEI 


 TAL 


 OM 


 LIONEL 


 CARC 


 HAR 


 RUMS 


 FETE 


 AE 


 67 


 = HUDDERSFIELD . 


 OLD FIRM 


 16 " GUINEAS.—PIANO , " EMPRESS " MODEL , ; 


 CHORAL ORCHESTRAL SOCIETIES . | J. A. FULLER MAITLAND 


 GE VERAL CHORAL WORKS , - song , | 


 VAR 


 CO 


 ARRANGE 


 ANGI 


 publish . | valuable book teacher student 


 


 PARISH CHOIR _ EX PRESSION 


 manual | PIANOFORTE PLAYING 


 HOLY communion 


 consisting 


 extract preface 


 price shilling SIXPENCE : work great master . 


 KING ARTHUR key F 


 ARTHUR SULLIVAN . SET music 


 english , FRENCH , GERMAN word 


 NOVELLO list work suitable 


 CHRISTMAS present & school prize 


 BETH Lieder ohne Worte . complete edition , book 

 STERNDALE BENNETT — song * . @eloth 2 6| folio , cloth , gilt , 8 . ; Rutland roan 10 6 
 BERLIOZ — Treatise Modern Instrumentation | p — oot gilt , 6 6a — — _ roan 7 6 SONG 
 orchestration .. ' ..   8vo , cloth 12 o " — — ee oth , gilt , 4s . ; . ae vip roan 6 o 
 noe Jitto . edit Kari , KLiInpwortu . 1e book , 
 BEETHOVEN — Sonatas . a. ZIMMERMANN . . | Royal gto , paper , 5 . ; cloth , gilt , 7 . 6d . ; Rutland roan 10 6 
 folio , cloth , 21 . ; 8vo , cloth , 7 . 6d . ; 8vo , Rutland roan g o , sie : ' ; ditt « 
 — — symphony .. ( Solo ) , folio , 12s . ; ( duet ) , folio 15 0 : 
 FREDERICK CHOPIN — _ man musician . ee ee ( Solo ) , folio , 128 . ; ( duet ) , folio ix eigh 
 FREDERICK NiEcks . Vols ... ne ins a. 250 : a4 st ae t pater 7 ake ( 
 vt ; ; — song .. ne ee ue folio , cloth , gilt 21 0 , 
 Cc — — opin music = Musical 8vo , cloth , gilt 6 o METZ 
 Southern India Deccan . ustrate seventeen itte Ce eee Q e pe 
 plate . handsomely bind ; : ; - > 93 6 ditto . Deep Voice ee : 8vo , cloth , gilt 6 0 
 — ditto . artist proof copy , fine japanese paper aay 6 MOORE — Irish Melodies " s ae ee — ~ - _ gilt 21.0 ligh ' 
 8vo , cloth , gilt 4 o 
 cathedral pr : AY E R BOOK ( Music ): MOZART — Sonatas a3 : . .. folio , cloth , gilt 18 0 Di 
 . 1 . Demy 8vo , 628 pp . , large type . | Canticles 8vo , cloth , gilt , 5s . ; Rutland roan 7 o itto 
 Psalter point uh g 5 cloth , bevel , rededge 6 0 ] _ _ _ yi , MI , ee Jans . : english pete Ditto 
 Ditto . — 3 red basil , red edge 8 . b ws seal a9 
 . 2 . Demy 8vo , 600 pp . , large type . Canticles Vols . ts « + cloth gr 6 cald ] 
 Psalter point , set appropriate Char - = — — al ed alter EMMA MUNDELLA — Day School Hymn Book 
 chant ) ; .. cloth , bevelled , red edge 6 o cloth , ' bevelled , red edge 3 6 
 ditto : ae : red basil , red edge 8 0 NOVELLO COLLECTION word anthem ; 
 . 3 . Imperial 32 m 606 pp . " Po met Edition . r seared oes eS 
 3 : contain word 2,000 Anthems . new 
 nt = Paalier po inte chant ep 1 editi - = 
 FP rheselind wen   abuBd seed hacloved @deeeuic-6.1 enlarge edition . .. crown 8vo , 821 pp . » ~ — _ ne — _ 5 0 j 
 rec AS1 rea edge 7 4 
 41 large selection Special Bindings India Paper ae ee 7 
 ae eaons al way Stock . ) " PARISH ANTHEM BOOK — contain word 
 io 500 favourite Anthems ' .. cloth 2 6 
 CATHEDRAL PARAGRAPH PSALTER sd basil , red edee « 6 | ORATORIOS axp CANTAT : AS—(Novetto Original Octavo 
 cloth , 3 . 6d . ; red basil , red edge 5 | edition ) . large selection Roan , rounded 
 CHRISTMAS C AROL S NEW old | corner , red gilt edge , carefully p. icke cardboard H. TR 
 : . avn | 7 
 Library Edition , historical Preface Roxburgh binding 7 6 ox , — 3 . excess mark price paper 
 ry Edition ..   .... ss ~~ Cloth , gilt ’ 4 ° | cover edition , 
 beautifully [ lustrate ( Series rand 2 ) cloth , gilt . 7 6 | ; RANDEC > GER Sacred Songs Little Singers . word 
 ane aa ; ' | FRANCES RipLEY HAVERGAL . illustrate .. cloth , gilt 5 0 W. RA 
 E. DANNREUTHER — musical ornamentation , Diruta RUBINSTEIN — eighteen - song . cloth , gilt 4 6 

 modern time . vol . 
 paper cover 

 , 5 . ; paper board , 6 0 | SC — MAN N — original Compositions Pianoforte . edit 
 yy a. ZIMMERMANN . Folio Vois . , cloth , gilt , 21 0 

 Ditto , Vol . i. ‘ 1 . ee ~~ Bvo0 , cloth , gilt 7 6 KENN ! 
 F. G. EDWARDS — history Mendelssohn " Elijah _ | — Pianoforte Album Young sis .. cloth , gilt 4 6 
 cloth 3 6 = song . edit N. amas ie .. folio , cloth , gilt 10 6 
 J. W. ELLIOTT — National Nursery Rhymes .. sr -+ 7 6 ) — vocal album . contain thirty celebrated 
 CARL ENGEL — Literature National Music ... cloth 5 o| 1 st AINER- ed ee q se * 4 6 
 — research early history Violin Family cloth 7 6|~ " " exercise use Harmo vy . en ; 
 SIR GEORGE GROVE — Beethoven symphony | — Dictionary musical bP owe J. Sraver R. WO 
 cloth 6 o | W. A. Barrett . revise ( 1898 ) edition .. cloth , gilt 7 6 
 HANDEL — " Messiah " calf , gilt edge , folio , 34s . ; cloth 10 0 | hymn Tunes , complete vol . oA ss - . cloth 4 6 y. ta ] 
 — ditto . facsimile Autograph Score | STAINER , J. , J. F. R. , anp C. , ano E. W. B. NICHOLSON 
 cloth , red edge 21 0 | — Dufay ssnianicilinae F " y cc LAWR 
 EDUARD HANSLICK — " ' Beautifulin Music . " translate | facsimile .. 2 lk 
 Gustav CoHEN .. ee es : . cloth 4 o|/ — — art — Music , bo contain 110 pac sauilive 
 mors nia = ed oe swine " 4 c s 2 ' % " sve " eke : en ti t bette Sey come te 60 

 bn 
 




 METZLER CHRISTMAS music 


 METZLER late novelty . 


 SONGS 


 PRICE shilling NET 


 H. TROTERE LAWRENCE KELLIE 


 PIANOFORTE 


 PRICE shilling net 


 R. WORSLEY E. ZOER 


 KNIGHTS road 


 A. C. MACKENZIE 


 produce FEBRUARY 27 , 1905 , PALACE THEATRE 


 METZLER & CO . , LIMITED , 


 NOVELLOS CHRISTMAS CAROLS 


 BRAMLEY , REV 


 BRAMI 


 STAIN 


 LEGGE 


 MUSICAL 


 1905 


 156 


 324 1 


 23 


 J. G. 


 828 


 NEW 


 CHRISTMAS anthem 


 publish . 


 SING REJOICE 


 


 JOHN E. WEST . 


 DIVINE , LOVE 


 


 REV . E. VINE HALL 


 LOVE excelling 


 recently publish . 


 beginning 


 B. LUARD - SELBY 


 WORD 


 day 


 J. FREDERICK BRIDGE 


 BREAK forth JOY 


 H. A. MATTHEWS 


 HEAVENS DECLARE 


 


 CHARLES MACPHERSON 


 SING , O HEAVENS 


 


 BRUCE STEANE 


 GLORY GOD 


 E. MARKHAM LEE 


 HIGHEST 


 HARK ! mean HOLY 


 voice 


 ARTHUR SULLIVAN . 


 COME , YE GENTLES , hear story 


 EDWARD C. BAIRSTOW 


 NEW - BORN 


 


 PERCY E. FLETCHER 


 KING 


 NOVELLO 


 7 MAS CANTATA 


 CHRISTMAS NTATAS , 


 


 story BETHLEHEM 


 SHORT SACRED CANTATA 


 word write 


 SHAPCOTT WENSLEY 


 compose 


 JOHN E. WEST . 


 HOLY CHILD 


 EASY CHRISTMAS CANTATA 


 SOPRANO , TENOR , BASS SOLI , CHORUS 


 ORGAN 


 compose 


 THOMAS ADAMS 


 CHRISTMAS EVE 


 SHORT CANTATA 


 CONTRALTO SOLO , CHORUS ORCHESTRA 


 compose 


 NIELS W. GADE 


 CHRISTMAS SCENES 


 CANTATA FEMALE voice 


 compose 


 FREDERIC H. COWEN 


 COMING KING 


 SACRED CANTATA FEMALE voice 


 suitable CHRISTMAS 


 word 


 HELEN MARION BURNSIDE 


 MUSIC 


 MYLES B. FOSTER 


 CANTATA 


 compose 


 THOMAS ANDERTON . 


 CS2 


 IRGAN 


 MUSICAL TIME 


 S.—DECEMBER , 1905 . 829 


 HYMN FAITH 


 CANTATA 


 ZZO - SOPRANO SOLO , CHORUS , ORCHESTRA 


 EDWARD ELGAR 


 music compose 


 IVOR ATKINS 


 TIMES . 


 DAILY TELEGRAPH 


 STANDARD 


 MORNING POST 


 DAILY NEWS 


 PALL MALL GAZETTE 


 ATHEN - EUM 


 YORKSHIRE POST 


 BIRMINGHAM DAILY POST 


 BIRMINGHAM GAZETTE 


 BACH 


 CHRISTMAS oratorio 


 section . 


 CHRISTMAS . 


 feast circumcision 


 CHRIST , NEW YEAR DAY . 


 SUNDAY follow 


 YEAR DAY . 


 festival 


 english translation REV . DR . TROUTBECK . 


 CAROL AU NADOLIG NOVELL 0 


 CHRISTM CAROLS 


 CAROLLERS 


 \3 . CAROL , SWEETLY CAROL . | 3 . let merry . 


 4 . CHRISTMAS bell . 4 . HARK ! angel singe . 


 ( 6 . HARK ! mean holy voice . | 6 . song shepherd . 


 7 angel ’ carol . : 7 . child bear . 


 ( 8 shepherd watch . 8 . o SAVIOUR dear . 


 10 . CHRISTMAS chime . — _ — 


 content second SET . content fourth SET . 


 ( 3 . bright good . 3 . chime snow . 


 ( 5 . o let voice . 5 . song faithful . 


 6 . CHRISTMAS EVE . 6 . HERALD bell . 


 7 . HARK ! bell . 7 . o day day . 


 content fifth SET . 


 price , complete , ninepence . 


 2 , YULETIDE bell . 5 . angel message . 


 3 . HAIL , wondrous MORN . | 6 . olden carol , 


 CHRISTMAS CAROLS . — — 


 HARK , heavenly sound . e flat 


 


 — _ — _ _ — — — song ? ah , ’ ! 


 


 STO 


 


 1905 


 ADESTE fpidele 


 edit 


 DOM SAMUEL 


 contain complete 


 ould 


 latin text 


 verse , publish music time ) 


 


 prelude vary accompaniment 


 anthem ADVENT 


 


 lute " serie 


 REV . F. JARVIS . Z 


 CON { \ AU NION SE RV ICE JOSE PH C. BRIDGE 


 GEORGE L. MELEER , p.r-€.0 . 


 . FUNERAL 


 PARISH CHURCH 


 ANTHEM book 


 new number 


 village ORGANIST 


 SERIES piece 


 CHURCH GENERAL 


 edit 


 F. CUNNINGHAM WOODS 


 use 


 300 K 37 ° 


 MUSICAL TIMES 


 DECEMBER , 1905 


 produce WORCESTER M MUSICAL 


 song EDEN 


 CHORUS ORCHESTRA 


 " PARADISE LOST 


 FESTIVAL , 1905 


 word taken 


 MUSIC compose 


 A. HERBERT BREWER . 


 DAILY TELEGRAPH . 


 STANDARD . 


 PALL MALL GAZETTE 


 YORKSHIRE POST 


 ATHENZUM . 


 BIRMINGHAM GAZETTE EXPRESS 


 GLOUCESTER JOURNAL 


 GLASGOW HERALD . 


 referee 


 LLOYD WEEKLY NEWSPAPER . 


 - song 


 LAURENT DE RILLE 


 publish . 


 JESU , hope heaven 


 perform daily LONDON COLISEUM 


 


 WRECK HESPERUS 


 POEM 


 


 LONGFELLOW 


 CHORUS ORCHESTRA 


 


 HAMISH MACCUNN 


 set MUSIC 


 SEVEN piece 


 


 ORGAN 


 compose 


 ALEXANDRE GUILMANT 


 4 . MINUETTO 


 1 . OFFERTOIRE . 


 | 2 . WEDDING MARCH . 5 . MARCHE TRIOMPHALE . 


 | 3 . BERCEUSE . 6 . POSTLUDE 


 7 , FANTAISIE SUR DEUX MELODIES ANGLAISES 


 CHOIRBOY 


 element MUSIC 


 GEORGE J. BENNETT 


 


 LE 


 1905 . 83 


 THRE 


 PIED PIPER HAMELIN 


 TENOR BASS SOLI 


 CHORUS 


 


 ORCHESTRA 


 


 PARRY 


 PRICE shilling 


 TIMES 


 DAILY TELEGRAPH 


 DAILY NEWS 


 DAILY CHRONICLE 


 COMPANY , 


 


 NOVELLO , EWER CO 


 MORNING POST 


 MORNING LEADER 


 YORKSHIRE POST 


 MANCHESTER GUARDIAN 


 LIMITED 


 NEW YORK 


 834 


 1905 


 CENTURIONS SERVANT 


 SHORT SACRED CANTATA 


 F , W. PRIEST , A.R.C.O 


 CHU RCH " MUSIC 


 humorous part- song 


 descriptive chorus 


 new antiiem 


 ERNEST EDWIN MITCHELL . 


 HEAVENLY vision . 


 M USICAL copyright 


 ready shortly 


 HYMN T tune 


 original select 


 ( serie 


 CHRISTMASTIDE PROCESSIONAL 


 ( christian , se incarnation " ) 


 compose , edit , arrange 


 BASIL HARWOOD , M.A 


 CHURCH MUSIC 


 EDWARD BUNNETT 


 service 


 anthem 


 composition 


 


 T. MEE PATTISON 


 CANTATAS . 


 original organ composition 


 publish 


 produce SHEFFIELD MUSICAL FESTIVAL , OCTOBER 5 , 1905 


 ude NOKTRFEASI 


 wind 


 set CHORUS ORCHESTRA 


 


 time . MORNING LEADER . 


 SHEFFIELD DAILY TELEGRAPH 


 ORIANA 


 collection early madrigal | ° ! : 


 british foreign 


 


 MUSICAL 


 time 


 DECEMBER , 1905 . 837 


 composition 


 3 ) VARLEY ROBE RTS 


 CANTATAS . 


 service 


 - song . 


 SONG . 


 ORGAN . 


 EDUC ATION : AL . 


 HN 


 WW 


 prelude 


 PIANOFORTE 


 compose 


 F. MENDELSSOHN - BARTHOLDY 


 study 


 PIANOFORTE 


 compose 


 F. MENDELSSOHN - BARTHOLDY . 


 SUITE F 


 ( LADY RADNOR suite ) 


 


 STRING ORCHESTRA 


 compose 


 C. HUBERT H. PARRY 


 ARRANGED PIANOFORTE SOLO 


 


 EMILY R. DAYMOND 


 


 PROCESSIONAL hymn 


 FAITH CHRIST " 


 " JESU , LORD GOD " 


 ' " " ANCIENT RIVER " 


 music 


 GEORGE C. MARTIN 


 NEW ORGAN COMPOSITION 


 introduction , 


 


 ADESTE FIDELES " 


 organ 


 ARTHUR S. HOLLOWAY 


 ( MUS.D. , OXON 


 MUSICAL 


 NEW EDITION , V addition 


 MIYAKO - DORI 


 japanese melody 


 collect arrange voice PIANOFORTE 


 PAUL BEVAN , M.A. , F.S.A. 


 


 canticle note 


 GREGORIAN tone 


 


 litany response 


 reprint 


 manual PLAINSONG 


 DIVINE E service 


 ne w e DITION 


 prepare 


 GENERAL superintendence 


 JOHN STAINER . 


 


 NARCISSUS ECHO 


 CANTATA CHORUS , SOLI , ORCHESTRA 


 GOD 1S ° REEUG 


 compose 


 BDWIN C.-SUCE 


 ( f ) 


 ( chant form ) 


 


 HENRY TILTMAN . 


 NEW CONCERT SONGS 


 DR . ARTHUR . HOLLOWAY 


 PIANOFORTE PIECE 


 NEW 


 DR . ARTHUR S. HOLLOWAY . 


 LOVE APPEAL 


 INTERMEZZO 


 NEW EDITION . ' ready 


 PENITENCE 


 _ PEACE 


 J. H. MAUNDER 


 SPECIMEN question 


 HANDBOOK 


 EXAMINATIONS 


 MUSIC 


 


 MORCEAUX DE SALON 


 POUR VIOLON ET PIANO 


 PAR 


 CARL BOHM . 


 VALSE ETUDE 


 RIGAUDON . , 


 2 , BOURREE . 


 3 . GAVOTTA 


 CAPRICCIO FINALE 


 HANI 


 


 JOHN 


 SHO 


 EDWI 


 


 volume ORGAN MUSIC 


 suitable present 


 FREDERIC ARCHER . J. LEMMENS . 


 _ : ' JOSEF RHEINBERGER 


 collection piece CHURCH 


 CH . GOUNOD . W 


 selection movement 


 selection movement 


 original composition 


 ORGAN : — 


 PRACTICAL ORGAN SCHOOL . 


 ° HENRY SMART . 


 ORGAN WORKS . 


 . SPARK . 


 organist quarterly journal . 


 . village ORGANIST . 


 JOHN HILES 


 - popular marche 


 EDWIN H. LEMARE 


 composition ORGAN 


 ORIGINAL 


 LEFEBURE WELY . 


 W. J. WESTBROOK . 


 


 


 NOVELLO , EWER CO . , NEW YORK 


 CHAPPELL & COS 


 PRICE shilling net 


 MAUDE VALERIE WHITE . | GUY D’HARDELOT . | 


 " belove . " | " PROPRIETY sake . " | 


 " LAND ALMOND BLOSSOM . " " heart know 


 lonely way . " 


 FLORENCE AYLWARD . " QUT darkness 


 UEOVE question " t hid love . " 


 " SHEPHERD LULLABY . " TERESA DEL RIEGO . W 


 LIZA LEHMANN . " BELL ’ TW . 


 tell mei " " THOU little TE NDER FLOWER . \ 


 " LOVE I§ meant glad . " HERMANN LOHR . 


 GEORGE H. CLUTSAM . W. H. SQUIRE . : | 


 ' ' day ROSES 


 4 " life . " L 


 " bachelor . 5 


 FRANK LAMBERT 


 JOAN TREVALSA . " deer . heart . " : L 


 GEORGE S. ASPINALL . dewdrop tear . " | : 


 " ST . AGNES ’ EVE . " DALHOUSIE YOUNG . \ 


 HERBERT HUGHES . " BREDON HILL . " ) = 


 " NINEPENNY FIDIL . " JOHN ANSE . 


 HAROLD LONSDALE . | " MARJORIE . " 


 " APRIL RAIN . " 


 " love . " G. VILLA . 


 " VIOLET eye 


 LONDON town 


 musicseller 


 ALFRED R. GAUL 


 » / PEL 


 £ 5 } _ K _ £ 


 = £ - ; a. ¢ 


 SSL UTEP NY 10 


 tho - 


 lute . NY 10 . 


 44 


 MLD 3 


 LE 


 RL 


 


 hh 


 _ > 1 ‘ ~ 


 4 . z 1 2 


 — — 2S SS 


 2 , l 


 | = SS SSS + 


 7 ; 7 @ GF z 


 ment 


 EXTRA supplement 


 PSALM LI . ) 


 compose 7 


 GREGORIO ALLEGRI 


 SIXTEEN volume 


 ready , bound CLOTH 


 362 


 708 


 139 


 NOVELL 0 company 


 LIMITED 


 MISERERE 


 ( PSALM LI , 


 GREGORIO ALLEGRI . | 


 edit GEORGE C. MARTIN 


 PP — 


 @2=50 . 


 ORGAN . | | 


 MISERERE . 


 MISERERE 


 KN 


 QI | 


 TENOR 


 SENS 


 MISERERE . 


 ! 5 ) = = = 2 


 MISERERE 


 ALTO - 


 TTA 


 MISERERE 


 MN 


 MISERERE 


 5 < 2 c 


 AJ 


 ALTO . 


 — _ — _ TP , 


 MISERERE 


 — | = — — _ | 6 - 5 ' = ~ — _ 


 MISERERE 


 SSE , 


 | CC 8 


 LI 


 JASN . 


 MISERERE 


 - = = E 7 ) SRN = | 


 _ : : PP ; 


 MISERERE 


 SE RGAE ) BSAA ) RET 


 SE RAE ) 


 MISERERE 


 6S = SSS ES 


 TENOR . 


 _ — _ 


 E + O — — 


 MISERERE . 


 = SS 


 ( second serie 


 O death ! thou art tranquil 


 NIGHT 


 ( DER TOD , DAS IST DIE KUHLE NACET 


 english word GERMAN HEINRICH HEINE REV . CANON GORTON 


 music compose 


 PETER CORNELIUS 


 ALTO , 


 O death ! thou art TRANQUIL night 


 = Z 


 O death ! thou art TRANQUIL night 


 O death ! thou art TRANQUIL night 


 eee 


 o death ! thou art TRANQUIL night 


 — _ — = $ $ = — — — _ _ _ 


 SS — = e 


 O death ! thou art TRANQUIL night 


 SONS SONS 


 


 sseea 


 O death ! thou art TRANQUIL night 


 = 5 _ 


 53 — — SS = 


 nn " = " 4 


 O death ! thou art TRANQUIL night . 


 O death ! thou art TRANQUIL night 


 IG SS 


 3 ' SSS SSS SS SS SS SS 


 O death ! thou ART TRANQUIL night 


 SS 


 SS 


 10 


 ITT 


 UO death ! thou art TRANQUIL night 


 - sonc 


 compose 


 PRIERK CORNELIUS 


 english word 


 MALE voice 


 mix voice 


 yy 


 1905 


 ht 


 compose GLOUCESTER DIOCESAN CHORAL UNION FESTIVAL , 195 


 ‘ resist 


 thy voice 


 anthem festival 


 ss ss = s22 ss = . 


 resist thy voice 


 | } L ES 


 resist thy voice 


 7 7 


 bk 


 CP 


 resist thy voice . 


 77S IE SE , LT SE — — — V4 — — ss : 


 RS . ESRI MRIS CREME UNGER . — — — : : 3 


 = p — — -F — — + -- - -{———- { — - - = _ — — -| — — 


 TT 


 GP f 7 = + 


 S E 


 hll 


 resist thy voice 


 — -+.- 24 2 ) 7 


 9 = — f — - 


 resist thy voice 


 — _ 


 resist thy voice 


 — — SS 


 @- 1 | — — 1 


 EG SS 


 resist thy voice 


 _ | 


 GA 1 — 


 resist thy voice . 


 - 4 — — — — — _ _ _ 


 resist thy voice 


 } - rede 1 j ] ] ] J | 


 nx ; | 


 — — SS 


 resist thy voice . 


 ° 1 1 ! 


 ie 


 resist thy voice 


 praise GOD , IMMORTAL praise 


 anthem HARVEST 


 word hymn ANNA LATITIA BARBAULD ( 1743 - 1825 ) 


 compose 


 JOHN E. WEST 


 SSS 


 = — % = 2 = ss 


 praise GOD , IMMORTAL praise 


 _ — - 3 


 ' 


 praise GOD , IMMORTAL praise 


 praise GOD , IMMORTAL praise 


 4 0 


 praise GOD , IMMORTAL praise 


 — — _ — - . 4 ----- _ — — _ - — _ 


 . 1 | - = = ' 


 praise GOD , IMMORTAL praise 


 SSS SS SSS 


 2.5 


 praise GOD , IMMORTAL praise 


 4 SS