


 MUSICAL time 


 singing - class circular . 


 publish month 


 HEREFORD MUSICAL FESTIVAL , NOV E LLO ’ SSymphony — Dvorak D 

 Rhapsodie Hongroise F ( Lis ‘ t ) . concert agent , 
 introduction 3rd Act " Lohengri d agner ) . " ERP 
 Pageant March Chorus , " Reine de Saba " ( Gounod ) , & c. | — _ _ _ _ eee 
 THURSDAY MORNING.—FAUST ( Berl lioz ) . Vio YENIE 
 THURSDAY evening , Symphony , ninor ( Beethoven ) . | 2 0 rough HACKNEY CHORAL 
 overture — ' Tannhiuser , " " ' Jube 7 T 
 Andante Finale Conce < B minor ( Handel ) . | ASSOCIA ION . 
 finale " Loreley " ( Menc oe 1 ) , & e. | SEASON 1885 - 86 
 FRIDAY MORNING.—MESSIA | pee j 
 vocalist : Madame ALBANI , Mit 3s , WILLIAMS , Mesdames | concert wi ! SHOREDITCH TOWN 

 Tan ZY TREBELLI , Mr. E. LLOYD , Mr. J. Mz AAS , Mr. W.H. | HALL , M ane evening , 8 o'clock . 
 RCY , Mr. R. HIL TON , Mr. W ORLOCK , Mr. SANTLEY saductar Mr ERENE 
 Mr. Charles Hallé Band ' 99 performer . goaiater . ih SRR ESE PRUs , BP 

 Hon . Sec . , Colston Hall , Bristol . fourth concert , April 12 , 1886 , Handel DETTINGEN TE DEUM 

 Beethoven CHORAL SYMPHONY 

 IUFNELL PARK CHORAL SOCIETY 




 506 


 PROFESSIONAL notice . 


 ADAME FARRAR - HYDE 


 MISS FANNIE 


 MISS LILY 


 MISS JESSIE 


 MR . 


 , S.W 


 AK E 


 , 12 , 14 , 


 ADELINE P AGET 


 M. ADAME TALI 


 1885 . 507 


 R.A. M 


 65 


 , OXON . , | 


 4 ; MUS . BAC 


 1883 


 TERPOIN T , INSTRUME NTATION , 


 


 RIN 


 INA 


 HECKMANN 


 HERMANN FRANKE 


 ST 


 S17 . 


 NG ) quartet . 


 MR 


 O CHORAL 


 LITERARY 


 SOCIETIES , SECRETARIE S 


 THOMAS 


 MUSICAL EXCHANGE 


 26 , OLD BOND STREET , 


 CAPITAL , £ 20 


 ALFRED MOUL 


 LONDON , W. 


 music : 


 EMS OPER . 


 ARMONY , COUNTER 


 POINT , COMPDSITION 


 508 


 MUSICAL INTERNATIONAL COLLEGE 


 USIC SCHOOL.—CHURCH ENGLAND 


 ED 


 ED , 


 ENT 


 TER 


 11ST 


 RTE 


 RAVELLER.—A commercial TRA- 


 PIANOFORTE TUNING CONNECTION 


 5 ° 9 


 12 , BERNERS STREET , LONDON , W 


 CONCERT - giver entrepreneur 


 generally . 


 clergy 


 CHOIR - boy 


 _ _ _ _ _ orchestra choir 


 uthor ’ work correct , revise , 


 VOICE.—J AMES ’ " SINGER ’ FRIEND " 


 RGAN want . 


 ORGAN . 


 JAMES CONACHER son , 


 ORGAN BUILDERS , 


 BATH BUILDINGS , HUDDERSFIELD 


 88 


 second - HAND ORGAN pedal 


 


 NEW perfection action . 


 MENDELSSOHN HOUSE , BRINSCALL , CHORLEY 


 POWER " 


 CCURATE 


 SPOHR 


 ' patent adjustable CHIN - holder 


 violin VIOLAS 


 folding TELESCOPIC music stand 


 SON S 1 


 fact 


 AINSWORTH 


 


 reliabi 


 


 pianoforte 


 purchase 


 


 ferfect 


 ILLUS 


 KINDLY 


 write FC 


 POSTAL ADDRESS , 


 JOHN AINSWORTH , F.S.S. , 


 MENDELSSOHN HOUSE , 


 BRINSCALL , CHORLEY , ENGLAND 


 VIOLIN BOW 


 MAKERS REPAIRERS , 


 GEORGE WITHERS & CO . 


 WHOLESALE importer 


 FINE collection ITALIAN instrument , 


 51 


 VIOLINS . 


 PARIS , 1878 , 


 CH . 


 VIOLIN 


 PARIS , 1879 . 


 B. COLLIN - MEZIN , 


 VIOLONCEI LLO , BOW MAKER 


 PARIS , 10 , RUE DU FAUBOUKG - POISSONNIERE 


 10 , PARIS 


 IM ARSIK , HOLLMAN , LEO ? 


 RANCHO MME , 


 ‘ PNEUMAT 2 


 


 SACRED duet . 


 HEN NRY SM ART 


 512 


 TRINITY COL L EGE , LONDON 


 president : E ARL , ABERDEEN 


 session 1885 - 56 . 


 examination . 


 class lecture . 


 MICHAELMAS TERM COMMENCES SEPTEMBER 28 


 NOVELLO 


 TONIC SOL - FA serie 


 upward 340 number ready ) . 


 edit 


 AUGUST POST - free 


 pink guide 


 


 song 


 compose 


 SIR W. STERNDALE BENNETT . 


 PRICE shilling ; 


 MORLEY voluntary 


 


 ORGAN , HARMONIUM , AMERICAN ORGAN , 


 MORLEY school song 


 MORLEY - song 


 NEW ORGAN MUSIC 


 LEFEBURE - WELY . 


 edit adapt 


 JAMES PARTRIDGE , A.R.A.M. 


 BROWN , ARTHUR NRY 


 3 0 


 UE DWIN ASHDOW N ; HANOVE R SQU , 


 pu blishe 


 eighteen song 


 compose 


 MACKENZIE 


 BOOK i. 


 BOOK ii . 


 BOOK iii . 


 LONDON : NOVELLO , EWER CO 


 produce 


 BIRMINGHAM MUSICAL FESTIVAL , 1885 


 SPECTRE BRIDE 


 DRAMATIC CANTATA 


 ANTONIN DVORAK 


 age 


 PERFORATUS ) 


 compose fo 


 rock 


 ( JESUS , pro 


 BARITONE SOLO , CHORUS , ORCHESTRA . 


 


 CONCERTO VIOLIN 


 A. C. MACKENZIE . 


 L OV ] LOST earth 


 impose 


 EN ZIE 


 MUSIC 


 A. C. MACK 


 HEREFORD MUSICAL FESTIVAL 


 SONG BALDE ! 


 MUSIC COMPOSED B 


 C. HARFORD LLOYD . 


 OVERTURE IX c 


 COMPO 


 ARTHUR SUL LIVAN . 


 PIANOFORTE ALBUMS 


 edit 


 BERTHOLD TOURS . 


 MUSICAL TIMES 


 SINGING - CLASS CIRCULAR . 


 SEPTEMBER 1 , 1885 


 NETHERLANDISH MUSICIANS 


 . 7 . . . . ? ' , S - > 


 00 


 515 


 41 


 516 


 HISTORIC LOAN COLLECTION 


 518is 

 - know composer study mean 
 letter musical score . note . 
 worthy item Beethoven - 
 , letter March 18 , 1827 ( 
 |day death ) , thank Philharmonic 
 Society gift £ 100 ; 
 autograph score Handel Oratorios Buc } king . 
 |}ham Palace . relic lace ruffle wear 
 Handel , mask Beethoven year 
 death , silver lock 
 hair 

 picture print relat- 
 e music imposing point number , 
 hang wall ithe vast majority 
 come source . great 
 Britain , enormous quantity 




 


 1885 . 519 


 great composer 


 520 MUSICAL time 


 521 


 slunit 


 $ 728 


 522 


 28,1730 


 effect fugal 


 IMPULSE 


 MUSIC : 


 examination spirit 


 dency certain phase 


 MUSICAL form 


 GENERAL development MUSIC 


 handelian period.—~the PECULIAR fitness | 


 FUGAL style enter religious 


 CEREMONIAL 


 1{uwtin 


 00 - 6 « 6 


 € ss , 


 525 


 english audience . 


 0 


 singing easy 


 549 


 17 


 53 


 BIRMINGHAM MUSICAL FESTIVAL . 


 532 


 ( MATONA , MIA CARA . ) * 


 madrigal voice 


 x7 


 = EEL SARE , ST tt ERIE = 


 SS = | 


 PPP 


 MATONA , LOVELY MAIDEN 


 ppp 


 4 = EE — — — 


 MUSICAL TIMES 


 TEMBER , 1885 . 541 


 542 


 543 


 544 


 546the MUSICAL TIMES.—Septemper 1 , 1885 

 character word . word ' ' mortuos cum stare 
 jubes , " fugue start bass - mark sub- 
 ject , ample development ( noticeable point 
 presentation subject augmentation bass ) 
 suddenly arrest supertonic chromatic harmony , 
 leave ear suspense long pause . 
 original baritone solo recur minor , 
 figure accompaniment ; key 
 change tonic major , solo , unite 
 chorus , continue conclusion , appropriately 
 calm suggestive hopeful resignation . Mr. F. King 
 sing solo hymn true artistic feeling , 
 choir respect thoroughly efficient through- 
 , composer forward 
 deservedly applaud end performance . 
 Orchestral Selection ' Tristan und Isolde ' ? 
 Beethoven * * Leonora ’’ overture purely instru- 
 mental piece ( magnifi 

 cently render ) ; Madame Albani , solo 




 MUSIC LIVERPOOL . 


 ( correspondentour prominent Society — Philharmonic Choral — 
 shake trammel financial 
 embarrassment past season involve , 
 Committee firm decision place Society 
 safe unequivocal basis announce 
 programme . public 
 naturally look tor support , marked re- 
 flection musical taste city Society 
 , past performance , earn claim 
 choral society North England 
 allow collapse simply want sufficient 
 monetary assistance enable pay way . sucha 
 collapse , , scarcely contemplate , hope 
 desire Guarantee Fund , & c. , soon ac- 
 quire . case , Society start rehearsal 

 7th inst . , commence " Elijah " thei 
 probable performance — high Society 
 having originally achieve rendering 
 Mendelssohn great oratorio . pretty certain 
 Philharmonic Choral Society assist Herr 
 Richter performance Beethoven Choral Symphony , 
 Philharmonic Hall month 
 November 

 scheme Mr. Hallé series Orchestral Concerts 
 announce , Concerts doubt- 
 maintain high standard efficiency 
 mark past season 




 MUSIC GLASGOW . 


 ( correspondent 


 AKE 


 1885 . 547james 

 prospectus Borough Hackney Choral 
 Association , season 1885 - 6 , announce 
 concert ; , pe 2 , 
 Schubert Mass F Prout " Alfred " per- 
 form ; second , December 21 , Siekansis ’ s 
 ' * Rose Sharon ’' ; , February 22 , 1886 , 
 Mendelssohn " Elijah " ; fourth , April 12 
 Handel Dettingen Te Deum Beethoven Choral 
 Symphony . orchestra , soloist , choir 
 usual scale completeness efficiency ; Mr 
 Ebenezer Prout retain post Conductor , office 
 fill year credit 
 benefit Society 

 Tue rg8th monthly concert St. George Glee 
 Union place 7th ult . , Pin lico Rooms , 
 Warwick Street , S.W. programme include Part- 
 Songs Glees Sullivan , Horsley , Michael Watson , 
 Martin , H. Smart , Purcell , extremely 
 render choir , directi Mr. 
 Joseph Monday . ' t’other day sit " ( Sir John Goss ) 
 sing double quartet . song 
 Miss Susetta Fenn , Miss Kate Flinn , Mr. H. G. Ryall , 
 Mr. Walter Joy , Mr. Charles Copland Mr. Theodore 
 Distin . Mr. F.R. Kinkee accompanist 
 contribute pianoforte solo 




 dure 


 548 


 review 


 549nae | 
 number publication , 

 original piece editor . good 
 . 2 , asmoothly write melodious romance | 
 D , . ro , ' * Schlummerlied . " ' impossible 
 favour arrangement , 
 regard selection piece manner 
 task Drape carry . tor 
 example , . 3 , March " Fidelio , " player 
 direct use organ , include 16 - foot trombone , 
 . 8 , Bridal March ' * Lohengrin , ’' 
 symphony return principal theme | 
 mark organ ! leven bad caricature 
 Minuet Mozart e flat Symphony ( . 11 ) . . 4 , 
 Largo Beethoven sonata D , op . 2 ; . 6 , 
 ' evening star " song Tannhauser 
 . curious want judgment 
 stop direction , numerous typographical error 
 evidence editorial carelessness 

 Songs Corn Field . Cantata female voice , 
 accompa wniment pianoforte ( harmonium 
 harp ad libituin ) . poetry write Christina Rossetti . 
 music compose G. A. Macfarren 




 foreign NOTESublic , probably little change 
 day Mozart write ' ' cosi fan tutte . " 
 Mozart humour 
 fancy frivolous libretto , time 
 elevate subject undying strain heaven- 
 inspired music 

 committee form Vienna purpose 
 found term ' ' Beethoven Museum " ( some- 
 analogous " Mozarteum " Salzburg ) 
 capital , numerous offer Beethoviana 

 posscssor promoter 

 learn italian paper Verdi recently 
 visit Arrigo Boito , find Maéstro busily 
 engage new opera ' " Jago , " ' , think , 
 bring year , Milan 

 Mr. Walter Damrosch , New York German Opera , 
 recently visit Germany , complete engage- 
 ment principal singer institution 
 come season , 
 Mesdames Marianne Brandt , Lilli Lehmann , Herren 
 Fischer ( Dresden ) , Robinson , Kaufmann . 
 project performance include ' Rienzi , " ' ' Tann- 
 haiuser , " ' * Lohengrin , " ' * Die Meistersinger , ' ' * Walkiire " 
 " Gotterdimmerung ' " ( Wagner ) ; ' Carmen " | Bizet ) , 
 " Aida " ( Verdi ) , " Fidelio " ( Beethoven ) , ' Le Prophite , " 
 ' * * Les Huguenots , ' ' L ’ Africaine " ( Meyerbeer ) , ' * Oberon " 
 ( Weber ) , prominent operatic work . ambi- 
 tious programme , sure ! Herren Walter Damrosch 
 Seidl orchestral conductor 

 fourteenth Festival German Choral Societies 
 successfully hold second week July , 
 Brooklyn | U.S 




 CORRESPONDENCE 


 MUSICAL DEGREES . 


 editor ' MUSICAL TIMES 


 MADRIGAL SOCIETY 


 MUSICAL TIMES 


 BRISTOL 


 editor " 


 ‘ AL TIMES 


 


 editor * MUSIC 


 ARTHUR T. FROGGATT 


 editor " MUSICAL TIMES . ' 


 HEINRICH SCHL 


 correspondent , 


 CORGETOWN , DE 


 BRIEF summary COUNTRY NEWS 


 G.O 


 N * EW , revise , enlarge editio } 


 INIT 


 LISHE 


 NA USIC EN 


 70 ) 


 556 


 dure month . 


 UNT , CH . J 


 ORPHEUS 


 MR . P. 


 M KR . B ANTOCK " PIE RPOINT ? S CONCER T 


 MUSICAL TIMES 


 SEPTEMBER , 1885 . 557 


 produce 


 BIRMINGHAM FESTIVAL 


 1885 . 


 SLEEPING BEAUTY 


 CANTATA 


 FRANCIS 


 HUEFFER 


 FREDERIC H. COWE 


 TIMES 


 DAILY TELEGRAPH , 


 STANDARD . 


 DAILY NEWS 


 DAILY CHRONICLE 


 WEEKLY dispatch 


 LONDON : NOVELLO , EWER CO 


 produce THI 


 BIRMINGHAM MUSICAL 


 1885 


 CANTATA 


 JULIA . ! WRITTEN B 


 MUSIC 


 FESTIVAL 


 GODD ARD 


 DAIL Y 


 MORN 


 F MAJOR 


 EBENE ZER PROUT 


 DAILY CHRONICLE 


 WEEKLY dispatch 


 LONDON : NOVELLO , EWER CO 


 555 


 HARV EST anthem 


 TI 


 tune 


 tw elve HYM 


 HARVEST 


 select FRC 


 IM hymnary 


 HARVEST . 


 JUBILEE C ANT ATA 


 ( HARVEST CANTATA 


 voice , CHORUS , & ORCHESTRA 


 COMI 


 VON 


 SOLO 


 HARVEST 


 THANKSGIVING MARCH 


 ORGAN 


 J. BAPTISTE CALKIN . 


 5 o land . ' 


 HYMNS 


 1535 


 O thank 


 THI LSTE TH 


 SUITABL 


 ) GOD , SOUL 


 compose 


 R. GREENISH 


 HAKVEST " ANTHEM , 


 HARVEST @ 


 LL THY work P 


 WERSS G 


 HYMN 


 KSGIVING service 


 2 7 W. WILLS 


 tfhoruse : 


 " ENING MORD 


 SI FUTURI 


 SHADOW LIGIT 


 | THI 


 1 G 


 BELL tower . } 


 


 chant 


 hymnary 


 CHURCH SONG 


 9 , ' 1 


 F psalm 


 edition , reduce 


 e deum LAUD 


 second serie 


 h 


 CANTICLES hymn 


 church , 7 


 


 response commandment 


 edit 


 


 EDWIN GEORGE MONK 


 H. ELLIOT BUTTON . | O RGA N 


 


 3LE 


 VOCAL MUSIC HOLY CITY 


 write 


 ERNEST J. EAGLEMAN 


 compose 


 seven occasion 


 CHORAL society 


 NARCISSUS ECHO 7 


 music 


 1S. 


 DAVIS 


 SONGS , NET 


 HERMANN L. F. HELMHOLTZ , M.D 


 professor physic university BERLIN 


 ALEXANDER J. ELLIS , BA , , F.RS .. 6 


 WILLIAM ] + NG 


 - S ONGS , S.A.T.B. | 


 USIC ' EW CODE . — ' 


 t 


 t 


 DIANOPORTE student daily ‘ study , | : 


 AP 


 BU 


 NEW foreign publication 


 GODEFROY , A- 


 GUMBE RT , F 


 3 H 


 HOFMANN , H 


 SCHOEN , M- 


 SCHUMANN.- 


 WEBI 


 WEBE R , 


 WORL 


 LONDO ? vn : NOVELLO 


 publish 


 GERMAN HANDEL SOCIETY 


 6 |THE RED KING 


 CHORA L SOCIETIES 


 


 deciding coming SEA ; 


 copy OI 


 tournament 


 STORER 


 SON write 


 TATIC 


 


 HUBER ! PS ¢ comp 


 PUBLICATI 


 SCHUMANN COMPLETE work 


 song ' FOREST 


 - song 


 


 JOHN KINROSS . 


 EWO- " anthem 


 lady 


 


 MYLES B 


 boy ’ voice 


 ose pd 


 foster 


 COMPC ) sition 


 ALICE MARY SMT 


 | song little 


 CATHEDRAL PSALTER 


 point chanting 


 


 cathedral psalter chant 


 OHANN SEBASTIAN BACH 


 1685 - 1750 account 


 development modern musical instrument 


 : ancient type , 


 ’ ‘ ORIGINAL 


 5 0 


 0 6 


 0 


 1 6 


 ent 


 H NNO hh rr hdd 


 


 CHILD GARLAND 


 collection 


 - song child voice 


 compose 


 FRANZ ABT . 


 


 JUVENILE SONGSTER 


 NEW REVISED edition 


 consisting 


 thirty - song 


 


 LOWELL MASON 


 - song 


 


 CHILDREN OLD & YOUNG 


 music compose 


 CAROLINE WICHERN . 


 NEW EDIT ION , carefully revise 


 MENDELSSOHN overture 


 NEW EDITION , carefully revise . 


 MENDELSSOHN symphony 


 NEW revise edition 


 air 


 MENDELSSOHN " ELIJAH " 


 arrange ORGAN 


 GEORGE CALKIN 


 565 


 NOV ELLO , EWE R CO . music primer 


 DOUBLE scale 


 systematically finger 


 supplement 


 


 exist PIANOFORTE school 


 


 FRANKLIN TAYLOR 


 supplemental 


 book exercise 


 vor use 


 learn sing sight 


 compile arrange 


 HENRY GADSBY . 


 ninety - 


 - exercise 


 


 choir school 


 


 JAMES GREENWOOD . 


 ORGAN work 


 JOHN — _ ASTIAN BACH , 


 ite 


 GEORGE C. MARTINWWwWWHR 

 no.1 . Slow movement ( Quintet ) . ove eee e Schumann . 
 Minuet ( 12 minuet ) .. di « . Beethoven 

 2 . Andante ( Pianoforte Sonata , op . 147 ) Schubert . 
 Largo ... Handel . 
 aa hart ma " eve Spohr 

 3 . Agnus Dei Schubert 
 Overture , " Acis Galatea " Handel . 
 Albumblatter , no.1 .. Schumann 

 4 . Adagio ( Pianoforte Sonata , op . " . 1 ) Beethoven 
 Cat f ugue ss , Scarlatti . 
 Albumblatter , " . 5 ( op . 99 ) . Schumann 

 5 . Romanze Scherzo ( Fourth sympho ny ) Schumann 
 air icivertare | suite ] D ) Bach 




 NOVELLO ’ S ; collection 


 - 


 edit 


 SUB - organist ST . PAUL CATHEDRAL . 


 NOVELLO , EWER & COS 


 primer 


 MUSICAL biography 


 JOSEPH BENNETT 


 READY 


 HECTOR BERLIOZ 


 FREDERIC CHOPIN 


 ROSSINI 


 MEYERBEER 


 SHIL L ING 


 CHERUEL 


 


 INI 


 PROSPECTUS . 


 CHOWAL society . 


 selection music 


 iey SUPP 


 SIXPENCE 


 lie 


 CLASS I. , PRICE SIXPENCE ( 92 page ) . 


 CLASS II , PR 


 NOVELLO , EWER CO . 


 BERTHOLD tour 


 edit 


 composition WOLLENHAUPT 


 composition WOLLENHAUPT 


 15 . composition WOLLENHAUPT 


 SHORT setting 


 


 office HOLY COMMUNION 


 parochial general use 


 GEORGE C. MARTIN , 


 D 


 SIR GEORGE ELVEY 1 


 NOVELLO , EWER CO . 


 album violin pianoforte 


 price SIXPENCE 


 marche 


 ose 


 SHILLINGS 


 COMP 


 F. MENDELSSOHN BARTHOLDY 


 WEDDING MARCH 


 THI 


 WAR MARCH 


 priest 


 20 m 


 CORNELIUS MARCH , FUNERAL MARCH , 


 anscribe violin pianoforte 


 BERTHOLD tour 


 thirty melody 


 compose 


 BERTHOLD TOURS . 


 « * edition VIOLONCELLO 


 publish 


 voluntary arrange 


 HARMONIUM 


 


 J. W. ELLIOTT , 


 SCHUMANN pianoforte work . 


 NATALIA MACFARREN 


 ir 


 ion 


 content . 


 14 . ! 


 ( DV ¢ ) YI } - 


 IE | , ' 


 ALBUM 


 £ % bed 1 


 S PIAN 


 ROBERT SCHUMANN 


 LONDON : NOVELLO , EWER CO LONDON : NOVELLO , EWER 


 568 


 BIRMINGHA 


 MUSICA 


 FESTIVAL , 1885 


 MOKS ET VIL 


 SACKE!I 


 TRILOGY 


 compose LY 


 CHARLES GOUNOD 


 PIANOFORTE accompaniment arrange O. B. BROWN , BOSTON , MASS . , U.S.A , 


 TIMES . DAILY telegraph . 


 STANDARD 


 DAILY NEWS , 


 DAILY CHRONICLE . 


 GLOBE 


 WEEKLY dispatch 


 LONDON : NOVELL 0 , EWER CO