


 the MUSICAL TIMES 


 AND SINGING - CLASS circula 


 found in 1844 . 


 publish on the first of every month 


 ROYAL CHORAL SOCIETY . the GUILDHALL SCHOOL of MUSIC 


 ROYAL ALBERT HALL . JOHN carpenter ST . , VICTORIA EMBANKMENT , E.C. 


 VE ' orchestral practice be conduct 


 ROYAL 


 MANCHESTER COLLEGE of MUSIC 


 MISS RUTH VINCEN 


 MISS EMILY SHEPHERD . MISS PHY LIS LETT . 


 MR . MORGAN KINGSTON . 


 " the DREAM of GERONTIUS " 


 ELGARLecture - Recital of the Organ Music of Karg -Elert will be give by | MUSIC He { ZL 1 , EDI . VBURGH 

 Eaglefield Hull , Esq . , Mus . Doc . Oxon . , F.R.C.O. , on Wednesday , — at ARES PS 
 eteah as epen ' BEETHOVEN ORCHESTRAL FESTIVAL 

 4 Special course of lecture - lesson for Professional Music Teac noe 




 — — — — . ST . ANDREW ’S HALL , GLASGOW . 


 the ROYAL COL LEGE of ORGANISTS 


 UNIVE RSITY of DURHAM 


 THE MUSICAL 


 1913 


 MUSIC 


 N.W 


 ROYAL 


 YORK GATE 


 ACADEMY of 


 MARYLEBONE ROAD 


 SINGING 


 PIANOFORTE 


 ORGAN , 


 ROYAL ACADEMY of MUSIC . 


 METROPOLITAN examination . 


 VIOLIN 


 VIOLONCELLO 


 AND TEACHER 


 ROYAL ACADEMY of MUSIC . 


 examination in VOICE culture and SECOND.-CLAS 


 INCORPORATED guild of CHURCH 


 musician . 


 ASSOCIATE ( A.1.G.C.M. ) , LICENTIATE ( L.1.G.C.M. ) , FEL 


 competition for 1913 . 


 register of ORGAN vacancy . 


 VICTORIA COLLEGE OF MUSIC , 


 LONDON . 


 incorporate 1801 . 


 . . TUAM 


 PENCE 


 SIC , 


 F.R.AM 


 F.LG.CM 


 play at sight 


 be easy — not 


 difficult . 


 send for booklet , which contain 


 FULL particular 


 LM . EHREMAYER , 


 27 , CHANCERY LANE , LONDON , W.C 


 fine MODERN VIOLIN 


 sell by W. E. HILL & son 


 at their place of business 


 0 NEW bond street 


 LONDON , W 


 MURDOCH ’S MUSIC store . 


 one account for all publisher . 


 MURDOCH 's catalogue now ready . 


 1 . VIOLIN MUSIC . 2 . EDUCATIONAL MUSIC 


 PIANO , ORGAN , and MUSIC store , 


 461 and 463 , OXFORD STREET , W. 


 the 


 festival 


 OPEN class for mix - voice and 


 NATIONAL CONSERVATOIRE 


 NEW ZEALAND . 


 position of CITY organist . 


 1913 


 for NEW ZEALAND , 13 , VICTORIA STREET , WEST- 


 NEW ZEALAND 


 professional notice . MISS MAY BARTLETT 


 FREDERICK ARTHUR 


 MR . JESSE HACKETT 


 MESSIAH , SHEFFIELDCHORAL UNION 


 MR . TENOR 


 TENOR ) . 


 AVIS 


 MISS LYDIA JOHN ( ARAM 


 MR . " FRANCIS GLYNN 


 I [ asters 


 ERNE ST 


 MR . SAMUEL 


 MR 


 PENFOLD 


 MR . E DMUND $ ARKE 


 MR R. MONTAGUE . BORWELL 


 WINIFRED MARWOOD 


 124 , WALM LANE , CRICKLEWOOD , N.W 


 MR . REGINALD HALE 


 B ARITONE 


 BARITONE ) . 


 MR 


 WILLIA\ M ‘ COL EMAN 


 the MANCHESTER BASS ) . 


 > TR 77 


 MR . HE RBE RT PRACEY 


 ASS 


 SOPRANO 


 VIGGO KIHL 


 ( SOLO PIANIST 


 MR . M. MONTAGU- NATHAN 


 MR . W. H. BREARE 


 TO student and the profession 


 the LONDON COLLE G E for chorister 


 _ — _ * - _ 


 composer ’ MSS 


 DR . A. EAGLEFIELD HULL 


 T evision of musical composition 


 singing 


 STREET , W 


 lister 


 eight yea 


 TICE give 


 HULL 


 sition 


 the 


 I , 1913 . 77 


 L.R.A.M. ( paper work 


 late success : 


 L.R.A.M. , 


 26 


 M LE _ COAC 


 DR . LEWIS ’ text - book : 


 dre and ten succe . C.M. , 1897 - 1911 , two 


 1912 


 DURHAM CATHEDRAL 


 \ TANTED . — -SOLO TENOR , £ 15 . ALTO , £ 12 . 


 THE 


 THE 


 ORGAN . 


 \L SALES¢ 


 NCHESTBR 


 1910 


 LTD . , 


 DER - LYME 


 GRAY & DAVISON 


 PRATT STREET 


 1913 . 79 


 THE OLD FIRM 


 P. CONACHER & CO 


 SPRINGWOOD WORKS 


 HUDDERSFIELD . 


 two gold medal 


 establish 1750 


 ORGAN builder , 


 48 , SOUTHFIELD ROAD , OXFORD . 


 128 , HOLT ROAD , LIVERPOOL 


 LIVERPOOL 


 BUILT 


 GREAT GEORGE STREET 


 LIVERPOOL 


 RAINBOW 


 OUR music reading ladder for beginner 


 the ROYAL " 


 BRINSMEAD 


 BY instalment 


 be ARRANGED 


 payment 


 CAN 


 LIMITED 


 18 - 22 , WIGMORE STREET , LONDON , W 


 80 the 


 MUSICAL 


 TRINITY COLLEGE of 


 DR . ARNE 


 RULE , BRITANNI 


 WILLIAM HAYMAN 


 MELO 


 SOLEMN 


 H. WALFORD DAVIES 


 FULL ORCHESTRA 


 STRINGS and ORGAN . 


 URGA > 


 ORGAN 5S 


 MUSIC 


 PAL ? illustrate catalogue on application . 


 CUMMINGS 


 BROADWOOD 


 player - PIANOS 


 30,000 work to select from 


 FREE on application 


 both guide sent POST 


 BOSWORTH & CO . , 


 17 , HANOVER SQUARE , LONDON , W. 


 | for full orchestra . 


 compose by 


 EDWARD ELGAR 


 arrangement for PIANOFORTE DUET 


 SIGFRID KARG - ELERT . 


 20 too ! 


 KET 


 II . 


 FEBRUARY 1 , 1913drama in the rather limited sense he have in view 
 when frame his theory . his proposition be 
 i. correct enough if we take it to mean that music 

 it would be very interesting if some enterprising| must not , as in the italian opera , occupy the 
 sterviewer in the shade could procure for we / ear to the exclusion of all worth in the story and 
 \agner ’s opinion upon the course of event in| all psychological interest in the character . in the 
 qusic in general and the opera in particular during| sense that he make opera acceptable to man ’s 
 te thirty year that have elapse since his death . | head and heart as well as their ear , Wagner 
 he would probably cling with his characteristic | certainly do make the drama the end , and music 
 wmacity to the view he hold in his lifetime ; but|}the mean . but view more broadly , his work 
 ‘ he be candid he would have to admit that the ! be really the great glorification of music that 
 i d problem have latterly take on a new aspect . | the theatre have ever see ; for while he enormously 
 the theory he expound so eagerly in his prose| increase the expressive scope of it , he cut 
 wk and illustrate so eloquently in his music-|out of drama more than half the element 
 iamas have not pass through the fire of thirty| that give that word a meaning apart from music . 
 ar ’ criticism without suffer some loss of } drama , with he , mean in the last analysis little 
 ulity . suppose a brain as comprehensive , as| more than the good possible text for stage music . 
 wiously gifted , and as forceful as his be now to| he wuuld have deny this interpretation of his 
 uke up the problem of opera , see it all afresh | theory and practice , but all the same that be the 
 s Wagner do , and combine , like he , all the| upshot of they . ' word - speech , ' he say , be 
 wtencie of the good instrumental and operatic } merely the organ of the intellect , and have therefore 
 music of his day into one vast synthesis , what / the right of entry into music — the emotional art 
 wuld be the new form he would strike out — for | ar exce//ence — only so far as it be necessary to give 
 tata new form be now a necessity be evident both| coherence to the indeterminate flood of feeling 
 na prort and a posteriori ground . music could | that music pour out ; and music can , and ought , 
 wmore stand still after Wagner than after Bach | only to ally itself with word that have themselves 
 : Beethoven ; a new humanity must find a new ] an emotional content . it be for this reason that 
 apression for its own reading of life . and a|he reject historical and political subject , and 
 uvey of the opera since Wagner ’s death leaves| find the ideal ' stuff ' for opera in the ' purely 
 w room for doubt that the emotion and aspiration | human ’ legend of the folk ; and in ' a Communi- 
 ' the new humanity have not yet find the form | cation to my friend ' he trace in close detail the 
 mst appropriate to they . Wagner have no more| gradual growth of his perception in this respect . 
 ucceeede in make his special type of musical } what be hide from he , what , indeed , he 
 ‘ ama the norm for late generation than Bach } persistently deny , be now evident to everyone 
 succeed in impose the form of 47 music upon | else,—that the change in his theory and practice 
 art of the epoch that have follow he . in| be due to the musician in he slowly assert 
 i case the spirit endure , but not the form.|himself with great and great urgency , and 
 me element of the wagnerian form have of| finally demand imperatively a form of text 
 use become , as far as we can judge , permanent| that would allow his gift of musical expression 
 ator in opera in general,—the use of leading|the utmost possible freedom . it must always 
 temes , for example , and the system of entrusting|be bear in mind that Wagner 's theory of a 
 } melodious , flowing , quasi - symphonic develop-| unification of all the art in the one art - work be 
 unt to the orchestra . but not even these|the product of a brain that have comparatively little 
 ‘ ement be recognise as indispensable consti-| sympathy with , or understanding of , any art but 
 ‘ ent of opera everywhere : Debussy , for instance , | music . this may seem a hard saying , but the 
 “ ard both of they in the great part of his| proof of it be to be find in many declaration in 
 ‘ teas and Melisande . ' for the rest , the|his prose work , his letter , and ' Mein Leben . ' 
 * parture from Wagner ’s precept be noticeable| he could never see in painting , in the prose 
 " ough , especially as regard the poetic basis of|drama , in poetry , and in sculpture , precisely what 
 ya . apart from the negligible work of his ! painter , dramatist , poet , and sculptor see there . 
 " ond - rate imitator , it would be hard to point to| he seriously think that ' the speak form of 
 ' single opera by a man of genius that follow play ' ( die Schauspielform ) must ' necessarily vanish 
 ‘ ner in its reliance upon myth as the clear |in the future ' ; and that painter would give up their 
 " ¢ most fundamental expression of the ' purely | ' egoistic ' filling of little canvas and be content 
 " man , or in his planning of the subject so as to| to devote their power to contribute , along with 
 " tice toa minimum the less musical matter in| the poet , the musician , and the rest of they , to 
 " text , and make the whole opera , as far as may | the ' united art - work of the future . ' clearly it be 
 * 4 pure expression of nothing but ' soul - state . ' |the musician in he that dominate everything 

 3 ¥ ERNEST NEWMAN 




 82 


 I , 1913 


 ITI 


 IV 


 I , 1913 . 83 


 84 the 


 I , 1913 


 VI 


 VIL 


 86 the 


 VIII 


 IX 


 88 the 


 I , 1913x 

 it be this attitude of the artistic mind of the 
 future towards drama that will , I think , find | 
 utterance in a form of quasi - dramatic music in| 
 which we shall be rid of all or most of the mere 
 scaffolding of narration or action that serve at 
 present simply to give intellectual support to the 
 music of opera . even in Wagner be we not| 
 painfully conscious at time of the fact that the 
 music , which matter a great deal , be be dilute | 
 and make turbid by a quantity of base matter the | 
 only function of which be to make it clear to we 
 why these particular people be there at that 
 particular moment , and what it be that they be 
 do ? it can not be reiterate too often that it be 
 only the music that can keep alive any form of art 
 into which music enter . fact lose their force with 
 repetition ; it be only artistic emotion that can 
 be bear anew again and again and never die . 
 who feel anything but a glow of rapturous 
 anticipation when the first note of the ' Liebestod ' 
 or of Wotan ’s ' Abschied ' be sound ? he may 
 have hear it all a hundred time before , and 
 know every note of it by heart ; but it will all be 
 as new and wonderful and inevitable to he at the 
 hundredth hearing as at the first . but who do 
 not groan to the depth of his spirit when Wagner ’s 
 first care at the moment be not to kindle we with 
 great music but to tell we at great length , and for 
 the hundredth time , certain mere fact that have 
 long lose their absorb interest for we ! and even | 
 in his most compact work — ' Tristan ' — be there | 
 not a great deal that be , from the high point of 
 view , superfluous ? we can bear to hear the same 
 glorious music time without number ; but we will 
 not bear be tell time without number who 
 Tristan and Isolde and Marke and Morold be , 
 and how Tristan slay Morold , and how Isolde 
 nurse Tristan back to health , and all the rest of 
 it . I can imagine a ' Tristan ' in which thing of 
 this kind would be assume to be matter 
 of common knowledge on the part of the 
 audience , as the character and motive of 
 Tchaikovsky ’s ' Romeo and Juliet ' or ' Francesca da 
 Rimini ' be assume to be common knowledge , or 
 those of Strauss ’s ' Macbeth ' or ' Till Eulenspiegel , ' 
 or those of Beethoven ’s ' Coriolan ' and ' Egmont ' 
 overture or the ' Leonora No . 3 , ' or those of 
 Dukas ’s ' L’Apprenti sorcier . ' then the whole 
 of the composer ’s time and the audience ’s attention 
 could be devote to that full musical exposition of 
 nothing else but the protagonist ’ soul - state which 
 Wagner avow as the ideal of music - drama , but 
 which be virtually an impossible ideal so long as 
 opera be compel to utilise so many actor on so 

 side of man - — and no more of a stage , and to occupy 




 TU 


 I , 89 


 1913period . he leave the Conservatoire with flying| a major Sonata for violoncello and pianoforte , a 
 colour , and although his chief apparent occupation | work which have become famous . 
 be in virtuoso appearance at the pianoforte — for| it be at the instigation of Herr Carl ] Simon , the 

 he always possess an amazing clavier technique | Berlin music publisher , that Karg - Elert specialise 
 yet he be obsess of a craving for composition,|on the ' Kunst Harmonium , ' a_highly - finish 
 which occupy all his waking hour . still on| instrument of the orchestral type with one or more 
 the clavier , he work his way through Liszt and| manual . this province Karg - Elert speedily make 
 Chopin to Schumann , whose fantasiestiick has| all his own by continually play in all the chiei 
 exercise a continual hold over he . through| german city and by write a large number of 
 Schumann and Brahms , he go back to the two| piece specially for it . rhe since famous 
 immortal , Beethoven and Bach , and at the age of | Passacaglia in e flat minor for organ make its fir 
 twenty - three he be appoint an advanced | appearance in this way . the mere mention of the 
 pianoforte teacher at the Magdeburg Conservatoire . | title of these piece will show the lofty view he 
 an introduction to Edvard Grieg prove to be| take of the possibility of this new instrument — 
 one of the chief signpost in his career . from| Aquarellen , Monologue , Scénes _ _ pittoresques 
 he he first learn the true importance of com-| improvisation , Madrigal , Sonata in b _ mina , 
 position as ' the expression of one ’s own| Partita in eight movement , Fantasie and fugue , 
 independent personal feeling . ' the Norwegian | Sonata in b flat , with double fugue on B.A.C.H. , & 
 master point out the timidity of Karg ’s early | he also , in a literary way , prove himself a strenuous 
 attempt , the unsuspected plagiarism , and direct | propagandist of the novelty , and his various 
 him to a broad style of great clearness and | ' method , ' ' study for the Harmonium , ' and 
 finish . further study with Professor Teichmiiller | erudite work on ' Die Kunst des Registrierens 
 produce an even great reputation as a clavier-| Ein Hand- und Nachschlagebuch fiir Spieler alle : 
 virtuoso , and it be at this period that some| harmoniumsysteme , ' throw much light on the 
 enterprising evfreprenevr , with astute initiative , | freshness of his view in organ colour , which late 
 insist on the special value of a double - barrelled | on be evince so strongly . 
 name . ' Elert ' be add to the Karg , and so great be his admiration for the king o 
 Karg - Elert he have be ever since , willy - nilly . | instrument that before he dare to express himself 
 what marvellous power these agent possess , | through it , he submit to a rigorous discipline 
 thus almost usurp even the office of the priest ! | technical study , which enable he to act 
 composition and virtuosity fight hard with| accompanist and soloist at St. John ’s , Liepst 
 Karg - Elert for the first place , but the former was| ' then come a flood of organ composition whic 
 destine to victory . harmonic knot delight | be more than sufficient te show his perfect insig " 
 he infinitely , and the more hopeless the knot the | into the instrument and his great technical attain 
 more he like it . every conceivable contrapuntal | ment at that time . a rearrangement , extensi0 ? , 
 device he attempt , and like Max Reger at a|and altogether free translation of several o ! the 
 similar period , his temperament and gift of mastery | most successful harmonium piece — the e iis 
 lead he to extravagance and likewise to an | minor Passacaglia , Variationen , improvisation ine 
 enormous output . over one hundred songs| interludium in F sharp minor from the b mine 
 appear in the list of various continental | Sonata , the Phantasie and fugue in D major , te 
 publisher at this time . in many of these there is|Canzona in G flat — be follow by the sixty 
 no mistake his mastery of the tonal art and his | Choral Improvisations , a wonderful group of pie 
 power through it to express pure and noble thought . | follow on the Bach line of procedure , hut 
 lhe pianoforte work of this period be less| every ancient and modern style and form . a sine 
 equal in value , many of they be subject to an | canonic treatment be follow by a modern Fantasie 

 on oy > ) = a 




 equal temperament 


 1913 


 93 


 94 the musical 


 193the | 
 young british composer in both his grim mood of 
 a few year back and his gay style of to - day . the } he proceed to quote instance in the music 

 choir be an excellent one , and the capable assistance | Schumann , Handel , Beethoven , Tchaikovsky at 

 Dunhill and Mr. Josef } composer do it ever occur , in their vocal music , ! 
 Mr. Dunhill have arrange three concert put a stress word in the rhythmically weake 
 at Steinway Hall on February 21 and 28 , and March position , such as the fourth or eighth quaver ® 
 7 , the special feature of which be the performance of | four - four time , and to wedge it in , so to speak , wit 
 be 
 the new work to be ! commonplace and mechanical . 
 produce be a Pianoforte Phantasy - Quintet by Mr. 
 James Friskin , Violin sonata by Mr. Nicholas Gatty 
 Mr. 
 Mr. Holbrooke , who have organize concert 
 February 28 , 
 music 




 SYMPHONY in B minor in four link movement ( 1912 ) . 


 compose by C. H. H. PARRY 


 I.—STRESS 


 — _ _ 


 the MUSICAL 


 1913 


 MR . T. TERTIUS NOBLE . 


 the MUSICAL TIM 


 ES.—FEBRUARY i , 1913 . 99 


 presentation to MR . ROBERT HILTON 


 the LIVERPOOL CATHEDRAL ORGAN 


 100 


 I , 1913 


 the 


 I , 1913 . 101 


 BRANDON PARISH CHURCH , SUFFOLK 


 NEW CITY ORGANIST of HULL . 


 the MUSICAL TIM 


 102 


 ES.—FEBRUARY i , 1913 


 organist and choirmaster appointmbnt . 


 ORGAN recital . 


 ent . 


 book RECEIVEDMozart 's opera . a critical study . 3y Edward J. Dent , 
 pp . xv . + 432 . ( London : Chatto & Windus 

 the Edinburgh Review—/January , 1913 . contain an 
 article , ' new light on Beethoven , ' by H. Heathcote 
 Statham . price 6s . ( London : Longmans , Green & Co 

 the Choir . a plea for beauty and refinement in Church 
 music . by C. J. Viner . pp . 36 . price 2d . 
 ( Southbourne - on - Sea : W. Harris 




 HIAWATHA ' in CANADA . 


 TO the editor of * the MUSICAL TIMES 


 ROYAL ALBERT HALL , NOVEMBER 22 , i912 


 ANNIE GLEN BRODER 


 C. PHILLIPS VIERKE 


 foreign appreciation 


 YNCERT 


 1912 


 SMYTI 


 ANTHEM for EASTER 


 ~~ — — — _ — — — -_~@ 


 < < = > . = s== = = _ = = SS 


 = = = SS SS 


 COME , YE SAINTS 


 _ SS 


 _ — — — _ — — — _ — — > 


 — _ _ — _ _ _ -____,—_______#- _ 


 COME , YE SAINTS 


 — — = STE 


 SSS 


 ss 


 1-—-G 


 — _ — _ 4 


 — — f — = = = 5 = = f - " + e — — _ = : — 


 COME , YE SAINTS 


 — 2391 


 3 2 


 SE 


 cl 


 ab 


 122 


 = > = > = ef 


 MA — _ = = 


 113 


 1913 


 INCORPORATED SOCIETY of MUSICIANS : 


 annual conference 


 conducting 


 playingthi country during these twenty short year . 
 Richter 
 playing of the british orchestra , through impart to they 
 his noble and dignified reading of the various masterpiece 
 he conduct . 
 thank Sir 
 possess a unique gift for train an orchestra and for 
 convey to they clearly his meaning 

 to conductorship . 
 such as comic - opera or seaside band afford ; and when they 
 come to serious conducting they might ' begin with Strauss , 
 Debussy , Tchaikovsky , and even some of Wagner , but let 
 they beware of Bach , Beethoven , and Brahms until the very 
 end of all thing , and only when they have be year at the 
 game , and when they be sufficiently master of themselves to 
 forget their technique 

 reading from scripture . 
 of Matins and after the Epistle of the Mass. 
 psalm that be sing there originally , be , in the course of 
 time , shorten , until only one verse remain . 
 then 
 and probably as the cause of the shortening , there be a 
 melodic elaboration of the refrain , presumably owe to tt 
 be transfer from the congregation to a choir of train 
 singer . 
 place between 450 and 550 




 the FORMS of 


 GREGORIAN CHANT 


 c085 


 the 


 114 


 I , 1913 


 6 YE 


 the MUSICAL 


 1913 


 115 


 OXFORD HOUSE CHORAL SOCIBTY 


 DR . COWARD ’S CHOIR at the 


 ( LONDON 


 COLISEUM 


 ROYAL CHORAL SOCIETY 


 ROYAL PHILHARMONIC SOCIETY . 


 ( QQUEEN ’S HALL ORCHESTRA 


 1S 


 116 


 RECITALSM . Safonoff , the famous conductor , be hear at 
 Bechstein Hall on January 15 as a pianist , in which 
 capacity he earn considerable repute in his young 

 day . he co - operate with M. Belooussof , a violoncellist 
 of great expressive power , in the performance of three 
 Beethoven Sonatas 

 the much - herald Daniel Melsa , violinist , make his first 
 appearance in England at Steinway Hall on January 15 , 
 and show that the report of his brilliance be largely 
 base on truth . his programme give no opening for 
 exceptional power of interpretation , but it suffice to exhibit 
 an advanced technique and a refined , sensitive style . 
 another violinist new to London , M. Alexandre Sebald , 
 to distinguish his recital at Bechstein Hall , on 
 January 17 , by perform Paganini ’s twenty - four caprice 
 for violin alone . he certainly justify the stress lay upon 
 the technical side of his attainment . Miss Floriel Florean 
 give an evening of south african Folk - Songs at Bechstein 
 Hall on January 21 




 other CONCERTSThe complete cycle be give , and a large 

 the most momentous feature of the twelve o'clock 
 concert give at olian Hall on January 9 be the 
 performance , by the Misses Verne , of Reger ’s variation 
 and fugue for two pianoforte on a theme by Beethoven . 
 the most pleasant be Miss Edith Clegg ’s singing . the 
 next concert of the series , on January 16 , provide the rare | 
 pleasure of hear Brahms ’s Trio for horn ( Mr. A. E. 
 Brain ) , violin ( Miss Marjorie Hayward ) , and pianoforte 
 Miss Mathilde Verne ) , finely play . Mr. Mostyn Bell 
 contribute sony 

 Miss Dorina Zingari , appear at Steinway Hall on 
 January 14 , show great capacity as composer , pianist , 
 ind orchestral conductor than be usually expect in a } 
 girl of sixteen 

 leadership of Mr. Albert Geloso , make their first London 
 appearance at stein Hall on January 20 , and reveal 
 exceptional power in a performance of Cesar Franck ’s 
 ( Quartet . they also produce a musicianly Quartet write 
 Mr. B. Hollander . 
 an excellently manage and popular series of concert be 
 in progress on Saturday evening , at the Central ( Wesleyan ) 
 ITall , Westminster . on January 18 , the principal item in 
 the programme be supply by the Band of H.M. Irish 
 Guards , conduct by Mr. Charles Hassell 

 Mr. Russell Bonner have just conclude a series of twelve 
 weekly pianoforte recital at the Metropolitan Academy of 
 Music , Forest Gate . at the last recital , the programme 
 by the vote of the audience from the 133 
 piece play at the previous recital . the public choice 
 be as follow : Prelude , Rachmaninoff ; Sonata latheétique , 
 Beethoven ; ' spring song , ' ' Duetto ' and ' Bee ’s Wedding , ' 
 Mendelssohn ; ' La Campanella , ' ' Liebestraume ' and 
 * Tannhauser ' March , Liszt ; ' Papillon , ' Grieg ; Fantasia 
 in i ) minor , Mozart ; and Rhapsodie in b minor , Brahms 

 Becl 




 22 


 22 , 4Knightly , a 

 String Orchesin , 
 conduct by Mr. Sydney Robjohns , give a concer 1 
 Streatham Hall on December 17 . 
 work by Bach , Beethoven , Coleridge - Taylor , Tchaikowk 
 the solo artist be Miss Violet Pem 
 Mr. Harold Wilde , and Mr. Mark Hambourg , and Miss Eite 
 Robjohns and Miss Gladys Daniel play the solo pati 
 in the Bach Concerto for two violin 

 the programme inclote 




 the 


 1913 


 by our own correspondent 


 BIRMINGHAM 


 BOURNEMOUTHA firm hold on public favour 1 still be retain by the 
 | weekly Symphonyand Popular Concerts , the audience during 
 | the Christmas season range at a high level numerically 

 two exceptionally good performance at the Symphony 
 | Concerts be those of the fifth symphony of Beethoven 
 } and Tchaikovsky ; in both case the fine playing manifest 
 the great care that Mr. Dan Godfrey have take in the 
 preparation of the music , and our conductor be nobly 
 back up by his instrumentalist . Kalinnikoff ’s Symphony 
 } in G minor , Dvorak ’s f major Symphony , which to the 
 | disappointment of many be substitute for Sibelius ’s late 
 | Symphony , and Brahms ’s second Symphony have also figure 
 in recent programme . many interesting work in other 
 form have also be present , those call for special 
 mention be Weingartner ’s ' joyous Overture ' ( first per- 
 formance in England ) , an orchestral version by Steinberg of 
 Bach ’s Chaconne ( also the first performance in this country ) , 
 Percy Grainger ’s ' Molly on the shore ' and Mock Morris for 
 | string , and Dr. Walford Davies ’s new Suite ( suggest by 
 | the poesy of Wordsworth ) . turn to the soloist , pride of 
 | place must be give to the delightful performance by Messrs. 
 | Philip Levine and Cedric Sharpe ( lately scholar of the 
 Royal College of Music ) of Brahms ’s Double Concerto for violin 
 and violoncello ; and reference must not be omit to the 
 performance of Hans von Bronsart ’s Pianoforte concerto , 
 Lalo ’s ' Symphonie Espagnole ' for violin and orchestra , 
 Grieg ’s Pianoforte concerto , and the Mendelssohn Violin 
 concerto , by Mrs. Davan Wetton , Mr. Anton Maaskoff , Miss 
 Myrtle Meggy , and Miss Leila Doubleday , respectively 

 the Monday ' pop . ' , too , have afford we many enjoyable 
 and by no means uninstructive afternoon . for instance , 
 | the first of the concert to deal with the rise and development 




 118 the MUSICAL TIM 


 ES.—FEBRUARY 1 , 1913 


 BRISTOL 


 DEVON and CORNWALL 


 _ _ _ 


 other DEVONSHIRE TOWNS 


 CORNWALL 


 the MUSICAL 


 TIMES 


 DUBLIN 


 GLASGOWperformance of ' the Messiah ' on New Year 's Day and a 
 ' popular ' performance of the same work on January 16 . 
 the Young Men ’s Christian Association Choir , conduct by 
 Mr. R. L. Reid , give their annual ' Messiah ' concert on 
 January 3 

 at the Choral and Orchestral Union ’s ninth classical 
 Concert on January 2 , Mr. Philip Halstead , a clever Glasgow 
 musician , be the solo - pianist in Schubert ’s ' Wanderer ' 
 Fantasia , with orchestra . the Symphony be Beethoven ’s 
 no . 8 , and the light music include Grieg ’s ' Peer Gynt ' 
 Suite and Dvorak ’s ' Carneval . ' the programme of the 
 tenth Classical Concert on January 7 offer some striking 
 contrast , as for example the overture to ' ( Edipus at 
 Colonos , ' by Bantock ( give for the first time here ) , and 
 Haydn ’s ' Oxford ' Symphony , Strauss ’s ' also sprach 
 Zarathustra , ' and Schubert ’s overture to ' Rosamunde . ' 
 the playing of the Scottish Orchestra at this concert 
 reach possibly its high level . the main feature of the 
 eleventh concert on January 14 be the remarkably fine 
 playing of Mr. Arthur de Greef , the belgian pianist , in 
 Grieg ’s Pianoforte concerto in a minor and Saint - Saéns ’s 
 Pianoforte concerto no . 2 , in g minor . Mozart ’s ' Jupiter ' 
 Symphony and Liszt ’s symphonic - poem ' Orpheus ' complete 
 the programme 

 the Wagner Centenary be celebrate at the popular 
 Orchestral Concert , on January 18 , in an _ orchestral 
 programme wholly draw from the master ’s work , but the 
 vocal number be song by Mozart , Korbay , and Cowen ! 
 similarly at the Scottish Celebration Concert , on January 25 , 
 the orchestral programme be quite suitable to the occasion , 
 but the vocal item be by Verdi and Dunkels ! such 




 GLOUCESTER 


 LIVERPOOL and DISTRICT 


 12 the 


 MUSICAL TIMES 


 FEBRUARY I , i913 


 1S 


 MANCHESTER and DISTRICTAlthough the result of the Hallé Treasurer ’s appeal t 
 guarantor and subscriber will probably not be ko 
 before the end of the season , indication be not want tk 
 the response will not be such as he would desire . dumy 
 the year - end recess two letter from guarantor appeue 
 in the column of the Guardian , and very plainly tell ! 
 executive that it be quite useless to appeal for help tot 
 outside public and yet retain the same control as before 
 the public pay it must have a voice or voice on 
 govern body . on this point there appear to l 
 be divide opinion and a hesitate pronounceme 
 even at the special meeting last December . if 
 executive be unwilling or unable to realise this 
 elementary fact the soon it perish the well ; the ide 
 ask public - spirited citizen to help in the finan 
 of a privately - control society not unnaturally lead 
 response accompany by restrictive condition . ther : 
 only one way out of this dilemma , and so far the execu 
 have hesitate to permit this admission of supplement 
 public opinion . the logic of fact , however , be inexorable 
 and the end of the season must witness a deft 
 re - modelling of the whole business . everyone reai 
 that Balling have a difficult task on hand . he be find 
 impossible to adhere to his bold scheme of new work ; the 
 reason can only be conjecture , but he have be compe 
 to jettison some of his cargo . at the time of write ! 
 remain but five orchestral concert , at which there app 
 small likelihood of ten or a dozen promise work dm 
 perform . other Societies here and elsewhere 

 find 
 possible to adhere to the programme outline at 
 beginning of the season , but , apart from the choral mign 's 
 hardly one Hallé programme this season have be 
 accordance with the prospectus publish last October . 
 the tale of recent Halle concert soon 
 Mendelssohn ’s ' Midsummer Night ’s Dream ' musi¢ 1 
 entirety , and the ' Messiah , ' call for no comment . * 
 early New Year concert ( January 9 ) bring Achille River 
 in the Beethoven Violin concerto and Bach Chacot 
 Balling introduce a Roger Ducasse Suite that prove ! 
 be little more than modernised Délibes ; really , after heart , 
 the work of the young english school at Birmingham ' 
 January 3 and 4 , and compare it with that o ! Mase . 
 Bleyle , Klose , Charpentier , Volkmann , and Ducasse , pay 
 here by Balling since October , it must be say that te 
 Continental man be not in the hunt either in freshness of idee 

 1s 




 1d 


 the 


 NEWCASTLE - ON - TYNE and DISTRICT 


 SHEFFIELD 


 BRIEFLY SUMMARIZEDMiss Isobel Hirschfeld play the first movement of 
 Rubinstein ’s fourth Pianoforte Concerto , and Mr. Dalton 
 Baker sing song by Mr. Easthope Martin , accompany by 
 the composer 

 CHRISTCHURCH ( N.Z.).—At a concert of the Musical 
 Union , give on November 26 , Beethoven ’s ' King Stephen ’ 
 Overture and Larghetto from the second Symphony , 
 Mendelssohn ’s G minor Pianoforte concerto ( with Miss 
 Rima Young as soloist ) , and the first two movement of 
 Schumann ’s pianoforte quintet , be the chief feature of 
 the programme . the conductor of the orchestral piece 
 be Mr. W. S. King 

 HANLEY.—The performance of ' the Messiah ' give by 
 the Glee and Madrigal Society on December 19 surpass , in 
 the opinion of many , all this choir ’s previous achievement 
 in the interpretation of the work . it be notable for purity 
 of voice - quality , fluency of vocalisation , and power of 
 sustain tone . some legitimate individual effect in 
 Mr. John James ’s reading of the score add attraction and 
 interest . the solo part be well sustain by Miss Eva 
 Rich , Miss Florence Taylor , Mr. Frank Mullings , and 
 Mr. Robert Burnett . Mr. Ernest Hammond be at the 
 organ 




 the 


 I , 1913 . 123joseph Holbrooke , be play . the Press accord most 
 venerous — in many case even enthusiastic — praise to the 
 composition , the conductor , and his excellent orchestra , 
 ' in which , ' say the Sigva / e , ' every man , though still 
 young , seem to be an artist . "-—The famous Russian Ballet 
 have make a number of successful appearance . besides well- 
 know work in their répertoire , two new ballet , ' Der 

 yw Igor Stravinsky , be given.——Herr Weingartner 
 conclude his concert at Fiirstenwalde with a performance 
 of Beethoven ’s ninth Symphony . a public banquet be 
 give in his honour in Berlin , when the élite of all class of 
 Berlin society be present . next year ten concert will be 
 give at Firstenwalde . a ' schauspielouverture ' by 
 Erich Wolfgang Korngold be play for the first time 
 at the fifth Philharmonic Concert , under the conductorship 
 of Professor Arthur Nikisch.——Under the direction of 
 her Fritz Steinbach , Weingartner ’s new   ' Lustige- 
 Ouverture ' be perform for the first time in Berlin at 
 the second concert of the ' Gesellschaft der Musikfreunde 

 the programme also include Mozart ’s Serenade in b flat 
 major for thirteen wind instruments.——At Herr Oskar 
 Fred ’s third symphony concert , E. N. von Reznicek ’s 
 ymphonic - poem , ' Schlemihl , ' a work of considerable 
 complexity , be produce under the composer ’s direction , 
 and prove interesting . — — Hadley ’s orchestral rhapsody , 
 ' the culprit fay , ' and a Suite by Alfredo Casella , 
 vere include in the programme of the third symphony 




 BONN . 


 BOSTON 


 BREMENBRUSSELS 

 at the Théatre Royale de la Monnaie , Beethoven ’s 
 ' Fidelio ' be recently perform for the twenty - fifth time 
 since its revival last season — a record that do credit to 
 the taste of the Brussels public.——pursue their scheme of 
 perform classical opera in their original form ( inaugurate 
 last year ) , Messrs. Kufferath and Guidé have now present 
 Mozart ’s ' magic flute , ' under the musical direction of Herr 
 Otto Lohse . at the last concert of the Société J. S. Bach , 
 the secular cantata ' Mer han en neue Oberkeet ' be hear 
 with great pleasure . on the same occasion Professor Julius 
 Buths play the Pianoforte concerto in F minor , with 
 string orchestra , excellently 

 CHICAGO 




 COLOGNE 


 COPENHAGEN . 


 DESSAU 


 DORTMUND 


 DRESDEN 


 DUSSELDORF 


 22 


 ELBERFELD . 


 the MUSICAL TI 


 FRANKFURT . first Germany , at 
 HALLE 

 Sgambati 's ' Requiem ' have be perform by the Robert 
 Franz - Singakademie . at another concert give by the same 
 choir and devote to small choral work , the programme 
 include Humperdinck ’s ' Wallfahrt nach Kevelaar , ' Max 
 Bruch ’s ' Flucht nach Aegypten , ' ' Wanderers Nachtlied ' by 
 Karl Klanert , and ' Elfenlied ' and ' Christnacht ' by Hugo 
 Wolf , all of which be perform for the first time here — 
 Beethoven ’s rarely hear Triple Concerto for pianoforte , 
 violin , violoncello , and orchestra be play at the third 
 Winderstein concert 

 HAMBURG 




 KIEL . Gesangverein . another feature of this concert be the 
 performance of a number of old english madrigal . Max 

 Reger conduct his ' symphonic prologue to a tragedy ' at 
 the second concert of the Verein der Musikfreunde , on 
 which occasion he also take part with Herr Kunsemiiller in 
 a performance of his ' variation for two pianoforte ona 
 theme of Beethoven 

 KREFELD 




 LEIPSIC 


 LYONS 


 MOSCOW 


 NAPLES 


 NEW YORK 


 PARIS 


 ST . PETERSBURG 


 STETTIN 


 STUTTGART 


 VIENNA 


 ZURICH 


 WEIMARThe answer to the first question depend upon the date cf 
 publication . if a work be publish after July 1 , 1912 , the 
 copyright will last for fifty year after the author ’s death . 
 of that fifty year , the first twenty - five be a period of absolute 
 copyright — and the second twenty - five year be a period 
 during which any one may print the work ( subject to Board 
 of Trade regulation ) on pay to the proprietor of the 
 copyright a royalty equal to 10 per cent . of the publish 
 price of the work — z.c . , of the price at which he choose to 
 publish it . if the work be publish before July 1 , 1912 , 
 and if the copyright continue up to that day , the copyright 
 will still last for fifty year from the author ’s death , but the 
 period be divide into thirty year and twenty year instead 
 of two equal period of twenty - five year . the answer 
 to the second question be , no — except by special exercise of 
 the Royal Prerogative 

 a. B.—The average metronome rate for the study and 
 piece in the Associated Board Higher Division Pianoforte 
 examination , 1913 , may be take as follow : Z#s¢ a — 
 Loeschhorn .=-80 ; Pauer # 2138 ; Bach o=104 ; 
 Duncan » .-116 ; List B — Loeschhorn # = 126 ; Heller 
 @-120 ; Farjeon # .=76 ; Burgmuller @-126 ; Lzst C — 
 Czerny @ 152 ; Steibelt # = 144 ; Beethoven o.-69 ; 
 Spindler = .=72 . |the quick movement should be take 
 at a slow tempo than those give above if the technique be 
 inadequate for it 

 FInGERS.—Everything depend on the ' method ' you 
 prefer . the most up - to - date book be Tobias Matthay ’s 
 ' the act of touch ' ( Longmans ) . if this be too heavy 
 to digest begin with his ' first principle of pianoforte 
 playing . ' other excellent work be , ' technique and 
 expression ' by Franklin Taylor ( Novello ) , and ' the 
 Leschetitzky method ' ( Curwen 




 content . dure the last month . 


 THURSDAY , FEBRUARY 20 


 th 


 AIMITED 


 S.S.C , 


 BANTOCK 


 BENSON 


 the 


 MUSICAL 


 TIMES.—FEBRUARY 1 , 1913 . 127 


 chool MUSIC REVIEW , 


 the H. W. GRAY CO 


 ONIC SOL - FA _ serie 


 JEREMIAH SAVILLE 


 10 


 1027 


 publish for 


 NEW YORK 


 MARK ANDREWS 


 the MUSICAL 


 yale of term for advertisement 


 TIMES 


 A LIBRARY 


 MUSIC instruction 


 EDWIN H. LEMARE 


 CARUSO . JOHN DUNN , 


 two opinion . 


 free inquiry . 


 NOVELLO ’S 


 album for the organ 


 twelve select piece 


 twelve 


 select piece 


 select piece . 


 TWELVE 


 BRIXTON PARISH C 


 SUNDAY , FEBRUARY 2 , at 3.30 . 


 BRIXTON ORATORIO CHOIR . 


 FULL professional ORCHESTRA . | 


 three favourite VESPER HYMNS.| 


 with THY benediction . 


 JESU , we pray THEE , 


 now the night be fall . 


 SHORT PRELUDES 


 FOR the 


 JAPPY CHAPPY M ! 


 A CHILDREN ’s MUSICAL PLAY M ! 


 BY \ ! 


 H. W. HEWLETT . M 


 TO composer . TH 


 EASTER SONG . — DYKES , | 


 the MUSICAL 


 TIMES 


 FEBRUARY I , 1913 


 129 


 MUSIC for LENT 


 the BENEDICITE 


 GLAI 


 GLAI 


 E STORY of the cross anthem in the 


 7 | for VOICES and ORGAN 


 the WORDS BY 


 LONDON : NOVELLO 


 130 the musical 


 NOVELLO'SS anthem for LENT 


 SAVIOUR of the world . 


 od so love the world . 


 H. W 


 TIME 


 E. H 


 S.—FEBRUARY I , 1913 


 TI 


 F. B 


 IN 


 YM 


 1913 


 FOR TENOR and 


 ROSE DAFFORNE BETJEMANN 


 CANTATAS for LENT 


 OF 


 BASS SOLI 


 CALVARY 


 and CHORUS . 


 THOMAS ADAMS 


 rd only , 10s. per 100 


 in the desert and in the 


 GARDEN 


 FOR 


 SOPRANO , TENOR , and BARITONE SOLI 


 and CHORUS 


 the word write and select by 


 VIOLET CRAIGIE HALKETT 


 the music compose by 


 FERRIS TOZER . 


 the crucifixion 


 a meditation 


 sacre passion of the 


 the word select and 


 W. J. SPARROW - SIMPSON , M.A. 


 SET to music by 


 J. STAINER 


 HOLY REDEEMER 


 write BY 


 the DARKES ST HOUR 


 SOPRANO , TENOR , and BARITONE SOLI 


 and CHORUS 


 with 


 the word select , and the ML 


 HAROLD MOORE 


 the 


 IPOSED , BY 


 CHRIST 


 PERSED 


 the cross of 


 W. MAURICE ADAMS 


 THOM : as " ADAMS 


 be it nothe to you ? 


 AN EASY CANTATA 


 BY 


 E. V. HALL , M.A. 


 nter 


 LONDON 


 AT the 


 congregation 


 VIA DOLOROSA 


 A devotion 


 for BARITONE SOLO and CHORUS 


 the word derive mainly from ancient source 


 the music compose by 


 E. CUTHBERT NUNN . 


 OLIVET to C ALVARY 


 TENOR and BARITONE SOLI and CHORUS 


 intersperse with hymn to be sing by 


 the congregation 


 the word select and write by 


 SHAPCOTT WENSLEY 


 the music by 


 MAUNDER 


 FOOT of the cross 


 STABAT MATER ) 


 compose by 


 ANTON DVORAK 


 J. H 


 FOR SOLI 


 last night at BETHANY 


 the word write and compile by 


 JOSEPH BENNETT 


 C. LEE WILLIAMS 


 GETHSEMANE 


 the word write and compile by 


 JOSEPH BENNETT 


 C. LEE WILLIAMS 


 the 


 musical time 


 FEBRUARY I , 1913 


 composition 


 BY 


 EDWARD 


 music for LENT and EASTER 


 now ready 


 NEW edition 


 penitence 


 PARDON 


 AND 


 PEACT 


 MAUNDER 


 the p , assion 


 a meditation on the suffering of CHRIST 


 ther with 


 be SUNG by the choir an 


 congregation 


 BY 


 J. VARLEY ROBERTS 


 TOGI 


 hymn to id 


 suitable for LENT 


 WATCH YE , PRAY YE 


 ( WACHET , BETET ) 


 A CANTATA 


 CHORUS , and ORCHESTRA 


 compose by 


 J. S. BACH 


 FOR SOLI 


 the 


 PASCHAL 


 VICTOR 


 A CANTATA for EASTER , the LENTEN 


 season , or general use 


 VAN TASSEL SUTPHEN . 


 the compose BY 


 J : SEBASTIAN MATTHE\MS 


 MUSIC 


 the H. W. GRAY CO 


 opular easter anthem 


 christ shall give thee light 


 why seek VE the living among the dead 


 HALLELUJAH ! CHRIST be RISEN 24 


 NTEN 


 E SOLI 


 RA . 


 UN 


 the MUSICAL TIM 


 ES.—FEBRUARY 1 , 133 


 1913 


 CORE 


 composition by 


 ALFRED R. GAUL 


 passion service 


 for the season of 


 and good FRIDAY 


 the TEN VIRGINS 


 a SACRED CANTATA 


 for four solo voice , CHORUS 


 AND 


 ORCHESTRA 


 3 . T 


 54 


 he 


 prince of PEACE 


 a SACRED cantata 


 for four solo voice 


 CHORUS , and 


 ORCHESTRA 


 VW 


 25 


 VIA CRUCIS 


 the way of the cross ) 


 A SACRED CANTATA 


 depict the three last scene of 


 the saviour ’s life on earth . 


 AND congregation , 


 ND the music compose by 


 FREDERICK ILIFFE 


 15 


 HANOVER STREET , W. 


 AND 14 


 popularity . favourite everywhere . 


 NEW 


 WORLD - wide 


 FAVOURITE and POPU LAR service 


 festival anthem 


 OME , YE 


 LORD 


 HE 


 the 


 EASTER 


 saint 


 IS RISEN 


 LONDON 


 AGAI 


 I , 1913 


 anthem 


 just publish 


 NOVELLO and COMPANY 


 BUTTON . 


 GLITTERING 


 IGHT ’S 


 LIMITED 


 TI 


 1913 


 MUSIC for EASTER . 


 EASTER HYMN 


 FOR SOPRANO and TENOR SOLI , CHORUS , 


 ORCHESTRA ( or ORGAN 


 BY 


 GEORGE J 


 EMMAUS 


 A biblical scene 


 soul 


 CANTATA for EASTER 


 AND 


 BENNETT 


 TIS the spring of of S to - day 


 BE 


 SET T 


 PAX DEI 


 a song of REST 


 FOR 


 CHORUS , and 


 compose by 


 E. W. NAYLOR 


 SOLI , ORCHESTRA 


 FORE the PALING 


 OF the star 


 A CHRISTMAS HYMN 


 CHRISTINA . ROSSETTI 


 O music for voice and ORCHESTRA 


 B. J. DALE . 


 SHILLING 


 CAROLS for EASTERTIDE . 


 anthem for EASTER 


 LUTE 


 ANY 


 the I 


 SE RI ES 


 the 


 VILLAGE organist 


 music for LENT and HOLY week 


 JOHN E. WEST 


 JESU 


 MOTET 


 music for EASTER 


 JOHN E. WEST . 


 PRICELESS treasure 


 ( JESU MEINE FREUDE 


 for five voice 


 136 


 I , 1913 


 produce at the BIRMINGHAM MUSICAL FESTIVAL 


 MUSIC maker 


 ODE 


 ARTHUR O'SHAUGHNESSY 


 FOR CONTRALTO SOLO , CHORUS , and ORCHESTRA 


 EDWARD ELGAR 


 the TIMES 


 DAILY TELEGRAPH 


 MORNING POST 


 DAILY NEWS 


 DAILY EXPRESS 


 DAILY MAIL 


 DAILY CHRONICLE 


 OF inconstancy 


 FIFINE at 


 ( a defence 


 AN ORCHESTRAL drama 


 with a prologue 


 GRANVILLE BANTOCK 


 MINIATURE SCORE . 


 the TIMES . 


 DAILY TELEGRAPH 


 STANDARD 


 DAILY CHRONICLE 


 PALL MALL GAZETTE . 


 YORKSHIRE POST . 


 MANCHESTER GUARDIAN 


 OBSERVER 


 SUNDAY TIMES . 


 NOVELLO 


 A manual of PLAINSONG 


 for DIVINE service 


 containing 


 the canticle note 


 AMA 


 prepare by 


 — JOHN STAINER 


 PREFACE 


 just publish 


 month 


 the 


 TWELVE sketch 


 FOR 


 the PIANOFORTE 


 FREDERIC H. COWEN 


 in four book 


 price 


 content 


 BOOK i. 


 EACH . 


 LONDON 


 now issue as a net book 


 TECHNIQUE 


 AND 


 expression 


 PIANOFORTE playing 


 BY 


 FRANKLIN TAYLOR 


 extract from PREFACE 


 with numerous musical example from the 


 work of the GREAT master 


 NEW and REVISED edition 


 the ORGAN 


 JOHN STAINER 


 edit by JOHN E. WEST 


 the 


 1913 


 139 


 NEW catalogue now ready 


 HAWKES & SON ’s 


 catalogue of 


 music 


 instruction book and study 


 for all instrument 


 ETC 


 HAWKES 


 ORCHESTRAL 


 ORCHESTRAL 


 free on application 


 HAWKES & SON ’s 


 stringed 


 instrument 


 SON ’s catalogue of 


 AND INSTRUMENTAL music 


 state which catal 


 SON 


 madrigal , & C. 


 THOMAS MORLEY 


 HAWKES 


 MPANY 


 OGUE be -REQUIR ED 


 nstrument 


 the ORIANA 


 british and foreign 


 the 


 TRIU MPHS O 


 F ORIANA 


 10 


 OS 


 MOZART ’S opera 


 new and revise edition 


 COLOMBA 


 lyrical drama 


 LIBRETTO found on PROSPER MERIMEE ' ’s tale 


 FRANCIS HUEFFER 


 the music compose by 


 A. C. MACKENZIE 


 MICE in council 


 A CANTATA for child 


 SHAPCOTT WENSLEY 


 the singing leave . 


 POEM 


 JAMES RUSSELL LOWELL . 


 H. F 


 OPERA 


 SOME 


 SPECIF 


 CATHEDRAL . 


 celebrate our jubilee , 


 NEW serie begin . from JANUARY 4 


 expression 


 the 


 MUSICAL standard 


 will be one PENNY weekly 


 number 


 vocal 


 valuable violin 


 ORGAN recital in 


 LONDON and ELSEWHERE 


 forerunner of P 


 TARTINI 


 IVERPOOL ’s NEW CITY ORGAN 


 CELEBRATED letter on play the 


 ONE PENNY WEEKLY 


 IVE NEW 


 MUSICAL book 


 LONDON 


 A bibliography of 


 arch - eology . B 


 MODERN ORCHESTRAL 


 MUSICAL instrument 4 


 CE 


 NV . T.B 


 RGANIST 


 I , 1913 . 141 


 EW song 


 PRICE two shilling each net 


 NOVELLO ’S 


 when all the world be young . 


 ONG of the pilgrim . 


 LOVE in the meadow . 


 HE SONGSTERS ’ 


 MMER ’s day . 


 the come 


 th all my heart . 


 FOLK - SONGS of ENGLAND 


 CECIL J. SHARP 


 BOOK IV . 


 FOLK - song from various 


 county 


 CECIL J. SHARP 


 ENT by 


 4 woman 's work be never do 


 BOOK V 


 FOLK - song from SUSSEX 


 collect by 


 V. PERCY MERRICK 


 R. VAUGHAN WILLIAMS & ALBERT ROBINS 


 BOLD GENERAL WOLFE 


 low down in the broom 


 the THRESHERMAN and the SQUIRE 


 the pretty ploughboy 


 O who ’ that that rap at the window 


 CAPTAIN GRANT 


 FAREWELL , LADS 


 COME , all you worthy CHRISTIANS 


 the TURKISH lady 


 the seed of love 


 the maid of ISLINGTON 


 HERE be — to all judge and jury 


 lovely JOA 


 the ISLE of " FRANCE 


 a practical method of 


 training chorister 


 J. VARL EY ROBERTS 


 the MUSICAL 


 TIMES.—FEBRUARY 


 I , 1913 


 edit and arrange for PIANOFORTE SOLO 


 GR . ANVILLE BANTOCK . 


 album of SEL ECTE D piece 


 JOHN 


 BY 


 BU LL 


 album of select piece 


 BY 


 GILES FARNABY 


 album of select piece 


 BY 


 WILLIAM BYRD 


 THREE dance 


 BY 


 WILLIAM BYRD 


 composition 


 for the 


 PIANOFORTE 


 EATON FANING 


 NORWEG IAN MELODIES 


 ARRANGED F 


 VIOLIN and PIANOFORTE 


 BY 


 AHN CARSE 


 ISHED 


 VON 


 ORIGINAL composition for 


 SEVEN 


 CHORALE PRELUDES 


 BY 


 HUBERT H 


 the ORGAN 


 C. PARRY 


 SLOW movement 


 FROM 


 SONATAS 


 FOR the ORGAN 


 compose by 


 F. MENDELSSOHN - BARTHOLDY . 


 AUF WIEDERSEHEN 


 compose by 


 A. HERBERT BREWER 


 VIOLIN and PIANOFORTE 


 SMALL ORCHESTRA 


 ALLE GRE TTO 


 W. WOL ST EN HOLME 


 VIOLONCELLO and PIANOFORTE . 6 


 arrangement for SMALL ORCHESTRA : 


 STRING part - . 2 % % 


 wind part . 3 


 IRGAN 


 the MUSICAL 


 I , 1913 


 143 


 invocation 


 FOR 


 ORCHESTRA 


 compose by 


 MACKENZIE . 


 A. CG 


 arrangement for 


 VIOLIN and PIANOFORTE , 


 by the composer . 


 composition for the ORGAN 


 SIGFRID KARG - ELERT 


 CHACONNE and FUG SUE TRIL OG ¥ , ' with 


 PIANOFORTE MUSIC . 


 JAQUES - DALC ROZE 


 MALEZIEUX , G 


 CHAMBER MUSIC 


 30 . 


 LONDON 


 NEW foreign publication 


 NET . 


 CHAPPELL & CO ’S 


 late song and ballad success 


 LIZA LEHMANN — 


 GUY D’HARDELOT — 


 FLORENCE AYLWARD — 


 TERESA DEL RIEGO 


 DOROTHY FORSTER — 


 LESLIE ELLIOTT — 


 KATIE MOSS — 


 SHERIDAN GORDON 


 S. LIDDLE — 


 KENNEDY RUSSELL — 


 BOTHWELL THOMSON — 


 ERIC COATES 


 NOEL JOHNSON — 


 HAYDN WOOD 


 FRANK BRIDGE 


 GRAHAM PEEL 


 PERCY WHITEHEAD 


 MAURICE BESLY 


 A. HERBERT BREWER 


 NEW SONG 


 LIZA LEHMANN 


 MONTAGUE F. PHILLIPS 


 HERMANN LOHR — 


 DOROTHY FORSTER 


 MARJORIE HOPE LUMLEY 


 EDWARD GERMAN 


 HERMANN LOHR — 


 W. H. SQUIRE — 


 ALBUMS . 6 


 R. CONINGSBY CLARKE 


 PAUL A. RUBENS — 


 H. LYALL PHILLIPS — 


 CECIL STANLEY — 


 FRED W. SPARROW — 


 MONTAGUE RING — 


 MONTAGUE F. PHILLIPS- 


 R. CONINGSBY CLARKE 


 GRAHAM PEEL — : 


 RKE 


 EXTRA supplement . 


 NOVELLO ’S OCTAVO anthem 


 LONDON 


 compose by 


 BERTRAM LUARD - SELBY 


 the LORD be RISEN again 


 SHORT full anthem for easter 


 compose by 


 BERTRAM LUARD - SELBY 


 ¢ = ES 


 SSS 


 5 USA 


 EXTRA | supplement . 


 the LORD be RISEN again 


 — _ — _ _ 


 SS 


 the LORD be RISEN 


 the LORD be RISEN again 


 the LORD 


 be RISEN again 


 SE 


 UJ 


 2 1 


 ET 


 the LORD be RISEN again 


 S- + E 


 NOVELLO ' ’S 


 OCTAVO edition of 


 219 


 725 


 anthem 


 64 .