


 NGERS 


 INDE . 


 LAYING 


 OOK 


 ROYAL CHORAL SOCIETY 


 ROYAL ALBERT HALL 


 passion : ST . MATTHEW 


 BACH 


 MADAME GLEESON - WHITE . | MADAME ADA CROSSLEY . 


 MISS EMILY SHEPHERD . MR . STEWART GARDNER . 


 MR . LLOYD CHANDOS . MR . GRAHAM SMART 


 MR . FREDERIC AUSTIN 


 dream GERONTIUS 


 ELGAR 


 MADAME KIRKBY LUNN . 


 MR . GERVASE ELWES . 


 MR . HARRY DEARTH . 


 BAND CHORUS , thousand performer 


 ROYAL ACADEMY MUSIC , 


 YORK GATE , MARYLEBONE ROAD , N.W 


 GUILDHALL . SCHOOL MUSIC . 


 BIRMINGHAM FESTIV AL CHORAL SOCIETY 


 MUSICAL TIMES 


 singing - class CIRCULAR . 


 found 1844 . 


 publish 


 FEBRUARY 


 month 


 1912 . 


 QUEEN HALL . 


 QUEEN HALL ORCHESTRA 


 SYMPHONY CONCERTS 


 SATURDAY afternoon , 


 FEB 


 3 , 


 FRITZ KREISLER 


 FEB . 17 


 VOCALISTS 


 MME . LULA MYSZ - GMEINER 


 MANCHESTER ORPHEUS GLEE SOCIETY . 


 MARCH 2 , 


 ROBERT NEWMAN , 


 CRYSTAL PALACE . 


 GREAT 


 TRIENNIAL HANDEL 


 FESTIVAL 


 29 , 1912 


 25 


 JUNE 


 77 


 22 , 


 MADAME DONALDA . 


 MISS ESTA D’ARGO . 


 


 MISS PERCEVAL ALLEN . 


 MADAME CLARA BUTT 


 MR . BEN DAVIES . 


 MR . CHARLES SAUNDERS 


 MR . KENNE RL EY RUMFORD . 


 MR . HERBERT BROWN . 


 


 MR . ROBERT RADFORD . 


 SOLO BAND , LONDON SYMPHONY ORCHESTRA , 


 CHOIR ORCHESTRA , 4,000 performer . 


 ACADEMY 


 METROPOLITAN EXAMIN ATION , 


 ROYAL 


 MANCHESTER COLLEGE MUSIC 


 BIRMINGHAM MIDLAND INSTITUTE 


 SCHOOL MUSIC 


 UNIVERSITY DURHAM 


 ORRESPONDENCE SCHOOL MUSIC , 


 37 , BERNERS STREET , LONDON , W 


 GRADUATED POSTAL lesson HARMONY 


 COUNTERPOINT , ELEMENTS MUSIC , FUGUE , FORM 


 BRITISH COLLEGE MUSIC , 


 F.R.C 


 SECRETARY 


 VICTORIA COLLEGE MUSIC . 


 LONDON . 


 incorporate 1861 


 


 3 , TOIT 


 TUTE 


 LL.D 


 


 ROYAL ACADEMY MUSIC . ROYAL 


 MANCHESTER COLLEGE MUSIC 


 BIRMINGHAM MIDLAND INSTITUTE 


 SCHOOL MUSIC 


 VIOLIN . LONDON . 


 


 MUSI 


 


 14 


 SIC 


 UTE 


 JSIC , 


 ONY 


 FORM 


 -C.M 


 .. C.0 . , 


 ARY 


 -C.M 


 MIDLAND 


 FINE MODERN VIOLIN 


 EHREMAYER SYSTEM 


 76 


 DALCROZE 


 MUSIC RHYTHM 


 GYMNASTICS 


 IMPROVISATION 


 RHYTHMIC 


 SOLFEGE 


 MONSIEUR JAQUES 


 CHORAL 


 GRAY & DAVISON 


 ORGAN BUILDERS , 


 PRATT STREET , N.W 


 48 , SOUTHFIELD ROAD , OXFORD . 


 272 , UPPER PARLIAMENT STREET , 


 SCHOOL 


 PROFESSIONAL notice . 


 MISS DOROTHY PARKS ( SOPRANO ) . 


 P. CONACHER & CO . " MISS MARION PERROTT 


 SPRINGWOOD WORKS 


 HUDDERSFIELD . 


 gold medal 


 NORMAN 


 PNEUMATIC 


 _ MR . W 


 BEARD , LTD 


 attachment 


 MISS ALICE HARE M 


 ( SOPRANO 


 ITALIAN SONGS 


 HI 


 MISS ESTELLA LIN LINDE N 


 DRAMATIC SOPRANO 


 MISS DASIE E. AVIS 


 CONTRALTO ) . 


 GRIFFITHS — 


 MR . C. W. FREDERICKS 


 ( TENOR ) 


 MR . JOS . REED » ! 


 ( TENOR ) . LEADI 


 


 NW . 


 LANO 


 1ELMJ 


 ES 


 


 WINIFRED 


 MR . SAMUEL , MASTERS 


 MR . ERNEST PENFOLD 


 TENOR ) . 


 MR 


 WILLIAM SHEEN 


 TENOR 


 ENOR ) . 


 MONTAGUE , - BORWELL 


 MARWOOD 


 " BOARSLAND , " BRONDESBURY PARK , N.W. 


 MR . REGINALD HALE 


 ( BARITONE ) . 


 MR 


 HERBERT MARKS ( LAM ) 


 ( BARITONE ) . 


 MAURICE JEFFES 


 MR . 


 ( BASS - BARITONE 


 MR . HERBE RT TRACEY 


 ASS 


 .. CHARLES TREE 


 MR . / S 3 


 CONCERT 


 LONDON COLLEGE chorister . 


 S.W 


 MR . W. H. BREARE 


 student profession , 


 composer ’ MSS . 


 evision MUSICAL composition 


 L.R.A.M. ( PAPER WORR 


 late success : — 


 


 78 


 G SEORGE 


 MUSICAL 


 TIMES.—FEBRUARY 


 CEILEY 


 D * FREDK . 


 L.R.A.M 


 — - . 3 | COAC HING DEGREES . _ L.R.A.M. , 1897 - 1911 , HUN 


 ISS H 


 HEALE 


 EEDS 


 REQL 


 ENO ! 


 ENO 


 . 


 , 1912 79 


 AL 


 PARISH CHU RCH . — DAILY 


 REQUIRED 


 


 TON ~COLLEGE — _ CORDUG ESESET 


 . ( DIAN CHOIR EXC ‘ HANG E 


 


 HARINES , ONTARIO , 


 WARE COLLEGE , 


 AMBRIDGE . 


 CCHRIS1 CHURCH , BRIDLINGTON . 


 organist 


 ORGANIST SOUTHWELL CATHE 


 ORGANS 


 HURCH 


 O.P.C 


 T ™ : ) - manual 


 


 OFFER.—A 


 \ usical instrument business . 


 


 PI : ANO PEDALS 


 MANCHESTER 


 CATHEDRAL , 


 DEAR 


 


 80 


 DEACON } MASTERPIECE 


 humorous ballad . 


 CHORUS ( SOLO QUARTET AD Z / B 


 ORCHESTRA . 


 OLIVER WENDELL HOLMES . 


 PERCY E. FLETCHER 


 REDUCED price 


 programme music 


 BROADWOOD 


 PLAYER - PIANOS 


 grand upright . 


 ILLUSTRATED catalogue application 


 CONDUIT STREET , LONDON , W 


 SEVCIK 


 famous 


 work 


 VIOLIN 


 LITTLE SEVCIK 


 SEVC IK- -GIBSON 


 SQUARE 


 ROYAL COLLEGE MUSIC , 


 PRINCE CONSORT ROAD , SOUTH KENSINGTON , S.W 


 1883 


 MAJESTY KING . 


 PRINCE CHRISTIAN , K.G , 


 H.R.H 


 ROYAL COLLEGE " ORGANISTS 


 KET 


 XUM 


 1882 - 188 


 912 


 CUM 


 , 1912 . 81 


 singing - class CIRCULAR . 


 DR . ETHEL SMYTH 


 82 


 7 . — - — ! — - 4 — — ~ — — — — - 


 UM 


 1 


 OPERA ENGLAND 


 84 


 , 1912 


 30 


 , 1912 . 85 


 J. a. FULLER MAITLAND 


 MUSICAL VALUE 


 ORGAN recital . 


 CHURCH 


 86 


 1912 


 FRENCH biography BIZET 


 _ _ _ 


 , 87 


 ZET . 


 scusse , earnest scrupulous 
 © innovator depict sentimental biographer 
 tic shrewd matter - - fact writer music 
 fto suit taste director public . 
 | course , intrinsic 
 | quality music ; suggest 
 ithe propriety close critical examination . | 
 appear clearly certain artist chief ideal 
 court general favour , 
 likely output find certain 
 token weakness , certain characteristic flaw . 
 point — Bizet deliberate attendance 
 director public , result 
 eclecticism method — M. Gauthier - Villars , 
 remark ' Bizet mentality consist 
 strangely contradictory trait attempt 
 analysis resemble betrayal , ' emphasize 
 critical remark quotation 
 Bizet letter 

 Bizet , son professional musician , 
 methodically train coach , expert crafts- 
 man crack candidate degree prize , 
 , author , professional par excellence . 
 fact understand , account 
 idiosyncrasy 
 musician . ' model pupil , ' demure , 
 dispassionate , rebel 
 surround routine chafe rule , 
 young artist imaginative genius wo nt . 
 favourite master ' Auber , Halévy , Gounod 
 Ambroise Thomas . ' speak 
 breath , equal positiveness , Beethoven 

 Meyerbeer ' overwhelming genius . ' 
 work methodically , incertitude 




 ‘ come 


 M.-D. CALVOCORESSI 


 THI 


 20 , 


 KUM 


 89 


 ORIGIN CLARSECH 


 IRISH HARP . * 


 fig . 3 


 fig . 4 


 


 92 


 PHILIPP SPITTA . 


 um 


 77and ' Die musica enchiriadis und| series date consist seventeen volume 
 hr Zeitalter ' ( 1889 ) , splendid | . i. toxiv . Philipp Spitta work , vol . xv . xy 
 monograph medizval music . 1889 onward | edit brother Friedrich , vol . xyjj 
 importance appear Spitta pen , | appear 1909 , A. Schering . 
 review ; death musical work Friedrich Great , King 
 1894 bring publication standstill . | Prussia , occupy , 1889 Breitkopf § 
 essay , | Hartel publish beautifully - execute volume ; 
 new , appear book form . ' series , entitle | contain royal musician flute sonata 

 Zur Musik , collection sixteen essay / concerti , & c. work british Museun 
 subject far apart ' Kunstwissenschaft und | possess copy edition de live , present 
 Kunst ' ' Beethoveniana . ' preface date | German Emperor . 
 Berlin , February 27 , 1892 . second set appear remain ' history Romantic 

 1894 , title ' Musik geschichtliche Aufsatze ' | Opera Germany , ' Spitta leave unfinished ; j 
 musico - historical essay ) , preface this|a thousand pity death rob 
 work , date March 9 , probably thing | musical world interesting work , especially s 
 Spitta write . explain volume | complete 




 _ — _ — _ 


 , 1912it cruel task , ' Sir Charles , ' 
 write movement , bar bar , modulation 
 modulation , figure figure , exactly 

 respect , save theme , work composer ; 
 way root matter , 
 md face ? suggest ' entirely ' 
 instead ' . ' passage follow 
 bar - - bar analvsis Beethoven sonata early 
 second period , help student manufacture 
 work scaffolding . submit 
 process , widely accept , fundamentally 
 wrong , believe , respect Sir Charles , 
 point view passage quote 
 connote account second - hand impression 
 convey work 
 promising young composer . ' want child 

 grow good man , ' John Wesley , ' 
 break ' ; modern soc iety revolt 
 bloodless prig edict conjure . 
 Sir Charles edict _ musical 

 parallel,—as , ' want son 
 composer , teach write like 
 early Beethoven . ' conceive device 
 calculate nip criginality bud 

 directly concern Mr. Corder , 
 content method appear 
 dangerous opposite standpoint . school , 
 : ize technical skill , clearly | 
 eternally 
 try , sing song , roar little 
 loud late lion . recently hear 
 concert work foremost young 
 composer , school . work Mr. 
 Corder representative , brilliantly clever 
 , exactly like Debussy — 
 analogy shopwalker dress like 
 gentleman — obviously imitation . 
 work school , contrary , 
 deep feeling genuine thought , cover 
 beginning end mantle Brahms , 
 high compliment nearly worthy | 
 model . seriousness ask , | 
 merely work worth compose 
 perform , important question 
 witness sacrifice great talent , 
 altar cleverness , 
 tradition ? great succession 
 unspoken prayer heart young 
 composer ; goal reach 
 consc iously fetter impulse order link 
 great , adopt late 
 shibboleth lest label - - date . 
 alternative accept young 
 composer Scylla Charybdis , believe , 
 present great peril english music 




 LONDON OPERA HOUSE . 


 


 TALES HOFFMANN 


 96 


 , 1912 


 LE JONGLEUR DE NOTRE DAME 


 HERODIADE 


 MUSICAL TIMES.—FEBRUARY 


 97 


 , 1912 


 4 suggestion improve 


 PLAN ORGANS . * 


 ORGANI 


 XUM 


 UM 


 , 1912 . 99 


 ORGAN recital . 


 ORGANIST , choirmaster choir appointment 


 1 


 


 , 1912 


 ' OCK 


 - song 


 book receive 


 IOI 


 PHILIP DE MONTE . 


 STARMER 


 LEGATO ORGAN . 


 editor ' MUSICAL TIMES 


 UM 


 prolongment ' mechanism 


 PEDAL ORGAN . 


 editor ' MUSICAL TIMES 


 


 102 


 ancient custom . 


 light old english AIRS . 


 FRESH 


 early morning 


 MARIAN 


 XUM 


 AIRS 


 1901 ) , 


 MUSICAL TIM 


 ES.—FEBRUARY , 1912 . 103 


 HOPE come . 1827 - 28 


 FORTUNE - TELLER 


 INCORPORATED SOCIETY MUSICIANS 


 annual conference 


 professional STATUS 


 104 


 MUSICAL TIMES.—FEBRUARY 


 plea recognition 


 ear- MUSICAL appreciation 


 ORIGIN opera 


 fraining 


 WELSH FOLK - song 


 ALTO 


 TENOR 


 1550 ; 


 ANTHEM EASTER 


 _ _ 


 tt 


 _ + — — -+}- - OS = ~ + 


 EE — — — — — — 


 - — $ — _ — — _ — _ — — — 


 4—-1 


 S = = 2S SS 


 2 — _ — — oe — 


 NU . < = . — — _ — 


 VY 


 EEE : 


 SS SSE = SS SS ES = = 


 = = SSS SS SS SS SES SSS 


 = — — — _ — _ — _ — _ — — -t 


 CUM 


 44 — — . — 


 SS 


 XUM 


 — — ooo — — — — 


 EC 


 spare son 


 6F — _ — = = 


 1912 . 113 


 STRATFORD - - AVON SCHOOL 


 FOLK - DANCE SONG . 


 114 


 1912 


 conference MUSICAL EDUCATION . 


 16 7 


 voice speech training 


 NATIONAL SCHOOL MUSIC WALES 


 CHORAI 


 concert 


 MUSICAL TIM 


 ES.—FEBRUARY , 1912 


 115 


 LONDON SYMPHONY ORCHESTRA 


 QUEEN HALL SY mphony CON ert . Miss Kimpton holiday orchestral concert young 
 people Steinway Hall January 8 . 
 symphony excellently perform Miss Kimpton 
 direction , Master Sigmund Feuermann play Paganini 
 Violin concerto D , Miss Gladys Garnault supply 
 song . second holiday series 
 m January 15 , Mr. Percy Scholes speaker 

 Mendelssohn ' Scotch ' Symphony chief work 
 hosen explanation _ performance . Feuermann 
 lay Beethoven Violin concerto , Miss Gwladys 

 Roberts sing 




 LA SOCIETE DES CONCERTS FRANCAISLa Socicté des Concerts d’Autrefois appear 
 following evening -Eolian Hall , occasion 
 Broadwood . concert . play Sacchini Ballet music 
 * Le Cid , ' suite Stamitz , suite Christian 
 Bach . M. Desmonts Mlle . Delcourt play viola da 
 gamba harpsichord Sonata Handel , M. Mondain 
 M. Nanny play piece Boismortier oboe 
 double - bass . exquisite execution Society 
 gain reputation maintain fail . 
 Mr. Bertram Binyon provide artistic interpretation song 

 Beethoven second 

 | 
 decide success 

 London Trio , Mr. Ivor James place ot 
 Mr. Whitehouse , indisposed , concert 
 Eolian Hall January 8 , play Brahms trio 
 C minor , Op . 101 , admirable breadth expressive 

 significance . Signor Simonetti Madame Amina 
 Goodwin play Beethoven ' Kreutzer ' Sonata , 
 Madame Goodwin Miss Wynefred Manby ( vocalist 

 provide solo 




 recital 


 7 correspondent . Lloyd ' hero Leander ' Dvordk ' Spectre | heat § , eat enh ' c Birmi 
 Bride . ' - balanced choir 150 voice maintain | . function associate music irminghar 

 accustomed high standard , advantage | year 191 t Festival Choral Society S annua 
 opportunity artistic cultured singing . | Yule - Tide performance Handel ' Messiah , ' 
 soloist Miss L. Evans - Williams , Mr. Frank Mullings , | ° ® Boxing night , Town Hall , crowded 
 Mr. Charles Tree , dramatic tenor solo work | assembly , principally compose people reside th 
 admirably sing Mr. Mullings . accompaniment | outlying district Midlands . & = occasion 
 play professional orchestra . Mr. | hear Messiah festival line ; , 
 Edwin J. Quance conduct . | interpretation compare favourably 
 tii good tradition , , consider 
 Bromley Choral Society , ably conduct Mr. F. | - sixth annual performance premie ; 
 Fertel , , December 13 , admirable performance choral Society . Dr. Sinclair 
 Coleridge - Taylor trilogy , ' scene song | master handling choral force , conduct 
 Hiawatha , ' attract greatly large | magnificent performance , number receive wit 
 audience . chorus work distinguish spirit | € xtraordinary appreciation . voice chorister 
 expressiveness . solo Miss B. M. | delightful timbre evenly balance . way 
 Crawford , Mr. Bertram Pearce , Mr. Graham Smartt . attack , precision , vocal technique utmost 
 dnauntnesintestin realise .   principal — _ distinguishe 
 excellent performance ' Elijah ' | — Madame Le Mar , Miss Mildred Jones , 
 Woodside Hall December 16 Finchley Musical | Mr. William Green , Mr. Robert Radford . Ti 
 Society , direction Mr. H. J. sage . | organist Mr. C. W. Perkins . London short ) 
 principal solo Mrs. William Nollis,| opportunity hear Brminghan 
 Mrs. A. W. Williams , Mr. George Foxon , Mr. Charles | Festival Choral Society , February 29 w 
 Martin . performance Bach monumental b minor Mass , 
 4 aenneemen Queen Hall , Dr. Sinclair conductorship , 
 rhe Richmond Philharmonic Society concert | late local musical association th 
 - second season Castle Assembly Rooms | Birmingham Diocesan Organists , promote purpox 
 December 19 . principal choral work Barnett | friendly intercourse , interchange information 
 ' Paradise Peri . ' second comprise | opinion musical matter , reading paper subject 
 Beethoven Symphony C minor , Tchaikovsky ' elegy ' | interesting organist member association , t 
 string , Wagner overture ' Die Meistersinger . ' | expert outside association . president Lon 

 soloist Miss M. Fielding , Miss V. Fielding , | Bishop Birmingham , vice - president Rector 
 > ' : | . . pe e 

 aes . past month draw good audience , 
 audience , occupy available seat . t f 

 performance reach usual high standard 
 , ws _ ; excellence . Mr. Dan Godfrey , adopt customary 
 Fulham District Choral Society twelfth impartial attitude , present work 
 concert Fulham Town Hall , concert version representative period school , include 
 german s ' Merrie England ' perform large | symphony Xaver Scharwenka ( c minor ) , Schumann 
 appreciative audience . work conduct ( . 1 , b flat ) , Schubert ( ' unfinished ' ) , César 
 Mr. George Wilby , soloist Miss Dorothy Franck ( solitary example d minor ) , Glazounow 
 Cook Smith , Miss Peters , Mr. Frank Webster , Mr. John ( . 5 , b flat ) . mention 
 Prout , Mr. Oliver Greenwood . efficient orchestra | performance following interesting composition : 
 lead Mr. Edgar Wilby , Mr. C. A. Finlay act | Beethoven ' Coriolanus ' Overture , Balfour Gardiner 
 accompanist pianoforte . ' * overture comedy ' ( conduct composer 

 P. A. Bow 
 conduct 
 moulin ’ suit 
 ‘ Romeo 
 Gustav 
 con 
 
 concerto ( ] 
 violin 
 concerto ( \ 
 concerto 
 Pianoforte 
 
 commendat 
 ha 
 usual , 
 Miss Leila 
 Farnell - Wa 
 Madame L 
 New Y 
 Anna 
 performanc 
 seri 
 Mr. T. W. 
 symphonie : 
 lecture ha ’ 
 symphony . 
 fa 
 outlook co 
 \ 
 illustration : 
 fresh zest t 
 organizatio 




 UM 


 


 BRISTOL 


 DEVON CORNWALL 


 DEVONSHIRE TOWNS 


 CORNISH town 


 118 


 1912 


 DUBLINthe Wessely Quartet Dr. Esposito provide 
 programme Mendelssohn Op . 44 , . 2 , e minor ; 
 Brahms violin pianoforte Sonata , Op . 78 ; Dvorak 
 ( Juintet , Op . 81 . January 14 , Dr. Brodsky , Herr Carl 

 Fuchs Dr. Esposito play follow programme : — 
 Mendelssohn Trio D Brahms ’ sonata , 
 Op . 100 , Beethoven trio b flat , op . 97 

 January 21 Marie Motto ( Juartett play Schumann , 
 Op . 41 , . 3 ; Haydn , op . 74 , . 3 ; Dvorak 




 EDINBURGH 


 GLASGOW 


 119 


 1912 


 LIVERPOOL DISTRICT 


 MANCHESTER DISTRICT 


 , i912 . 12 


 YORKSHIREOn 

 serve display consummate art Miss Nicholls , 
 } Mr. Hamilton Harty pianoforte . January 
 | 15 , second series free chamber concert , 
 seven number , organize Mr. S. 
 Midgley , finance wealthy music - lover 
 town , place . aid Miss Ada Sharp 
 violinist , Mr. Drake violoncellist , good performance 
 Pianoforte trio Beethoven ( D , Op . 70 , 
 . 1 ) , Schumann ( d minor , Op . 63 ) , movement 
 Hiller Serenade trio ( Op . 186 ) . Mr. Charlesworth 
 George vocalist , sing sympathetically song 
 Schubert , Brahms , Sibelius , 

 Huddersfield subscription concert January 9 
 Madame Clara Butt concert party , 
 include Mr. Kennerley Rumford , Mr. Frank Merrick 
 | pianist ( variation Somerset song 
 charming ) , Mr. Charles Barré violinist . programme 
 interest usual miscellaneous 
 | concert 




 BRIEFLY SUMMARIZED 


 MUSICAL TIM 


 NORTHAMPTON.—A 


 AC 


 ALTONA 


 BERLIN 


 ISSION 


 ONCa lead musical journal —— ' wunderkind ' 

 Ipolyi , appear Beethovensaal . 
 look exactly like ' pocket edition Ysaye , play like 
 alittle man . ’-——Richard Strauss new opera , 
 comedy Moliére , produce opera house , 
 Reinhardt Deutsches Theater Berlin . 
 performance place November , 

 e performance season . Eugen 
 Albert - appearance pianist 
 February S Philharmonic Orchestra , 
 concert aid Orchestra widow orphan 

 und . play Concertos Beethoven Liszt . 
 — — associate Berlin opera nearly 
 wenty year , Dr. Karl Muck leave beginning 
 ext season Boston , conduct Symphony 
 Orchestra period year . possible 

 miracle , ' perform Olympia , London , 
 il produce Berlin Easter.——The young 
 joloncellist , Hans Bottermund , successful 
 cital Klindworth - Scharwenka Saal . programme 
 aclude Bach Suite c major violoncello . 
 Madame Gemma Bellincioni settle Berlin , 
 pen school singing . — — extraordinary concert 
 jk place house Herr Karl Flesch month . 
 saye , Kreisler , Mischa Elman , Karl Flesch play , 
 ‘ reisler Eiman plave Bach double Concerto 




 BRUSSELS 


 BUDA - PESTH . 


 CASSEL 


 DESSAU 


 DRESDEN 


 FRANKFORT - - MAIN 


 JENAin British Museum Professor Stein , perform 

 programme include recently discover 
 | Beethoven Symphony . concert conduct 
 Professor Stein 

 LEIPSIC 




 MANNHEIM 


 MOSCOW 


 MUNICH 


 NEW YORK 


 PARIS 


 ROME 


 SANGERHAUSEN 


 WIESBADEN 


 W. G 


 A. T 


 SCAL 


 MUSICAL TIM 


 ES.—FEBRUARY 


 WN 


 content 


 100 


 MUSICAL TIMES 


 scale term advertisement 


 105 


 dure month 


 RMISTEAD 


 L.—"T 


 ROOK , EMMELINE . 


 2 ROOKE , REV . C. W. A.- 


 GG REENWOOD , F. 


 AYES 


 4| OWELL , T 


 ANCIS . 


 ANGELSDORFYF , 


 music REVIEW , 


 CHOOL 


 , 1912 


 dure 


 publish 


 H. W. GRAY CO . , NEW YORK . 


 special notice 


 WEDNESDAY 


 FEBRUARY 


 country dance tune 


 collect arrange pianoforte 


 CECIL J. SHARP 


 country , dance book 


 CECIL 


 J. SHARP 


 


 SWORD DANCES 


 NORTHERN 


 


 HORN 


 


 ENGLAND 


 


 dance 


 ABBOTS BROMLEY 


 collect describe 


 


 CECIL J. SHARP 


 song dance 


 air 


 arrange 


 CECIL J. SHARP . 


 1 . KIRBY MALZEARD SWORD DANCE 


 3 . EARSDON SWORD dance : 


 


 1912 . 12 


 english lyric 


 set 


 second set 


 set 


 fourth set 


 fifth set . 


 sixth set 


 seventii set . 


 eighth set . | 


 ninth set . 


 MUSIC EDUCATION 


 MARK HAMBOURG , 


 EDWIN H. LEMARE 


 MADAME MARCHESI , 


 JOHN DUNN 


 opinion . 


 free inquiry 


 publication . HINCKLEY , SATURDAY , APRIL 27 


 original composition 


 


 ORGAN 


 compose 


 MAGNIFICAT NUNC DIMITTIS 


 piece original composition 


 PIANOFORTE SOLO . 


 ORGAN 


 VALSE minor 


 AUBADE . compose 


 CORTEGE GALANT . W. WOLSTENHOLME . 


 \ meditation suffering CHRIS ’ 


 ETHE 


 -assion LORD 


 i[ymns sing choir | | ass ( \ 0 


 congregation accord S. MATTHEW 


 J. VARLEY ROBERTS . JOHN : SEBASTIAN BACH 


 BUTTO 


 FOSTE ] 


 ROBER 


 SOMER 


 STAINI 


 DYKES 


 GOUNC 


 SET MUSIC 


 story cross anthem 


 voice ORGAN lute serie 


 word 


 XUM 


 NOVELLO anthem LENT 


 TI 


 word 


 140 


 LENT 


 press 


 CANTATAS 


 


 TENOR 


 ROSE DAFFORNE BETJEMANN 


 BASS SOLI 


 CALVARY 


 CHORUS . 


 THOMAS ADAMS 


 


 ing SIXPENCE 


 desert 


 GARDEN 


 


 SOPRANO , TENOR , BARITONE SOLI 


 CHORUS 


 word write select 


 VIOLET CRAIGIE HALKETT 


 music compose 


 FERRIS TOZER 


 crucifixion 


 meditation 


 sacre passion holy redeemer 


 word select write 


 REV . W. J. SPARROW - SIMPSON , M.A 


 J. STAINER 


 dark hour 


 


 SOPRANO , TENOR , BARITONE SOLI 


 CHORUS 


 hymn sing congregation . 


 word select , music compose , 


 HAROLD MOORE 


 cross CHRIST 


 INTERSPERSED 


 music 


 word select 


 appropriate hymn , 


 W. MAURICE ADAMS 


 THOMAS ADAMS 


 ? 


 EASY CANTATA 


 HOLY scripture 


 


 REV . E. V. HALL , M.A 


 DOLOROSA 


 devotion 


 BARITONE SOLO CHORUS 


 word derive mainly ancient source 


 music compose 


 E. CUTHBERT NUNN 


 OLIVET CALVARY 


 


 TENOR BARITONE SOLI CHORUS 


 intersperse hymn sing 


 concregation 


 word select write 


 SHAPCOTT WENSLEY 


 music 


 J. H. MAUNDER 


 foot cross 


 ( STABAT MATER 


 compose 


 ANTON DVORAK 


 night BETHANY 


 word write compile 


 JOSEPH BENNETT 


 music compose 


 C. LEE WILLIAMS 


 GETHSEMANE 


 word write compile 


 JOSEPH BENNETT 


 music compose 


 C. LEE WILLIAMS . 


 reduce price 


 redemption 


 SE parate chorus . 


 new edition . ready . | suitable LENT 


 PA R N _ — cantata 


 SOLI , CHORUS , ORCHESTRA 


 SOLI , CHORUS , orchestra 


 compose 


 EDWA 


 


 INTER 


 WOR 


 HALLELUJ 


 " CHRIST SH 


 " THANKS BI 


 * HALLELUY 


 PRAISE TH 


 ED 


 NU 


 CRUCI 


 E way CROS 


 SACRED cantata 


 depict scene 


 saviour life earth 


 INTERSPERSED hymn sing T 


 congregation 


 word select holy scripture 


 music compose 


 FREDERICK ILIFFE 


 CHOIR 


 M.A 


 CHRIST shall THEE light , 


 " seek ye living dead * 


 " HALLEL UJAH ! CHRIST RISEN 


 XUM 


 


 PASSION service 


 season 0 


 choral ode music 


 content 


 shipwreck 


 descriptive choral song 


 morning . 


 storm . 


 EVENING 


 word 


 C. M. MOORCROFT 


 MUSIC 


 ALFRED R. GAUL 


 


 DAY 


 XUM 


 EASTER anthem 


 publish . 


 press 


 136 


 , 1912 


 


 CHANT COMMUNION SERVICE 


 EUCHARISTIC hymn 


 MISSA REGIA 


 ascribe 


 HENRI DUMONT ( 1610 - 1684 


 accompaniment organ 


 FRANCIS BURGESS 


 FREDERICK BROOKS . 


 W. J. MILNE MENZIES . 


 village organist 


 music lent HOLY week 


 JOHN E 


 WEST 


 2 . 


 ( music EASTER 


 JOHN E 


 WEST 


 cantione SACRA 


 musical setting 


 liturgy 


 edit 


 ROMAN 


 22 


 ANGELUS AD VIRGINEM 


 BENEDICTA et VENERABILIS 


 MAGN ! ' 


 recordare 


 1912 


 NOVELLO ' 


 NEW song 


 PRICE shilling net 


 ong PILG rim . 


 meadow 


 ALLOP 


 songster ’ 


 heart . 


 tith 


 child SLEEP 


 soul 


 


 HOLIDAY song 


 MRS . ALEXANDER 


 LADY ARTHUR HILL 


 twilight song 


 little child 


 FRED . E. WEATHERLY 


 LADY ARTHUR HILL 


 BEF ORE BED - TIME . 


 little song good child 


 ELPHINSTONE THORPE 


 music 


 song . 


 


 SOPRANO TENOR 


 ENGLISH word 


 W. G. ROTHERY . 


 music 


 JOHANNES BRAHMS . 


 content : 


 


 SHAKESPERIAN - song 


 compose 


 LIZA LEHMANN 


 1 . know bank 


 icicle hang wall , 


 3 . tell , FANCY breed ? 


 4 . GREENWOOD tree 


 custom book trade g 


 sell ONL 


 SHAS NET book 
 new CATHEDRAL PSALTER , 
 psalter , CHANT book , PRAYER BOOKS 

 following publication : — 
 CORONATION SERVICE , music perform Coronation King George V. s. d. 
 Queen Mary oes Paper , 2 . 6d . ; Cloth , gilt , 5 . od . ; Leather , gilt , 7 . 6d . ; Edition de luxe 63 9 
 CATALOGUE MUSIC LOAN EXHIBITION " WORSHIPFUL COMPANY 
 musician . 1904 . illustrate . paper cover ... om aa ws wl sos - G6 . 
 J. S. BACH . work influence music Germany . Puivipp Spitta . translate \ SHOR ’ 
 CLARA BELL J. A. FULLER MAITLAND . 3 vol . reduce price , cloth _ ia — - 286 VALU 
 FREDERICK CHOPIN . 2vol . FREDERICK NIECKS sea _ ins ee oo . 82 § includ 
 programme music ce nturie . FREDERICK NIECKS . reduce 
 price , cloth , ae ad ii _ " OE 
 music MUSICAL instrument SOU THERN ‘ INDIA DECCAN . 
 illustrate seventeen plate . Captain C. R. Day ae eet - — wee 
 ditto ditto Artists ’ Proof Copies . japanese paper ail : si : — — te 6 
 CHRISTMAS CAROLS . new old . Library edition , historical preface . Roxburgh binding 7 6 
 CHRISTMAS CAROLS . new old . beautifully illustrate . series 1 2 . . cloth , gilt ... " 7 6 
 GOD save king . Origin history music word National anthem . ces 
 W. H. CumMMIne Cloth , gilt wes oe ae se ‘ ane 3 6 
 histor\ MENDELSSOHN ELIJAH . F. G. Epwarps . Cloth ... ai si op 3 6 
 NATIONAL NURSERY RHYMES song . J. W. ELtiott . beautifully illustrate 
 elegantly bind nae ; ; ai ' ie des ' ' : son 7 6 
 LITERATURE NATIONAL MUSIC . Cart ENGEL . cloth ... = 5 0 t ' 
 research early history VIOLIN FAMILY . Cari ENGEL . cloth 7 6 . 
 BEETHOVEN symphony . Sir GeorGe Grove . cloth sin ne " 6 0 
 BEAUTIFUL MUSIC . Epvarp HAnstick . translate Gustav CoHEN . cloth _ ... 4 0 
 letter L E ZIG CANTOR . Moritz HAupTMANN . translate arrange 
 D. COLERIDGE 2 vol . Cloth , gilt ; _ bn - nas _ 
 JENNY LIND . \ record Anclyeia method late Jenny Lind - Goldschmidt . WIT 
 W. S. Rockstro . Cloth , wr _ - ees - awe eee " 20 
 LIFE MOZART . Orto JAuN. translate German PAULINE D. TOWNSEND . 
 Portraits Preface SIR GEORGE GROVE . 3 vol . reduce price . Cloth . oe 
 NOVELLO collection word anthem , contain wo rd 2,000 « Anthame . 
 Cloth , § s. od . ; red basil 7 6 
 appendix . paper . wa " ee : sa = 1 0 
 PARISH CHURCH ANTHEM BOOK ( Words Anthem ) . cloth oan " " oe 2 0 — 
 dictionary musical term . J. STarNerR W. A. BARRETT . cloth , gilt ... eee 7 6 7 
 DUFAY contemporary . _ composition , facsimile . J. STAINER , J. F. R 
 STAINER , C. STAINER , E. W. B. NICHOLSON _ vee oon 5 
 early BODLEIAN MI SIC . Vol . I. , contain 110 ecielien ms . music ; Vol . IL . , contain 
 transcription Modern rast tation . ' J. STAINER , J. F. R. STAINER , C. STAINER , E. W. B. . 
 NICHOLSON . » volume , large folio , half morocco ... si ee ‘ ile _ — - 2s t 
 technique | x pression pianoforte - playing . FRANKLIN TAYLOR . cloth , gilt 5 0 | 
 CATHEDRAL ORGANISTS : past present . JoHN E. West . Cloth _ ... ose eo 3 6 
 additional hymn , tune . use church Hymnal — 
 Staff Notation , 2s . 6d . ; Tonic Sol - fa , 2s . 6d . ; word , . od . , 4d . , 3d . Dr. 
 COUNCIL SCHOOL hymn book , tune ad 
 Staff notation , 2s . 6d . ; word , melody Staff Notation Tonic Sol - fa , . , om 
 word , limp cloth , 6d . * ao 
 general HISTORY science practice music . " 
 Sik Joun Hawkins . vol . Cloth . nen sa 
 - Supp ok mentary Volume Medallion Portraits origin : l Plates . cloth ean : w 8 @ | 
 LONDON : Wareh 
 160 , WARDOUR STREET , W. January , 1912 Ward 

 J 
 ™ Ge 
 




 adult male ALTO 


 COUNTER TENOR VOICE 


 


 book little - understood subject 


 READ choirmaster 


 MALE ALTOS 


 BARNETTS CANTATAS 


 ancient } ‘ T MARINER 


 PARADISE PE RI 


 wishing ' bell 


 groundwork 


 WEBSTER 


 MUSIC . 


 IL . , 


 BOOKS 


 . 


 ORGAN ACCOMPANIMENT 


 CLIFFORD DEMAREST 


 BOOK , contain 


 hint ORGAN accompaniment 


 ACCOMPANIMENT play 


 SHORT , concise little 


 valuable 


 include PIANO 


 ORGAN 


 ST udie 


 thre E - P art 


 R 


 lady ’ 


 


 HUGH BLAIR , 


 DIRECTIONS practice 


 school choir 


 preface 


 


 JAMES BATES . 


 practical method | 


 training chorister 


 J. VARLEY ROBERTS 


 1600 


 QUEEN 


 ADDITIONAL 


 


 YSLAND TEACHERS ’ 


 music manual 


 course instruction exercise 


 use school 


 


 GEORGE SAMPSON , 


 -UBLIC INSTRUCTION , QUEENSLAND 


 


 instruction exercise 


 PHOEBUS PAN 


 DRAMATIC CHAMBER CANTATA 


 CHORUS , ORCHESTRA 


 SOLI 


 compose 


 J. S. BACH . 


 JOHN E. WEST . 


 SCHERZO 


 G MINOR , 


 compose 


 FELIX MENDELSSOHN - BARTHOLDY 


 _ — _ — 


 | STYL 


 serie original composition minor 


 ORGAN 


 composition ORGAN . | album ORGAN , 


 I. VALSETTE 


 | 


 compose 


 PERCY E. FLETCHER . 


 ANI | 


 compose 


 W 3 : 


 1912 . 141 


 STYLE MUSICAL art 


 music NATIONALISM 


 DOOK 


 post - victorian music | 


 CHARLES L. GRAVESBy 
 author " ' Diversions Music - Lover . " 
 extra crown 8vo . 6s . net 

 Westminster Gazette . — ' * pleasant volume musical essay .. . 
 subject discuss range wide field — ' Salome ' 
 Ballad Industry , Blumenthal Beethoven ' Letters , ' 

 penetrate discernment polished amusing 
 terary style detect 




 MACMILLAN & CO . , LTD . , LONDON 


 TECHNIQUE 


 


 EXPRESSION 


 PIANOFORTE 


 


 FRANKLIN TAYLOR 


 play 


 extract preface 


 numerous musical example 


 work great master 


 FRANZ LISZT 


 FRANZ LISZT 


 music 


 JOHN LANE , BODLEY HEAD , W 


 eighth revise edition 


 handbook 


 


 examination music 


 containing 


 600 question 


 


 ERNEST A. DICKS 


 ANSWERS 


 preface SEVENTH edition 


 1906 


 INTERNATIONAL 


 MUSICAL competition 


 MALE - voice choir — 


 division superieure . 


 , 1 . second section . 


 , IL SECOND section , 


 , iii . second section 


 FEMALE - voice choir 


 division excellence 


 mix - voice choir — 


 division excellence . 


 division excellence . 


 division superieure 


 MACKENZIE 


 MATTHAY 


 HARTLEY , | 


 SPBAIGHT , 


 STAI 


 KUM 


 143 


 PIANOFORTE . 


 TR TT ) ~ 


 STAINER & BELL 


 


 MUSICIAN LIBRARY . 


 " MUSICAL COMPOSITION 


 C. V. STANFORD 


 SAMOBSCSCAAAAAAGCOMAIVCVCCAAROA AOD 


 BNHNNDH HDHD HHH KHKR KH HU DH BD HW 


 opinion press 


 NEW foreign publication 


 CHAMBER MUSIC . 


 ZOHRER , J 


 ORGAN HARMONIUM 


 VOCAL MUSIC . 


 score ORCHESTRAL . 


 144 


 , 1912 


 CHAPPELL 


 LATEST 


 GUY D’HARDELOT 


 FLORENCE AYLWARD 


 TERESA DEL RIEGO — 


 DOROTHY FORSTER — 


 EMMELINE BROOK 


 KATIE MOSS 


 FRANK LAMBERT 


 SONG BALLAD 


 F. PAOLO TOSTI — 


 S. LIDDLE — 


 HUBERT BATH — 


 KENNEDY RUSSELL — 


 BOTHWELL THOMSON — 


 ERIC COATES — 


 NOEL JOHNSON 


 HAYDN WOOD — 


 TURLAY ROYCE — 


 GRAHAM PEEL — 


 PAUL A. RUBENS — 


 C225 


 SUCCESSES 


 EDWARD GERMAN — 


 HERMANN LOHR — 


 H. WALFORD DAVIES — 


 W. H. SQUIRE — 


 ROBERT CONINGSBY 


 CLARKE- 


 PERCY E. FLETCHER — 


 HAROLD JENNER 


 JOHN IRELAND 


 PHILIP D. WILLIAMS — 


 ERNEST HALSEY — 


 MONTAGUE F. PHILLIPS 


 NEW YORK 


 ND MELBOURNE 


 


 ARSI 


 MIDSU 


 SYLLABI 


 CHILDR 


 PH E