


 MUSICAL TIMES 


 FOUNDED 1844 . 


 ROYAL CHORAL SOCIETY . QUEEN HALL . 


 * “ MIDSUMMER NIGHT DREAM ” OVERTURE 


 “ HYMN PRAISE ” ( MENDELSSOHN 


 ELGAR MR . GERVASE ELWES 


 DREAM GERONTIUS ” SHEFFIELD — CHORUS — SHEFFIELD 


 MR . DALTON BAKER . ELGAR NEW SYMPHONY 


 . SONDUCTED MR . CNRY J ] . 


 ( JUEEN HALL ORCHESTRA 


 QUEEN HALL 


 ASH WEDNESDAY EVENING 


 PRINCE CONSORT ROAD , SOUTH KENSINGTON , S.W. ASH 


 QUEEN HALL 


 ROYAL COLLEGE ORGANISTS . | QUEEN HALL ORCHESTRA 


 XUM 


 ROYAL ACADEMY MUSIC . ROYAL ACADEMY MUSIC . 


 FLUTE PLAYING 


 SCHOOL MUSIC 


 NEW 


 INC 


 ASSOC 


 LOWSH 


 A.V.C.M 


 INST 


 LOCA 


 DIPL 


 HAN 


 , 1909 


 ROYAL 


 MANCHESTER COLLEGE MUSIC 


 INCORPORATED GUILD CHURCH 


 MUSICIANS 


 ASSOCIATE ( A.1.G.C.M. ) , LICENTIATE ( L.1.G.C.M. ) , FEL- 


 COMPETITIONS 1909 


 REGISTER ORGAN VACANCIES 


 VICTORIA COLLEGE MUSIC , 


 LONDON . 


 INCORPORATED 1801 . 


 NATIONAL CONSERVATOIRE 


 CRYSTAL PALACE . 


 HANDEL - MENDELSSOHN FESTIVAL , 


 JUNE 109 , 22 , | 24 , 26 , 1909 


 RINSMEAD POPULAR CONCERTS 


 BRINSMEAD CONCERT GRAND PIANOFORTES . 


 GRAMOPHONE 


 SINGING LESSONS 


 RECORD DISTINCT , CLEARLY - DEFINED 


 LESSON 


 SPECIAL FEATURE 


 BUSINESS 


 W. E. HILL & SONS 


 REPAIRING VIOLINS , VIOLAS , 


 VIOLONCELLOS , BOWS 


 ESTIMATES FREE 


 HIGHEST HONOURS VIOLIN , BOW , CASE- 


 MAKING 


 W. E. HILL & SONS 


 SOLE VIOLIN BOW MAKERS H.M. KING 


 140 , NEW BOND STREET , LONDON W 


 76 MUSICAL 


 , T9O9 


 VETERAN PIANISTS 


 SIGH T - PLAYING 


 


 EASY 


 NDERLYING PRINCIPLE 


 MASTERED — APPLIED SYSTEMATICALLY 


 EHREMAYER SYSTEM 


 PIANOFORTE SIGHT- PLAYING . 


 FEI COMPLETE MONTHS 


 COURSI LESSONS 4 


 L. M. EHREMAYER , 


 PROFESSIONAL NOTICES 


 MR 


 CHANGE ADDRESS . 


 MR . CHAS . HUTCHINSON 7 


 MISS ESTELLA LINDEN 


 SOPRANO 


 MISS ETHEL RADBURN | = 


 ( SOPRANO ) 


 MISS LILIAN TURNBULL : 


 ( SOPRANO ) . . 


 MR . JAS . CALVERT 


 ERNEST PENFOLD 


 MR . WILLIAM BURT 


 BARITONE ) 


 MR 


 MR 


 BARITONE 


 


 AUSTRALIAN TOUR 


 LEAVING ENGLAND JANUAR\ 


 RETURNING OCTOBER , 10 


 ARTHUR WALENN 


 MIR . 


 ( BARITONE 


 MR . SAMUEL M. \NN 


 RO BIN 


 ( BASS - BARITONE ) . 


 C. JAMES COLEMAN 


 MR . JAMES COLEMAI 


 ( BASS ) . 


 MR . GEOR ( EB VINNICOMBE|- 


 MISS ELLEN CHILDS 


 CHROMATIC HARPIST 


 FREDERICK RANALOW 


 COMPOSERS ’ MSS 


 RCM , FRA C0 


 EVISION MUSIC AL COMPOSITIONS . 


 L.R.A.M. “ ( PIANOFORTE ) 


 LATEST SUCCESSES : 


 F.R.C.O. ) 


 DU RH \M EXAMS . , SEP T. , 1908.—FINAL MUS.BAC . 


 


 1909 77 


 POI 


 ORC 


 106 


 YE ARS SUCCESSES 5 MUS . DOC . ; 24 MUS . BAC 


 MUS . BA ‘ DURHAM , OXFORD , CAMBRIDG E , ‘ LONDON : 


 DR . LEWIS ’ TEXT - BOOKS : 


 SUCCESSES ; A.R.C.M. , 1897 - 1908 , 


 COUNTERPOINT , COMPOSITION , ORCHESTRATION 


 


 8909 


 NT , FUGUE 


 FORM ANALYSIS , ACOUSTICS 


 LEWIS 


 R. KITSON ( M.A. , 


 R.C.O PIANOFORTE , HARMONY 


 R. HAMIL ’ 


 A.R.AM . , 


 TAYLOR 


 ORRESPONDEN CE SC SCHOOL ‘ MUSIC , 


 LESSONS 


 


 LONDON . — GRADUATED POSTAL 


 HARMONY , COUNTERPOINT , THEORY MUSIC 


 T. ANDREW , 


 1909 


 4 . W 


 IPON CATHEDRAL.—TENOR LAY - CLERK 


 EREFORD CATHEDRAL . 


 TENOR 


 ST . PAUL CATHEDRAL 


 T. MARTIN’S - - - FIELDS , W.C.—SOLO 


 ] ASS 


 LA 


 LA 


 MADA 


 160 , W 


 SE 


 1909 . 79 


 EVERAL 


 TRINITY COLLEGE MUSIC 


 SUCCESSFUL CANDIDATES 


 LIST 


 ASSOCIATES 


 HIGHER CERTIFICATES 


 SINITV COT . “ PIANOFORTE 


 TRINITY COL L EI GE F MUS SIC . | ABILITY PLAY . ” 


 | BUYING PIANO PLAYER 


 DIPLOMA EXAMINATIONS ILLUSTRATED CATALOGUE APPLICATION . 


 MATRICULATION 


 LICENTIATES READY WEEK FEBRUARY 


 ASSOCIATES | EXPRESSION 


 ! ( FE : 2 


 HIGHER CERTIFICATES , 


 , ANNUNCIATION 


 \SSOCIATE MUSIC 


 BIBLE SCENES 


 MATRICULATION 


 LICENTIATES SOPRANO , MEZZO - SOPRANO , TENOR BASS 


 ALEX . MORVAREN MACLEAN 


 XUM 


 1909 . 81 


 FEBRUARY 1 


 1909 


 MENDELSSOHN ENGLAND : 


 CENTENARY TRIBUTE . 


 FELIX MENDELSSOHN BARTHOLDY : 


 HAMBURG , FEBRUARY 3 , 1809 ; 


 RN , 


 DIED , 


 , 1909 


 SRUARY 


 FE 


 MUSICAL TIMES 


 


 MIT JIAVAAD PY 


 10 


 LISIA LSMIA SIH ONIMNDG NHO 


 IVAYCAHLVD WVHANG 


 ROE : 4 


 UO 


 XUM 


 MENDELSSOHN STUDY 


 FELIX MO HELES ( 1 14 


 NAI E 13 10 INCHES 


 1909 


 CELLANEOUS CONCERT 


 F , MENDELSSOHN 


 1909 . 87 


 4833 


 HUMOROUS LETTER ADDRE 


 BEHALF 


 FACSIMILE 


 MENDELSSOHN 


 CERTAIN OCCUPANTS 


 ZOOLOGICAL GARDENS , 


 SSED 


 IENDELSSOHN RING 


 RSSUVUSST TSS PLMASURS 


 COMMVYANY YS TRA & CANSS 


 13 , 


 FACSIMILE PEN - - INK SKETCH MENDELSSOHN ALBUM 


 MRS . MOSCHELES PERFORMANCE ENGLAND * HYMN PRAISE , 


 \T BIRMINGHAM , 1840 . remaining visits _ briefly 
 noticed . 1844 conducted 
 concerts Philharmonic Society , _ 
 ‘ St. Paul , ’ Sacred Harmonic Society . 
 brought Schubert great Symphony C , 
 Philharmonic band treated glorious 
 work coldness — ‘ insultingly 

 withdrawn performance , 
 Mendelssohn annoyance . introduced Bach 
 Suite ) , Beethoven ‘ Leonora ’ overture . 1 , 
 ‘ Ruins Athens ’ music , Schubert 
 ‘ Fierrabras ’ overture , music 
 ‘ Midsummer Night Dream ’ ( complete ) , including 
 Wedding March 

 ‘ Elijah ’ year , 1846 , saw 
 England production great oratorio 
 Birmingham musical festival . story 
 great event life - known 
 need - telling . following spring paid 
 tenth visit England . conducted 
 performances revised version ‘ Elijah ’ 
 Sacred Harmonic Society , addition 
 performances Birmingham Manchester . 
 conducted Philharmonic played , 
 wonderful fire poetic insight , Beethoven 
 G major Pianoforte concerto-—his old cheval de 
 bataille , called — Queen Victoria 
 Jenny Lind enthusiastic audience 

 latest calls — — 
 leave Queen Prince Consort , 
 Queen Mendelssohn discussed , 
 nursery Palace , respective children 
 present King , aged , 
 doubtless attracted attention 
 distinguished composer . left London 
 8 , worn mental physical fatigue . 
 months music - loving soul 
 Felix Mendelssohn calmed death 




 KYRIE ELEISON 


 TI 


 V1Z. , 


 


 2297Excepting free admissions Sunday 
 concerts given London , world 
 Bremen possible hear - rate 
 symphony concert renowned 
 German conductors , Professor Panzner , 

 Pfennigs — threepence - halfpenny ? rhis _ 
 local Goethe Society offers work 
 men poorer class government officials 
 civil servants , 30 Pfennigs including free use 
 cloakroom programme explanatory 
 notes ! concerts given annually 
 Philharmonic orchestra best soloists , 
 audience 2,000 people listens rapt attention 
 classic modern masterpieces form 
 excellent programmes . Beethoven choral Symphony 

 é . ’ 1s performed 

 Belgian Academy Fine Arts elected 
 Richard Strauss member place late 
 N. Rimsky - Korsakoff 

 musical critic newspaper South Africa 
 opinion opening movement Beethoven 
 Pianoforte sonata C sharp minor ‘ certain 
 unpopular length . ’ 
 try , finds trying 

 MENDELSSOHN ORATORIO ‘ ST . PAUL . 
 SiR GEORGE GROVE , C.B 




 183 


 W 


 O4So far list ( imperfect best ) pieces 
 sacrificed Mendelssohn hearing oratorio 
 performed . Doubtless autograph score 
 reveal changes , certainly 
 addition balance erasures 

 St. Paul ’ deeply interesting , 
 merits landmark Mendelssohn 
 artistic life . earnestness , divination 
 character , deep religious feeling , spirit , nobility , 
 diverse musical treatment ; got 
 style composer acquired time 
 wrote ‘ Lobgesang . ’ respect , 
 parallel pardoned , work compared 
 somewhat ‘ Mount Olives ’ Beethoven 
 career 

 word music 




 1657 


 1540 


 1599 


 1 , 1909 


 EARLY PERFORMANCES ‘ ST . PAUL ’ 


 ENGLAND . 


 F. G. EDWARDS , 


 FELIX MENDELSSOHN BARTHOLDY . 


 FELIX MENDELSSOHN BARTHOLDY , 


 MENDELSSOHN CHURCH MUSIC 


 DEAR NOVELLO 


 £ 30 


 


 F. MEN 


 30 , 184 


 


 1909 . 9 


 F , MENDELSSOHN BARTHOLDY . 


 FELIX 


 MAGNIFICAT 


 1S 


 1909 


 FELIX MENDELSSOHN BARTHOLDY 


 MR . WOLSTENHOLME AMERICA 


 AG 


 ISIC 


 SIR WALTER PARRATT 


 COMPOSERS 


 ORGAN RECITALS 


 ORGANIST , CHOIRMASTER , CHOIR APPOINTMENTS . 


 BRIGHTON MUSIC 


 ROBERT TAYLORIn year concerts given Mr. L. 
 Malsch — unknown best orchestras 
 - day — ‘ Music Master Royal 
 Highness Military Band . ’ concerts , 
 given Old Ship inn , programme comprised 

 overture Mozart ‘ Zauber flute , ’ Beethoven 
 Symphony , grand chorus ‘ Creation , ’ Violin concerto 
 Spohr , concerted pieces bassoon , horns 
 clarinets , glees vocalists Chichester Cathedral , 
 Handel ‘ Hush , ye pretty warbling choir , ’ 
 boys , Pianoforte concerto , parts , petite 
 pieces Pandean pipes 

 Beethoven symphony Brighton 1808 ! 
 told 

 concert elegantly attended . act 
 concert commenced o’clock , 
 finished midnight . concert , violins 
 struck lively air , merry dance gave animation 
 pleasure votaries , till nearly o’clock 
 morning 




 1831 , 


 MUSICAL TIM 


 ES.—FEBRUARY 1 , IO 


 1909The Society orchestra , numbering 
 - performers , choral membership 
 stands 200 voices . organist Mr. Percy 
 | Taylor , son conductor ; Mr. W. A. Baker 
 leader band , Mr. W. T. Ashby 
 |enthusiastically discharges duties honorary 
 secretary . memorable achievement Society 

 performance December 7 , 1881 , vocal 
 portion Beethoven Choral Symphony . took 
 place Aquarium , formed excellent 
 | concerts conducted Mr. Frederick Corder 
 time ( 1880 - 82 ) ably true artistic 
 success held office director music 
 Brighton Aquarium . noteworthy achievement 
 | Mr. Corder performance Beethoven 
 symphonies , including . 9 , mentioned 

 Mr. Robert Taylor , conductor Brighton 
 | Sacred Harmonic Society , native Evesham , 
 | town twofold interest scene 
 | celebrated battle , place Clementi died . 
 parish church St. Lawrence , Mr. Taylor 
 played , age , choral serv ice held 
 church Reformation . 
 chorister Worcester Cathedral , , 
 articled pupil Dr. , organist , 
 assistant - organist . 1866 settled Brighton , 
 appointed organist St. Patrick , Hove , church 
 famed musical services . commencing 
 duties , Mr. Taylor changed Gregorian 
 Anglican type service , successors 
 carried good work Mr. E. H. Thorne , 
 Dr. F. E. Gladstone , late Dr. F. J. Sawyer . 
 1870 1889 Mr. Taylor organist 
 Brighton College , years , addition 
 church work , held office 
 choirmaster St. Michael Church . inspiring 
 services held Dome Easter Sundays 
 connection Volunteer reviews held 
 Brighton , charge entire musical 
 arrangements , presided organ ; 
 occasions fine tune St. Patrick , ‘ O worship 
 King , ’ sung thrilling effect ac compani- 
 ment massed Volunteer bands organ . 
 conjunction Dr. Alfred King — respected 
 musician came town 1865 — Mr. Taylor 
 started 1883 Brighton School Music . 
 students , number 250 , receive instruction 




 1909 


 ELGAR SYMPHONY 


 1908 CONDUCTO 


 ” ” ” ” 19 ) 


 1909 ) 


 FOREIGN 


 , 1909 . 103 


 FEMALE VOICES 


 - SONGS 


 


 , 1909 


 1618 - 1702 


 PARISIAN NOVELTY 


 CHAMBER MUSIC THEATRE 


 ANTHEM EASTER 


 { 4 , \ ; 


 94S. ‘ / 


 G ° F ZS SE - -   = = < = 4 : 


 D _ -S_N 


 G | 2 4 = Z 


 = F Q — ' 


 } XN 


 XUM 


 LO , WINTER PAST 


 22 45 


 5 Z| 


 * F 43 = 


 = 4 9 3 


 WM , 


 LO , WINTER PAST . 


 — _ — _ — _ — _ — _ — _ — 


 WIN 


 TER PAST 


 SS — -—7Z : — ~ & ; 


 SS 


 9 4 


 LO , WINTER PAST . 


 = _ S 


 — — — EE 


 SS 


 5 5 


 NN 


 


 , 1909 . 113 


 RHYTHM , 


 TIMPANI 


 MUSIC 


 BRIGUTON MUSICAL FESTIVAL 


 SPECIAL CORRESPONDENT 


 13 , echoed , 
 | second 

 generally supposed Beethoven 

 occasion Mr 




 1S 


 1S 


 CO 


 15 


 COUNTY 


 VOCAL 


 COUNCIL : 


 CULTURE 


 LONDON 


 CONFERENCE 


 


 ROYAL OPERA 


 1909 


 ‘ MESSIAH ’ NEW YEAR DAY 


 


 1909 117 


 MUSIC VIENNA . 


 SPECIAL CORRESPONDENT . ) 


 PY 


 MUSIC BIRMINGHAM 


 CORRESPONDENTconcert large Lecture Theatre December 13 , 

 direction principal , Mr. Granville Bantock . 
 executive Midland Institute Orchestra , augmented 
 teachers instrumental departments , led 
 Mr. Max Mossel . Fine performances realised 
 Schubert ‘ Unfinished ’ Symphony Mr. Bantock 
 orchestral variations Bach cantata ‘ Wachet auf , ’ 
 scored strings horns , representing 
 choral portion . Mr. Max Mossel gave fine reading 
 Beethoven Violin concerto , evoked great 
 enthusiasm 

 Birmingham Symphony 




 MUSIC BRISTOL . 


 ( CORRESPONDENT 


 R. VON PERGER 


 MUSICAL TIM 


 ES.—FEBRUARY , 1909 


 MUSIC EDINBURGHFROM CORRESPONDENT 

 sixth Messrs. Paterson Orchestral Concerts , 
 given McEwan Hall December 21 , Mr. Fritz 
 Steinbach conducted fine performances Beethoven fifth 
 ( C minor ) Symphony , Mendelssohn ‘ Hebrides ’ overture , 
 Mr. Steinbach arrangement dances Mozart . 
 Mr. John Petrie Dunn , native Edinburgh Bucher 
 Scholar University , won cordial applause 
 playing Schumann Pianoforte concerto group 
 Chopin pieces 

 seventh concert , December 28 , conducted 
 Dr. Cowen , programme contained Mozart ‘ Don 
 Giovanni ’ overture , V. d’Indy symphonic legend , ‘ La 
 forét enchantée , ’ Beethoven fourth Symphony , 
 Edward German tarantella , ‘ Winter , ’ suite ‘ 
 Seasons . ’ soloist Mr. Fritz Kreisler , created 
 great enthusiasin splendid performance Lalo 
 * Symphonie Espagnole ’ ‘ Introduction Scherzo ’ 
 composition , violin 

 conductor eighth concert , January I1 , 

 Mr. Emil Mlynarski . principal item programme 
 Kalinnikoff Symphony , works performed 
 Beethoven ‘ Egmont ’ overture , prelude 
 * Parsifal , ’ scherzo Symphony D minor 
 Stojowski , overture Goldmark ‘ Sakuntala 

 Miss Muriel Kerr - Brown gave annual pianoforte 
 recital Freemasons ’ Hall January 15 , 
 programme comprising compositions Bach , Schumann , 
 Chopin , Paganini - Liszt , Moszkowski , showed 
 pianist ordinary attainments 

 Performances ‘ Messiah ’ given McEwan 
 Hall December 26 Mr. Moonie Choir , 
 Music Hall New Year Day Choral 
 ( conductor , Mr. T. H. Collinson 

 ninth concert January 18 , conducted Dr. 
 Cowen , M. Paderewski gave magnificent rendering 
 Beethoven Pianoforte concerto E flat , played 
 group Chopin pieces Liszt Rhapsody , 
 interpreted inimitable style . purely 
 orchestral pieces MacCunn ‘ Land mountain 
 flood ’ overture , ‘ Petite suite ’ Debussy , 
 symphonic suite , ‘ Scheherazade , ’ Rimsky - Korsakov 

 second Chamber Concert Freemasons ’ Hall , 
 January 16 , Mr. Denhof assisted Professor Carl 
 Halir ( violin ) , Professor Julius Klengel ( violoncello ) , 
 Mr. Horatio Connell ( vocalist ) . trios performed 
 Schubert B flat major Mendelssohn D minor . 
 Professor Halir Professor Klengel contributed 
 solos , Mr. Connell sang songs Beethoven , Handel , 
 Brahms 

 Miss Agnes Copeland , Edinburgh lady , assisted 
 Miss Margurite Bruel pianoforte , gave violin recital 
 Freemasons ’ Hall January 20 . programme 
 ambitious nature , comprised Beethoven 
 Sonata G ( Op . 30 ) , Wieniawski Concerto D minor , 
 pieces Mozart , Guiraud , Debussy , Vieuxtemps 
 Paganini . Miss Copeland technical equipment excellent 
 plays great verve brilliancy , greater 
 experience good headway art 

 Messrs. Challen , old - established we!l - known 




 MUSIC GLASGOW 


 CORRESPONDENTAssociated Scottish Orchestra , Pollokshields 
 Philharmonic Society gave concert performance Verdi 
 ‘ Ernani ’ January 7 . occasionally overweighted 
 accompaniment , choral portions work 
 sung great vim crispness , solo music 
 [ entrusted experienced exponents Miss Lizzie 
 | Burgess , Messrs. John McCormack , Charles Victor 
 | Lewys James . Mr. John Cullen directed performance 
 | conspicuous ability . ninth Classical Concert , 
 | January 5 , programme included remarkably fine 
 | rendering Max Bruch ‘ Scottish fantasia ’ violin 
 | orchestra , Mr. Henri Verbrugghen soloist , Mozart 
 | ‘ Jupiter ’ symphony , Nos . 2 , 4 , 5 7 Elgar 
 | suite ‘ Wand Youth , ’ - named given 
 time . January 12 , Mr. Emil Mlynarski 
 replaced Dr. Cowen , proved orchestral 
 | conductor greatest distinction . compositions 
 |the conductor fellow - countrymen — Kalinnikofi _ 

 Symphony ( G minor ) Scherzo Stojowski 
 Symphony D minor — brought hearing , 
 , Beethoven familiar ‘ Egmont ’ 
 overture , playing Scottish Orchestra reached 
 highest level . Choral Union gave ‘ popular ’ 
 performance ‘ Messiah ’ City Hall January 14 , 
 , Dr. Coward inspiring direction , achieved 
 distinct success 

 outstanding events present concert 
 season appearance Paderewski eleventh 
 Classical Concert , January 19 . sufficient 
 famous pianist best form , gave strikingly 
 powerful reading Beethoven fifth Concerto . purely 
 orchestral programme included performance 
 Petite suite Debussy , Rimsky - Korsakoff symphonic 
 suite ‘ Scheherazade , ’ , way contrast , Bach 

 familiar Bourrée strings , B minor 




 OUK CORRESPONDENTsane Beidler conducting . Lady Hallé played Spohr Concerto 

 . 8 , Beethoven Romanza F. orchestral 

 MUSIC LIVERPOOL pieces Bach Overture ( suite ) B minor , flutes 

 PRER Ses RRESPONDENT . ) ‘ Eroica ’ Symphony , Funeral March 

 Closely following successful performance Mendels- | movement taken slow pace . following 
 sohn ‘ Elijah ’ Welsh Choral Union December 19 , | concert , January 14 , conductor orchestra greatly 
 Philharmonic Hall filled December 22 , | distinguished rendering ‘ Leonora ’ 
 occasion performance work } . 2 Overture , ‘ Siegfried ’ Trauermarsch , 
 Philharmonic Society . Mr. Herbert Brown sang | Tchaikovsky Symphony . 4 , F minor Master 
 Prophet music excellent effect , principals | Ernst Lengyel played Beethoven pianoforte Concerto . 4 , 
 Miss Perceval Allen , Miss Edna Thornton , Mr. Lloyd | G , Schumann ‘ Etudes Symphoniques 

 Chandos Master J. Baines , Pro - Cathedral Choir . sign choral music coming 
 Dr. Cowen guidance , choir band rendered | rightful place musical appreciation given 
 familiar music fine effect . Seventh Philharmonic | Gentlemen Concerts January 11 , Haydn 
 concert January 12 , César Franck symphonic poem , | ‘ Creation ’ performed , Mr. Beidler conducting . 
 ‘ Le Chasseur Maudit ’ performed time | principals Madame Esta D’Argo , Mr. Webster Millar , 
 . Descriptive ballad Burger , skilful and| Mr. Charles Clark . years 
 vivid musical illustration reaches highest plane | oratorio programme concerts . 
 f music description . Miss Evelyn Suart played | choir large share success performance . 
 Tchaikovsky Pianoforte concerto great skill , | situation music admirably expressed 
 Dr. Cowen conducted fine band expressive | connection Trio , ‘ heavens telling , ’ 
 performance Mozart G minor Symphony . |in Duo commencing ‘ Thee bliss . ’ 

 ns ona Finnish air pianoforte violoncello 

 Beethoven Sonata D ( Op . 102 , . 2 ) , 

 Mr. Horatio Connell admirably sang 




 DISTRICT 


 ONDENT 


 MUSIC NEWCASTLE 


 SIC NORTH STAFFORDSHIRE 


 MUSIC NOTTINGHAM DISTRICT . 


 ( CORRESPONDENT 


 MUSIC SOUTH - WEST COUNTIES 


 ( CORRESPONDENT . ) 


 DEVONSHIRErecital given native county , Miss Beatrice 
 yn September 18 , proved conscientious 
 young artist great promise , Chopin playing | 
 especially good Mr. A. Tait Knight assisted vocally . | 
 | Glee Singers gave concert Exeter 
 December 11 . Exeter Orchestral Society , conducted 
 Dr. Wood , performed , December 15 , ambitious | 
 progra good results . numbers 
 ‘ Pelleas Mélisande ’ suite Sibelius Egyptian 
 dances Dr. H. A. Harding novelties . Miss 
 Bartlett vocalist 

 Torquay Musical Association , November 26 , gave 
 programme evenly divided usual 
 instrumental choral sections . Schumann 
 ‘ Rhenish ’ symphony played time 
 West . Stanford ‘ Revenge ’ part- } 
 songs choir showed balance tone - quality | 
 average . Mr. T. H. Webb conducted , Mr. H. Crocker 
 led band . Haydn String Quartet ( Messrs. H. FE . 
 Crocker , J. Stevens , F. Crocker C. T. Heaviside ) , 
 November 5 , played quartets Brahms ( Op . 51 , . 1 ) | 
 Beethoven ( Op . 18 , . 2 ) . Congratulations 
 given players successful efforts promoting | 
 chamber music Torquay . Barnstaple Musical 
 Festival Society gave miscellaneous concert November 
 23 , Dr. H. J. Edwards appeared conductor 
 pianist . Suggestions , approaching 
 practicability , revival North Devon Festival 
 abeyance years 

 December 30 , Exmouth Choral Society gave fine 
 rendering ‘ King Olaf , ’ Miss Mary Wilmot , Mr. 
 Charles Saunders Mr. Leslie Wilmot principals , 
 Mr. Raymond Wilmot conducting 




 CORNWALL 


 MUSIC YORKSHIRE . 


 ( CORRESPONDENTon January 6 included Haydn ‘ Bear ’ Symphony , 

 concert , January 20 , introduced Beethoven C 

 principals Misses | 
 Messrs. Foster 




 TWE 


 U BURG 


 BASLE 


 BAYREUTHf Royal Orchestra , Richard Strauss , 

 Beethoven rarely played works , 

 rth Symphony , overture ‘ King Stephen , ’ 




 BERNE , NN 

 Beethoven - House Society decided holding | 
 great chamber music festival , 
 © marks preliminary expenses 

 Concert , Prof. 
 Shakespearean Comedy , ’ 
 g , produced . proved merry 




 COLOGNE 


 DARMSTADT 


 DESSAU 


 DRESDEN 


 DUSSELDORF 


 GOTHA 


 EIPZIG 


 


 , 123 


 1909 


 MILAN 


 MI 


 NICH 


 NEW YORK 


 PARIS 


 PRAGUE 


 NSBURG ( RATISBONfamous 

 cilia concerts Corea Ha 
 conducted — — Prof. ‘ Karl 
 Panzner , Bremen , exclusively devoted Italian 
 music : Scarlatti , Corelli , Leonardo Leo , Cimarosa , Spontini 
 ( overture ‘ Cortez ’ ) , Martucci , Mancinelli Sgambati 
 ( Symphony ) . composers ’ works overture 
 Cimarosa ‘ Matrimonio segreto ’ ap preci ed , 
 repeated . Christmas Day Prof. Panzn 
 conducted Beethoven Choral Symphony au 

 3,000 people , success 




 WIESBADEN 


 MUSICAL 


 1909solo vocalists 

 close c 
 Mr 
 1ety . 
 DoRCHESTER.—The Madrigal Orchestral Society 
 performance Coleridge - Taylor ‘ Hiawatha 
 fedding - feast ’ January 21 , Corn Exchange . 
 sang especially unaccom 
 portions , admittedly acquitted 
 Beethoven 
 ‘ Prometheus ’ overture , ‘ Nell Gwyn ’ 
 dances . Mr. Henry Turnpenney Whittle 
 vocalists 

 




 IPSWICH 


 MARKET 


 LLANELLY 


 1909 


 SYMPHONY 


 ORCHESTRA 


 PIANOFORTE 


 LANGEMENT SOLO 


 MINIATI 


 CONTENTS 


 


 SCALE 


 MUSICAL TIMES 


 TERMS ADVERTISEMENTS 


 SPECIAL 


 NOTICE . 


 FRIDAY , FEBRUARS 


 EU 


 EK 


 GE 


 96 


 MONTH . 


 ' , < M O 


 JULY , 1909 


 045 


 23 


 \ 34 SCHOOL MUSIC REVIEW FEBRUAR 


 PUBLISHED 


 H. W. GRAY CO . , NEW YORK . 


 NATIONAL 


 SCHOOL MUSIC REVIEW 


 


 NOTICE REMOVAL . E- BENEZER BON : 5 WOR KS . 


 ORCHESTRA 


 P. CONACHER & CO . SONGS — 


 SPRINGWOOD WORKS , ADAMS , T. 


 GOLD MEDALS . | BARNETT , 


 R F 


 NICHOLSON CO . COENEN , 


 ORGAN BUILDERS , : 2 . 


 ( ESTABLISHED 1841 . ) DVORAK 


 2 , ALI 


 GOUNOD , CH . 


 GRAUN , C. H. 


 TENOR VOICE TRAINING . 


 MUSIC LENT 


 


 PASSION LORD . H. SCHUTZ 


 J \ EDGA 


 MUISERE ! J ] | . 


 EDGAR 


 M ISERE 


 STORY CROSS ANT HEMS 


 NOVELLO ANTHEMS LENT 


 OLIVET CALVARY FOOT 


 SACRED CANTATA CROSS 


 RECALLING SCENES DAYS 


 SAVIOUR LIFE EARTH ( STABAT MATER 


 CHORUS 


 INTERSPERSED HYMNS SUNG 


 CONGREGATION 


 SOLI , CHORUS , ORCHESTRA 


 IPOSED 


 ANTON DVORAK 


 FRED . J. W. CROWE 


 | M U N YE R ACCOMPANIMENTS ARRANGED ORGAN 


 CRUCIFIXION GETHSEMANE 


 MEDITATION 


 CHURCH CANTATA 


 


 SACRED PASSION HOLY REDEEMER WORDS WRITTEN COMPILED 


 REV . W. | . SPARROW - SIMPSON , M.A. JOSEPH BENNETI 


 SET MUSIC MUS SED 


 J. STAINER . C. LEE IAMS . 


 CROSS CHRIS ST NIGHT 


 W. MAURICE ADAMS SHORT CHURCH CANTATA 


 ATONEMENT 


 EASY CANTATA SACRED CANTATA 


 REV . E. V. HALL . M.A. S. COLERIDGE - TAYLOR 


 XUM 


 RECENTLY PUBLISHED 


 DARKEST HOUR 


 CANTATA 


 SEASON LENT 


 SOPRANO , TENOR BARITONE SOLI , CHORUS 


 HYMNS SUNG CONGREGATION 


 WORDS SELECTED , MUSIC COMPOSED , 


 HAROLD MOORE 


 PRICE SHILLING SIXPENCE . 


 , » ~~ SUITABLE LENT . 


 Y PASG . 


 MAGNIFICAT A’R NUN © DIMITTIS SOLI , CHORUS , ORCHESTRA 


 J. S. BACH . 


 GARAWYS . 


 XUM 


 PASSION CANTATA HOLY WEEK 


 MEDITA ; } ‘ GS CHRIST . , . — ‘ 


 


 » CHOIR J ] . W. COWIE . 


 ION 


 DR . VARLEY ROBERTS \V 


 TRAINING CHORISTERS W. PENTLAND 


 NEW EDITION READY 


 PENITENCE 


 PARDON 


 J. H. MAUNDER 


 N 1 ? ) 4 2 


 EVERYMAN 


 UTHBERT NUN 


 IFESTAL SONG 


 EDMUND TURNER 


 CRUCIS 


 ETHERINGTON 


 STORY CROSS 


 A. LIVINGSTONE HIRST , B.M1 F.R.C.O 


 STORY CROSS 


 COMPOSITIONS NEW SACRED SONG LEN ’ ! 


 N W M 


 ERVICES H 


 D 


 N D ! 


 ANTHEMS . 


 COMPOSITIONS : 


 T. MEE PATTISON 


 \N ATAS » 


 ANTI 


 DIRECTIONS SINGING 


 ' CYRIL W. MILLER 


 OFFICE 


 HOLY COMMUNION . , 


 EDITED , ACCOMPANIMEN ORGAN H KING O 


 EXTRA ( PREFACE 


 XUM 


 EASTER 


 


 MUSICAL 


 M. B. 


 1 . 4 4 


 NI ; 


 


 PUBLISHE 


 , 1900 


 ARD - SELEY 


 


 SPE 5 


 COMPANY 


 LIMITED 


 THEMS 


 RAISED 


 ‘ SIC EASTER . 


 EASTER HYMN 


 II 


 TURN THY FACI 


 O LORD GOD 


 ORCHESTRA ( ORGAN ) 


 Y SON MAN 


 MENDELSSOHN \ 


 ) — - MUSIC LENT HOLY WEEK 


 STAINE } W D 


 JOHN E. WEST 


 XUM 


 SHORT ANTHE 


 137 


 1909 


 LEE WILLIAMS 


 REDUCED PRICES . . 


 ANUARY 1 , 1909 


 REDEMPTION 


 SEPARATE CHORUSES . 


 REDUCED PRICES . 


 \IORS ETL VITA 


 SEPARATE CHORUSES . 


 N : NOVELLO ANI COMPANY , L ED 


 XUM 


 PASSION SERVICE VIRGINS 


 LFRED R. GAUL . 


 K 


 PRINCE PEACE 


 SACRED CANTATA H 


 SOLO VOICES , CHORUS , 


 ORCHESTRA 


 { WORDS SELECTED HOLY SCRIPTURE 


 — , F . ORCHESTRA 


 COMMUNION SERVICE 


 KEY F 


 OFFERTORY SENTENCI 


 ALFRED R. GAUL 


 ORIGINAL COMPOSITIONS 


 ORGAN 


 ALFRED R. GAUI 


 NOVELLO 


 XUM 


 BON - BON SUITE MENDELSSOHN CENTENARY 


 BARITONE SOLO , CHORUS 


 FHOMAS MOORE SELECTED LIST 


 S. COLERIDGE - TAYLOR . — 7 


 : CHORAL WORKS 


 : NOVELLO CO . , | 


 


 FAKENHAM GHOST 


 MUSIC SOPRANO SOI 


 ORCHESTRA 


 BERTRAM LL \RID - SELBY . 


 CHORISTERS AID 


 MONOTONING 


 C.S. FOSBERY , M.A. 


 XUM 


 - HIGHWAY 


 FOLK - SONGS ENGLAND 


 CECIL J. SHARP 


 FOLK - SONGS _ 


 SONGS — _ — — 


 HUMOROUS - SONGS . 


 N. HODGKINSON . DESCRIPTIVE CHORUSES 


 XUM 


 MUSICAL TIMES.—F1 


 PLEADING 


 SON 


 ARTHUR L. SALMON 


 EDWARD ELGAR 


 VADAME MELBA 


 


 DANCE MELODIES 


 WOLF TANZWEISEN 


 PIANOFORTE DUET 


 RICHARD WICKENHAUSSER 


 FOLK - SONG AIRS 


 CTED SOMERSET ARRANGED 7 


 PIANOFORTE B 


 CECIL J. SHARP 


 SONG DANCES ALLEGRETTO 


 ALI ( S 


 > . VIOLA PIANOFOR 


 VIOLIN PIAN ( ORTI 


 VIOLONCIH LO PIANOFOR | ! 


 PIANOFORTI 


 \ ] \ 


 \ S 


 ' RING 


 AUF WIEDERSEHEN 


 A. HERBERT BREWER . 


 SUPPLEMEN| ] BOELLMANN , L.-1 


 N ( LANDRY , | M | 


 NICOLATI S 


 MINATIONS PIANOFORTE PLAYIN SAINT - SAENS . ( 


 OBIAS MATTHAY , F.R.A.M 7H 


 ILLA 


 L STUDY MODERN MUSIC 


 MUSICAL EXAMINATIONS . 


 IMPORTANT ISSUE . 


 PORTRAIT SERIES | 


 VOCAL ALBUMS POPULAR COMPOSERS . 


 ALBUM UNIFORMLY ROUND GREY COVER , PHOTOGRAPII THI 


 COMPOSER FRONTISPIECE . 


 PRICE 2/6 NET CASH ALBUM . ( POST 2/10 . ) 


 EDWARD GERMAN ALBUM 


 “ EVADNE SONG 


 LIZA LEHMANN ALBUM 


 NEN 1 . “ THOU WILT FALLING DEW . ” 2 . “ SOUL BLOSSOM . ” 


 3 “ LONG AGO EGYPT . ” 4 . “ CLOCK . ” 5 . “ TELL 


 LOW HIGH VOICE . ) 


 GUY DHARDELOT ALBUM 


 CONTENTS 1 . “ . ” 2 . “ PERFECT FLOWER . ” 3 . “ SUN 


 SHOWER . 4 . “ OLD ) ROMANCE . ” 5 . ‘ DAYS . ” 6 . “ STAR 


 TERESA DEL RIEGO ALBUM . 


 NIEN1 1 . “ LIFE RECOMPENSE . ” 2 . “ SONG LIFE ” ( LA VIE EST VAINE ) . 


 MORAL SET MUSIK 


 FLORENCE AYLWARD ALBUM . 


 CONTENT 1 “ LOVE BENEDICTION . ” 2 “ OQ MOONLIGHT DEEP TENDER . 


 3 . “ CROSS STONE . ” 4 . “ ASPIRATION . ” 5 . “ MOUNTAIN SERENADE . 


 FRANK LAMBERT ALBUM 


 \ND DAWN 4 . “ BONJOUR , PIERROT . 5 “ DEAR HANDS . ” 6 . “ 


 A\ FAREWELI 


 HERMANN LOHR ALBUM 


 NTS 1 . “ GREEN 2 . “ \ CHAIN ROSES . 3 . “ WORLD 


 MUSIC SELLERS 


 ND 


 MR . S. COLERIDGE - TAYLOR 


 XUM