


 XUM 


 


 MUSICAL TIMES 


 SINGING - CLASS CIRCULAR 


 FOUNDED 1844 . 


 PUBLISHED MONTH . 


 ROYAL CHORAL SOCIETY . | 


 ROVAL ALBERT HALL . | ASSOCIATED BOARD 


 SIR EDWARD ELGAR | LOCAL CENTRE 


 7 7 3 | # 9450 ‘ : 


 — — _ _ JOHN CARPENTER ST . , VICTORIA EMBANKMENT , E.C. 


 PRINCE CONSORT ROAD , SOUTH KENSINGTON , S.W. 


 ROYAL COLLEGE 


 S.W 


 ORGANISTS 


 UNIVERSITY DURHAM 


 MANCHESTER SCHOOL MUSIC . 


 698 


 ROYAL ACADEMY MUSIC 


 METROPOLITAN EXAMINATION , 


 SEPTEMBER , 1912 


 ROYAL 


 EXAMINATION 


 ACADEMY MUSIC . 


 ROYAL 


 ACADEMY MUSIC 


 VOICE CULTURE , EAR - TRAINING , 


 WESLEYAN CENTRAL HALL , WESTMINSTER 


 BRIXTON ORATORIO CHOIR 


 ORATORIO SERVICE BRIXTON CHURCH 


 BRAHMS ’ “ REQUIEM 


 MIDLAND 


 BIRMINGHAM , 


 20 , 21 , 22 , 23 , 24 , 1913 


 CAL FESTIVAL 


 URY MUSI 


 H. TOWNEND , 


 JAQUES - DALCROZE COLLEGE 


 MUSIC RHYTHM , 


 SATURDAY 


 VICTORIA COLLEGE MUSIC , 


 LONDON . 


 INCORPORATED 1891 


 


 


 PIANO 


 COMP 


 AUTHENT 


 INCOR 


 ASSOCIA 


 LOWSHIP 


 GUILI 


 ACH 


 699 


 EHREMAYER SYSTEM 


 PIANOFORTE SIGHT - PLAYING 


 L. M. C 


 A. E. M 


 L. M@. EHREMAYER , 27 , CHANCERY LANE , 


 LONDON , W.C 


 CROTCHETS 


 AOLIAN HALL , NEW BOND STREET , W. 


 PRINCIPAL 


 MME . AMINA GOODWIN 


 COMPLETE TRAINING PIANISTS 


 AUTHENTIC TRADITIONS SCHUMANN SCHOOL 


 INCORPORATED GUILD CHURCH 


 MUSICIANS 


 ASSOCIATE ( A.1.G.C.M. ) , LICENTIATE ( L.1.G.C.M. ) , FEL- 


 COMPETITIONS 1:2 


 REGISTER ORGAN VACANCIES . 


 XUM 


 FINE MODERN VIOLIN 


 SOLD W. E. HILL & SONS 


 PLACE BUSINESS 


 140 NEW BOND STREET 


 LONDON , W 


 PROFESSIONAL NOTICES . MR . MONTAGUE BORWELL 


 MISS DOROTHY PARKS ( SOPRANO 


 MISS KATE WOODL EY ( SOPRANO ) . 


 MISS . E ‘ MIL IE 


 DRAMATIC 


 GREEN 


 MISS ALICE HARE 


 MISS ESTE L L LINDEN _ 


 NW 


 _ MISS AG NES W AL KER 


 SOP BAKO 


 MIS S LYDIA , JOHN ( LRAM 


 CONTRAL 


 MR . E DW ARD DAVIES _ 


 ( TENOR ) . 


 FRANCIS G ; LYNN 


 MR . SAMU EL MASTERS 


 BARITONE ) . 


 MR . RBERT PARKER 


 BARITONE 


 | — HERBE RT TRACE Y 


 MISS M. AY BART LETT 


 LLISTE 


 MR . M. MONTAGU - NATH : , 


 VIGGO KIHL 


 ( SOLO PIANIST ) . 


 MR . W. H. BREARE 


 STUDENTS PROFESSION . 


 MR . AL BERT , MONAGHAN 


 LONDON COLLEGE CHORISTERS . 


 DR . A. EAGLEFIE LD HU LL 


 MR . E RNE OT PENFOLD 


 


 R. 


 L.R.A.M. 


 LATEST | 


 L.R.A.M. 


 VIR . B 


 LES 


 VOICE TR 


 SITY DEG ! 


 F.R 


 DURHA ) 


 NV ISS 


 INA 


 F.R.C.O. , / 


 F.R.C.O. F 


 


 COMPOSERS ’ MSS . 


 L.R.A.M. ( PAPER WO 


 PAPER WORK ) . _ 


 LATEST SUCCESSES : — 


 M * , BIBBY 


 28 . 


 XUM 


 DR . LEWIS ’ TEXT - BOOKS : 


 ISS F. HELENA MARKS 


 R. DAVID MACKENZIE , 


 COACHING DEGREES . L.R.A.M. , 1897 - 1911 , HUN . 


 DRED SUCCESSES ; A.R.C.M. , 1897 - 1911 , 


 . P E RCY WOOD 


 REC ENT SUCCESSES 


 15 A.R.C. 10 F.R.C. * , 1911 . 


 ORRESPONDENCE SCHOOL MUSIC , 


 37 , BERNERS STREET , LONDON , W 


 GRADUATED POSTAL LESSONS HARMONY , 


 COUNTERPOINT , THEORY MUSIC , FORM 


 1 € SECRETARY 


 


 ROMPTON 


 SOLO BOY 


 80 . : SINGING 


 COLLEGE 


 ORATORY CHOIR.—WANTED 


 KING CAMBRIDGE 


 ST . PETER , EATON SQUARE 


 WANTED 


 LEONARD 1 


 M R. 


 * ORGANIST WORCESTER 


 OMPLETE 


 MUSICAL 


 EDUCATION.—A 


 


 C ' INDUCT IR 


 UNRO DAVISON CHORAL SOCIETY 


 HREE - MANUAL PIPE ORGAN 


 SALE . 


 £ 100 


 ELL REED ORGAN 


 PI 


 TH 


 XUM 


 VALUABLE VIOLINS 


 HALF - YEARLY SALE 


 VALUABLE 


 VIOLINS VIOLONCELLOS , VIOLAS , BOWS 


 ETC . , 


 PLACE 


 WEDNESDAY , DECE ! MBER 4 


 AUCTIONEERS MUSICAL PROPERTY , 


 ESTABLISHED 1750 . WHITSUNTII ) E , 1913 


 48 , SOUTHFIELD ROAD , OXFORD . CHRISTMAS EPIPHANY 


 128 , HOLT ROAD , LIVERPOOL . ‘ CHORAL PRELUDE NATIVITY 


 QUADRUPLE MAJOR MINOR CHANTS 


 SPRINGWOOD WORKS /UST PUBLISHED : 


 704 


 TRINITY COLLEGE MUSIC 


 E. BAMBRIDGE , F.T.C.L. , F.R.A.M. 


 COLERIDGE - TAYLOR 


 MEMORIAL CONCERT 


 ROYAL ALBERT HALL 


 7.45 P.M. 


 S. COLERIDGE- TAYLOR 


 MW 


 MINOR , CHARA 


 ENTR'ACTE “ NERO , 


 S FREDERICK BRIDGE , C.V.O 


 M LANDON RONALD . 


 M JULIEN HENRY 


 CHORAI OCIETY ALEXANDRA PALACE CHORAI 


 OCIETY , CRYSTAL PALACE CHOIR , LONDON CHORAIT 


 CIETY LONDON YMPHONY ORCHESTRA NEW 


 YMPHONY ORCHESTRA , ROYAI \MATEUR ORCHES 


 TRAI OCIETY STOCK EXCHANGI ORCHESTRAI 


 SOCIETY , HANDEL SOCIETY 


 BROADWOOD 


 PLAYER - PIANOS 


 GRANDS UPRIGHTS . 


 ILLUSTRATED CATALOGUE APPLICATION 


 CONDUIT STREET , LONDON , 


 “ BOSWORTH EDITION . 


 WORKS PIANOFORTE 


 TEACHER STUDENT POSSESS 


 RELAXATION STUDIES 


 


 PRINCIPLESOF FINGERING 


 LAWS PEDALLING 


 EXTRACTED “ RELAXATION STUDIES 


 TOWNSEND , A.R.A.M. 


 BALANCE ARM 


 PL , ANOF ‘ ORT E TE CHNIOQUE 


 L.R.A.M 


 MODERN P L ANO TEACHING 


 LONDON , W. 


 BOSWORTH & 


 17 , HANOVER SQUARE 


 ROYAL COLL EGE 


 ORG ANISTS — 


 FELLOWSHIP ( F.R.C.O 


 FELLOWSHIP EXAMINATION . 


 - 403 ) ° ° ° 


 XUM 


 VINCENT D'INDY 


 795 


 SINGING - CLASS CIRCULAR . 


 NOVEMBER , 1912 


 M. VINCENT D’INDYFrom outset career M. d’Indy sole 
 ambition followthe steps César Franck , 
 beloved master , glorify 
 word deed . conception César 
 Franck art lesson inculcated 
 master works entirely accurate shall 
 discussed . Briefly summed , 
 said consist following assertions 

 César Franck great heir continuer 
 Beethoven . discern 
 carry main principles disclosed 
 world Beethoven sublime 
 masterpieces , especially 
 period . indebted extension 
 “ cyclic ” thematic unity instrumental 
 forms , novel , penetrating modes 
 development . innovations carry 
 greater logic structure , truer 
 powerful utterance expressive 
 substance motives 

 M. Vincent d’Indy applied 
 conform César Franck example fully 
 compatible temperament ; 




 XUM 


 XUM 


 CANADIAN MUSICIAN 


 ‘ WAN DERJAHR . ’ 


 708 


 , 1912 


 RELIG 


 , 1912 . 709 


 RELIGIOUS SONGS CAUCASUS . 


 GROUP 


 DOOCHOBORS 


 XUM 


 DOOCHOBORS 


 710 


 CHOIR . 


 XUM 


 713 


 XUM 


 714 


 _ — _ — _ — — — _ _ | 


 715 


 XUM 


 SAMSON DALILAH . 


 MUSICAL TIMES 


 WAGNER WINE - LIST . 


 INCIDENT ZURICH DAYS . 


 XUM 


 XUM 


 719 


 SS ES 


 720 


 ORGAN RECITALS 


 ORGANIST CHOIRMASTER APPOINTMENTS 


 721 


 XUM 


 BOOKS RECEIVED 


 HANDEL MUSIC PARISTO EDITOR ‘ MUSICAL TIMES 

 DEAR S1R,—The current number Zeztschri / t 
 Internat . Musikgesellschaft contains article 
 performances old music ( Beethoven ) Paris , 
 noteworthy respects . deals season 
 1910 - 11 . list comprises pages , 
 occupied Bach , - - - half Mozart , 
 Handel . English writers , Arne Purcell appear , 
 Elizabethan virginalists Byrd , Bull , Gibbons , Pearson , 
 Richardson . writer , M. Prod’homme , says : 
 ‘ ancients , Bach favour , followed closely 
 Mozart Handel . ” true solos 
 frequently repeated different performers . list includes 
 public performances ; ‘ old music , drawing - rooms 
 reunions having truly musical character , taken 
 important place , preponderating , 
 contemporary music , detriment 
 music properly called classical . ’ M. Prod’homme list 
 systematically lucidly stated ; gives , 
 instance , Handel , ‘ Air d’Iole , ’ ‘ Air d’Iole 
 d’Herakles , ’ ‘ Air d’Herakles . ’ Handel 
 ‘ Hercules ’ Iole sings different airs ; 
 sung ? likely . , easy 
 particulars French programmes ; article 
 ‘ Handel England abroad ’ ( Jfustcal Zimes 
 August , 1912 

 strange statements England 
 respecting Handel , worth naming 
 larger works performed complete Paris 
 season question . ‘ Messiah ’ ( Choral Society 
 Sorbonne ) , ‘ Israel ’ ( Conservatoire ) , ‘ Alexander Feast , ’ 
 ‘ Saul , ’ ‘ Ode St. Cecilia Day ’ ( Société G. F. 
 Handel ) , named . honour St. Cecilia , choralists 
 St. Eustache performed ‘ Dettingen Te Deum ’ ! 
 probably know Handel wrote 




 MUSICAL TIM 


 ES.—NOVEMBER 1 , I912 


 TALLIS PSALM SETTINGS . 


 EDITOR ‘ MUSICAL TIMES . ’ 


 A. MADELEY RICHARDSON 


 GREENLAND ICY MOUNTAINS 


 WILLIAM 


 BIRMINGHAM MUSICAL FESTIVAL . 


 CHORALVOCAL SOLOS , 
 ‘ Mad Bess ’ ( Purcell ) , sung Miss Muriel Foster ; 
 ‘ Desdemona ’ scene ( Verdi ) , sung Madame Donalda ; 
 Wotan ‘ Abschied ’ ( Wagner ) , sung Mr. Clarence 
 Whitehill ; ‘ Dance Seven Veils ’ 
 closing scene ‘ Salome ’ ( Richard Strauss ) , sung 
 Madame Aino Ackté ; ‘ Un aura amorosa ’ ( Mozart ) , sung 
 Mr. McCormack 

 INSTRUMENTAL . 
 Brandenburg Concerto ( . 3 , — strings ( Bach ) ; 
 Pianoforte Concerto . 1 , E flat ( Liszt ) , " played 
 Moriz Rosenthal ; New Symphony . 4 , minor 
 ( Sibelius ) ; Overtures ‘ Coriolan , ’ ‘ William Tell , ’ 
 ‘ Tannhauser ’ ; Concerto D , Violoncello ( Haydn ) , 
 played Pablo Casals ; orchestral drama , ‘ Fifine 
 fair ’ ( Granville Bantock ) ; ‘ Don Quixote ’ ( Richard 
 Strauss)—the violoncello solo played Pablo Casals ; 
 Symphony . 7 ( Beethoven ) ; Choral Vorspiel organ , 
 * dulci jubilo ’ ( Bach ) , played Mr. C. W. Perkins . 
 Scriabine ‘ Prometheus ’ ( poem Fire ) , orchestra , 
 pianoforte , organ chorus , performed , 
 withdrawn owing impossibility time 

 Freemason , 1874 selected organist 




 NY 


 FE 


 BIRMINGHAM 


 


 APPEARED 


 ARTISTS 


 724 


 1912 . 725 


 XUMAt morning concert , fourth day , ‘ German 
 Requiem ’ Brahms given . performance 
 deeply impressive , missed mighty 
 grief poignant passages . success attended 
 exultant moods work . Miss Carrie Tubb 
 Mr. Thorpe Bates highly efficient 

 second concert began extraordinary 
 contrast morning proceedings . far cry froma 
 Requiem Strauss ‘ Dance Seven Veils ’ 
 closing scene ‘ Salome . ’ lunch intervened , 
 audience ready waive feelings 
 incongruity entertained . 
 rewarded greatest sensations Festival . 
 orchestra magnificent , Madame Ackté held 
 audience spellbound powerful realism passion . 
 fever Beethoven Symphony especially 
 comforting minds , impression sane 
 world maintained Mr. Perkins excellent organ 
 playing Bach ‘ Choral Vorspiel ’ singing 
 unaccompanied motet ‘ afraid , ’ finely 
 showed resources choir high training 

 Festival brought worthy conclusion 
 performance Elgar oratorio ‘ Apostles , ’ given 
 direction composer . respects 
 disadvantage concerned noble work 
 presented item series arduous performances 
 preceded , remembered , 
 exacting rehearsals . choir circum 
 stances betrayed tendency faulty intonation , 
 matter regret surprise . 
 performance satisfactory . soloists Madame 
 Donalda , Miss Muriel Foster , gave cause 
 congratulation returned concert - platform , 
 Mr. Gervase Elwes , Mr. Henry Heyner , Mr. Wilfrid 
 Douthitt , Mr. Thorpe Bates . - named singer 
 greatly distinguished 




 726 


 


 MESSIAH 


 M. 132 , 


 M. 72 


 M. 100 . 


 727 


 M. 100 . 


 AUTHORS ’ CLUB DINNER 


 MUSIC MISSION 


 728we remember Addison , writing 1694 ‘ Account 
 greatest English poets , ’ omitted Shakespeare , 
 critics day regarded Elizabethan 
 poets barbarians . Happily , better knowledge 
 mature judgments , able recognise 
 supremacy Shakespeare genius Purcell 

 Let glance modern music . 
 said music youngest Arts , proved 
 fact popular type - day — orchestral 
 music — came birth little years ago . 
 outcome product genius labours 
 Haydn , Mozart , Schubert , Weber , , , 
 Beethoven . names add modern 
 Berlioz , Mendelssohn , Wagner . living composers 
 . content strive good 
 music , forward music mission similar means 
 material produced suck excellent results 
 employed great men cited . 
 forgetful singular unique attribute music — 
 , Arts needs material object 
 subject exercise magic powers . Music 
 depict house , baby cradle , kitchen . composers 
 , successfully , imitated roaring lion , 
 heavy tread beast , crowing cock , 
 raised smile , assuredly 
 expense dignity art 

 afraid lack inspiration responsible 
 vagaries exhibited certain modern composers . 
 find acknowledged music - scales 
 insufficient needs , exhibit ingenuity 
 groping new devices . , , ignore 
 fact present scales ultimate result 
 experiments thousands 
 years ; doubtless genius prove 
 serviceable future past 




 COMING SEASON LONDON . 


 ( SUPPLEMENTARY LIST . ) 


 ORCHESTRAL CONCERTS 


 CHORAL CONCERTSEdward Mason Choir ( Mr. Edward Mason ) , — 
 Skeleton Armour ( Boughton ) ; Banshee 
 ( Leo France ) ; Byron ( Holbrooke ) ; Marching Tune 
 ( Grainger ) ; Midsummer Song ( Delius ) ; News 
 Whydah ( Balfour Gardiner ) ; Choral Hymns 
 Rig Veda , group ( von Holst 

 London Choral Society ( Mr. Arthur Fagge).—Oma 
 Khayyam , Parts I. , II . , III . ; Lycidas ( Hugh R. 
 Hulbert ) ; Enchanted Summer ( Arnold Bax ) ; tale 
 Old Japan ; Beethoven Mass C , Choral Fantasia , 
 Choral Symphony ; Vita Nuova ( Wolf - Ferrari ) ; 
 selection Parsifal 

 




 ALTO 


 TENOR 


 CAROL - ANTHEM CHRISTMAS 


 . = — = — — 


 SS . SSS SS SS SS 


 UM 


 STABLE LOWLY 


 SS SS : SS = 


 SS = = SS ES SIS SE = =| 


 = = . = SSS | SS _ ES SS SS LS = 


 XUM 


 — — _ _ 


 } L 


 » — — -= = = — — _ 3 


 — — _ _ _ 


 = : SS = = = = 


 = = SS SS SES 


 4 { _ — — — 


 4 ( 5 


 XUM 


 UL 


 HH 


 SEP 


 HB 


 J HH 


 XUM 


 4 — — C= ‘ . ‘ OQ : 


 @=100 . 


 2 = 2 ~~ 


 — ! _ + + S 


 SS — — J — — S 


 M.P. , 


 A. E. 


 D.C.L. 


 XUM 


 , I9I2 . 737 


 MUSICIANS ’ COMPANY 


 PROMENADE 


 


 CONCERTS 


 EEN S HALL SYMPHONY CONCERTSne string section , | e 

 w ! ich hear 1 London work equal 
 calibre , harmonic daring . production 
 mee Signor Busoni completed version unfinished Fantasia 
 “ én : , Liszt airs ‘ Le nozze di Figaro ’ interesting 
 Green bushes , ’ | “ - . } 
 piece the| # 52 event , musically valuable . concerted 
 ! n ece ana ne > } _ — — . . . 
 seer ; works played Beethoven Sonata G , Op . 96 , 
 conductor new pause . . 5 
 : sen \ . : _ | César Franck . 
 audience . Ir . Grainger S ? + } ; f , 
 ‘ , , . Miss Flore : pianoforte pu 
 ated - stated , decorated } . j 
 ' brother , Mr. C. G. Thomas , gave recita 
 | Broadwood Octeb 

 string passages 
 sensation | 
 f Mr. Percy Grainger 

 looked better 

 Senor Casa ‘ Tastini capacities Steinway Hall October 7 , showed 
 S S way t “ ee “ ~~~ | earnest aims . 
 > ¥ WKIOT ) . - , , 
 : | Asa foretaste shortly hear 
 — “ oy + \ Y 1 London > bled 
 country , Americans sondon enabled hear 
 , — - . . — olin - plavine M ’ 1een “ tol 8 
 Phe concert sives Messrs. Thibaud , Casals , Bauer , | Yi0lin - playing f Mr. Elman Queen Hall Oc r 8 
 té s Hal Oct rO.cal era provincial tour | strength beauty complete . 
 d evide lw « ] t performers ach dis inguished Mr. York Bower gave Recital £ Zolian Hall 
 lie en ver d remove weak spot | October 5 , renewed fascination aéandon 
 ‘ t h naib : et e ames . se unfei , maolf ; 
 sen ‘ rform wit reanized refinement nist . composer unfair hi f 
 lerful t f efiect description , | ! ng sonata years old . f 
 r ‘ ts prais wanted : Miss Doris Woodall , wide renown operatic artist , 
 | s. Schubert B | bids fair equally distinguished Leeder singer , 
 S nant G minor , Op . 110 , Beethoven , | ft showed exceptional insight ability Bechstein 
 Ef Op . 70 . . 2 \ , concer n October | Hall , October 15 , programme songs Schubert , 
 + ~- ne 9 n clove 7 — : . - 
 16 , played Beethoven Tr n D , Op . 70 , . 1 , | Brahms , Franz , Wolf , Mr. Jervis - Read . 
 Horn tr w . . ion ot CB x | Mr. Archy Rosenthal gave pianoforte recital , 
 r wit ! plac ri horn ) , . » , . ' 
 M elssohn Trio C minor usua ! ability , AZolian Hall October 17 . Pianoforte 
 duets played Misses Sutro Steinway Hall 
 . - ; : evening , manner ladies 
 ’ sie ang * “ tp sent nage meet studied music art duet playing . 
 H : ioe Mz r 1 onan | Exceptional accomplishments displayed Bechstein 
 te 5 sags pherson opened | Hall October 19 Mr. Vivian Burrows , violinist new 

 e classical symphony | London . 
 ee mz , t D wl ch Mr. Max Pauer pianoforte playing brilliant , 
 hy T ) — — ns direction . | strong arresting Bechstein Hall October 19 . 
 ocail iy , | renee worthy note thought worth include 
 fr - : e ( , ss pithy tuve worth | Mendelssohn ‘ Lieder ohne Worte ’ programme 




 _ $ _ 

 firs 
 Musical Fi 
 interesting 
 October 1 
 Sejfior 
 - rank | 
 present , 
 adm ! 
 Beethoven 

 anol 
 san 
 comp 




 CORRESPONDENTS 


 BIRMINGHAMthese 

 delicate passages Beethoven 

 October 12 , Midland Musical Society gave 




 BOURNEMOUTH 


 XUMElman , Miss Marie Hall Mark Hambourg respec- 
 tively , October 2 second Oc tober 9 , 
 formed kind bridge Summer Autumn 
 seasons , pe riod actually beginning 

 eighteenth series Symphony Concerts October 10 . 
 Good foregoing recitals , remained Harold 
 Bauer , Jacques Thibaud , Pablo Casals set seal 
 perfection musical exploits current season , 
 far gone . Exquisite intention marvellous 
 execution , playing incomparable artists 
 surpassed expectations . 
 masterly interpretations Beethoven splendid 
 Trio Eflat fine Cminor Trio Mendelssohn . 
 Symphony Concert series opened considerable 
 éclat October 10 , programme containing 
 works ‘ Leonore ’ . 3 ure 
 Beethoven , Glazounow C minor Symphony , Schumann 
 Pianoforte concerto . capital orchestra , thoroughly 
 - trained Mr. Dan Godiney , treated Overture 
 Symphony enlightenment , Miss Tina Lerner 
 interpretation Concerto mated fund 
 sympathy understanding revealed true artist . 
 novelty tone- poem , F Metzl 

 
 Overt 




 DEVON CORNWALL 


 TOWNSW . Chorley , organist 

 Mr. J. W. Newton , October 15 , opened new series 
 Symphony Concerts Stonehouse . Beethoven C minor 
 selected performance , satisfactory interpre- 
 tation given Cherubini overture ‘ Anacreon . ’ 
 - movement suite Lacombe , ‘ La Verbena , ’ 
 played time , leave impression 

 serie 

 740 MUSICAL TIMES . OVEMBER , I912 . 
 number , ‘ Les Serenades , ’ | organ . day Germoe Male Choir 
 original effects = — ~ vestration . Mr. | gave excellent programme direction 9 
 C. Matthews , solo clarinet , gave good performance a| Mr. Pryor . 
 concerto Mozart j instrument orchestra . Launceston Amateur Operatic Dramatic Society 
 Members South - Western section Incor-|has decided continue work training 9 
 porated Society Musicians broke usual monotony by| Mr. E. Tregoning . Mr. Hedley M. Lamerton Jun 
 inviting musicians musical amateurs district } Operatic Society gave successful representation 
 lecture - recital October 19 , Miss Fanny Davies , | - act Japanese Operetta , ‘ Princess Tu Ju , ’ 
 Plymouth , ‘ Schumann reading lines . ’ | October 2 , assisted private Orchestral E 
 Dr. W ekes presided , supported Mr. R. B. Moore , hon . | contributing programme concer 
 secr , Mr. Tt . Roylands - Smith , hon . treasurer , Dr. ( Mrs. ) | charitable purposes . 
 E. B. Ge urd Miss Robinson , local organizers . — _ — _ — — — 
 DUBLIN . 
 FE oO. \ 
 Se Sunday Orchestral Concerts , 
 Exeter C S y , despite d | October 13 musical season said 
 year W Y rted season renewed vigour | commenced . programme included Mozart ‘ Haffner ’ 
 r tr Mr. Allan Allen , taken hand | Symphony , Rossini Overture ‘ Siege Corinth , 
 Ele t Bavarian Highlands ’ performance | Beethoven ‘ Leonora ’ . 3 , Albanesi Idyll ‘ Pace 
 N ' Plympton Choral Society also| ( arranged string orchestra Dr. Esposito ) , 
 ring fr financial deficit , resol\ under- | Rubinstein ‘ Feramors ’ ballet music . Dr. Esposit 
 Coleridge - Taylor ‘ tale Old Japan ’ Parry | conducted band , numbers thirty players , 
 Ode St. Ce \ e direc Mr. David Parkes , | soloists Miss Nettie Edwards , vocalist , Signor 
 trv t experime f 2 « ert | A. Simonetti , violinist , come reside Dublin 
 Let t r Eas Asa ilt performance | professor Royal Irish Academy Music . 
 f sacred n t 1 Choral Society October 20 programme included Beeth 
 Witl Sey r , t £ 10 4s . | second Symphony ; Weber ‘ Ober ’ Overture ; Smet 
 g t relief € poor Mr. A. Raymond | ‘ Barte d bride ’ Overtu 1d Entr’actes ‘ 
 Wi 1 . similar post | Maisie , ’ Hamilton soloists 
 ‘ 1 W Cre SOC ! fille Clyde Twelvetrees ( ‘ cell l “ Mr. W. Hall , vocalist . 
 Mr. N. F. s record huge audience filled Thea Royal October 18 
 t Axe Val sical iety led lie | hear Melba , Ysaye , Backhaus , aa Burke . 
 unt year t lack support . Music difiment character attracted large audiences 
 M ( Quart yutside help , gave concert | tothe Kingstown Pavilion , Kandt Band completed 
 October 1 weeks ’ engagement . 
 rquay , Oct ch Sackville Hall usual winter series Saturday 
 , rmers s | Night Popular Concerts commenced October 12 . 
 : ited ser t organized season Mr. Robert Harrison ( 
 S M ( ndall gave | tenor vocalists ) Mr. Sealy Jefiares . 
 t recita er 14 , changes admission range 3d . 2s . c = 
 s t g * singer song . ’ fill important place social life Nort 
 ¢ oriti H.M. Pris Dartmoor ] Dublin . 
 moral val f musical performances annual general meeting members Feis Ceoil 
 ri ly arrat events benefit | Association held Monday , October 14 , Mansion 
 t Se r 26 ban 2nd| House . Dr. George Sigerson presided . report sl 
 Sherwood Foresters ; litary concerts the|a profit £ 29 Festival , spite 
 Pris juel ‘ July | increase prizes £ 40 rgrt Festival . 
 Phe vy Municipa ay gave | lack concert hall suitable large choral bodies 
 1 r rt » ber 2 , , | commented Professor Oldham course 
 e direct f Mr ethoven C minor | meeting . features past Festivals 
 terpreted , w h evident seriousness | singing massed choirs taking 
 pur t vs ba establish regular | competitions , years interesting feature 
 n rfor included owing lack necessary spact 
 mark t ng Wes Antient Concert Rooms . 
 rr t r ing cantaia 
 Da r O er 6 | Mr. G. . , 
 “ Mr che , t Oct GLASGOW . 
 Ir . R. | ital . Mr. A. M. Henderson announces chamber concerts , 
 performers Dr. Georg Henschel , vocalist , Mr 
 Ll | } A. M. Henderson , pianist , St. Petersburg String 
 ; Quartet ( Court ( Quartet winter study 
 rd Choral 5 ty ha concert | Glasgow Grand Opera Society ( Mr. Hutton Malcolm ) hav 
 e end January 1913 ds 1¢ Easter | selected ‘ Carmen , ’ Lyric Club ‘ Paul Jones , ’ 
 : Mr. Walter Weeke onductor , | Odeon Operatic Society “ Petticoat Prince , ’ new comic 
 ‘ rid Taylor ‘ ta 1 | opera Mr. Bernard Johnson . City Hall Saturday 
 work periormed gratilying note Lostwithiel | Evening Concerts began - ninth year existence 
 ( t ul S ty year resuscitat d , Mr. E. , } October 5 . excellent entertainments , 
 cing ductor . Goldsithney Wesleyan Choir | form usually ballad concert , enjoy large measur 
 SS red concert Oct rb r 4 , combined choirs | public support . events recorded 
 Cambor yr Helst W sleyan Church¢ g‘The|/this month Harrison Concerts , 
 Cr Hel ton October 7 , | concerts Melba , Ysaye , Backhaus , Stella Carol , Xe 
 “ hae ‘ Mr. H. V. Peare iducted , | appeared , week performances Castellan 
 1 Mr. A. Waters t rga Italian Opera Company . 
 Mr. E. Tr rtl ha ted conductor Penzance 
 Male-\ ( r nto M t. . Thomas 
 r ned thr alt new 7 willbe marked LIVERPOOL DISTRICT . 
 : alto voices , future pure mal winter season officially commenced October ® 
 g. concert given January , | Philharmonic Societv concert took place 
 nd Choir nd competi [ e Cornwall County | interesting programme carried successfully , 
 M Festival t Spring chief orchestral feature exception : ally fine 
 O r 10 red rt given Treruffe| performance Liszt ‘ Les Preludes , ’ Sit 
 Hi ( t duct y Mr. H. Dennis ' Frederic Cowen conducted . Beethoven Violin concert 

 SENT 

 Kreisler 
 lyrical 
 provided 
 absolute 
 appreciat 
 Maggie 
 soprano \ 
 Puc 
 sy 
 local 
 Ananda | 
 work 
 music ’ ( 1 
 yesterday 
 Raymond 
 ‘ Sir 
 Workmar 
 Emest Y 
 ( Mr. W. 
 ( Miss Ma 
 V 
 Claughto1 
 direction , 
 Legend ’ 
 wedding ) 
 warm 
 regard fre 
 vii 
 Buso 
 sparse au 
 compositit 
 . 2 , 
 Sonat 
 simil : 
 Mr. Haro 
 cx 
 reasor 
 aroused b 
 Op . 99 , ai 
 chai 
 interpreta ’ 
 : 
 great sing 
 October 1 
 examples 
 notably 
 Burke ( bs 
 ( accompar 
 « 
 oppor 
 conducted 
 Octobe 
 « 
 Rush 
 reliefs wet 
 Isabel ( vic 
 
 Pollitt t 
 orche 
 Church 
 
 Stanford : 
 pros 
 changed 
 ; 
 Rawdc 
 Beethoven 
 pianof 
 sol 
 music unde 
 Thanks 
 habitués 
 
 * compress 
 upwards . 
 s ‘ Carme 
 metho 
 features 
 Mr. 
 experience 
 conducted 

 KUM 




 741The violin pianoforte recital given MM . Kreisler 
 Busoni October 4 remarkable account 
 sparse audience examples Busoni 
 compositions offered violin pianoforte Sonata 
 . 2 , E minor , pianoforte ‘ Fantasie Bach theme , ’ 
 Sonatina 

 similarly small audience greeted admirable players 
 Mr. Harold Bauer , Seftor Casals , M. Jacques Thibaud 
 concert following day , October 5 . 
 reason complain heartiness appreciation 
 aroused performances Schubert B flat Trio , 
 Op . 99 , Beethoven E flat Trio , Op . 70 , . 2 , 
 characterized great beauty blending tone , 
 interpretation 

 ready response public attraction 
 great singer shown Madame Melba concert 
 October 10 , famous prima donna gave 
 examples undimmed powers vocal art . 
 notably assisted M. Ysaye , Mr. Backhaus , Mr. Edmund 
 Burke ( baritone ) , M. Gaubert ( flute ) , M. Lapierre 
 ( accompanist 

 dramatic recital given Miss Lilian Thomson 
 Rushworth Hall , October 11 , interesting musical 
 reliefs provided Misses Helena ( pianoforte ) , 
 Isabel ( violin ) , Mary McCullagh ( violoncello ) , 
 gifted sisters collaborated Dr. A. W. 
 Pollitt organ , Brahms Concerto violin , ’ cello 
 orchestra , Op . 102 , played St. Mary 
 Church Dr. Pollitt organ recital October 2 

 Rodewald Concert Club , Sir Charles V. 
 Stanford president , entered second season 
 prospect increasing favour . locale 
 changed ‘ Bear Paw ’ Restaurant , , October 14 , 
 good attendance members friends hear 
 Rawdon Briggs Quartet play Tchaikovsky Op . 22 
 Beethoven Quartet , Op . 59 . Mr. H. E. Blenkarn 
 pianoforte , Mr. Briggs Mr. Hatton ( ’ cello ) played 
 solos , evening spent listening good 
 music informal social conditions 

 Thanks enterprise Sir Joseph Beecham , 
 habitués Olympia Music Hall , huge building , 
 opportunity assisting performances 
 ‘ compressed ’ opera prices ranging twopence 
 upwards . dealing - worn public favourites 
 ‘ Carmen , ’ ‘ Faust , ’ ‘ Bohemian Girl , ’ ‘ Il Trovatore ’ 
 method offer essential popular 
 features work . Miss Doris Woodall 
 Mr. John Bardsley artists similar 
 experience ability , orchestra alertly 
 conducted Mr. Isidore Schwiller 




 MANCHESTER DISTRICT 


 742Mr . Brand Lane believes striking public imagination . 
 opening Concert October 12 brought Melba , Backhaus , 
 Ysaye platform , 
 added Edmund Burke Mr. Lane Choir . 
 orchestral concert new series comes late 
 comment issue 

 Chamber - music , usual early October , 
 prominent quantity quality . Brodsky 
 ( Juartet returned love matter 
 hall — Royal Manchester College Music , 
 size acoustics eminently suitable work . 
 need enforce elementary 
 consideration , spectacle spacious Free 
 Trade Hall occasions visits Busoni - Kreisler 
 Bauer - Casals - Thibaud eloquent sight . 
 Rows seats stretched away dismally 
 cheaper places , genuine enthusiasts 
 found . Beethoven lovely E flat Trio fight 

 crammed suffocation commit 
 artistic crime 




 NEWCASTLE - - TYNE 


 SHEFFIELD DISTRICT . 


 CALGA ! 


 H.R.H. 


 CAMBR 


 FOLKE : 


 HANLE 


 NEVIS 


 OLDH . 


 743 


 BRIEFLY SUMMARIZED 


 ANTWERP 


 BALE 


 BERLINOLDHAM.—The Musical Society , conducted Mr. Harry 
 Brooks , chosen Gounod ‘ Faust , ’ Mendelssohn 
 * Walpurgis Night ’ ‘ Hymn Praise ’ performance 
 present season 

 Mr. Thomas Whitney Surette gave interesting lecture 
 Beethoven AZolian Hall October 10 , discussing 
 Waldstein Sonata particular illustrative Beethoven 
 genius . October 17 subject Brahms , Trio 
 Op . 101 chosen illustration 

 XUM 




 744 


 BREMEN 


 BRUNSWICK 


 BRUSSELS 


 CASSEL 


 COLOGNE 


 DESSAU , . 


 DORTMUND 


 DRESDEN 


 ERFURT 


 FRANKFURT 


 HAMBURG 


 LAUSANNE 


 LEIPSICold Thomascantor conductor Gewandhaus 
 Concerts.——The Gewandhaus programmes 
 contained , - known works , Haydn cantata 

 alto solo , ‘ Ariadne auf Naxos , ’ Beethoven ‘ Adelaide , ’ 
 orchestrated Arnold Schinberg , Volkmann 

 Kubelik , Eugen d’Albert , Dr. Richard Strauss . 




 XUM 


 745 


 LYONS 


 MILAN 


 MUNICH 


 OSTEND 


 PARIS 


 ST . PETERSBURG 


 SCHWERIN 


 SON DERSHAUSEN 


 STRASSBU RG 


 VIENNA 


 WEIMAR 


 


 746 


 MUSICAL TIMES 


 NOVEMBER , 191232 , Baker Street , W 

 South Place Sunday Concerts swing , 
 having started October 6 Beethoven concert ; 
 October 13 , Ravel String Quartet F played 
 Langley - Mukle Quartet ; October 20 , London String 
 Quartet undertaken contribute interesting 
 programme . Future arrangements 
 enterprising lines , hoped committee 
 appeal support listened responded 

 impressive list musical arrangements issued 
 Royal Victoria Hall ( ‘ Old Vic . ’ ) Autumn 
 Winter . Thursday evening ( Boxing - Day ) 
 January 30 devoted music . 
 concerts - known artists , frequently , 
 costume recitals favourite operas . series 
 continued January . choir orchestra number 
 , Mr. Charles Corri conductor 

 concert * Schumann Season ’ announced 
 London Trio takes place AZolian Hall November 
 18 . appointment Signor Simonetti violin 
 professor Royal Irish Academy Music , Dublin 

 necessitates retirement Trio , place 
 Mr. Louis Pécskai . Professor Whitehouse remains 
 violoncellist Madame Amina Goodwin pianist . 
 ninth annual competition Charles Phillips 
 ( late Elkin ) Singing Scholarships took place Bechstein 
 Hall recently . Th ere ninety - competitors , 
 Madame Ada Crossley Mr. Thorpe Bates , 
 awarded scholarships Marjorie Glover ( Chorley Wood ) 
 Francis Bates ( Kilburn ) . _ 
 Beethoven Festival 

 




 CONTENTS 


 SPECIAL NOTICE . 


 FRIDAY , NOVEMBER 22 


 MUSICAL TIMES 


 SCALE TERMS ADVERTISEMENTS 


 _ — _ 


 DAM 


 AINT 


 ORT ! 


 RAH 


 ARR , 


 OHNS 


 ONES 


 AYL 


 ] OVE 


 ITT , 


 OINT 


 OTT ] 


 ECCC 


 MITI 


 JAMO 


 747 


 MONTH . 


 TOVELLO CHRISTMAS CAROLS : — 


 ECCOMBE 


 TONIC SOL - FA PUBLICATIONS : — 


 JAMOUNEAU 


 _ CUNNINGH¢ 


 PUBLISHED 


 H. W. GRAY CO . , NEW YORK . 


 DR . ARNE 


 


 RULE , BRITANNIA 


 


 WILLIAM HAYMAN CUMMINGS . 


 PREFACE 


 748 


 NEW EDITION READY . 


 SUCCESSFUL LENT CANTATA 


 GETHSEMANE GOLGOTHA 


 1S. 6D. 3S. 100 


 ORGAN COMPOSITION 


 INTRODUCTION , 


 VARIATIONS , FUGUE 


 


 ADESTE FIDELES ” 


 ORGAN 


 ARTHUR S. HOLLOWAY 


 ( MUS . D. OXON . , ) . 


 30 & 31 


 


 PIECE 


 ARTHUR S. HOLLOWAY 


 LOVE APPEAL . 


 INTERMEZZO 


 PIANOFORTE 


 DR 


 TRIOS MALE VOICES 


 T.T.B 


 1 . JOVIAL WELSHMEN 


 3 . DRUMMER BOY 


 


 C. LEE WILLIAMS . 


 MICE COUNCIL 


 CANTATA CHILDREN 


 SHAPCOTT WENSLEY 


 RAINBOW 


 MUSIC READING LADDER BEGINNERS 


 MAGDALEN PSALTER 


 LTO WANTE D. — £ 12 


 JTANTED IMMEDIATELY . — ORGANIST 


 BRS ; HTON . — FITZCLARENCE 1 


 PRIVATE 


 


 1912 . 749 


 ANTHEM ADV ENT 


 XUM 


 MUSIC ADVENT 


 WATCH YE , PRAY YE 


 WACHET , BETET ) 


 CANTATA 


 SOLI , CHORUS , ORCHESTRA 


 COMPOSED 


 J. S. BACH 


 EDITED E. ! H. ’ THORNE , 


 ADVENT HYMN 


 “ LOWLY GUISE THY KING APPEARETH ” 


 SOPRANO SOLO CHORUS , ORCHESTRAL 


 ACCOMPANIMENT 


 R. SCHUMANN 


 BLESSED ‘ 


 WATCH 


 CANTATA ADVENT 


 SOPRANO SOLO CHORUS 


 


 | HYMNS SUNG CONGREGATION 


 MUSIC COMPOSE 


 HUGH BLAIR 


 ADVENTS 


 CHURCH CANTATA 


 D WRITTEN 


 BOWLING , M 


 D 


 W 


 DS SELECTE 


 COMPOSI 


 GARRETT 


 TRUMPET 


 ZION 


 CANTATA 


 POSED 


 WARW IC K JORDAN 


 GEORGE 


 BLOW YE 


 


 ADVENT 


 COLLECTS 


 SUNDAYS ADVENT 


 SET SIC 


 S. 3 


 


 WESLEY 


 ADAPTED ARRANGED ANTHEMS 


 SIR FREDERICK BRIDGE , C.V.O 


 ALMIGHTY GOD , O- 


 75 


 COMPOSITIONS 


 ADVENT CHRISTMAS MUSIC 


 CHRISTMAS CAROLS . 


 ORGAN MUSIC 


 POPULAR CHURCH MUSIC 


 J. H. MAUNDER 


 SERVICES . 


 ORGAN , 


 CHURCH CANTATA , 


 COMPOSITIONS “ JOHN J. JONES 


 FAVOURITE CHRISTMAS 


 ANTHEMS & CAROLS , ETC 


 ANTHEMS . 


 CAROLS 


 CHRISTMAS CANTATA , “ NATIVITY CHRIST . 


 POP ULAR 


 CHRISTMAS ANTHEMS 


 POPULAR - SONGS 


 S.A.T.B. 


 LULLABY 


 N ALE - VOICE.—*LOVE 


 CH 


 BR 


 0 CO 


 ARRAN 


 CHRISTMAS ANTHEMS 


 BREAK FORTH JOY 


 WALTER G 


 ALCOCK 


 PUBLISHED 


 STABLE LOWLY 


 CAROL - ANTHEM 


 OLIVER KING 


 ARISE , SHINE , O JERUSALEM 


 


 THOMAS 


 ADAMS 


 RECENTLY PUBLISHED . 


 ( ) COME , REDEEMER MANKIND 


 ARTHUR W. MARCHANT 


 SING , O HEAVENS 


 ARTHUR 5S. SULLIVAN 


 REJOICE GREATLY , 


 O DAUGHTER ZION 


 CHARLES H. LLOYD 


 O HOLY NIGHT 


 


 ADOLPHE ADAM . 


 ARRANGED ANTHEM SOPRANO ( TENOR ) 


 SOLO CHORUS 


 CHRISTMAS DAY 


 CHORAL FANTASY 


 OLD CAROLS 


 


 GUSTAV VON HOLST 


 XUM 


 


 PRINCE PEACE 


 SACRED CANTATA 


 SOLO VOICES , CHORUS , 


 ORCHESTRA 


 MUSIC COMPOSED 


 ALFRED R. GAUL 


 


 COMMUNION SERVICE 


 KEY F 


 INCLUDING 


 OFFERTORY SENTENCES 


 INTROIT , “ HEARD VOICE HEAVEN ’ 


 


 SET MUSIC 


 ALFRED R. GAUL 


 ORIGINAL COMPOSITION 


 ORGAN 


 ALFRED R. GAUL 


 CAROLS CHURCH USE 


 * “ “ ANGELS REALMS GLORY ” 


 * * CHRISTMAS BELLS ” 


 * “ YULETIDE 


 COMPOSED 


 ALFRED R. GAUL 


 ANTHEM CHRISTMAS 


 BLESSED LORD GOD 


 NOVE LLO COMPANY , LIMITED 


 LONDON 


 


 ANTHEMS 


 NOVELLO COMPANY 


 E. V. H 


 E. \ H 


 W.G.A , 


 E , V H 4 


 LONDON 


 J. 1 


 W. H. M 


 O K : 


 J. F. 


 . S 


 MI 


 118 


 CHRISTMAS 


 S 4 


 CHRISTA MAS ANTHEMS . 


 144 


 LIMITED 


 


 FC 


 XUM 


 CANTATAS CHRISTMAS 


 RECENTLY PUBLISHED 


 CHRISTMAS CANTATA 


 SOLI CHORUS 


 WORDS 


 ROSE DAFFORNE BETJEMANN 


 MUSIC 


 JULIUS HARRISON 


 NATIVITY 


 | SOPRANO , TENOR BASS SOLI , 


 CHORUS 


 BETHLEHEM 


 SOLO VOICES CHORUS 


 WORDS WRITTEN ARRANGED 


 E. CUTHBERT NUNN 


 MUSIC 


 WORDS HYMNS SELECTED MUSIC 


 COMPOSED 


 J. H. MAUNDER . | THOMAS ADAMS . 


 


 STORY BETHLEHEM | COMING KING 


 WORDS WRITTEN | SUITABLE CHRISTMAS 


 SHAPCOTT WENSLEY WORDS 


 MUSIC SOPRANO , TENOR BASS SOLI , HELEN MARION BURNSIDE 


 CHORUS ORGAN 


 COMPOSED 


 JOHN E. WEST . | MYLES B. FOSTER 


 MUSIC 


 CHRISTMAS EVE | HOLY CHILD 


 CONTRALTO SOLO , CHORUS SOPRANO , TENOR , BASS SOLI , 


 COMPOSED 


 NIELS W. GADE . | - . . 


 CHRISTMAS SCENES ) YULE - TIDE 


 FEMALE VOICES 


 COMPOSED 


 COMPOSED 


 FREDERIC H. COWEN , | THOMAS ANDERTON 


 


 , 1912 


 16 


 YN HHA 


 JN 


 NOVELLOS CHR 


 ISTMAS CAROLS 


 CHRISTMAS CAROLS NEW OLD 


 SERIES . 


 SECOND SERIES . 


 CAROLS CHRISTMASTIDE 


 NEW CAROLS F FORCHRISTMASTIDE 


 CHRISTMAS CAROLS 


 “ OLD CAROLS 


 CHRISTMASTIDE CAROLS 


 CHRISTMAS CAROLS NEW OLD 


 CHRISTMAS CAROLS NEW OLD 


 CAROLS CHRISTMASTIDE 


 NEW CHRISTMAS CAROLS 


 1104 


 29 


 XUM 


 MUSICAL TIMES 


 NOVEMBER 1 , I912 


 755 


 NOVELLO 


 205 


 211 


 215 


 G. C. =| 


 CHRISTMAS 


 274 


 364 


 365 


 366 


 367 


 368 


 756 


 CHESTER 


 CIRCULATING MUSIC LIBRARY 


 BRIGHTON 


 EDGAR F. JACQUES 


 BRIGHTON 


 PALACE PLACE , CASTLE 


 . E GUINEA ANNUM 


 ARTHUR HERVE 


 SQUARE 


 PRODUCE 


 MI 


 CO 


 1912 . 757 


 PRODUCED BIRMINGHAM MUSICAL FESTIVAL 


 


 SIC MAKERS 


 ODE 


 ARTHUR O'SHAUGHNESSY 


 MU 


 CONTRALTO SOLO , CHORUS , ORCHESTRA 


 


 EDWARD ELGAR 


 TIMES 


 DAILY TELEGRAPH 


 MORNING POST 


 DAILY NEWS 


 DAILY EXPRESS . 


 DAILY MAIL 


 DAILY CHRONICLE . 


 FESTIVAL . 


 FAIR 


 PRODUCED BIRMINGHAM MUSICAL 


 FIFINE ’ 


 ( DEFENCE INCONSTANCY 


 ORCHESTRAL DRAMA 


 PROLOGUE 


 ( BROWNING ) . 


 COMPOSED 


 GRANVILLE BANTOCK . 


 MINIATURE SCORE . 


 TIMES 


 DAILY TELEGRAPH 


 STANDARD 


 DAILY CHRONICLE . 


 PALL MALL GAZETTE . 


 YORKSHIRE POST . 


 MANCHESTER GUARDIAN . 


 OBSERVER 


 SUNDAY TIMES . 


 IMITED 


 758 


 MUSICAL TIMES 


 ODE NATIVITY 


 WORDS 


 WILLIAM DUN 


 SET MUSIC 


 BAR 


 SOPRANO SOLO , CHORUS , ORCHESTRA 


 


 C. HUBERT H. PARRY 


 TIMES 


 DAILY TELEGRAPH 


 STANDARD 


 MORNING POST 


 STAR 


 PAX DEI 


 SONG REST 


 


 ORCHESTRA 


 SOLI , CHORUS 


 COMPOSED 


 E. W. NAYLOR 


 WANDERING JEW 


 CANTATA 


 PAUL ENGLAND . 


 FRIEDRICH HEGAR 


 JAPPY CHAPPY 


 CHILDREN MUSICAL PLAY 


 


 E. L. SHUTE 


 MUSIC 


 H. W. HEWLETT 


 NOTICE CHORAL SOCIETIES 


 CONCERT VI VERSION 


 LES CLOCHES DE CORNEVILLE 


 PLANQUETTE 


 READY 


 


 B P ARTS | HIRE 


 32 , GREAT PORTLAND STREET , LONDON , W 


 JOSEPH WILLIAMS ( LIMITED 


 JOSE 


 ‘ PIERROT ! 


 “ CHILDREN 


 CL 


 DIVI 


 GOOD - NIG 


 INDI 


 ORION : 


 SHED 


 SPIRIT 


 STRONG § 


 AI 


 


 


 T. M 


 E DI 


 NU 


 759 


 JOSEF HOLBROOKES WORKS 


 SONGS 


 


 CLARENCE S. HILL 


 DIVINE IMAGE 


 GOOD - NIGHT 


 IMMORTAL LOVE 


 STRONG SON GOD , 


 REDUCED PRICES . 


 XUM 


 NOVELLO 


 NEW SONGS 


 PRICE SHILLINGS NET 


 GONG FUGITIVES . 


 JOHNSON 


 WORLD YOUNG 


 SONG PILGRIMS . 


 SONGSTERS ’ 


 N SUMMER DAY . 


 ENGELHARDT 


 HEART . 


 ITH 


 ISSUED 


 SUITABLE PRESENTS CHRISTMAS GIFTS 


 CATHEDRAL PSALTER 


 PROPER PSALMS 


 POINTED CHANTING , WORDS 


 MINIATURE MUSIC EDITION HYMNS ANCIENT MODERN 


 


 CATHEDRAL PRAYER BOOK 


 CANTICLES PSALTER POINTED CHANTING 


 MINIATURE MUSIC EDITION HYMNS ANCIENT MODERN 


 ( 1889 EDITION 


 ISSUED NET BOOK . 


 NEW REVISED EDITION 


 TECHNIQUE ORGAN 


 EX PRESSION JOHN STAINER 


 EDITED JOHN E. WEST 


 PIANOFORTE PLAYING 


 NUMEROUS MUSICAL EXAMPLES 


 RICE LOT GILT IVE > LINGS . , : h 

 Bax , ARNOLI 
 BEETHOVEN . 
 Parts , ' 
 Beit , W. H. 
 Arcadian 
 Corper , F. — 
 Corver , Pat 
 Dixon , H. C. 
 Garpiner , 

 iolin , 
 McEwen , J 
 Orchest 
 MACKENZIE , 
 Sc 
 Matruay , T 
 SPEAIGHT , J < 
 Spinnerlie 
 Wessety , H 
 Second 




 PUBLISHED . 


 MONTHS 


 SKETCHES PIANOFORTE 


 


 FREDERIC H. COWEN 


 BOOKS . 


 CONTENTS : — 


 MUSIC PUBLISHED AVISON EDITION 


 XUM 


 . . . , ORGAN . 2 | 


 HERZO 


 5 . INTERMEZZO 


 6 . ANDANTE 


 ORGAN 


 


 7 . HUNGARIAN DANCE E. BUNNETT . 


 11 , ANDANTE 


 12 , INTE RMEZZO 


 COMI 


 10 


 10 


 IL 


 XUM 


 763 


 NOVELLO 


 ALBUMS ORGAN . 


 SELECTED PIECES . 


 SELECTED PIECES 


 SELECTED PIECES . 


 COMPOSITIONS : ORGAN 


 SIGFRID KARG . ELERT 


 CHAC ONNE FUGUE TRILOGY , “ 


 NEW FOREIGN PUBLICATIONS 


 PIANOFORTE MUSIC 


 CHAMBER MUSIC 


 ORGAN HARMONIUM . 


 FEDE — MOLLER , J 


 NET 


 20 


 6 0 


 5 0 


 2 0 


 20 


 3 « 6 


 1 6 


 2 0 


 2 6 


 3 0 


 2 6 


 5 0 


 4 0 


 3 0 


 10 


 20 


 3 6 


 10 


 3 0 


 10 


 NOVELLO OCTAVO EDITION - SONGS 


 SELECTED LISTS RECENTLY PUBLISHED - SONGS .