


 MUSICAL TIMES 


 SINGING - CLASS CIRCULAR . 


 PUBLISHED MONTH 


 MARCH 1 , 1877 


 HOIR — LEADING TREBLES 


 ROYDON PARISH CHURCH CHOIR . — 


 PROFESSIONAL NOTICES 


 GUITAR.—MDME . SIDNEY PRATTEN 


 USICAL EXAMINATIONS.—CANDIDATES 


 IANOFORTE , ORGAN , HARMONIUM , SING 


 ALBERT E. BISHOP . 


 STRAND 


 TE 


 ESTABLISHED APRIL 1866 . 


 ENGLISH GLEE UNION . 


 ASSISTED 


 EMINENT ARTISTS , 


 RATORIO CONCERT PARTY . — 


 ORKSHIRE ( ST . CECILIA ) CONCERT 


 AST LONDON ORGAN WORKS , 


 CENTENNIAL EXHIBITION 


 NOTICE . 


 NEW YORK 


 STANDARD ” 


 AMERICAN ORGANS 


 PRICES , 12 125 GUINEAS . 


 BARNETT SAMUEL & SON 


 31 , HOUNDSDITCH , E.C. , & 32 , WORSHIP STREET , 


 FINSBURY SQUARE , 


 LONDON .AGENTS , 


 PIANOFORTE SALOON , 


 55 , BAKER STREET , LONDON , W. 


 TESTIMONIAL . 


 TUTTGART HARMONIUM COMPANY . — 


 RUSSELL MUSICAL INSTRUMENTS . 4 


 GUSTAVE MODEL LIBRARY REED 


 I0O0 


 VERTICAL IRON FRAME PIANOFORTES 


 FLAVELL 


 QUARTERLY SALE MUSICAL PROPERTY . 


 EAN CHEAP MUSICAL INSTRUMENTS . 


 OPINIONS LONDON BRIGHTON PRESS 


 C. J 


 1877 . 101 


 C. JEFFERYS , 67 , BERNERS ST 


 COLLECTION 


 - SONGS , GLEES , 


 MICHAEL WATSON 


 ASHDOWN & PARRY 


 RECENT 


 PUBLICATIONS 


 ORGAN . 


 SHORT PIECES ORGAN 


 EDITED ARRANGED 


 PRAYER ARCADELT . 


 LARGHETTO . SPOHR . 


 MARCH “ SCIPIO ” HANDEL . 


 | ADAGIO RELIGIOSO , ‘ * HYMN 


 PRAISE ” MENDELSSOHN . 


 ANDANTE , “ JULIUS CAESAR ” ... HANDEL 


 PRAYER , LARGHETTO MAES 


 MARCIA RELIGIOSA . GLUCKANDANTE CANTABILE , TRIO 

 C minor es BEETHOVEN 

 vie menus WILHELM Bac . 
 Price Book , 4s 




 SERIES ORGAN PIECES 


 EDWIN M. LOTT 


 4 . OFFERTOIRE EN FORME DE MARCHE 


 LONDON 


 ANGLICAN 


 SINGLE DOUBLE 


 EDITED 


 REV . SIR F. A. GORE OUSELEY , BART . , ETC 


 


 EDWIN GEORGE MONK 


 CAREFUL FINISH , OFFERED | CONGREGATIONAL PSALMIST . 


 EQUAL NEW - ORIGINAL SONGS 


 SIZE HIGHEST CLASS . , , O 6 UR VOICES 


 VIEW SALE 


 MOORGATE STREET STATION . - SONGS CHRISTMAS . 


 MERRY , . 


 PASTORAL CANTATA 


 


 TH 


 


 103 


 MANUAL SINGING 


 USE CHOIR TRAINERS & SCHOOLMASTERS , 


 - EDITION . 


 COLLEGIATE SCHOOL 


 SIGHT - SINGING MANUAL 


 APPENDIX 


 ( COMPANION WORK 


 COLLEGIATE VOCAL TUTOR 


 CATHEDRAL CHANT BOOK 


 NEW EDITION 


 DR . BENNETT GILBERT POPULAR WORK 


 SCHOOL HARMONY 


 SUBJECT SPECIAL EXERCISES . 


 AKER PIANOFORTE TUTOR 


 NEW EDITION , REVISED ENLARGED . 


 NEW HYMNAL . 


 TONIC SOL - FA EDITION 


 TONIC SOL - FA EDITION 


 PAROCHIAL PSALTER 


 


 DIRECTIONS EXPRESSION , BREATH - MARKS , 


 INDICATIONS FACILITATE CHANTING 


 ALEX . S. COOPER 


 PRICES . 


 MUSICAL TIMES 


 SACRED MUSIC ( PRICE - HALFPENCE ' . 


 337 


 82 


 96 


 168 


 296 


 251 


 381 


 257 


 112 


 46 


 63 


 209 


 72 


 273 


 10 


 221 


 127 


 139Barnby 

 whisp’rings ( Christmas 
 arol ) . T. Cooper 
 Thou art gone grave " Beethoven 
 Teach , O Lord ... .... Dr. Rogers 
 Teach , O Lord .. T. Attwood 
 Teach Thy way . Croce 
 Te Deum laudamus . T. Cooper 
 Te Deum laudamus . S. Wesley 

 oie 




 NEW YOKK : J. L. PETERS , 843 , BROADWAY 


 SECULAR MUSIC ( PRICE - HALFPENCE ) . 


 LONDON : NOVELLO , EWER & CO 


 230 


 359 


 104 


 335 


 60 


 167 


 390 


 176 


 1 , BERNERS STREET ( W. ) , 


 NEW YORK : J. L. PETERS , 843 , BROADWAYS.S A.T.B ) . Gastoldi 

 Soldiers ’ love ( a. TTB . ‘ y Kiicken 
 Song spring ... Francesco Berger 
 Soon careless strayed esta 
 Spring delights ( s.a . T.B. ) Miiller 
 Spring delights ( T.T.B.B. ) Miller 
 Spring - time ( T.T.B.B. ) Beethoven 
 Summer Winter B. Tours 

 Summer coming ( 4 Trebles ) 
 Sweet peace descending ... . ozart 




 270 


 397 


 132 


 293 


 71 


 236 


 197 


 142 


 331 


 28 


 215 


 258 


 280 


 242 


 80 & 81 , QUEEN STREET ( E.C 


 RYSTAL PALACE.—GREAT TRIENNIAL 


 MARCH 1877 


 DRAMATIC PERFORMANCES : 


 MUSICAL TIMES 


 SCALE TERMS ADVERTISEMENTS 


 ES 


 T. ANNE CHURCH , SOHO.—SPECIAL 


 LIFE CHOPIN 


 F. LISZT 


 LIFE ROBERT SCHUMANN , 


 WORKS JOHN HULLAH , LL.D. , 


 TRANSITION PERIOD MUSICAL 


 STUDENT TEXT - BOOK 


 


 SCIENCE MUSIC 


 CONTENTS . 


 MUSICAL TIMES 


 SINGING - CLASS CIRCULAR . 


 MARCH 1 , 1877 


 ENGLISH OPERA 


 CRYSTAL PALACE PROBLEM 


 HINDU MUSIC 


 CDEFGAB 


 CDEFGAB 


 DEFGAB 


 CDEFGAB 


 CDEFGAB CDEFGAB 


 S 18 


 P- 57 


 RAGIN ASA - GAURI 


 HENRY C. LUNN 


 114 


 116THE MUSICAL TIMES.—Marcu 1 , 1877 

 Sebastian Bach . relic come light 
 fail excite unusual interest . Beet- 
 hoven pianoforte — especial favourite 
 composer , played time 
 death — lately passed possession 
 Messrs. Hug , music publishers Ziirich . 
 keys said ‘ ‘ hollowed excessive use ; ” 
 consider fingers ‘ * hollow- 
 ing ” effected , worn old ‘ * Tetrachord ” in- 
 strument evoke world thought 
 modern “ Grand , ” eminent maker , 
 conjure . feelings said 
 coldly practical unworthy encouragement ; 
 silent homage genius spontaneous 
 growth purely artistic mind ; Messrs. Hug 
 surprised premises 
 constantly invaded enthusiastic 
 musicians , certainly , holiday ramble , 
 contrive Zirich way hear 
 pianoforte Ludwig van Beethoven 

 unexpected testimony value Sol - fa 
 notation recently added con- 
 stantly circulated partisans cause . 
 appears Rev. Jonathan Lees , London 
 Mission , Tientsin , North China , sent Mr. Sankey 
 - known songs , words translated 
 Chinese , music printed 
 Chinese version Tonic Sol - fa notation . 
 affirms pieces “ proved 
 fitness deepen cheer Christian life 
 pleasing way , ” Tientsin Church bids 
 fair musical . Rev. J. S. Barradale , 
 missionaries , writing sub- 
 ject , emphatically states staff notation 
 Chinese , letters 
 ranged perpendicular columns , read 
 right - hand page tothe left . Tonic 
 Sol - fa letters placed way ease , 
 staff , necessarily horizontal . 
 pleased find country prepared 
 receive thisinnovation ; , time , 
 understand Chinese difficulty 
 reading notes staff considered insur- 
 mountable , whilst difficulty reading notes with- 
 scarcely thought . Surely , 
 “ ladder system ” notation developed 
 rise music , allowance 
 shake feeling 
 acuteness gravity presented 
 eye presented ear ; , 
 admiration effected Mr. 
 Curwen disciples , , 
 hope day true notation devised 
 little prejudices 
 * consulted Chinese evidently 
 benevolent missionaries desirous 
 importing Sol - faism China 




 117 


 SIR HENRY BAKER , BART 


 JOHN OXENFORD 


 118 


 CLAY “ LALLA ROOKH . ” 


 ( SPECIAL CORRESPONDENT 


 CRYSTAL PALACEposer talent remained unrepresented . 
 deny Mendelssohn genius 
 shine brightly large vocal compositions , 
 “ * Hymn Praise , ” Psalms , ‘ Athalie , ” ’ 
 ‘ Walpurgis Night . ” , specimen 
 sacred music brought forward air “ shall 
 righteous , ” admirably sung Mr. E. Lloyd , 
 gave song “ ‘ Celia arbour 

 Symphony roth ult . Beethoven C 
 minor , needless word . Berlioz s 
 overture “ ‘ Béatrice et Bénédict , ” performed 
 occasion time England , 
 characteristic composer , wild extravagant , 
 enjoyable , earlier 
 works . novelty concert “ ‘ Sarabande 
 Espagnole du 16éme Siécle , M. Massenet , popular 
 living French composer , happy imitation 
 antique style . Mr. Walter Bache , sterling 
 artists public , pianist after- 
 noon . chose exhibition powers Liszt 
 clever effective arrangement piano 
 orchestra Schubert Fantasia C , Op . 15 , originally 
 composed piano solo . differences opinion 
 exist advisability , allow- 
 ability , arrangements , denying 
 Liszt performed self - imposed task skilful 
 manner . readers probably aware Mr. 
 Bache pupil Liszts ; certainly plays 
 master music perfection . probably 
 heard greater advantage occasion . 
 débutante , Miss Nannie Louise Hart , appear- 
 ance Crystal Palace afternoon . 
 suppose appearance 
 , needless add word . 
 vocalist Madame Patey , sang song 
 Dr. Macfarren Oratorio , ‘ ‘ Resurrection , ” 
 trashy ballad , thought good 
 taste prevented offering Crystal 
 Palace audience 

 concert 17th ult . commenced Cherubini 
 magnificent Overture ‘ “ ‘ Medea , ” piece 
 welcome comparatively seldom heard 
 concert - rooms , concluded particularly 
 interesting Overture Alfieri s “ ‘ Saul , ” Signor Bazzini . 
 Symphony Haydn G , known 
 ‘ Letter Q ” ‘ Oxford ” ? Symphony . 
 hardly equal best ‘ Salomon ’ 
 set , work redolent spirit Haydn . 
 charmingly played band , evidently 
 thoroughly enjoyed audience . instrumental 
 soloist concert Mdlle . Marie Krebs , gave - 
 fine performance Beethoven Concerto G major ; 
 vocal music contributed Miss Sophie 
 Léwe Madame Antoinette Sterling 

 concert 24th took place going 
 press , programme included 
 Mozart symphony G minor , Spohr gth Violin Con- 
 certo ( Herr Joachim ) , Overtures ‘ ‘ Enchanted 
 Forest ” ( Benedict ) “ ‘ Tannhauser , ” & c. , 
 vocalists advertised Mrs. Osgood Miss Mary 
 Cummings 

 MONDAY POPULAR CONCERTS 

 invariably case , return Herr Joachim,-on 
 5th ult . , post leadinz violinist excellent 
 concerts , occasion special ovation 
 consummate artist , enthusiastic 
 sympathetic audience . taking 
 ‘ * Rasoumowski ” Quartett Beethoven , , Op.64 , 
 Haydn , Herr Joachim played Chaconne 
 fourth Bach Sonatas violin solo ; Mdlle . 
 Marie Krebs gave effective rendering Clementi 
 Pianoforte Sonata C. Mr. E. Lloyd vocalist . 
 second concert month included Quartett 
 E flat Cherubini , exquisite poetry , par- 
 ticularly manifest Larghetto Finale , evoked - 
 strong feeling regret chamber music , 

 120 




 PHILHARMONIC SOCIETY 


 SACRED HARMONIC SOCIETY . 


 GRAUN PASSION S. GABRIEL , PIMLICO 


 EASTER ANTHEM 


 TREBLE 


 1 


 ALTO 


 TENOR 


 EE 


 ORGAN 


 @ = 92 


 SSS 


 DAY WEEK 


 8 - 4 


 ( 3 SS SSS 


 = PP . — — — ~ 


 F 


 


 SSS 


 SS 


 1 J NX_| 


 = = SS 


 PSS TS AGREE ! TT 5 , STD = 


 PT ~ 


 DAY WEEK 


 QUEEN 


 PASTORAL 


 HENRY F. CHORLEY 


 MUSIC COMPOSED 


 NOVELLO , EWER CO , , 


 1 , BERNERS STREET ( W. ) , 80 & 81 , QUEEN STREET ( E.Cand Mr. T. Gatehouse contributed violin solo , 
 joined Miss Gatehouse duet violin 
 pianoforte . reading Mr. C. Rendle received 
 great applause , Mr. S. Jarvis rendered good ser- 
 vice accompanist . audience large 
 enthusiastic 

 Thursday 8th inst . University Cambridge 
 confer degree Doctor Music Professor 
 Joachim . 150th Concert Cambridge Uni- 
 versity Musical Society given Guildhall 
 evening , programme comprise 
 Brahms new Symphony C minor , composer 
 “ Song Destiny , ” Ms. overture Herr Joachim , 
 composed expressly occasion , Sir Sterndale Ben- 
 nett Overture ‘ ‘ Wood Nymphs , ” Beethoven 
 Violin Concerto , performed hero 
 day . graceful mark recognition artist 
 right highest degree granted 
 confirmed world , doubt attract large 
 number professors amateurs metropolis 

 sale Mr. Lamborn Cock copyrights 
 2oth aist ult . following prices realised 
 important lots : Sir W. Sterndale Bennett 
 works — ‘ ‘ Queen , ” £ 1875 ( Novello ) ; Songs , 
 Op . 23 35 , £ 597 6s . ( Novello ) ; Pianoforte Works , 
 £ 536 ( J. Williams ) . Beethoven Works , edited Sir W. 
 Sterndale Bennett , £ 250 ( Ashdown Parry ) . Classical 
 Practice Pianoforte , £ 34 ( Novello ) ; Sir J. Bene- 
 dict “ ‘ Undine , ” £ 73 ( L. Cock ) ; Pinsuti - 
 Songs , £ 176 ( Novello ) ; Modern - Songs , £ 177 
 ( L. Cock ) ; Chamber Trios , £ 800 ( Ashdown Parry ) ; 
 Sir M. Costa ‘ * Naaman , ” £ 710 ( J. Williams ) . 
 catalogue comprised 379 lots , produced total 
 £ 8,254 35 . 2d 

 Messrs. Carrodus Edward Howell 
 Quartett Concerts given Langham Hall 
 6th ult . highly appreciative audience . Assisted 
 Mr. V. Nicholson Mr. Doyle , Beethoven Quartett G 
 ( Op . 18 ) excellently rendered ; praise 
 given solo playing concert - givers , Mr. 
 Carrodus performing accuracy finish Bach 
 difficult Chaconne — popular Herr Joachim — 
 Mr. Howell heard advantage Boccherini 
 Sonata G. vocalist Mr. E. Lloyd , 
 received - merited applause Loder Serenade , 
 ‘ “ “ Wake , love ” Gounod “ Maid Athens . ” 
 Mr. W. H. Thomas able accompanist 

 St. George Glee Union monthly concert took 
 place Pimlico Rooms Friday 2nd ult . , 
 Mr. George Fox Cantata , ‘ ‘ Jackdaw Rheims , ” 
 given great success . soloists Miss Bessie 
 Spear , Miss White , Mr. Jno . Williams , Mr. Theodore 
 Distin ; harmonium , Mr. Granville ; pianoforte , Miss Ellen 
 Bliss ; conductor , Mr. J. Monday . miscellaneous 
 included - songs , excellently 
 rendered , good selection vocal solos . Miss Ada 
 , youthful pianist , successful 
 appearance . Mr. Garside conducted usual ability 




 MUSICAL TIM 


 REVIEWSCommunion Service , E flat . J.N. Hummel . 
 English Adaptation Rev. J. Troutbeck , M.A. Edited | 
 Pianoforte Accompaniment arranged Berthold 
 Tours . [ Novello , Ewer Co 

 reviewing Hummel Mass D ( ) 
 Musica Times June ) , general remarks | 
 composer style Church music . | 
 unnecessary repeat said ; espe- | 
 cially nearly observations regard | 
 Mass D equally apply second Mass , 
 notice . find work melo- 
 dious flow ideas , beautiful artistic finish , 
 companion . absolute genius shines 
 sacred inspirations great triad composers — 
 Haydn , Mozart , Beethoven — wanting ; 
 respect Hummel music leaves 
 desire ; exclude repertoire works 
 term ‘ inspirations ’ ? fairly applied , 
 shall greatly restrict sources musical enjoyment 

 “ Kyrie ” ‘ “ * Mass E flat ” movement 
 considerable development . bars prelude 
 orchestra , solo quartett enters sustained 
 chords word “ Kyrie ” piano , immediately 
 taken continued chorus . | 
 half movement alternations | 
 solos tutti continued , graceful phrases | 
 voice - parts set happy details 
 orchestration . half close D , dominant 
 G minor , bars prelude Mass 
 commenced repeated ; lead fine 
 long fugue , subject 
 announced basses , accompanied nearly 
 quaver passages strings . close 
 movement novel . bass bars 
 chorus given accompaniment , 

 “ Credo ” commences chorus 
 usual tempo § { — flowing movement abundance 
 skilful points imitation . “ Et incarnatus ” 
 find beautiful slow movement . intro- 
 ductory symphony , expressive oboe solo , leads 
 duet tenor bass , long sustained notes 
 voice parts require fine singing produce 
 effect . chorus enters * ‘ Crucifixus , ” sub- 
 sequently combined solo voices . 
 number extremely fine , minute description 
 unintelligible quotations . “ Et 
 resurrexit ” brings time rhythm “ Credo . ” 
 long passage solo quartett ‘ “ ‘ Et spiritum ” ’ 
 melodious ; words “ Qui locutus est ” 
 solos chorus combined somewhat novel 
 manner ( pp . 54 , 55 score ) . ‘ ‘ Et vitam ” , 
 usual , treated fugally , curious innovation : 
 fugue parts ( free 
 accompaniment orchestra ) , tenor doubles 
 soprano , bass alto , octave 

 “ Sanctus ” ? presents special features , 
 ‘ ‘ Benedictus , ’ ” ’ G major ( quartett chorus ) , 
 pleasing numbers . style reminds 
 Mozart , manner solos chorus 
 combined suggest Hummel 
 taken hint corresponding movement Beet- 
 hoven Mass C. ‘ * Agnus Dei , ” C minor , 
 good , particularly new , ‘ Dona ” 
 consists short introduction anda fugue , subject 
 ‘ Kyrie , ” 
 treatment different . device giving unity 
 work repeating end Mass subject 
 movem ~ nt times 
 adopted composers ; examples named Mozart 
 Mass C ( . 1 ) , Beethoven C , Schubert F 

 needful add English version 
 work , text adapted , usual well- 
 known skill , Mr. Troutbeck 




 132 


 FOREIGN NOTESConcerts du Conservatoive.-—Choral Symphony ( Beet- 
 hoven ) ; Suite ( Bach ) ; Scene * * Armida ” ( Gluck 

 Concerts Populaires.—Symphony , C major ( Schumann ) ; 
 Violin Concerto ( Beethoven ) ; Symphony , C major ( Haydn ) ; 
 Septett ( Beethoven ) ; overture , ‘ ‘ Freischiitz ’ ( Weber ) ; 
 Largo ( Handel ) ; ‘ ‘ Damnation de Faust , légende drama- 
 tique ” ’ ( Berlioz 

 Concerts du Chételet.—Symphony , C minor ( Beet- 
 hoven ) ; Poéme - Symphonique ( Saint - Saéns ) ; Danse- 
 Macabre ( Saint - Saéns ) ; ‘ ‘ Roméo et Juliette , fragments 
 symphoniques ” ( Berlioz ) ; ‘ ‘ Damnation de Faust ” ( Ber- 
 lioz 

 Société des Quatuors.—Quartetts Brahms Beet- 
 hoven ; Trio ( Saint - Saéns 

 Société des Quatuors de Beethoven.—Quartetts Beet- 
 hoven Haydn ; Quintett Brahms 

 Minister Public Instruction Fine Arts , 
 view progress music , lately granted 
 sums Concerts Pasdeloup Colonne , 
 musical Societies , form prize - fund 
 new compositions excellence . ¥ ournal Officiel 
 announces decoration Cross Legion 
 Honour M. Victor Massé M. Victorin Jonciéres . 
 overlooked pay memory 
 departed genius tribute privilege 
 living bestow . inauguration monu- 
 ment Auber , erected cemetery Pére - la - Chaise , 
 took place 2gth January , ninetieth 
 anniversary birth composer ‘ ‘ La Muette . ” 
 large concourse musical dramatic 
 artists present assist impressive ceremony . 
 monument , designed M. Lefuel , 
 crowned bust French composer — 
 chisel M. Dantan — bears inscription 
 dates birth decease ( 1871 ) , 

 position question Symphony , class 
 orchestral tone - pictures Herr Brahms written . 
 opinion correspondent Neue Zeitschrift 
 fiir Musik movements best , 
 written true Symphonic character , worthy 
 composer immediate predecessor , Schumann 

 works performed festival 
 Lower Rhine , held year Cologne , 
 mentioned ‘ Creation , ” Beethoven Ninth Sym- 
 phony , Verdi ‘ Requiem . ’ work , 
 said , conducted composer 

 “ Wagner Exhibition ” held Vienna , com- 
 prising works art , pictures , sketches , & c. founded 
 inspired creations poet - composer 
 ‘ art - work future . ” King Bavaria largely 
 contributed interesting collection . Societies 
 formed Berlin Weimar maintenance 
 periodical performances Bayreuth Plays 

 example degree estimation 
 works Richard Wagner attained 
 German critics , quote passage letter 
 Konigsberg correspondent Neue Zeitschrift fiir Musik . 
 dwelling beneficial reforms effected 
 management Opera town new director , 
 Herr Stagemann , writer continues report follows : 
 ‘ operatic performances Beet- 
 hoven ‘ Fidelio . ’ followed Mozart ‘ Don Gio- 
 vanni ’ ‘ Figaro . ’ ‘ master par excellence , Richard 
 Wagner — lI heart joyfil emotion — 
 admiration enthusiasm accorded 
 audience listened performances ‘ Tannhauser , ’ 
 ‘ Lohengrin , ‘ Flying Dutchman 

 reason fear , present , memory 
 great musicians past neglected , far 
 monuments erected honour said 
 testify appreciation worth . 
 memorial erected Paris Auber , 
 contemplation monuments Felicien David 
 French capital , Beethoven Vienna , Marschner 
 Hanover , Thalberg Naples , Bach Eisenach . 
 Caen , — native town Auber — Mayor 
 opened subscription purpose erecting suitable 
 monument memory illustrious compatriot 

 following instructive example 
 “ florid style ” musical criticism , quote 
 South American Mail . article respective merits 
 rival Opera Companies , writer introduces 
 subject way : ‘ Notwithstanding compari- 
 sons contrasts standards tests 
 public opinion formed maintained , 
 constitute safeguard hyperbole exaggeration 
 frenzied flights excitement enthusiasm , exists , 
 invariably , reluctance — prominent pronounced , 
 sensible palpable — place salient juxta- 
 position merits virtues contending artistes ! 
 reluctance assumes , instance Ferrari 
 Toressi Opera Companies , measure unfeigned 
 repugnance . parallel claimants 
 applause admiration ‘ Rio de Janeiro public 
 suffer moral obstacle existing task ; 
 selfsame feeling allude , far im- 
 peding appreciation bestow , 
 enlighten enhance criticism divesting pre 




 CORRESPONDENCESMALL NOTES 

 EDITOR ‘ * MUSICAL TIMES . ” 
 S1r,—I fear Mr. Cleveland Wigan read 
 letter small notes carefully , seen 
 prove Beethoven writings 

 composer meant small note outside beat ; , 
 , agree following passage 
 Ct minor Sonata small notes 
 beat 

 Beethoven , bar 6 , answer bar , clearly 
 shows big G { * ought fall 
 note bass . editions know 
 engraved — i.e. , small notes advance 

 good Mr. Von Bilow 
 matter ; question wish 
 Mr. Von Bilow , Mr. Cleveland Wigan , , anybody 
 think subject , 
 doubt way rendering small notes . misfor- 
 tune exactly exist manners ot 
 performing . painter advantage 
 musician far works appear 
 . Mr. Von Biilow Mr. Von 
 editions Beethoven Sonatas according 
 fancies , prove Beethoven 
 wished played . Look , instance , 
 different editions classical works , metro- 
 nome marks vary ! likely composers gave 
 choice different tempi movement ? 
 rate things impossible 
 years find original edition 
 great master works , particularly written 
 piano 

 fashion pianist @ la mode , cooking 
 compositions sauce . wish 
 fashion start serve old masters au naturel , 
 correcting simply obvious misprints . Doctors 
 agree ladies “ silk 
 mittens . ”—I , Sir , truly , ALLEGRO 




 MENDELSSOHN CONCERT 


 CRYSTAL PALACE 


 EDITOR “ MUSICAL TIMESNo ! contrary Mendelssohn essentially original 
 individual , nearly works . 
 , instance , range musical 
 composition found excel , originality , 
 , marvel eighteenth year , overture 
 ‘ ‘ Midsummer Night Dream ” ’ ? speak asa practical 
 musician , answered 

 , said , “ ‘ Art luxury , 
 born unlucky star probably 
 acomposer . ” , course , known 
 Mendelssohn entirely free hard- 
 ships poverty neglect Beethoven , 
 Schubert , afflicted . 
 hardships drew finest 
 productions . credit 

 136 




 CORRESPONDENTS 


 BRIEF SUMMARY COUNTRY NEWSthe word , came manner flies , ’ capitally sung ; 
 “ Hailstone Chorus ” given splendid effect , enthusias- 
 tically encored ; glorious final song choral triumph , “ 
 horse rider , ’ came imposing climax perform- 
 ances . duet “ Lord Man war , ” consigned toa 
 chorus basses . Mrs. Scott - Fennell sang wonied care 
 skill , encored principal solo , “ Thou shalt bring 
 . ” band , scarcely powerful , played , 
 violins Mr. H. C. Cooper , Conductor Anacreontic 
 Society , Mr. R. M. Levy . original trombone parts 
 supplied bandsmen 14th Regiment . Sir Robert Stewart 
 presided masterly manner Mulholland organ , Mr , 
 Newport conducted care ability 

 BrrMinGHaM.—After Christmas performances Messiah 
 Elijah Festival Choral Society Philharmonic Urion re- 
 spectively , wasa lullinour local musical world till January 25 , 
 second Messrs. Harrison popular Concerts given . 
 vocalists included Mdlle . Titiens , Signor del Puente , artists 
 Mr. Mapleson party , Mr. F. H. Cowen conductor , Madame 
 Arabella Goddard solo pianist , Herr Wilhelmj . - selected 
 miscellaneous programme excellently rendered . Madame Goddard 
 appearance looked forward interest , greatest treat 
 evening pe formance Herr Wilhelmj 
 Andante variations Beethoven Kreutzer Sonata Madlle . 
 Titiens gave grand rendering scena ‘ Ocean , thou mighty 
 monster . ” hall , Concert 
 successful —— occasion cheap Oratorio 
 Concerts given Philharmonic Union , January 29 , Town 
 Hall filled overflowing . Handel Messiah work per- 
 formed , accompaniment confined organ . Thanks 
 Dr. Heap judicious conducting Mr Stimpson excellent playing , 
 work suffer materially absence orchestral support . 
 solos rendered Miss Alleley , Miss E. Lloyd , Mr. Kearton , 
 Mr Wadmore.——The Festival Choral Society second Coneert 
 took place Thursday , 1st ult . programme attractive , 
 comprising Gade Cantata Crusaders , Hummel Motett Alma 
 Virgo , Haydn Spring . performed Festival 
 1826 , aware subsequent repetition , con- 
 sequently possessed charm novelty . choral po tions 
 programme rendered old fire brilliacy 
 Society renowned ; , heard chorus 
 brighter tone decisive attack ; fairly con- 
 gratulated having fully retrieved reputation . 
 soloists Mrs. Osgood , Mr. Vernon Rigby , Signor Foli . 
 Gade Cantata improves acquaintance , familiarity displays 
 fully great originality work . Mrs. Osgood 
 contend great difficulties . music suited voice , 
 superb rendering Armida Madame Trebelli 
 late Festival Kesh recollection . sang lixe 
 true ‘ artist , applauded . artists having pre- 
 viously sustained sarne parts , rendering 
 equally good Festival . Hummel Motett went fairly . 
 performance Haydn Spring afforded great pleasure : 
 tuneful music charmed . , 
 playing band good . Mr. Stockley conducted 
 skilfully . hall full———At second Mr. Stocklcy 
 Orchestral Concerts , 15th ult . , agreeable novelty , Mr. J. F. 
 Barnett Concerto flute presented . Mr. Fe - pen Mathews , 
 ‘ “ Golden Flute , ” executant . band played Haydn 
 Symphony D ( . 7 , Salomon set ) , overture Egmont 
 ( Beethorsal pieces . vocalists Miss Robertson 
 Mr. Barton McGuckin 

 Braprorp.—Herr August D. Moosmair Concert , aid 
 funds Bradford Infirmary , took place Mechanics ’ Institute 
 goth ult . , assisted Miss Eva Utley , soprano ; 
 Miss Lily Parratt , alto ; Mr. Herbert Parratt , tenor ; Herr Robert 
 Oberhoffer , violoncello ; Mdlle . Bertha Brousil , violin . sonata 
 violin piano , Handel , executed remarkable precision , 
 executive powers Mdille . Brousil admired . Herr 
 Moosmair brilliant execution piano appreciated , 
 composition greeted loud applause . Herr 
 Oberhoffer played violoncello considerable taste skil ! , 
 trios , thé instrumentalists took , excellently 
 rendered . vocalists highly successful 




 MUSICAL TIMESDevizes.—The members Amateur Vocal Society gave 
 open rehearsal Monday evening January 29th , Town 
 Hall . exception instrumental duets programme 
 consisted entirely choruses - songs , given 
 class , consisting ladies gentlemen , conducted 
 Mr. C. Clarke . conclusion programme Mayor , John 
 Marsh , Esq . , proposed vote thanks class , conductor , 
 Mr. C. Clarke , secretary , Mr. J. H. Chandler 

 EpINBURGH.—The orchestral Concerts Reid Festival , 
 commenced roth ult . , , usual , exceptional interest , 
 vocal instrumental works , new Scotland , having 
 introduced . concert 13th ult . pro- 
 gramme , usual , commenced performance certain pieces 
 General Reid music . Mendelssohn overture Midsummer 
 Night Dream immediately followed Reid music , charm- 
 ingly given band . Schumann Concerto piano orchestra 
 splendidly played , Mr. Hallé , piano , 
 praise . Beethoven great Symphony , C minor , excellently 
 rendered , Gade strikingly original overture Ossian poems , 
 second commenced , fine performance , 
 appreciated audience . Mr. 
 Hallé played , piano solos , Menuetto grazioso Tambourin , 
 Gluck , given great taste . orchestral 

 iece Sir Herbert Oakeley “ Edinburgh ” March , , 

 LEOMINSTER.—The members Choral Society gave 
 Concert Tuesday evening 13th ult . , Corn Exchange . 
 Mr. Simeon Dobbs , organist Priory Church , conductor , 
 Mrs. G. W. Balls pianist . valuable services Mr. Charles 
 Fredericks , Hereford Cathedral Choir , secured . 
 ofthe programme consisted Romberg Lay Bell , 
 second miscellaneous . Concert great success 

 LiverPooL .. —The Philharmonic Society tenth Concert , 
 Tuesday 2oth ult . , gave unusually interesting programme ; 
 wholly occupied Cherubini Mass C , . 4 , 
 work occasionally heard services Catholic Church , 
 unknown Aabitués Concerts Oratorios , “ 
 pity , ” hail pleasure opportunity hearing 
 workin London . Mass beautiful effective , pre- 
 senting superlative difficulties orchestral vocal 
 performers . orchestration bright fresh , 
 overwhelming ponderous , - writing , matter course , 
 pure singable , relief colour obtained employ- 
 ment double quartett soli voices , severely 
 taxed , excepting soprano , trying music 
 “ Laudate . ” modulations effects sug- 
 gestive Gounod , especially “ Qui tollis . ” Unfortunately 
 band parts numbers missing , accompaniments 
 ably supplied organ Mr. Best . soli parts 
 sustained Mrs. Osgood , Miss De Fonblanque , Mr. W. H. Cummings 
 Mr. Maybrick , Miss Green , Miss Jessie Bond , Mr. Henry Guy , 
 Mr. J. R. Alsop , rendered good service conductorship 
 Sir Julius Benedict . second consisted Beethoven 
 Mount Olives , version Dr. Hudson , published 
 Novello & Co. striking contrast religious reflective 
 music Mass scarcely selected . Mount 
 Olives intensely dramatic , making great demands powers 
 principal vocalists , soprano , tenor bass , especially 
 ; happily requirements fully met Madame Osgood 
 Mr. Cummings . instrumental introduction , solemn 
 striking impressive , composer asserts power 
 genius , continuous succession fine orchestral effects , pathetic 
 melodies , grand choral movements work 
 unworthy fame mighty tone - painter . Closing 
 splendid - known “ Hallelujah , ” wonder 
 noble work rarely heard public . Philharmonic Society 
 acquitted arduous task manner deserves 
 recognition praise , incentive exertion . 
 — amateur Concert given 13th ult . small concert 

 138 MUSICAL TIMES.—Marcu 1 , 1877 

 room , St. George Hall , conductorship Mr. F. E. Barnes 
 R.A.M.,organist St. Margaret Church , Prince Read . choruses 
 sung , especially Schumann Gipsy Life . duets 
 trios , piano , violin , harmonium , given Madame Husson , 
 Mr. Beale , Mr. Barnes , admirably interpreted ; Mr. 
 Barnes gave brilliant reading movements Ben- 
 nett “ Maid Orleans ” Sonata . solo singers Miss Hime , 
 Miss English , Mr. Moore , Mr. Dunn , Mr. Mackenzie 

 MaccLesFIELD.—The fifth Concert series given 
 Mr. Charles Seal took place Town Hall Monday evening 
 5th ult . , proved successful season , 
 performance music patronage Mr. Seal admirers , 
 fact determining Concert - giver , announced 
 platform , series Concerts season . Mr. Seal 
 played Beethoven Sonata F , Hummel La Bella Capriccioso , 
 Op . 55 , artistic style shownat Concerts , 
 advanced reputation . vocalists 
 Miss Jessie Royd , highly successful “ Bird came 
 Spring . ” Mr. Stedman , introduced new song “ Trust ” ( C. H.R. 
 Marriott),and Mr. Thurley Beale , admirable rendering “ Bonnie 
 wee thing ” ( George Fox ) rewarded vociferous encore . 
 selection duets trios capitally sung vocalists went 
 far enjoyable programme 

 MAIDENHEAD.—The seventh Concert Philharmonic Society 
 given 13th ult.in National Schoolrooms , Haydn 
 Creation performed . - balanced chorus arranged , 
 orchestra society — strengthened professional players , 
 selected chiefly Crystal Palace band — placed 
 leadership Herr Rosenthal . solo vocalists Miss Jessie 
 Royd , Mr. T. W. Hanson , Mr. Harry Horscroft , 
 highly successful . work excellently rendered , 
 sung crispness firmness tone 
 showed result vigorous discipline utmost advantage . 
 Mr. W. Goulden rendered good service piano , 
 arrangements Mr. G. R. Bennett , hon . sec . , left 
 desired 

 Mr. W. F. Harrison , Miss Alice Wilks sang “ Pious orgies ” 
 fouling judgment . 
 sung Rev. W. B. Money taste feeling . Mr. H. P.G. 
 Brooke able accompanist 

 Winpsor.—Mr . J.S. Liddle , Mus . Bac . , gave ‘ “ ‘ Chamber Concert ” 
 Town Hall Thursday rst . ult . , excellent pro- 
 gramme classical music works Beethoven , Schumann , 
 Chopin , Geminiani , Benedict , Molique , Saint - Saéns , Silas 
 performed . Mr. Liddle assisted Mrs. Richard Blagrove 
 ( piano ) , Miss Minnie Elwell ( concertina ) , Messrs. Blagrove ( viola ) 
 Aylward ( violoncello . ) Mr. Liddle played violin solos , 
 accompanied piano Sir George Elvey . 
 pieces set programme performed a_most 
 masterly manner . Miss Helen Heath vocalist . 3 
 os ult . Concert given conductorship Mr. J 

 ebster , St. — School . consisted Pip 
 selection W. S. Bennett Queen , — — _ taken 
 Mr. T. Ogilwy , Mr. G. McHutchin , M ah Sy Webster . 
 choruses performed boys ienalag school . 
 second comprised miscellaneous selection vocal instru- 
 mental pieces . executants Messrs. M. Clove F. Webster 
 ( piano ) , Messrs. F. Ries E. H. Donkin ( violins ) , small 
 efficient band . vocal music performed Rev. R. Blythe , 
 Messrs. Marriott , J ] . H. Webster , W. F. Hawtrey , E. Swain , McHutchin , 
 Floyer , Ogilwy . — — 13th ult . members Wind- 
 sor Eton Amateur Madrigal Society gave second Concert 
 St. Mark School . Concert invitation , chiefly 
 restricted friends members , compose Society . 
 large fashionable audience present , including 
 H.R.H. Princess Christian Schleswig - Holstein . pro 




 OBITUARY 


 AXTER , ARTHUR 


 ARENZIO , LUCA . 


 LLEN , ALFRED 


 MR . CHARLES FRY 


 O MUSIC TRADE.—A BANDMASTER 


 E & W. SNELL IMPROVED HARMONIUMS , 


 M OZART LITANIA DI VENERABILE 


 M ° 24 RT LITANIA DI VENERABILE 


 TRINITY COLLEGE , LONDON . 


 INSTITUTED , 1872 . INCORPORATED , 1875 . 


 DEPARTMENT EVENING CLASSES 


 RINITY COLLEGE HARMONY CLASS . — 


 RINITY COLLEGE COUNTERPOINT CLASS . 


 


 ORGANIST QUARTERLY JOURNAL 


 ORIGINAL COMPOSITIONS 


 PUBLISHED IST JANUARY , APRIL , JULY , OCTOBER . ) 


 EDITED 


 INTERNATIONAL ORGANIST 


 FO 


 NENT 


 { TON , 


 ANN 5 


 [ EAP ; 


 { AVIA 


 MESSRS 


 NOVELLO , EWER & CO 


 MR . LAMBORN COCK , 63 , NEW BOND STREET 


 SIR W. STERNDALE BENNETT 


 QUEEN 


 SIR W. STERNDALE BENNETT 


 SONGS 


 CLASSICAL PRACTICE : 


 PIANOFORTE STUDENTS 


 SELECTED CELEBRATED 


 " COMPOSERS , ANCIENT MODERN , 


 EDITED 


 SIR W. STERNDALE BENNETT 


 CIRO PINSUTI 


 - SONGS . 


 FERDINAND HILLER 


 - SONGS FEMALE VOICES . 


 FERDINAND HILLER 


 - SONGS FEMALE 


 J. L. HATTON 


 - SONGS FEMALE VOICES . 


 J. L. HATTON 


 TRIOS FEMALE VOICES 


 HENRY SMART 


 PIANOFORTES D’ALMAINE 


 EXCELLENT FIRM 


 IMMENSE STOCK 


 


 PIANOFORTES , HARMONIUMS , 


 | SHEET MUSIC 


 780 PIANOFORTES 


 OFFER ADVANTAGE PUBLIC 


 25 ” ” 46 ” ” 


 34 ” ” 60 


 45 ” 85 


 FAMED STEEL WREST PLANK PLATE 


 ELEGANT DESIGN , REFINED FINISH 


 PARTICULARS , VIEW , 


 5 , FINSBURY PAVEMENT 


 LETTERS PROMPTLY ATTENDED 


 142 


 


 R. L. PEARSALL 


 COLLEGIATE SERIES 


 DR . S. S. WESLEY 


 BERTHOLD TOURS . 


 DULCIANA 


 SCHUMANN 


 J. P. KNIGHT 


 NEW BALLADS . 


 BERTHOLD TOURS 


 R. L. PEARSALL 


 CONSECUTIVE FIFTHS OCTAVES 


 COUNTERPOINT 


 ESSAY , R ‘ : L. PEARSALL . 


 R. REDHEAD NEW PUBLICATIONS 


 ORDER 


 MORNING & EVENING PRAYER 


 


 


 BOOK COMMON PRAYER , 


 MUSICAL NOTATION 


 EDITED 


 RICHARD REDHEAD 


 S. S. WESLEY WORKS 


 SONG . 


 “ BEAUTY DAUGHTERS 


 BALLAD . 


 “ WERT THOU LIKE LIF 


 S LOW VALE 


 NEW ORGAN WORK 


 


 PY 


 38 


 220 , 


 SECON ERIES 


 ANGLICAN CHORAL SERVICE BOOK . 


 USELEY MONK PSALTER 


 JOULE S COLLECTION WORDS 


 OULE COLLECTION 527 CHANTS , 57 


 PSALTER , PROPER PSALMS , HYMNS , 


 OULE DIRECTORIUM CHORI ANGLI- 


 OULE DIRECTORIUM CHORI ANGLI- 


 ORDER HOLY COMMUNION . 


 WINCHESTER . 


 MORNING ‘ EVENING SERVICES CHANT FORM , 


 GREGORIAN ARRANGEMENTS 


 HYMN TUNES FREE ORGAN " ACCOMPANIMENT 


 144 


 ANTHEMS EASTER 


 DEAD 


 CHRIST RAISED DEAD 


 GADSBY , HENRY.—HE RISEN 


 O THANKS UNTO LORD 


 GOUNOD , CHARLES.—BLESSED “ 


 COMETH LORD 


 DEAD 


 LAHEE , HENRY.—NOW ‘ . " . DAY 


 WEEK 


 SULLIVAN , ARTHUR — MENTION “ 


 LORD BROUGHT 


 TRIMNELL , THOS . TALLIS.—THE LORD . ‘ KING 


 _ — BLESSED GOD FATHER 


 HYMNS TUNES 


 


 EASTER 


 SELECTED 


 HYMNARY 


 PRICE O PENNY 


 LENT 


 ACCORDING S. MATTHEW 


 1 } | JOHN SEBASTIAN BACH . 


 1 } | JOHN SEBASTIAN BACH 


 4 / PASSION LORD 


 ( SEVEN WORDS SAVIOUR CROSS 


 J. HAYDN 


 6 |THE PASSION LORD 


 | ( SEVEN WORDS SAVIOUR CROSS 


 CH . GOUNOD 


 PASSION LORD 


 | ( DER TOD JESU 


 4 C. H. GRAUN 


 HEN SURVEY WONDROUS 


 ASTER FESTIVAL HYMN.—RECITATIVE 


 LORD RISEN INDEED.—ANTHEM 


 SOON FIERY SUN ASCENDING GERMAN . CHURCH MUSIC 


 R LE : COMPOSED : 


 FO NT CHARLES JOSEPH FROST . 


 RD 


 RD 


 


 CATHEDRAL PSALTER 


 CHANTS 


 LONDON : NOVELLO , EWER CO . , 


 1 , BERNERS STREET ( W. ) , 80 & 81 , QUEEN STREET ( E.C 


 REDUCED PRICE 


 BACH PASSION 


 ST . MATTHEW 


 EDITED 


 SIR W. STERNDALE BENNETT 


 ENGLISH WORDS 


 MISS M. F. H. JOHNSTON 


 LONDON : NOVELLO , EWER CO 


 146 


 DR . SPARK 


 HANDY - BOOK ORGAN 


 CONTAINING 


 VILLAGE ORGANIST 


 SHILLINGS . 


 EDITED DR . STAINER . 


 JOHN M. W. YOUNG NEW ANTHEM . 


 RETURN ISRAEL PALESTINE 


 REV . R. BROWN - BORTHWICK 


 ENGLISH GRADUATE SNUBBED 


 DAY.—FULL ANTHEM 


 EASTER . 


 ACCOMPANIMENT PIANOFORTE HARMONIUM 


 NEW OCTAVO EDITIONS . 


 GOD SAVE PRINCE 


 DISTANT SEA 


 


 NIUM 


 RRAINE 


 RRAINE 


 ILBERT 


 UAL 


 JAMES 


 147 


 W. T. WRIGHTON NEW SONGS . 


 RIGHT SERAPH 


 LFRED R. GAUL CHORAL S SONGS , 


 WILLIAM J. YOUNG 


 OCTAVO 


 OPINIONS PRESS 


 NEW - SONGS 


 HO KNOWS BELLS 


 H. PARKER 


 LFRED ALLEN “ GAVOTTE FESTIVALE 


 POPULAR PIANO PIECES 


 EXCEEDINGLY LOW TERMS TRADE 


 PROFESSION 


 20 . HAYDN CELEBRATED ANDANTE , 


 NOVELLO , EWER CO . COMPLETE 


 UNIFORM EDITION 


 MENDELSSOHN 


 THIRTEEN - SONGS 


 BELLS ST . MICHAEL TOWER 


 NOVELLO 


 ORIGINAL OCTAVO EDITION 


 OPERASNOW READY 

 BEETHOVEN FIDELIO 
 ( German English words ) . 
 great Overtures usually performed ; 
 Piano Score published agreeing Original 
 Score notes signs phrasing 

 AUBER FRA DIAVOLO 
 ( French English words ) . 
 portions Opera printed time 
 England , making English Pianoforte Score 
 agrees Composer Original Score 




 MOZART DON GIOVANNI 


 BELLINI NORMA 


 VERDI IL TROVATORE 


 DONIZETTI LUCIA DI LAMMERMOOR 


 WEBER OBERON 


 ROSSINI IL BARBIERE 


 DONIZETTI LUCREZIA BORGIA 


 MOZART NOZZE DI FIGARO 


 VERDI RIGOLETTO 


 BELLINI LA SONNAMBULA 


 WEBER DER FREISCHUTZ 


 WAGNER TANNHAUSER 


 AUBER MASANIELLO 


 BELLINI PURITANI 


 WAGNER LOHENGRIN 


 DONIZETTI LA FIGLIA DEL REGGIMENTO 


 ROSSINI GUILLAUME TELL 


 MOZART DIE ZAUBERFLOTE 


 VERDI LA TRAVIATA 


 FLOTOW MARTHA 


 VERDI ERNANI 


 MOZART IL SERAGLIO 


 GLUCK IPHIGENIA TAURIS 


 GLUCK IPHIGENIA AULIS 


 NOVELLO 


 TONIC SOL - FA SERIES 


 HEAR PRAY ER . MENDELSSOHN © 3 


 LOREL . MENDELSSOHN ’ 0 6 


 CHRISTUS .. MENDELSSOHN 0 6 


 BB 


 1877 . 149 


 NOVELLO OPERA CHORUSES 


 EDITED 


 NATALIA MACFARREN BERTHOLD TOURS 


 AUBER FRA DIAVOLO 


 AUBER MASANIELLOHonneur ! honneur et gloire 

 BEETHOVEN FIDELIO 

 10 . Oh delight . ( Prisoners ’ chorus ) 3d . 
 welche Lust . 
 11 . Farewell , thou warm sunny beam 4d . 
 Leb ’ wohl , du warmes Sonnenlicht 




 BELLINI PURITANI 


 BELLINI NORMA . 


 BELLINI 


 LA SONNAMBULA 


 DONIZETTI LA FIGLIA 


 DONIZETTI LUCIA 


 DONIZETTI LUCREZIA 


 BORGIA . 


 FLOTOW MARTHA 


 GLINKA 


 LIFE CZAR 


 GLUCK 


 IPHIGENIA AULIS 


 GLUCK 


 IPHIGENIA TAURIS 


 MOZART DON GIOVANNI 


 MOZART 


 LE NOZZE DI FIGARO . 


 MOZART .. 


 DIE ZAUBERFLOTE 


 ROSSINI 


 GUILLAUME TELL . 


 SCHUBERT ROSAMUNDE 


 VERDI IL TROVATORE 


 VERDI RIGOLETTO 


 VERDI LA TRAVIATA 


 VERDI ERNANI . 


 VERDI NABUCO . 


 WAGNER LOHENGRIN 


 WAGNER TANNHZEUSER . 


 WEBER OBERON 


 WEBER 


 DER FREYSCHUETZ 


 LONDON : NOVELLO EWER & CO.,1 , BERNERS STREET ( W. ) , 80 & 8&1 , QUEEN STREET ( E.C. ) . 


 NEW YORK : J. L. PETERS , 843 , BROADWAY 


 150 


 57 


 53 . 


 59- 


 60 


 61 . 


 62 


 63 


 S.S.A. 


 15 


 MOZART SONATAS 


 NEW COMPLETE EDITION 


 EDITED FINGERED 


 AGNES ZIMMERMANN 


 , SINGLY — 


 OCTAVO EDITION PREPARATION 


 NOVELLO , EWER & COV 


 MENDELSSOHN 


 PIANOFORTE WORKS 


 LONDON : NOVELLO , EWER CO 


 PUBLISHED 


 EIGHTEEN - SONGS 


 COMPOSED 


 ANTON RUBINSTEIN . 


 ENGLISH VERSION NATALIA MACFARREN . 


 CONTENTS . 


 FOURTEEN SONGS 


 POEMS ROBERT BURNS 


 CONTENTS 


 NEW PIANOFORTE PIECE LISZT 


 ROSE , SOFTLY BLOOMING 


 ROMANCE 


 TRANSCRIBED PIANOFORTE 


 FRANZ LISZT 


 PRICE SHILLINGS . 


 PUBLISHED 


 PIANOFORTE COMPOSITIONS 


 LEFEBURE - WELY 


 OYE ! DP 


 OCTAVO EDITIONS CHORUS PARTS 


 NOVELLO OCTAVO EDITION 


 SONGS 


 


 ENGLISH GERMAN WORDS 


 COMPOSED 


 SIR W. STERNDALE BENNETT 


 DEW . 


 FORGET - - . 


 PAST . 


 GENTLE ZEPHYR . 


 INDIAN LOVE . 


 WINTER GONE . 


 DAWN , GENTLE FLOWER . 


 CASTLE GORDON . 


 LONESOME WOODS . 


 SING , MAIDEN , SING 


 LONDON : NOVELLO , EWER CO