


 PURE TONE . PERFECT TOUCH . 


 THOROUGH CONSTRUCTION 


 MATLMIANIC AL 


 HORIZONTAL GRANDS UPRIGHTS . 


 MODERATE PRICES 


 MURDOCH , MURDOCH & 


 PIANO PLAYER PIANO EXPERTS , 


 461 & 463 , OXFORD STREET , LONDON , W 


 BRANCHES 


 ARCHIBALD RAMSDEN , LTD 


 CHALLEN 


 COLLARD & COLLARD 


 CRAMER 


 7 — GECILIAN 


 J , & J , HOPKINSON 


 AWKWARD MARSHALL & ROSE 


 STROHMENCER 


 STEINWAY 


 J MA 


 . PLAYER - PIANDS 


 SHOWROOMS : 


 ALLISON PIANO FACTORY , LEIGHTON ROAD , KENTISH TOWN , LONDON 


 ESTEY PIANOS 


 GRADE , RATHBONE PLACE 


 HIGHEST POSSIBLE . 


 DESCRIPTIVE CATALOGUE POST FREE . CORRESPONDENCE INVITED . LON DON , W 


 PURCELL SOCIETY 


 SQ . , 


 E. J. DEN 


 FOLLOWING VOLUMES PUBLISHED 


 XUM 


 MUSICAL TIMES 


 SINGING - CLASS CIRCULAR . 


 FOUNDED 1844 . 


 PUBLISHED MONTH 


 ROYAL CHORAL SOCIETY . | ROYAL COLLEGE MUSIC . 


 ROYAL ALBERT HALL . PRINCE CONSORT ROAD , SOUTH KENSINGTON , S.W. 


 REQUIEM . 2 VERDI . | “ ROYAL COLLEGE MUSIC PATRON FU ND 


 CHORUS ORCHESTRA . ROYAL COLLEGE ORGANISTS . 


 ROYAL ACADEMY MUSIC , GUILDHALI 


 YORK GATE , MARYLEBONE ROAD , LONDON , N.W 


 SCHOOL MUSIC , 


 JOHN CARPENTER ST . , VICTORIA EMBANKMENT , E.C , 


 JPERA 


 ROY AL 


 LONDON COLLEGE CHORISTERS . LONDON COLLEGE MUSIC 


 VICTORIA COLLEGE MUSIC , - . 


 DEAN MANCHESTER . 


 CENTRAL DEPOT RUSSIAN MUS SEND FREE BOOK : M 


 - ALR . 


 IC . 


 N , W 


 SCHOOL 


 ATION 


 PROFESSIONAL NOTICES 


 MR . SAMUEL MASTERS 


 ( TENOR 


 MR . W. H. BREARE 


 STUDENTS PROFESSION 


 COMPOSERS ’ MSS . 


 DR . A. EAGLEFIELD HULL 


 EVISION MUSICAL COMPOSITIONS 


 L.R.A.M. ( PAPER WORK 


 L.R.A.M. EXAMS . , 1910 - 1916 


 A.R.C.M. ( PAPER WORR ) . 


 15 SUCCESSES 


 F.R.C.O. SPECIALIST CORRESPONDENCE 


 DR . LEWIS ’ TEXT - BOOKS : 


 ISS F 


 MA NGELSDORFF , 


 L.R.A.M 


 N ISS MARGARET Y OU NG , L.R.A.M.,A.R.C.M. 


 ORGANI 


 RGANIST - 


 JROFESSIONAL ORGANIST TEACHER 


 TRO _ 


 MUSIC STUDENTS & TEACHERS . = < 


 


 18 , OLD CAVENDISH STREET ‘ DA ’ 


 COMPOSED 


 NEW COMPOSITIONS 


 COMPOSED | KR 


 XUM 


 NOVELLOS MUSIC 


 


 SMALL ORCHESTRAS 


 ABBREVIATIONS 


 TRINITY COLLEGE MUSIC 


 HON . EARL SHAFTESBURY , 


 RT . K.P 


 LISHED 


 CHORALE PRELUDES 


 


 ORGAN . 


 : . WINCHESTER NEW . 2 , BURFORD . 


 ST . MICHAEL . 


 COMPOSED 


 JOHN E. WEST 


 QUATRE ESOUISSES 


 VIOLIN PIANOFORTE 


 COMPOSED 


 LEOPOLD ASHTON 


 


 BROADWOOD 


 ANOS 


 BOSWORTH & CO 


 NOVELTIES . 1917 . NOVELTIES 


 MISCHIEF . 


 WHITE RABBIT 


 BELLS , 


 PETITE VALSE 


 LEGEND , DIALOGUE , 


 BOSWORTH & CO . , , 


 8 , HEDDON STREET , REGENT STREET , LONDON , W. 


 DECEMBER 12 , 1916 


 CHIVALRY SEA 


 NAVAL ODE 


 ROBERT " BRIDGES 


 SET - 


 ORCHESTRA 


 CHORUS 


 


 C. HUBERT H. PARRY . 


 JOGUE , 


 UCCESS 


 MUSICAL 


 SINGING - CLASS CIRCULAR . 


 JANUARY 1 , 1917 


 CONFESSIONS CRITIC . 


 III.—THE ART HEARING JUDGING 


 1917 


 HB 


 ‘ ORGELBUCHLEIN ’ : 


 BACH PROBLEM . 


 NEW YEAR . 


 EPIPHANY . 


 PURIFICATION B.V.M. 


 10 


 ‘ ORGELBUCHLEIN . ’ 


 I. 


 ADVENT . 


 CHRISTMAS . 


 PASSIONTIDE . 


 EASTER 


 ASCENSION DAY . 


 WHIT - SUNDAY . 


 TRINITY SUNDAY . 


 ST . JOHN BAPTIST . 


 VISITATION B.V.M 


 ST . MICHAEL ARCHANGEL . 


 FEASTS APOSTLES . 


 


 CATECHISM . 


 87 


 ( 6 ) 88 


 XUM 


 96 


 113 


 PENITENCE AMENDMENT 


 HOLY COMMUNION 


 COMMON WEAL 


 CHRISTIAN CONDUCT EXPERIENCE 


 TIME TROUBLE 


 CHURCH MILITANT . 


 TIME WAR . 


 DEATH GRAVE 


 DIVERS OCCASIONS . 


 LIFE ETERNAL . 


 26 , 27 , 35 


 , 1917 


 PROKOFIEV PIANOFORTE 


 CONCERTO 


 MONTAGU - NATHAN 


 1S 


 XUM 


 CAMILLE SAINT - SAENS : WAGNER 


 FRENCH MUSIC . 


 14 


 15Whatever Saint - Saéns think , present 

 generation ‘ truly French ’ regards 
 music having understood Wagnerian 
 powerfulness weakness . readily admit 
 Wagner played France 
 , reason agree lay 
 aside symphonies Beethoven Schumann , 
 let rest allow 
 hear certain number French works , old 
 modern . hour reason play 
 Wagner Beethoven , 
 ; equally classical , Saint - Saéns 
 denunciation wise alter fact 

 truth highly useful 
 help speed knowledge influence French 
 symphonic works , decry German geniuses 
 past . standpoint best known 




 16 


 MR . KLEIN REPLY 


 


 XUM 


 XUM 


 18 


 XUM 


 1860 - 62 ) , 


 19 


 XUM 


 ORGAN RECITALS 


 AV POINTMENTS 


 NEW MUSIC . 


 SONGS 


 PIANOFORTE 


 MUSIC 


 21 


 CHURCH ORGAN MUSIC 


 BOOKS RECEIVED 


 MR . ALBERT COATES NEW OPERA 


 EDITOR ‘ MUSICAL TIMES 


 NATIONAL ANTHEM 


 22 


 SERPENT . 


 EDITOR ‘ MUSICAL TIMES 


 HANS RICHTER . 


 DIED BAYREUTH , DECEMBER 5 , 1916 


 AL 


 ORG 


 17 


 XUM 


 ANTHEM EVENING GENERAL USE . 


 2S 5 


 XUM 


 ; _ — _ — _ — _ — — — 


 1 SOW 


 SON 


 7 — - — -~\ — . _ — _ , — — — — — — _ _ _ — 3 — — _ — — — 


 : 7 7 : » 


 6 | SS | 2 


 * = > = — _ — _ 


 XUM 


 LORD , THEE 


 6 SS STS SS | — " [ 3 . | 3 — — } 


 TT - — — _ 


 ZN 


 — < _ _ — — 


 K.C 


 NS 


 HH 


 LI 


 11 


 LL 


 1846 . 


 SS , | — — =| = SI ] |= 


 XUM 


 31 


 FUND MRS . CALDICOTT 


 MUSICAL NOTES ABROAD 


 SHAKESPEARE USE MUSIC 


 FLORENT SCHMITT LONDON 


 SC 


 R.C.M 


 ASSOCIATED BOARD 


 THR ROYAL PHILHARMONIC SOCIETY 


 ROYAL CHORAL SOCIETY 


 QUEEN HALL SYMPHONY CONCERTS 


 LONDON SYMPHONY ORCHESTRA 


 34THE MUSICAL TIMES.—January 1 , 1917 

 played Mr. Albert Sammons , great interpreta- 
 tion work happily tamiliar —— 
 concert given December 4 introduced novelties . 
 programme included ‘ Tannhauser ’ Overture , 
 Elgar ‘ Enigma ’ Variations , Beethoven 7 , 
 finely played Safonov . Miss Edith Evans , 
 excellent voice , gave highly dramatic performance 
 * Ocean , thou mighty monster 

 BACH CHOIR , QUEEN HALL , DECEMBER 12 




 MUSIC 


 ROYAL ACADEMY 


 ROYAL COLLEGE MUSIC 


 M. YSAYE ADELA VERNELONDON STRING QUARTET 

 November 24 , Beethoven Quartet E flat , Op . 74 
 Schumann , Frank Bridge Quintet formed 
 attractive programme.——On December 8 concert 
 narrowly escaped disaster owing illness Mp 
 Warwick Evans , ’ cellist , Mr. Wynne Reeves wa 
 interned Beecham Opera leads 
 orchestra . good concert contrived aid 
 Mr. Petrie ( violin ) Mr. C. A. Crabbe ( ’ cello 

 GLEE MADRIGAL SOCIETY : VISIT 




 LONDON 


 HUDDERSFIELD 


 XUM 


 Y : VISIT 


 35 


 CORRESPONDENTS 


 BIRMINGHAM 


 36Musical Festival 1900 . Birmingham Festival 
 Choral Society Hallé band joined forces , Dr. Sinclair 
 conducting , favourable conditions 
 performance ‘ Gerontius ’ grand Festival 
 lines , choral singing ideal , playing 
 Orchestra glorious . Capt . John Coates , 
 engaged sing title - réle , moment 
 fulfil engagement , owing military duties , 
 committee fortunately able secure Mr. Gervase 
 Elwes Capt . Coates . 
 fervour soul singing , 
 surpassed touching emotional delivery . Miss Dilys 
 Jones Angel sang finely . Mr. Charles 
 Mott sang Priest Angel 
 Agony , achieving greatest success . 
 voice , sonorous quality , completely filled 
 hall . Mr. C. W. Perkins gave splendid help 
 organ , Dr. Sinclair complimented 
 impressive performance 

 Catterall second chamber concert series 
 given November 29 , auspices 
 Birmingham Chamber Concert Society , Royal Society 
 Artists Exhibition Rooms . programme included 
 Haydn String Quartet , Op . 76 , . 5 , D minor , 
 Beethoven Op . 131 , C sharp minor , Quartet , 
 movement written different Russian composer , 
 , Rimsky - Korsakov , Liadov , Borodin , Glazounov . 
 work proved novelty , theme based 
 letters B - la - F , referring celebrated 
 Russian publisher Belaieff . colour , 
 excellently performed 

 Birmingham Choral Orchestral Association , 
 Town Hall , November 18 , gave vivid spirited 
 concert - performance Edward German opera ‘ Tom Jones , ’ 
 ably prepared conducted Mr. Joseph H. Adams . 
 melodic structure lends concert purposes , 
 especially important work principals , grateful 
 sing soprano soli assigned Sophia , heroine , 
 represented Miss Whitfield , possessor 
 fine pure voice sings artistically . Miss Doris 
 Russell , Mr. Wrigglesworth , Mr. Alfred Askey com- 
 pleted excellent cast principals . choir 
 orchestra excellently 




 BOURNEMOUTH 


 XUM 


 27 


 BRISTOL . 


 XUM 


 CAMBRIDGEDUBLIN 

 Royal Dublin Society following chamber music 
 recitals given : November 27 , string orchestra 
 conducted Dr. Esposito , programme including 
 Concertos Corelli Bach ( violin strings ) , 
 Mozart ‘ Serenade , ’ smaller pieces W. H. Reed , 
 Albanesi Grieg ; December 4 , Mr. Ellingford , 
 Liverpool , gave organ recital , including Bach Toccata , 
 Adagio , Fugue C , Mendelssohn Sonata , 
 effective arrangement Scherzo Stanford ‘ Irish ’ 
 Symphony ; December 11 , Dr. Esposito , Signor Simonetti , 
 Mr. Clyde Twelvetrees played Schubert Trio , Op . 99 , 
 Beethoven Trio , Op . 97 , Signor Simonetti 
 Dr. Esposito played Bach Sonata ; December 18 , 
 Mr. Max Mossel Mr. Benno Moiseiwitsch played 
 3rahms Op . 78 Grieg Op . 13 , solos . 
 Mr. Moisiewitsch appearance Dublin 

 Rathmines Operatic Society gave week per- 
 formances ‘ Gondoliers ’ ‘ Iolanthe ’ 




 38 


 1917EDINBURGH 

 Madame Stralia , Mr. O. G. O’Brien , Mr. Vallier , 
 vocalists , Miss Adela Verne , pianist , gave concert 
 November 18 . programme popular order , 
 high artistic merit . November 25 , second 
 Harrison Concert - introduced Edinburgh Madame 
 G. Suggia , Spanish ‘ cellist . playing superb , 
 undoubtedly feature concert . Mesdames 
 Flora Woodman Ada Crossley , Messrs. Maurice 
 D’Oisly Frederic Austin vocalists . Mr. Charlton 
 Keith ideal accompanist . Prof. Tovey gave 
 second Historical Concerts November 29 
 December 13 respectively . Carrying scheme 
 outlined month , Prof. Tovey gave recital 
 Beethoven pianoforte works following order : Op . 2 

 . 20 , p. 27 ; . 20 , p. 31 ; . 3 ; ‘ Vieni Amore ’ 
 Variations ; Op . 101 ; Op . 10 , . 3 ; Variations , Op . 35 ; 
 Op . 78 ; Op . 108 . list interested 




 GLASGOW . solos . new Australian soprano , Miss Kate Campi constr 
 solo vocalist , favourable impression ‘ Vita . 
 appearance concerts . programme@ 
 fourth concert , December 2 , notable chiefly fori gear 

 variety — chamber music , organ music , vocal solos . Banto 
 sustained newly - formed combination , tht examp 
 Fellowes String Quartet ( Mr. Horace Fellowes , Miss Bess§ Violin 
 Spense , Miss Emily Buchanan , Mr. Andrew Templeton Samm 
 played Mozart Quartet B flat major , . 34 , ang Violin 
 Beethoven Quartet major , . 5 ( Op . 18 ) , goo pianof 
 ensemble fine insight . audieng dance 
 excellent playing Mr. Herbert Walton , gifted minut 
 organist Glasgow Cathedral , pieces Mozart , List Rar 
 Bach , R. S. Stoughton , strongest appedf pees ’ 
 Madame Marthe Terrisse , appearans| song ‘ 
 solo vocalist , gave refined performances songl « pet 

 covering wide range style . outstanding featured 
 fifth concert , December 9 , particularly fir 
 playing compositions Bach Scarlatti M. Arthey 
 de Greef , Belgian pianist . associated wit ! 
 Miss Margaret Holloway performance Schumann 
 Sonata D minor , . 2 ( Op . 121 ) , second thir 
 movements proved acceptable th 
 audience . solo violinist , Miss Holloway played 
 excellently Sonata major Handel , numbey 
 Francis Francceur J. S. Henderson . Madam 
 Jeanne Jouve , vocal soloist , sang acceptang 
 songs Meyerbeer , Fauré , Marcello , Vaccaj . Th 
 sixth concert , December 16 , ranks th 
 finest given season . Mr. Albert Sammons violinis ) 
 Mr. Wassili Safonov pianist , gave magnifices 
 interpretations Sonatas violin _ pianofort ] 
 Beethoven , viz . , C minor ( Op . 30 ) , . 2 , G majaj 
 ( Op . 30 ) , . 3 , major ( Op . 47 ) , ‘ Kreutzer 
 Miss Lillie Wormald sang irreproachable selection d 
 songs splendid effect . vocal instrument 
 soloists season owe Mr. Wilfrid E. Seniay 
 artistic aid pianoforte accompanist ail th 
 concerts . 
 enormous popularity Glasgow Orpheus Choi 
 ( Mr. Hugh S. Roberton , conductor ) evidenced th 
 fact available inch space St. Andrew Hal 
 booked week annual Scottish Concert 
 December 7 . popularity thoroughly deserved , fo 
 finer choral interpretations Mr. Roberton 
 cheristers heard north Tweed . distinctio 
 performances personnel 
 Choir personality conductor , 
 gifted imagination infuses presenta 
 tion deemed commonplace choral music 
 notable number programme Mr. Granvill 
 Bantock ‘ Sea Sorrow ’ ( ‘ Songs Hebrides ’ ) 
 Choir gave ‘ performance . ’ charming 
 form choral arrangement Mr. Bantod 
 shows real genius , treatment old Hebrides 
 song masterly ‘ Death Croon 
 sung . Miss Boyd Steven sympatheté 
 singing ‘ Lament ’ ‘ Sea Sorrow ’ impressive 
 departure usual practice Choir concerts wai 

 employment members Choir solo vocalists , ami 




 XUM 


 39LIVERPOOL 

 Sir Henry Wood thrice - welcome visitor , 
 direction fourth Philharmonic Concert November 
 21 resulted alert animated performance , notably 
 Dohnanyi Suite F sharp minor , delightful 
 example absolute music . sustained melodic interest , 
 constructive ingenuity , colour amazing . Smetana 
 ‘ Vitava , ’ Rimsky - Korsakov ‘ Chanson Russe ’ ( 
 choir sang revolutionary folk - song ‘ 
 dear old oak - tree ’ ) received , Granville 
 Bantock Prelude ‘ Sappho , ’ eloquent 
 example composer quieter manner . Beethoven 
 Violin Concerto finely played soloist , Mr. Albert 
 Sammons , introduced characteristic Légende 
 Violin Delius , ably accompanied 
 pianoforte Miss Helena McCullagh . Grainger ‘ Clog- 
 dance , ’ ‘ Handel Strand , ’ provided inspiriting 
 minutes remained end 

 Ranging Wilbye madrigal ‘ Sweet honey - sucking 
 bees ’ Delius Pianoforte Concerto , Purcell 
 song ‘ Ye twice - deities ’ Granville Bantock 
 ‘ Hebridean ’ Symphony , programme fifth 
 Philharmonic Concert , conducted Mr. Bantock 
 December 5 , considered lacking range 
 variety . interesting items added Elgar 
 choral work ‘ Fallen , ’ soprano solo 
 sung unaffected feeling fervour Miss Edith 
 McCullagh . , alas ! timely elegy deep 
 impression . Mr. Bantock ‘ Hebridean Symphony ’ chiefly 
 sustains reputation master orchestral device . 
 music , need hardly said , cast usual 
 symphonic form , viewed orchestral poem , 
 treatment composer Hebridean material largely 
 objective — oppressively ‘ battle - music , ’ 
 sound fury parallel . 
 Pianoforte Concerto Delius , continuous work , original 
 thought individual expression , Mr. William 
 Murdoch played magnificently tremendously difficult 
 solo - . young Australian pianist , appeared 
 khaki , bent novel peculiar music , shown 
 later items Debussy de Severac . Havergal 
 Brian sprightly energetic ‘ Festal Dance ’ closed fine 
 concert . vocalist Mr. Robert Radford , 
 heard greater advantage Stanford 
 ‘ Sea Songs 

 second concert Akeroyd Symphony Orchestra , 
 December 2 , notable impressive performance 
 Mr. Akeroyd direction ‘ Pathetic ’ Symphony , 
 evidently retains firm hold general 
 public . Schumann fine Overture unsuccessful 
 opera ‘ Genoveva , ’ Spohr thought highly , 
 aiso interesting hearing , sounded gloomy note 
 Tchaikovsky music deepened . ‘ Tannhauser ’ 
 Overture , taken sedately , brightened matters some- 
 , delicate charm Ballet Suite , ‘ Cephale 
 et Procris ’ ( Grétry - Mottl ) , music suited lesser 
 weight tone violins held lady - players . 
 vocalist , Madame Elsa Stralia , found favour brilliant 
 singing ‘ Jewel Song ’ ‘ Faust , ’ 
 contrasted mood Mascagni ‘ Voi , lo Sapete , ’ Arditi 
 ‘ Il bacio ’ chosen . Rimsky - Korsakov 
 ‘ Chanson Russe ’ cheerful Ana / e 

 second meeting Rodewald Concert Society , 
 December 11 , Arthur Catterall Quartet played 
 delightful composite quartet ‘ B la F ’ ( Belaieff ) , written 
 celebrated Russian publisher honour Rimsky- 
 Korsakov , Liadov , Borodin , Glazounov , Ernest 
 Walker Phantasie Quartet , charming work . lucid 
 balanced performance Beethoven C sharp minor 
 Quartet , Op . 131 , completed programme 

 meeting local Association Organists 
 Choirmasters , December 4 , lecture given 
 ‘ Carillons ’ Mr. W. A. Roberts , interesting lantern 
 views bell - towers carillons home abroad . 
 Musical illustrations played , showing influence 
 bells composers , ranging Purcell Dukas , 
 incidentally provision representative English 
 Carillon new Liverpool Cathedral suggested 




 MANCHESTER DISTRICT 


 40Sir Thomas Beecham programme November 30 
 finely balanced , sheer orchestral delight hard 
 match surpass . Grandeur breadth 
 ‘ Mastersingers ’ Overture Brahms Symphony 
 . 2 . Rarely imposing pageantry 
 ‘ Mastersingers ’ adequately pourtrayed 

 Sir Thomas played big Symphonies : 
 César Franck , Beethoven . 3 , Brahms . 2 . 
 produced hearer sense abso- 
 lute finality , conviction growing bar 
 reading close ideal likely ; 
 confidence conductor surety symphonic 
 work disturbed tackled Beethoven ‘ Eroica . ’ 
 invites - adjustment attitude Beethoven : 
 truth known , probably Wagner little 
 Richter Beethoven readings , Manchester folk 
 come regard Richter Beethoven 
 Meiningen folk thought Brahms wter- 
 pretations worth rap alongside Steinbach . certainly 
 odd Sir Thomas Beecham achieve notable 
 grandeur Wagner , prefer big Beethoven insist 
 delicate fancy grace imposing 
 treatment Richter accustomed 

 NEWCASTLE DISTRICT 




 _ — _ — _ — _ _ _ _ 


 41 


 NOTTINGHAM DISTRICT 


 OXFORD 


 SHEFFIELD DISTRICT 


 42YORKSHIRE . 
 LEEDS 

 looking records month concerts 
 find Leeds exceptionally busy , 
 war proved check musical activity . 
 possible note establishment new series 
 concerts , Miss Edith Robinson , Manchester violinist , 
 having begun series weekly mid - day concerts , low 
 price privilege smoking , 
 particularly welcome business men live outside 
 Leeds . far given : November 28 
 concert - giver brought quartet party , , Mr. 
 Herbert Johnson , gave Schumann ( Juintet ; December 
 5 Mr. Alexander Cohen Miss Kathleen Frise Smith gave 
 highly sympathetic performance César Franck Sonata 
 Violin Pianoforte ; December 12 Madame Terrisse , 
 accomplished French vocalist , gave recital French , 
 Italian , Russian , British songs , achieved remark- 
 ably level excellence ; December 19 Miss 
 Robinson Mr. Frank Merrick played ‘ Kreutzer ’ 
 Sonata . Like new enterprises , time 
 known , Miss Robinson 
 encouraged persevere , room 
 concerts like . November 22 Leeds 
 Choral Union , Dr. Coward , gave performance 
 Verdi ‘ Requiem ’ chorally great merit , 
 soloists — Miss Stiles - Allen , Miss Phyllis Lett , Mr. 
 Brearley , Mr. Herbert Parker — - chosen 
 task . Parish Church annual service 
 Brahms ‘ German Requiem ’ feature , took 
 place December 5 , Mr. Willoughby Williams , 
 organist , directed sympathetic performance . Mr. W. 
 Hayle sang bass solos artistically , soprano solo 
 given choir - boys . Mr. John Groves 
 organ , added drums pianoforte 
 secure variety colour . December 6 
 Leeds New Choral Society , conducted Mr. M. 
 Turton , gave Mendelssohn ‘ St. Paul . ’ choir 
 alert - taught ,   soloists — Miss 
 Annie Scott , Miss Vipond , Mr. George Wood , Mr. 
 John Browning — fully efficient . Circumstances 
 permit orchestra , Mr. Fricker 
 atone absence , Town Hall organ 
 singularly unfitted task requiring refinement 
 subtlety tone - quality . December 9 Leeds 
 Saturday Orchestral Concert excellent . Leeds 
 reason congratulating supply 
 orchestra , conductor , soloist , home - 
 displaying efficiency . Beethoven Violin 
 Concerto , solo played Mr. Alexander Cohen , 
 leader orchestra , entered thoroughly 
 spirit music , giving thoughtful reading , intro- 
 ducing clever cadenzas composition . 
 novelty afforded Leeds shape Ravel brilliant 
 fanciful ‘ Mother Goose ’ Suite , 
 topical appropriateness Enesco ‘ Roumanian 
 Rhapsody , ’ piece built Liszt pattern , based 
 characteristic themes , calling compression , 
 repetitions tiresome . Mr. Fricker conducted 
 sympathy judgment . Leeds Bohemian 
 Concert , December 13 , Mr. Alexander Cohen Quartet , 
 includes ladies , gave praiseworthy 
 performances Beethoven minor Quartet ( Op . 132 ) , 
 McEwen interesting ‘ Bay Biscay , ’ Dvorak 
 ( Juartet F. chamber concert , given 
 Mr. Fulford Quartet Leeds Arts Club November 27 

 String Quartets Godard , Waldo Warner , Frank 
 Bridge , Glazounov , played , briefly 
 mentioned , Mr. Percy Richardson pianoforte recital 
 University November 21 , organ recital ( 
 behalf ‘ Music War - time ’ ) St. Chad , Headingley , 
 November 28 . events passing 
 interest , lecture - recital Serbian folk - songs 
 given Miss Vivien Edwards , Leeds Arts Gallery 
 December 5 . 
 TOWNS 




 _ — _ — _ — _ — _ _ _ _ 


 CONTENTS 


 MONTH . 


 PUBLISHED 


 H. W. GRAY CO . , NEW YORK . 


 BUTTON , H. 


 RGANIST SEEKS - ENGAGEMENT . 


 NEW BOOK 


 


 A. EAGLEFIELD HULL 


 ALEXANDER SCRIABIN : 


 NOVELLO ELEMENTARY MUSIC 


 MANUVALS . 


 PHYSICAL EXERCISES , DANCES , 


 GAMES 


 


 INFANT SCHOOL . 


 MARGARET ALEXANDER HUGHES 


 MUSIC ARRANGED 


 PUBLISHED 


 & CO . , LTD . , LONDON 


 MACMILLAN 


 SPECIAL NOTICE 


 44 


 1917 


 MUSIC LENT 


 PASSION LORD . 


 PASSION CHRIST . G. F. HANDEL 


 PASSION LORD . 


 ION WAYS LANGUISH . 


 2S. 5 


 STORY CROSS 


 VOICES ORGAN 


 WORDS 


 REV . E. MONRO 


 SET MUSIC 


 REPROACHES _ 


 SET MUSIC 


 BENEDICITE 


 FOLLOWING COMPOSERS 


 LLIOTT , 


 LLIOTT , 


 BARNBY 


 ANTHEMS 


 LUTE SERIES 


 27 


 XUM 


 


 SA 


 45 


 EB 


 CANTATAS 


 REDUCED PRICE 


 NIGHT BETHANY 


 WORDS WRITTEN COMPILED 


 JOSEPH BENNETT 


 MUSIC COMPOSED 


 C. LEE WILLIAMS 


 LENT 


 REDUCED PRICE 


 GETHSEMANE 


 WORDS WRITTEN COMPILED 


 JOSEPH BENNETT 


 MUSIC COMPOSED 


 C. LEE WILLIAMS . 


 DESERT STORY CALVARY 


 IAAT 


 GARDEN 


 


 SOPRANO , TENOR , BARITONE SOLI 


 CHORUS 


 WORDS WRITTEN SELECTED 


 VIOLET CRAIGIE HALKETT 


 MUSIC COMPOSED 


 FERRIS TOZER . 


 CRUCIFIXION 


 MEDITATION 


 SACRED PASSION 


 WORDS SELECTED WRITTEN 


 W. J. SPARROW - SIMPSON , M.A. 


 SET MUSIC 


 J. STAINER 


 DARKEST HOUR 


 SOPRANO , TENOR , BARITONE SOLI 


 CHORUS 


 HOLY 


 


 HYMNS SUNG CONGREGATION 


 MUSIC COMPOSED , 


 MOORE 


 CROSS CHRIST 


 HAROLD 


 WORDS SELECTED HOLY SCRIPTURES , 


 APPROPRIATE HYMNS , 


 W. MAURICE ADAMS 


 THOMAS ADAMS 


 REDEEMER 


 INTERSPERSED 


 TENOR BASS SOLI CHORUS 


 WORDS SELECTED WRITTEN 


 ROSE DAFFORNE BETJEMANN 


 MUSIC COMPOSED 


 THOMAS ADAMS . 


 NT NT 


 ? 


 EASY CANTATA 


 E. V. HALL , M.A 


 DOLOROSA 


 DEVOTION 


 BARITONE SOLO CHORUS 


 WORDS DERIVED MAINLY ANCIENT SOURCES 


 MUSIC COMPOSED 


 E. CUTHBERT NUNN 


 OLIVET CALVARY 


 TENOR BARITONE SOLI CHORUS 


 INTERSPERSED HYMNS SUNG 


 CONGREGATION 


 WORDS SELECTED WRITTEN 


 SHAPCOTT WENSLEY 


 MUSIC 


 J. H. MAUNDER . 


 FOOT CROSS 


 ( STABAT MATER ) 


 SOLI , CHORUS ORCHESTRA 


 COMPOSED ‘ 


 ANTON DVORAK . 


 VOCAL & INSTRUMENTAL MUSIC 


 ANTHEMS 


 PENITENCE 


 PEACE 


 J. H. MAUNDER 


 CHORALE PRELUDES 


 ORGAN | 


 C. HUBERT H. PARRY . 


 SET . 


 COMPOSITIONS ORGAN 


 CONTENTS 


 ORIGINAL 


 1 . CHORALE PRELUDE 


 ORIGINAL COMPOSITIONS ORGAN 


 CHORALE PRELUDE 


 . CHORALE PRELUDE 


 . CHORALE PRELUDE 


 . CHORALE PRELUDE 


 LATI 


 N ORGANIST 


 EDITED 


 DES 


 PUBLISHED 


 > ORGAN ( J. RICORDI & X C ( ) . 


 PRICES NET CASH 


 ALFANO , F. MATTHAY , TOBIAS1 . S , Bad MINIATURE SCORES . 
 ed Hollins ORCHESTRAL . OPERAS — CoMPLETE 

 G. Ould 
 BEETHOVEN . BELLINI , V. s. d 

 G. Ould SYMPHONIES ( modern notation Umberto Giordano ) . Norma * 5 ° 
 . G. Ould eC. Oe - ; DONIZETTI , G. 
 Je ° J . rc , P. . ; 
 iam Sewell . = ae — 36 : oe : 1.’Elisir d'Amore , _ ; : 5 0 
 yt 3 . InE flat . Op . 55 . roica : 3 0 — 
 iam Sewell } { BR flat . Op . ¢ P PONCHIELLI , A. 
 iam Sewell s C minor . Op . 67 La Gioconda oe 




 VERDI , G 


 LARGEST OPERATIC PUBLISHERS WORLD 


 IMPORTANT NOTICE 


 48 


 LADIES ’ VOICES 


 HERMANN LOHR . GUY D'HARDELOT . 


 HERMANN LOHR , TERESA DEL RIEGO . 


 R. CONINGSBY CLARKI TERESA DEL RIEGO . 


 LAO SILESI 2 ; , 


 FRANCO LEONI . } LILIAN RAY 


 DUETS - SONGS 


 | 


 SHORT EASY PIECES 


 ORGAN 


 COMPOSERS 


 SET 


 ENGLAND 


 WEEP , SAD FOUNTAINS 


 TRIO FEMALE VOICES 


 WORDS ANONYMOUS 


 P. C. BUCK 


 @ 40 . 


 3 — — — — — — SS 


 ENGLAND 


 WEEP , SAD FOUNTAINS 


 _ > * L L 1 


 XUM 


 TRUE LOVE KNOW 


 EXTRA SUPPLEMENT 


 FEMALE VOICES 


 S.S.A. 


 352 


 169 


 NOVELLO OCTAVO EDITION 


 STATED 


 AOE ENGLAND 


 TRUE 


 LOVE KNOW 


 OLD ENGLISH MELODY 


 ARRANGED S.S.A. UNACCOMPANIED 


 


 H. BALFOUR GARDINER 


 _ S010 . — = : 


 SS 


 XUM 


 — — = = SSS SS SS 


 + } — T T = 


 STS = — 7 -—|| 


 ’ } PI 


 SSS SS 3S ) 


 NOVELLO OCTAVONight sinks wave Henry Smart 

 Martin Roeder 
 Bateson 
 H. Leslie ) 
 T. Weelkes ad . 
 Nights , G. Roberti 3d . 
 Noble iby lite ( Canon 6 v. ) 
 Beethoven 3d 
 H. Hofmann 2d 
 Brahms 3d . 
 * ( 4 v. ) Mendelssohn 2d 
 * sleeps crimson ( 4 v. ) 
 G. von Holst 2d 
 . J. Brahms 2d . 
 B. Luard- Selby 2d . 
 Nymphs Rhine , Marschner 4d 
 * O beautiful violet ( 2 v. ) C. Reinecke ad 
 O clap hands E , H , Thorne 
 O grateful evening .. C , Reinecke 

 Night Song ( 2 v. ) 
 * Nightingale , 
 ( Arr 




 263 . 


 406 


 286 


 43 


 LONDOY 


 EDITION 


 NOV ELL O 


 PRIOS , QUARTETS 


 COMPANY 


 LIMITED 


 34 


 CO : RRP MOANA 


 GREATEST ENGLISH PIANO 


 UNDOUBTEDLY WEBER 


 WEBER PIANO 


 BRITISH BUILT 


 SCHOOL MUSIC REVIEW 


 ESTABLISHED 1892 


 PUBLISHED MONTH 


 PRICE - HALFPENCE 


 LONDON : NOVELLO COMPANY , LIMITED 


 PIANOFORTES 


 PIANOS INSPIRE 


 MARSHALL ROSE 


 DEBENHAM PIANO GALLERIES 


 WIGMORE HALL 


 WIGMORE HALL STUDIOS 


 TUNING REPAIRS 


 WIGMORE HALL 


 32 - 40 . WIGMORE STREET , LONDON , W