


 publish on TH 


 ROYAL CHORAL SOCIETY , 


 ROYAL ALBERT HALL 


 ROYAL ACADEMY of MUSIC , 


 TENTERDEN STREET , W 


 SEPTEMBER 1 , 1906 


 the ROYAL COLLEGE of ORGANISTS 


 the MUSICAL TIMES 


 found in 1844 


 e first of every month 


 WARDOUR STREET , SOHO 


 5 S 


 READ 


 fourth 


 SEASON 


 LONDON 


 CHORAI 


 SOCIETY 


 ARTHUR FAGG 


 conductor 


 five concert will be give at QUEEN ’S HAL ! 


 — — — — — — — — — — * " SAMSON and DELILAIL " SAINT - SAEN 


 HE GUILDHALL SCHOOL of MUSIC 


 UNIVERSITY 


 NIVER 


 NATIONA 


 CHURCH 


 VIOLIN CONCER 


 WALTER CHARLT 


 ONY , COUNTERPOINT FHEORY OF MI 


 I , 1900 


 SOUTH POR 


 MUSICAL FESTIVAL 


 MISS ALICE LAKIN 


 OATES VR . EYNON MOF 


 VR . FFRANGCON - DAVIES 


 FREDERIC AUSTIN MR . JOSEPH LY 


 MR . ARTHUR W. SPEFE 


 DR . HENRY COWARD 


 ELIJAH 


 I ' PIED PIPER of HAMEI 


 WIND 


 SCHUBE ‘ SYMPHONY in B MIN 


 variation 


 I 4 the dream of GERONTI 


 GEORGE KIRBY 


 BIRMINGHAM and MIDLAND INSTITUT 


 SCHOOL of MUSIC 


 G EB CK . 


 M i O 


 session 


 of LONDON COLLEGE 


 WHITE STREET , MOORFIELDS , E 


 CLASS 


 DAVID SAVAGE 


 BLACKPOOL MUSICAL FESTIVAI 


 OCTOBER ' 


 £ 300 in prize 


 ENTRIES CLOSE MONDAY , SEPTEMBI 


 LIONEL H. FRANCEYS , W I IL 


 WESTBOURNE PARK CHORAL SOCIETY 


 CREATION , " E KING OLAI 


 T E TENOR VOICE 


 THE 


 MUSICAL 


 RRESPONDENCE SCH¢ OL of MUSIC 


 LONDON , 


 ADUATED postal lesson in harmony 


 NTERPOINT theory of MUSIC form and 


 analysis , orchestration , I 


 VICTORIA COLLEGE of MUSIC , 


 LONDON 


 incorporate 1891 


 J. M. I M d C H F.R.A.M 


 S S W.¢ 


 GUILD of ( 


 IANS 


 ORPORATED 


 MUSI 


 FEIS CEOII 


 IRISH MUSICAL FESTIVAI 


 composer ’ competition 


 TECHNIOULE 


 pid , even , and clear 


 ease and certainty 


 ENECI 


 LHI 


 LONDON 


 HERBI 


 DAVIDSON PALME ! I 


 IURCH 


 tion 


 PLAYIN 


 ORATORIO QUARTETTE 


 AND ITS training 


 REAKIN 


 DAVIDSON 


 MR 


 MUSICAL 


 HANOVER SQUARE , I 


 IBBS 


 TILLETT 


 OLE REPRESEN 


 MESDAMES 


 AGNES NICHOLLS 


 ESTA D’ARGO 


 MADAMI 


 CLARA BUTI 


 MR 


 WILLIAM GREEN 


 MM 


 PLUNKET GREENI 


 CHARLES KNOWLES 


 KENNERLEY RUMFORI 


 ERR 


 GODOWSK 


 LEOPOLD 


 IOMIANNES WO 


 TIVADAR NACHII 


 CHARLES KNOWLES 


 BARITON 


 ENS , 


 ONDON 


 THE 


 PROFESSIONAL ‘ notice 


 MUSICAL 


 TIMES 


 change of address 


 $ I i N 


 change of address 


 ALEXANDER GUNNER 


 NEW SEVCIK VIOLIN METHO 


 ‘ N.W 


 MR . SIVEY LEVEY 


 recitation at the PIAN ( 


 4 M M VALLIS A. WALLIS , LS 


 MISS E 


 LLEN 


 child 


 CHROMATIC HAI SOPRANO VOCALIST ) . 


 MISS ESI EL LA L INDE N 


 \ S H N.W 


 MISS 


 MR 


 I I W 


 GWILYM 


 TEN 


 RADBURN 


 SOPR ANO ) 


 ES 


 5 . W 


 MISS AMY 


 RICHARDS 


 SEPTEMB 


 ER I 


 1906 


 MISS AGNES WALKER 


 DRAMATIC SOPR : ANO 


 MISS LILLIAN DE WS ( LR 


 ( CON TRALTO ) . 


 VIR 


 MISS ANNIE 


 MR . GEORGE 


 BARITONE 


 HENRY 


 ER 


 I I 


 MISS ADE LAIDE 


 EF 


 CONTRALT 


 CONTRAL to 


 BI 


 IRD FE 


 VINCENT 


 ST 


 IVAL 


 R. TOM CHIL D 


 ELIHU 


 STU BBS 


 AUMONT 


 MITC HE LL 


 MR . HENRY PLEVY 


 ( TENOR ) 


 HYMN OF PRAISI 


 MA LEN STONEBRIDGE PARK 


 N.W 


 MR . JOHN BROWNING 


 ( BARITONE ) 


 |ANDUDNO .. PIER PAVILION CONCERTS 


 MR 


 BARITONE 


 ARTHUR WALENN 


 THE MUSICAL 


 1906 


 MONTAGUE BORWELL 


 BARITONE 


 MISS WINIFRED MARWOOD 


 MR . AR ’ UR R SEDGLEY 


 THB E RT 


 F.R.C.O. , 


 COUNTER 


 HAKMONY 


 MR . " DU TTON ’S SOLO BOY G _ | point : fugue , form ANALYSIS , acoustic 


 composition 


 revision of MUSICAL 


 M ® HERBERT F. ELLING FORD , F.R.C.O. , 


 R.A.M 


 success ; A.R.C. ) 1897 - 1906 one HUNDRED and 


 PIANOFORT I ! 


 important to VOCAL aspirant 


 the 


 MUSI 


 SAL 


 ANCY 


 HOIRMASTI 


 CR 


 * ALESMAN WANTED 


 \ } \ ) ( ( \ GI N CLI LN 


 I | NNEC 


 MODERN 


 N.1 


 the 


 MUSICAI 


 ORGAN PRACTICE 


 TIMES 


 SEPTEMBER I , 1900 


 NICHOLSON and CO 


 ORGAN BUILDERS , 


 PALACE YARD , WORCESTER 


 HMRI 


 0.1.4 


 PIANO PEDALS . 


 every organist 


 attachment 


 NORMAN 


 PNEUMATIC PEDAL for THI 


 PIANO 


 the FIRM 


 P. CONACHER & CO 


 SPRINGWOOD WORKS 


 HUDDERSFIELD . 


 two gold medal . 


 ABI 


 OLD 


 COMF ORT 


 D’ALMAINE 


 ESSRS 


 for the ORGAN 


 HENRY SMARI 


 ANDANTE ESPRESSIVO 


 SYMPHONY in 1 


 ARTHUR SULLIVAN 


 arrangement for PIANOFORTE SOLO 


 WILFRED BENDALL . 


 \LLEGRETTO 


 SYMPHONY in E 


 compose by 


 ARTHUR SULLIVAN . 


 arrangement for PIANOFORTE SOLO , by 


 WILFRED BENDALL 


 the MUSICAL 


 588 


 1900 


 LONDON 


 institute 1872 


 I W ] ( H 


 HIGHER certificate 


 I > I ! 


 M I W 


 COLLEGE of ORGANISTS 


 ROYAL 


 xamination for fellowship 


 JANUARY 


 TEST piece . 


 HEREFORD 


 MUSICAL FESTIVAL 


 126 


 ASSOCIATES in MUSIC 


 ~ — a great work by a great teache ! 


 LICENTIATES german and english text , CONTINENTAI 


 ASSOCIATES VIOLIN : 


 ADVANCED 


 SD . COLERIDGE TAYLOR ’S 


 incidental music » STE ! HEN PHILLIPS ’s ! ) RAMA 


 NE RO . 


 PROCESSIONAL 


 FIRST ENTR’ACTE 


 MARCH 


 NERO 


 EASTERN DANCE 


 589 


 DRESDENcommand at the second concert—-Hanover 
 Square Rooms , March 26 , 1855 — ' Lohengrin ' 
 make its first appearance in an english programme 

 thus 
 selection from ' Lohengrin , the Knight of 
 the Grail Introduction , instrumental ; 
 Bridal Process Wedding Music and 
 epithalamium 
 at that analytical 
 unknown at the Philharmonic concert , only the 
 word of the vocal piece be print . on this 
 occasion , however , brief explanatory annotation , 
 without music - type example , be furnish to the 
 ' Lohengrin ' Beethoven ’s 
 Choral Symphony be also perform , an english 
 ' analysis ' ( write at 
 Dresden in increase the size of the 
 programme to the unusual dimension of twelve | 
 page , present gratis to the audience 
 we must now change the venue to the Crystal | 
 where Sir August Manns conduct his | 
 1855 , and where , on 

 time | programme be 




 1540 


 1900CRYSTAI SATURDAY concert 

 in consequence of the numerous work now in 
 progress for the ensue season , the usual concert can not 
 be give this day , but the follow selection of music 
 will be perform by the Company ’s band , commence 
 at 3 o'clock : Marche ' Hongroise , ' Ser / ioz ; overture 
 ' Olympia , ' Sfontiné : ' Benediction des Poignards , 
 Meyerbees Waltz ' Guirlande , ' Strauss ; overture 
 ' La Gazza Ladra , ' A’ossint ; selection from the Opera 
 ' Tannhauser , ' /Vagner ; ' invitation to the Waltz , 
 Weber and # erlioz ; Mazurka ' Des Polen Traum , 
 A. Mann Allegretto and Finale , Symphony 4 , 
 Beethoven ; overture ' Athalia , ' Jendelssohn 

 PALACI 




 187 


 1871mr . A. J. Hipkins kindly supply an interesting 
 side - light by the loan of a little memorandum book 
 record the operation of ' the Working Men ’s 
 Society . " the member form this Society be 
 Karl Klindworth , Edward Dannreuther , ' Frits 
 Hartvigson , Walter Bache , and Alfred Hipkins , the 

 last - name be a non - performing member , but by no 
 mean a disinterested listener . the weekly meeting , 
 hold at the house or lodging of the member in turn , 
 begin on July 27 , 1867 , and last for two year . at 
 these gathering much of Liszt ’s pianoforte music , in 
 addition to Chopin , the later sonata of Beethoven and 
 Schumann , be play by the member , who freely 
 criticise each other , except in the case of Klindworth 

 he , be so much the senior of the other enthusiast , 
 be look upon as the mentor of the party . 
 ' arrangement ' be by no means taboo , as witness 
 the first programme of the Working Men ’s Society as 
 record in Mr. Hipkins ’s little red book 

 July 27 , 1867 . 
 at Klindworth ’ 's , 74 , Cambridge Street , Pimlico . 
 K. and D. Beethoven 's oth symphony , for 2 piano , arrange : 
 by Liszt . first three movement 
 kK. * Feéte chez Capulet ( Romeo and Juliet ) , Berlioz . 
 H. \rrange for 2 piano , 8 hand , by Klindworth . 
 H tein 's sth concerto in D minor , accompany by B 

 Re hon stein play this concerto at Hartvigson ’s , June 22 , 1867 




 H b i 


 1906at the Crystal Palace , on October 10 , 1874 , the 
 ' Faust Overture ' obtain its first hearing in 
 England , conduct by Sir ( then Mr. ) August 
 Manns . ' G’—dze . , Sir George Grove — after 
 refer to Hans von Biilow ’s pamphlet ' Ueber 
 Richard Wagner ’s Faust - Overture , ' conclude his 
 analysis of the Overture thus 

 the introduction to Cherubini ’s overture , however , 
 with which Dr. von Biilow compare it , be hardly fit sub- 
 ject of comparison , their aim be so much less serious , 
 and their whole character and sentiment more restricted 
 and subdued . it would have be more to the point if 
 he have mention the opening of Beethoven ’s ' Leonora ' 
 Nos . 2 and 3 , of Schumann ’s ' Genoveva and Manfred , ' 
 or of Mendelssohn ’s ' Scotch ' Symphony . how far 
 Wagner ’s overture can maintain its equality with those 
 great work , it will be for a thoughtful audience to 
 decide . it be at any rate a work of remarkable interest 
 and significance , and must shortly make its way into 
 english concert room 

 Wagner ’s opera ' Lohengrin ' have to wait twenty- 
 five year before it receive its stage representation 




 19- 


 1882 


 ( 1887 


 1576 


 593 


 Z J 


 F. G. E 


 the CHURCH 


 the ABBEY CHURCH of WALTHA ) 


 HOLY CROSS . 


 TENNYSON 


 from the EAST end 


 1€ 


 the 


 MUSICAL 


 the OLD ABB 


 EY GATEWAY 


 CS 


 600 the MUSICAL TIMES.—SEPTEMBER 1 , 1906 


 the TOMB of SIR EDWARD DENNY ( die 1600 


 ORGAN FUND 


 186 


 SICAL 


 MR . JOSEPH CHALK 


 GANIST of WALTHAM ABBEY CH 


 602 


 A FORGOTTEN CONCERT ROOM 


 the 


 MUSICAL 


 TIMES 


 SEPTEMBER i , 1906 . 603 


 604 the MUSICAL TIME 


 S.—SEPTEMBER 1 , 1906 


 MILTON 


 BERTHA HARRISON 


 SHAKESPEARE 


 n i 5W die m ! r 49 - 54 69 

 br i ' 32 - 35 } 
 except in the instance of Beethoven , Schubert , and 
 humann , the representative work that ha be 
 elect be those combine orchestra and chorus , 
 ind no one will deny that they be masterpiece 
 he o1 1 of Wagner 's ' Der Ring des Nibelungen 
 necessitate by the length of time cover by its 
 conce on and its full fruition ; and in five case the 
 repres¢ ntat e \ ork be on the stoc ks tor various 

 period ( he result of the analysis show that 
 between the aye of thirty and forty be a good time for 
 and yet composer who , like some 




 SEPTEMBER 1 , 1906 


 1034 


 1905 - - 214,940 


 11,303 


 the MUSICAL 


 TIMES.—SEPTEMBER 1 , 1906 . 607 


 MUSICAL 


 the 


 TIMES 


 SEPTEMBER i , 1906 


 A SACRED ORATORIO 


 the MESSIAH 


 TOWN HALL , CAMBRIDGE , 


 MAJORA CANAMUS 


 CAMBRIDGI 


 1906 


 A. H. MANN 


 the MUSICAL 


 TIMES 


 SEPTEMBER 1 , 1906 . 609and Sleepers , wake ( Bach 

 Instrumenta Concerto for violin and violoncello 
 ( Brah ; Jupiter Symphony ( J / oszar ? ) ; Ballet 
 Egyptian ( Zezgzn7 ) ; Irish Rhapsody , no . 1 ( S / anford ) ; 
 Beethoven ) ; and Violoncello 

 Deum 
 Spring 




 HANDELORIAN 


 ORGAN 


 recital 


 PETER CORNELIUS . 


 THE MUSICAL 


 510 


 TIMES 


 SEPTEMBER 1 , 1906 


 535 , 


 the MUSICAL TIMES 


 A. J. JMENDELSSOHN ’s VIOLIN CONCERTO . 
 GROVE , C.B 

 this exquisite composition — Mendelssohn ’s only 
 oncerto for the violin , as Beethoven ’s be 
 finally complete in the year 1844 , and first perform 
 yy Herr Ferdinand David at one of the concert at 
 the Gewandhaus at Leipzig , on March 13 , 1845 . we 
 say ' finally complete , because there be evidence to 
 show that it occupy the author more or 
 onstantly during more than five year . on July 30 , 
 $ 38 , he inform David that he 
 Violin concerto for he next winter ~ — ' one in e minor 
 in in my head , the beginning of which give I no 
 and no wonder , if the beginning be the 
 same as we now have it ! later still it be ' swim 
 ibout in his head in a shapeless condition , though 
 ' a genial day or two would bring it into shape . ' not 
 so easy , however ; for David have bespeak a ' brilliant ' 
 eginning , and get ? the whole 
 irst solo must be on the high e 

 after this we hear little more of it till 1844 . it have , 
 however , be constantly in his thought , and the 
 theme and passage be say to have be quote 
 continually in his ( unpublished ) letter to the friend 
 whom he be accustom to consult on such point . 
 che first draft may possibly have be make at 
 Soden , near Frankfort , in the delicious week of rest 
 ind enjoyment which follow his triumphant but 
 exhausting visit to England ; and it be there , say 
 Lampadius his biographer , that he first play it on 
 the pianoforte to Moscheles . the manuscript score 
 s date ( without place ) ' d. 16 September , 1844 . ' it 
 be perform in London , by Signor Sivori , at the 
 concert of the Philharmonic Society on June 29 , * 1846 




 ACC 


 SEPTEMBER 1 , 1906 . 611 


 — — _ — — — _ — = — — — — 


 o12 


 — _ - _ — — 


 s44 


 _ 2 + . = — _ — 


 ANE 


 MS . 


 _ — — _ 


 9 $ , 45 — — - — — 


 N _ 


 MS 


 the MUSICAL TIM 


 ES.—SEPTEMBER 1 , 1906 . 615 


 FELIX MENDELSSOHN BARTHOLDY 


 before and after the GOSPEL 


 FELIX MENDELSSOHN BARTHOLDY 


 GLORY be to THEE , O LORDE . 


 thanksgiving after the GOSPEL 


 the MUSICAL TIME 


 S.—SEPTEMBER i 


 SS SO 


 REINAGLE ’S ' ST . PETER ' and THOMAS BRITTON 


 618 the MUSICAL TIMES 


 the ORGAN in the town 


 ELCIFICATION of ORGAN 


 I I 


 I I ‘ 


 O O 


 I I 


 TRL 


 TO ROBERT HOLMES , ESQ 


 EVENING HYMN - ANTHEM 


 _ — — — — — — _ : — 


 4 4 | 


 the day be PAST and OVEI 


 FSS . | 


 pp 


 the day be PAST 


 and OVER 


 = 2 7 


 SEN 


 the day be PAST 


 pp 


 and OVER 


 SAN ] = : = ~. 2 " 


 — _ — — : | ' _ 


 ORGAN recital 


 ORGANIST and CHOIRMASTER appointment 


 U.S.A 


 new edition of STANDARI ) anthem 


 626 the 


 MUSICAL TIMES.—SEPTEMBER 1 , 1906 


 PRAEGERIANADing it on one occasion as a 

 vacant hour by invest in its cheap enough text - book , and 
 } thus learn that to mention Klingsor and the Trusty 
 | Eckart be to afford an unsuspecting british public ' ample 
 | scope for imagination , ' indeed , but little notion of the 
 ' subject ' which ' this wonderfully talented man ' have ' right 
 | poetically conceive and work out . ' ai 
 | no : from its commencement ' here I find myself in 
 | Dresden , ' to the close of this long ' letter’—half of which ts 
 devote to Beethoven ’s money - matter , by - the - way — there 
 s not the small genuine indication that its writer have 
 either be near the spot or drink in one note of that ' era 
 in music . ' it be the pure flummery , doubtless corcocte 
 with the good intention , perhaps at the request of secondary 
 mutual friend , but whip up from a teaspoonful or two of 
 german press intelligence blent with conceivable shred 
 | from a letter of August , or even Eduard Roeckel ’s to his 
 relation in England . in his boastful book itself Praeger 
 have nothing to say of a visit to Dresden ; on the contrary , 
 deal with the London philharmonic offer to Wagner 
 |(winter 1854 - 55 ) , say his p. 219 : ' nor do I know he 
 I be but the reflection of August Roeckel , 
 Dresden in the " forty . how very pale 

 personally ; 
 sub - conductor at 




 $ 0 co 


 QUEEN ’S HALL PROMENADE concert 


 the ROYAL NATIONAL EISTEDDFOD . 


 hold at CARNARVON , AUGUST 21 , 22 , 23 , and 24 


 co - operative festival . 


 CRYSTAL PALACE , AUGUST 25Mr . Rutson be a Director of the Royal Academy of Music 
 | and a member of the Council of the Royal College of Music . 
 | in those capacity his purse - string be always unloosed to 
 | the necessitous student whose need be bring under 
 | his notice , and so unostentatious be his benefaction in 
 this respect that , except the recipient of his bounty , scarcely 
 anyone know anything about they . he be one of the 
 founder and generous supporter of the Hovingham Musical 
 Festival , and one of the last act of his life be to send to 
 all his tenant serial ticket for the approach meeting to 
 be hold in October . music , however , be not Mr. Rutson ’s 
 exclusive interest in art : he be a painter of some merit , 
 and the wall of his house be adorn with picture from his 
 brush , as well as by several valuable work by the great 
 master 

 the Musical Union of Wellington , New Zealand , give its 
 first subscription concert of the season on June 7 , in the 
 Town Hall , before a large audience . the programme 
 include Mendelssohn ’s ' Ruy Blas ' overture , Beethoven 's 
 eighth Symphony ( three movement ) , a selection from 
 Tchaikovsky 's ' Nutcracker ' suite , and Elgar ’s ' Chant de 
 matin ' and ' Chant de soir , ' all be admirably play by the 
 orchestra of some fifty performer , conduct by Mr. Robert 
 Parker . the choral portion of the programme include 
 the beautiful ' Coronach ' from Macfarren ’s ' Lady of the Lake , ' 
 the epilogue to Elgar ’s ' Banner of St. George , ' and , for the 
 first time in New Zealand , Cowen ’s ' John Gilpin . ' the 
 last - name work , give with much spirit by both chorus and 
 orchestra , be start on its colonial career with great ¢/at , 
 and a repetition performance in Wellington be already under 
 consideration 

 the ' 450th consecutive monthly concert ' of the St. George 's 
 Glee Union ( Pimlico ) , found in 1869 , be hold at Caxton 
 Hall , Westminster , on August 1 . congratulation there- 
 upon to Mr. Joseph Monday , the honorary conductor for 
 the past thirty year , and to the member of the Society . 
 in record this interesting and probably unique event it 
 be pleasant to learn that ' the sole object of the Society be to 
 promote a genuine love for art , chiefly by the practice and 
 performance of concerted music in the form of glee , 
 madrigal , and part - song . ' long may the St. George 's 
 Glee Union flourish in the continuance of the good work 
 it have do and be do in the cause of vocal part - music 




 A.D 


 SSIS 


 content 


 MUSIC 


 special notice . 


 the MUSICAL TIMES 


 scale of term for advertisement . 


 629 


 dure the last month 


 B ' IRTON , LADY 


 PETER CORNEL ! I 


 the 


 the 


 MUSICAL TIMES.—SEPTEMBER 1 , 1906 . 63 


 W \LKER , ERNEST — " A 


 the 


 SYMP 


 SY mp HON 


 FOR 


 M3 SARAH 


 RE \IRER W ANTED 


 SALI PARTS 


 S ORGAN . W 


 VENING SERV 


 EDWARD 


 the 


 B.C. 


 FENNINGS 


 | ROADWOOD GRAND 


 W | ( W I 


 SE ASONS 


 HONIC SUITE 


 the PIANOFORTE ARRANGEMENT , for four hand 


 COMPOSER . 


 LLO and COMPANY 


 Y IN D MINOR 


 the ORGAN 


 compose BY 


 EDWIN H. LEMARE 


 PIANOFORTE 


 the SCHOOL MUSIC REVIEW 


 the SCHOOL MUSIC REVIEW for SEPTEMBER 


 contain 


 progress in CAPE ( Y 


 PHEORY question 


 the ' SCHOOL MUSIC review 


 MENDELSSOHN ? 


 SEVEN piece 


 for the 


 ORGAN 


 compose by 


 ALEXANDRE GUILMANT 


 W. | 3 . BERCEUSE 6 . POSTLUDE 


 7 . FANTAISIE SUR DEUX MELODIES ANGLAISES 


 NOVELLO ’S MUSIC primer and EDUCATIONAL serie , 


 breathing 


 voice production 


 part IL — explanatory . 


 the position or pose of the body 


 ART IL — practical work 


 special physical exercise for the attainmen1 


 of a correct pose . 


 632 


 the MUSICAL time 


 serie of 


 illustrate article 


 on 


 cathedral , PARISH church , college , 


 LIBRARIES , collection of MUSIC . 


 cathedral . 


 COLLEGES and SCHOOLS 


 LIBRARIES , COLLECTIONS of 


 LONDON 


 ROYAL MILITARY SCHOOL of MUSIC 


 1902 


 1995- ST . PAUL ’s CATHEDRAL CHOIR SCHOOL 


 1902 . TENBURY , ST . MICHAEL ’s COLLEGE 


 1904 . 


 1904 . 


 1902 . 


 1904 . 


 1903 . 


 190 } . 


 1902 . 


 1901 . 


 1905 . 


 190 


 1906 


 1905 


 1904 . 


 190 } . 


 1905 . 


 1905 . 


 1904 


 1900 . 


 1905 


 190 


 1900 


 1900 . 


 1900 . 


 1904 


 1904 . 


 1905 . 


 1904 


 the 


 MUSICAL 


 time 


 anthem 


 I be 


 OF 


 S FRON 


 LIGHT 


 NAL CHORU { the 


 EDWARD 


 COME , YE 


 JOSIAH 


 COMPLETE 


 the LUIE 


 NOVELLO 


 ALPHA and 


 the 


 AND COMPANY 


 for trinitytide 


 OMEGA 


 IFE 


 compose by 


 CH . GOUNOD . 


 world 


 compose by 


 ELGAR . 


 child 


 compose by 


 BOOTH 


 list 


 NATIONAL 


 serie 


 SEPTEMBER I , 1906 . 633 


 WITH tune 


 for use in school and for ¢ HIL DREN 's festival . 


 the music compose by 


 the music compose by 


 J. STAINER , and other 


 hymn and TUNES for child ’s use . 


 the music compose by 


 G. C 


 NEW 


 TEMPER . ANCE 


 JOHN 


 HYMNS 


 HAWKE 


 set to 


 original prize 


 TUNES 


 I.—‘*SAVIOUR , an offering we bring . 


 iii ' " " father , come to aid our brother . " 


 1v. — ' * we , thy child , holy father . 


 V. — * TRE CHILDREN ’S song 


 ANTI - GAMBL ING HYMNS 


 word Y 


 JOHN HAWKE 


 TUNES 


 original prize 


 I1.—*GOD the MAKER , GOD the GIVER . " 


 IV . — * a leprosy be o'er the land . 


 V. — ' * KING DAVID 'S song we sing . 


 NOVELLO 'S HARV 


 ZZ 


 the MUSICAL 


 KA 4 


 OG \ RL G 


 lute " serie 


 LONDON : NOVELLO 


 TIMES 


 SEPTEMBER I , 1909 


 4 W.A 


 40 


 I J 


 OF HARVEST A 


 AND COMPANY , LIMITED 


 NTHE 


 _ G 


 A. S. 5S \ 


 A. R.G 


 F.C. M 


 F.C. M 


 F.N. B 


 FAT 


 the 


 NEW 


 HARVEST FESTIV AL 


 HARVE ST ANT HEMS BOOK 


 he JOY of the LORD be your 


 strength 


 SED 


 HUGH BLAIR 


 MUSICAL 


 SIR J. BARNBY , MYLES B. FOSTER 


 SIR A. C. MACKENZIE , SIR J. STAINER 


 BLESS the LORD thy GOD SIR J. BARNBY . SIR J. STAINER 


 COMI ED BY 


 J. VARLEY ROBERTS . JOHN E. WEST 


 popular church music 


 recently publish 


 o be joyful in the LORD 


 ALI RED R GAUL . | J . ¥ 5 . m au n d e r 


 HARVEST service 


 6 3 ° the MUSICAL 


 composition 


 SI ice 


 D i 


 anthem 


 I i S 


 ORGAN MUSI 


 the HARVEST truly 


 IS GREAT 


 SHORT , full anthem for HARVEST 


 W. W. PEARSON 


 OE ... 


 morning and evening 


 service 


 offic FOR the HOLY communion 


 VPHANIEL PATRICK 


 I » n ( 


 i n 


 food and gladness . N 


 ive new HARV } I CAROLS 


 FESTAL CHANT , TI 


 PTEMPER I , 1906 


 OMPOST tion 


 CANTATAS - 


 anthem , | } 


 ORIGINAL ORGAN composition 


 ORG : AN MUSIC 


 HARVE ST ES CIVALS 


 the VILL AG E ORGANIST 


 edit by 


 F. CUNNINGHAM WOODS . 


 J E. W 


 CHURCH MUSIC 


 NEW anthem by 


 ERNEST EDWIN MITCHELL . 


 the HEAVENL Y VISION . 


 meeting 


 R.C.0 . " EXTRAORDINARY 


 I REPORT 


 musical 


 PRAISE , o praise our GOD and KING 


 NO 


 the MUSICAI 


 GOLDEN HARVEST 


 A CANTATA 


 for HARVEST - TIDI 


 TENOR and BASS SOLI and CHORUS 


 HENRY KNIGHT . 


 the MI ¢ se by 


 P E ONE SHILLING 


 the RAINBOW of PEACE 


 A HARVEST SONG 


 SEED - time and HARVEST 


 HARVEST CANTATA 


 HARVEST - TIDE 


 the J UBILEE CANTATA 


 the GLEANER ’S HARVEST 


 TWELVE HY mn ' for HARVEST 


 now AUTUMN strew on EV’RY 


 PLAIN 


 TIMES.—SEPTEMBER 1 , 1906 


 637 


 SONG of thanksgiving 


 A CANTATA 


 for HARVEST 


 SOPRANO , TENOR 


 AND GENERAI 


 ND BASS ( or 


 AND CHORUS 


 with hymn to be SUN 


 LET AI 


 the 


 HE VOR \ EN 


 SHAPCOTT 


 BY 


 NGI 


 FESTIVAL USI 


 CONTRALTO ) SOLI 


 ING REGATION 


 WENSLEY 


 BY 


 J. H. MAUNDER 


 ONE 


 BARNBY . 


 L OUR BRETHREN 


 JOIN IN 


 REAPING 


 SOWING and 


 HARVI 


 THE JOY of 


 the LAST 


 OUR - PA SONG 


 HARVEST 


 HE HARVEST 


 DE CRAMENT 


 LOAD 


 A HARVEST 


 MAKE 


 OFFERT 


 LORD 


 MELODY 


 HE that 


 RV SE ENCE ( WI 


 SOWER WENT 


 BY 


 FEAST 


 GAUI 


 DANCE 


 ST THANKSGIVING 


 MARCH 


 HARVEST 


 HYMN 


 MAUNDER . 


 OF PRAISE 


 100 


 forth 


 J. BARNBY 


 WITHIN 


 HEARTS 


 SOWE TH 


 HP 


 CESS 


 OF HEAVEN 


 ND 


 SE 


 AND 


 SOWING 


 YOUR 


 J. HERVEY 


 EARTH 


 BY 16TH , 17TH , and 18TH century composer . 


 anthem . 


 ALCOCK , JOHN ( 1715—1806 ) HAYES , PHILIP ( 1738—1797 


 KING , CHARLES ( 1687—1743 ) . | 


 LOCKE , MATTHEW ( 1630?—1677 ) . : 


 BYRD , WILLIAM ( 1540—1623 , G 


 CLARKE , JEREMIAH ( 1669 ? — 1707 ) . , } 


 7 3 


 ROG E RS , BENJAMIN ( 1614—1698 


 10 


 WELDON , JOHN ( 1676- 1736 ) . L 


 THE 


 MUSICAL TIMES 


 SEPTEMBER I 


 1906 . 639 


 SERVICE 


 OVELLO 


 D ENGLISH CHURCH MUSIC 


 PURC 


 PURC 


 ROGE 


 OLD ENGLISH ORGAN MU SIC 


 edit by 


 JOHN 


 PREF ATORY NOT 


 E. WEST 


 . J. W 


 LONDON 


 NOVELLO 


 AND COMPANY 


 limit 


 6.40 


 composition introduction 


 4 8 , L 


 BY 


 RICHARI AGNER . . 


 NOVELLO and CO . , LTD . 


 FOR STRINGS 


 D \ 1 6 


 ORCHESTRAL . ; _ the time . | 


 [ \ \ | ( W DAILY TELEGRAPH . 


 ! MORNING POST . 


 ( I DAILY CHRONICLE . 


 \. H ( _ — _ - 


 the MUSICAL 


 TIMES 


 SEPTEMBER 1 , 1906 


 HEREFORD FESTIVAL 


 work . 


 THE SOUL 'S RANSOM 


 A PSALM of the POOR 


 ( SINFONIA SACRA 


 C. HUBERT H. PARRY 


 A SACRED symphony , IN F 


 BASS SOLO , CHORUS and ORCHESTRA 


 compose by 


 H. WALFORD 


 DAVIES 


 | three ELIZABETHAN 


 pastoral 


 AMONGST the WILLOWS 


 the MORRIS DANCE 


 compose by 


 A. HERBERT BREWER 


 two song 


 POO LATE 


 compose by 


 2 IVOR ATKINS 


 WESTERN DAILY PRESS 


 GLASGOW HERALD 


 JOHN SEBASTIAN BACH . | GLASGOW EVENING TIMES 


 NOVELLO and COMPANY 


 lift up your heart 


 A suite 


 OLD ENGLISH DANCES 


 FREDERIC H. COWEN . 


 . MAYPOLE DANCE . © } 3 


 2 . PEASANTS ’ dance , 4 old dance 


 the TIMES 


 DAILY TELEGRAPH 


 MORNING POST 


 EVENING STANDARD 


 DAILY NEWS 


 SUNDAY TIMES . 


 MINUET DAMOUR 


 the 


 MUSICAL 


 TIMES 


 SEPTEMBER I , 1906 


 the TEN VIRGINS 


 ANI 


 ATA 


 ALFRED 


 FOR 


 FOL 


 tr 


 — _ — - 7 


 4 4 


 7 : i } 


 38553 : S375 


 2 2 ¢ 2 


 N 4a 


 = " $ $ 3 ° f 


 LONDON 


 SOLO 


 BY 


 VOICES , CHORUS 


 R. GAUL 


 7 7 


 AND ORCHESTRA 


 THE 


 1906 . 643 


 oduce at the PHILHARMONIC 


 SYMPHONIC 


 ON AN AF 


 S. COLERID 


 THE TIMES 


 DAILY TELEGRAPH 


 STANDARD 


 DAILY GRAPHIC 


 EVENING STANDARD 


 SOCIETYS CONCERT , JUNE 14 , 1906 


 variation 


 RICAN AIR 


 GE - TAYLOR 


 MORNING POST 


 DAILY news 


 GLOBE 


 PALL MALL GAZETTE 


 the GUARDIAN . 


 NOVELLO AN 


 LONDON 


 D COMPANY , LIMITED 


 just publish 


 one hundre psalm 


 bible version 


 and 


 the canticle 


 point for chanting 


 extract from the preface . 


 training chorister CHOIR boy 


 y how to sing the choral servic ! \ 


 ’ W. H. HALL . 


 the 


 BY TI 


 COMI 


 I can 


 JERI 


 LOVE 


 O DEI 


 THE | 


 the 


 the 1 


 thro 


 WHY 


 TX 


 EVI 


 ompose RN the BALLAD 


 ETER CORNELIUS of MESHULLEMETH 


 with ENGLISH word the oratorio " JUDITH 


 MALE voice . C. HUBERT H. PARRY 


 IN 1 idst of life , 


 the PATRIOT 'S vow . 1.1.5.0 


 ARIA from " ST . PAUL 


 MIXED voice . compose BY 


 LOVE and YOUTH 4 . 


 SACRED SONG 


 HENRY FRANCIS LYTE 


 the SANDS of DEE 


 BALLAD E. J. MARGETSON 


 OR CHORUS and ORCHESTRA 


 rose softly bloom 


 SONG 


 from the opera 


 CHARLES A. E. HARRISS . 


 I o S 


 compose by 


 5 . HYMN to DIONYSUS LOUIS SPOHR 


 GILBERT MURRAY 


 for CHORUS and ORCHESTRA ( he FARO SENZA 


 ERNEST WALKER ( ' THOU art GONE , ALAS , for ever 


 SE\ ERAL CHORAL work ; part - song , transpose edition : 


 ( NOVELLO 'S 


 PIANOFORTE 


 OCAL CENTRI INTERMEDIATE grade , 


 \ n i 


 i \ n , 


 N 4 i 


 ( \ 2 ) n ( i ) 


 LOCAL CENTRE.—ADVANCED grade , 


 i ) 1 


 CHOOL EXAMINATIONS.—PRIMARY 


 SCHOOL examination ELEMENTARY 


 i 4 ) 1 


 CHOOL EXAMINATIONS.—LOWER division 


 CHOOL EXAMINATIONS.—HIGHER division , 


 LONDON 


 NOVELLO and COMPANY 


 edition 


 ORGAN . 


 LOCAL CENTRE 


 LOCAL CENTRE.—ADVANCED grade . 


 SCHOOL EXAMINATIONS.—LOWER division 


 SCHOOL EXAMINATIONS.—HIGHER division 


 singing . 


 INTERMEDIATI 


 SOPRANO 


 LOCAL CENTRE . GRADE 


 MEZZO - SOPRANO 


 CONTRALTO 


 BARITONE . 


 BASS 


 LOCAL CENTRE.—ADVANCED grade . 


 SOPRANO 


 MEZZO - SOPRANO 


 CONTRALTO . 


 BARITONE . 


 BASS 


 LIMITED 


 class SINGING , VIOLIN 


 INTERMEDIATE grade 


 ARI 


 W. H. 


 AAYS1 


 EE 


 the 


 MUSICAI 


 TIMES 


 SEPTEMBER 1 , _ 


 IQO7 


 SCHOOL EXAMINATIONS,.—PRIMARY 


 SOPRANO . 


 SOPRANO 


 CONTRALTO 


 TENOR . 


 BARITONE 


 BASS . 


 MEZZO - SOPRANO 


 BARITONE 


 LOCAL CENTRE.—INTERMEDIATE GRA 


 LOCAL CENTRE . -ADV ANCED GRADE 


 2054 


 SCHOOL examination — ELEMENTARY 


 VIOLONCELLO 


 NOVELLO and COMPANY , I 


 HOOL EXAMINATIONS.—ELEMENTARY 


 SCHOOL EXAMINATIONS.—HIGHER division 


 TENOR . 


 BASS . 


 class singing examination . 


 VIOLIN . 


 SCHOOL EXAMINATIONS.—LOWER division 


 SCHOOL examination . HIG 


 LOCAL CENTRE.—INTERMEDIATE grade 


 LOCAL CENTRE.—ADVANCED grade . 


 " SCHOO ! examination HIGHER division . 


 NEW FOREIGN 


 PIANOFORTE MUSICBARMOTIN , S.—S ta . op . 4 . 5s 

 bli apy os F.—Op . 37 . s$ no . 1 . I 
 N 
 DESTENA\ I Op . 29 . ¢ d fug 
 DUBOIS , TH.—Six Etudes de ¢ . Maa 
 N EA N bon S 
 Concerto - Cap 10S Ss 
 Toctata tr scribe for Pianoforte l. I 
 | } GODARD , B.—Op . 1 Fantaisie pet i i 
 ; LIADOW , A Drei Stucke . Op S 
 ( 1 ) p ( 2 ) Valse » M 
 LISZT , | ! eD Ss \ 
 e. Sa i I 
 PIERNE , G.—Op . 4 n p i 
 noct t i \ N | 
 Sympl jue Solo 
 POGOTERF , W Op . 4 six Pre les S 
 POMEER W. H.—Op . 14 Andante pat \ 1 
 REINECKi ( op . 27 Iwo Sonatas f I | 
 Secor N in gy . « 
 ne in ( . - 
 ; SAPELLNIKOFF , w op n \i | N 
 Moment Lyrique ; N Gsavott S 
 - OJ 1 n Reproche € p t » 
 N pr & . t . 64 et . os n | S 
 6| SCHUMANN , G.—H der op . 27 . six i s 
 | SCHYTTE , 1 op . 14 K er - Suite Du 
 | } SCRIABINE , A.—Op . 4 four pr s 
 op . 4 n et n pre n 
 S 
 op . 45 . n be t d’Album ; n p . 
 N p s 
 SPORCK , G oo t iwo p f 
 STRELEZKI , A.—Op . 41 Serenade Pic 
 PSCHAIKOWSK\ op . 49 . overture 1 , 
 WINKLER , A. — Op variationem und Fug I 
 CHAMBER MUSIC 
 BEAUCE , H Be se . \ cello a Pianofort 
 BEETHOVEN Cavatine fr O ; t oo 
 Clarinets , H a Bassoon 
 BU MCKE.—Op . Rom \ Pia 
 CAHNBLEY , E.—Op . 7 . Scher Viol n i r 
 D'AMBROSIO , a twelve Duos of I 
 for 2 Violins a Pianoforte , in 4 B s Hook 
 Book " 4 
 DEBUSSY , CI } Bateau ( i Petite Suit \ 
 ianofort 
 Minuet ( from Petite Suite ) . Violin I 
 | DES AY , E.—Op . 27 l for O ( inet , a I 
 HUBL , o.—op . 1 ( rtir Vi P ¢ 
 JERAL , W Op ( ' \ | \ 
 pianoforte 
 | } KUHNEL.—Op . 2 . C ertino . Viola Pianoforte 

 LOWTZKY , h op . 3 . Violoncello and Pianofort 




 i 4 | 4 


 ORGAN MUSIC se alla breve con vigore 

 andante quasi allegro ma por pos 
 BEETHOVEN~—Cavatine from op . 1 St , 
 CLAUSSMANN , A.—Op . 44 . ust S ta 

 DE ACEVES , R.—Op . 70 . Trois Improvisat 
 GERNSHEIM , F. — op . 7¢ Fantasie et I 
 GONTHIER , H Trois Preludes et I 




 AND COMPAN 


 PUBLICATIONS 


 64 the MUSICAL TIMES.—SEPTEMBER 1 , 1906 


 BIRMINGHAM MUSICAL FESTIVAL 


 GRANVILLE BANTOCK . 


 OMAR KHAYYAM . 


 JOSEF HOLBROOKE . 


 the BELLS . analytical and descriptive note , by ERNEST NEWMAN Price one shilling 

 L. vy . BEETHOVEN . 
 MASS IN D 

 vocal score ... price one shilling and sixpence 




 JOH . SEB . BACH . 


 SING YE to the LORD 


 english version by G. W. DAISLEY . 


 HEREFORD MUSICAL FESTIVAL , 1906 


 HECTOR BERLIOZ . 


 TE DEUM 


 JOH . SEB . BACH . 


 MASS IN B MINOR 


 BREITKOPF & HARTEL , 


 54 , GREAT MARLBOROUGH STREET , LONDON , W 


 996 


 EXTRA SU PPLEMENT 


 a collection of 


 PART - song , glee , and madrigal . 


 first serie . 


 ; second serie . 


 . ' J. BARNBY . 


 C. A. MACIRONE G. A. MACFARREN . | W. MACFARREN . 


 NOVELLO ’S 


 HENRY SM ART 


 CIRO PINSUTIL . 


 189 1 ¢ } 


 197 i > ° 


 203 w 


 204 1 + 3 


 2 i 


 4 i 


 MALE voice 


 viii HENRY SMART . 


 2 L 


 PART - SONG 


 WALTE 


 book 


 R MAC 


 L. DE PEARSALL 


 4 : T.T.8.1 


 S.A.T.E 4 


 ROBERT FRANZ 


 FARREN 


 A. C. MACKEN 


 33 


 E. PROUT 


 J. L. HATTON 


 HN 


 374 


 NOVELLO ’S part - song book . 


 ( second serie . ) 


 A BALLAD 


 : for eight voice 


 the music compose by 


 1 PFHEO . WENDT . 


 - — _ — - . F ‘ 


 : P65 — ss — 


 A BALLAD 


 — sy 4 


 — _ — _ — 


 2 @ - z — — § 


 3 3 


 AOAC MOSER ME 


 A BALLAD 


 4 — _ — — — — — . 


 4 * — ~ — _ . 


 PB 


 A BALLAD 


 pn } 2 = 


 ss | 


 — — — — _ - _ = > = = ~ — = _ 


 SS 


 ESS SSS = | 


 BALLAD 


 5 = = — — = — — n \ 


 19 » 2 


 608 


 704 


 710 


 1 - 4 - 5 -5 5 - 0 - 9 


 226 


 ase 


 IRS 


 GEORGI