


 I , 1916 


 publish on the first 


 ROYAL CHORAL SOCIETY 


 ROYAL ALBERT HALL . 


 ROYA AL ACADEMY of MUSIC 


 YORK GATE , MARYLEBONE ROAD , LONDON , N.W 


 HIS MAJESTY the KING 


 P. QUARRY 


 the ROYAL COLLEGE of MUSIC , 


 PRINCE CONSORT ROAD , SOUTH KENSINGTON , S.W. 


 the ROYAL COLLEGE of MUSIC PATRON ’S FUND 


 CLAUDE AVELING 


 the ROYAL COLLEGE of ORGANISTS 


 JOHN CARPENTER ST 


 the MUSICAL TIMES 


 and SINGING - CLASS circular . 


 found in 1844 


 of every month . 


 the ASSOCIATED BOARD 


 of the R.A.M. and R.C.M. 


 for local examination in MUSIC 


 VICTORIA EMBANKMENT , E.C 


 LANDON RONALD 


 PRINCIPAL 


 complete MUSICAL 


 ) PERA . 


 ROYAL 


 MANCHESTER COLLEGE of MUSIC . 


 BIRMINGHAM & MIDLAND INSTITUTE . 


 SCHOOL of MUSIC 


 session 1915 - 1916 


 17 


 178 the MUSICAL TI 


 MANCHESTER SCHOOL of MUSIC 


 TROTTER 


 SQUARE 


 YORKE 


 dr 


 morning session , 10.30—12 . 30 


 AFTERNOON session 


 10 


 2 . 30—4 . 30 . 


 UNIVERSITY of DURHAM 


 incorporate guild of CHURCH 


 musician . 


 associate ( A.1.G.C.M. ) , licentiate = ( L.1.G.C.M. ) , 


 competition for 116 


 register of ORGAN VACANCIES 


 UNIVERSITY COLLEGE , read . 


 hall of residence : 


 department of MUSIC . 


 scholarship in MUSIC 


 FRANCIS H. WRIGHT 


 LONDON COLLEGE of MUSIC , 


 EXAMINATIONS — LOCAL and HIGHER 


 VICTORIA COLLEGE of MUSIC , 


 LONDON . 


 incorporate 181 , 


 MR . W. H. BREARE 


 TO student and the profession . 


 SIC 


 |GLESBY 


 F.R.AM 


 , F.LG.CH 


 INGING 


 IN 


 the MUSICAL 


 1916 


 the drudgery of 


 peactioing abolish 


 send for my free book : 


 M. MACDONALD SMITH 


 19 , BLOOMSBURY SQUARE , W.C 


 ideal for 


 concert and PUBLIC meeting 


 KINGSWAY HALL 


 MAGNIFICENT ORGAN and platform 


 splendidly SITUATED & light 


 NATIONAL EISTEDDFOD of WALES 


 \ ABERYSTWYTH . 


 AUGUST 16 and 17 , 1916 . 


 competition for mix choir , lady ’ choir , 


 CHILDREN ’s CHOIRS , ETC . , ETC 


 ST . M. ARTIN- IN- the -FIEL DS , 


 TRAFALGAR SQUARE , W.C 


 ORGAN recital 


 ON WEDNESDAYS , APRIL 


 5 , 12 , 19 


 PROFESSIONAL notice . 


 MR . SAMUEL MASTERS 


 TENOR ) . 


 M ® & FRANCIS JARRETT , 


 the LONDON COLLEGE for chorister . 


 composer ’ MSS . 


 revise and prepare for printing 


 DR . A. EAGLEFIELD HULL 


 evision of MUSICAL composition 


 L.R.A.M. ( PAPER .WORRB 


 A.R.C.M. ( paper work ) . 


 HUNDRED and forty - eight success ; A.R.C.M. , 


 XUM 


 1 


 OLLEGE 


 the MUSICAL TI 


 OR SALE.—BELL two - manual pedal 


 the MALKIN PATENT PEDAL CO . , LTD . , 


 COUNTY BOROUGH of HUDDERSFIELD 


 MRS . SUNDERLAND " MUSICAL competition 


 apractical guide 


 TO the 


 theory of music 


 containing 


 numerous test - question with answer 


 JULIA a. O'NEILL 


 the TIMES . 


 the MORNING POST 


 MUSICAL opinion , 


 the LADY 


 NOVELLO ’S editions | 


 OF the 


 FAVOURITE opera 


 adapt for 


 concert use 


 1 . FAUST . 


 2 . IL TROVATORE . 


 3 . TANNHAUSER . 


 4 . MARITANA 


 the BOHEMIAN GIRL . 


 the DAUGHTER of the REGIMENT . 


 MARTHA . 


 RE ) . 


 NOVELLO 'S T 


 album for PIANOFORTE and 


 string instrument . 


 ( two violin , VIOLA , and VIOLONCELLO . ) 


 42 , 


 S. D , 


 the MUSICAL 


 TIMES 


 APRIL I , 1916 . 183 


 the NOVELLO EDITION 


 RUSSIAN MUSIC 


 PIANOF ORTE 


 SOLO 


 1—14 


 institute 1872 


 J P ED 


 the COUNTRY DANCE book 


 part iv . 


 forty - three country dance 


 the ENGLISH DANCING MASTER 


 CECIL J. SHARP 


 GEORGE BUTTERWORTH 


 COUNTRY dance tune 


 CECIL J. SHARP 


 SETS vii . and VIII 


 BROADWOOD 


 PIANOS 


 SHAKESPEARE 


 tercentenary . 


 O GOD of BATTLES 


 SHAKESPEARE ’S BATTLE prayer . 


 motet for six voice by 


 RICHARD DERING 


 BOSWORTH & CO . , , 


 8 , HEDDON STREET , REGENT STREET , LONDON , W. 


 now ready . 


 PART i. 


 FA 


 BACHS 


 48 


 PRELUDES & fugue 


 the well - temper CLAVICHORD ) . 


 OR 


 ORG 


 NGERED 


 JES 


 RD 


 AND SINGING - class CIRCULAR 


 APRIL 1 , 1916 


 SIR GEORGE CLEMENT MARTIN . 


 1844 - 1916 


 ORGANIST of ST . PAUL ’s CATHEDRAL , 


 1888 - 1916 


 personal tribute 


 CHARLES MACPHERSO 


 THE MUSICAL 


 187 


 i , 1916 


 A. C. MACKENZIE 


 J. FREDERICK BRIDGE 


 H. A. HARDING 


 the MUSICAL 


 I , 1916 


 the FUNERAL , on FEBRUARY 26 


 W. G. ALCOCK 


 ( 1710 - 1779 ) . 


 ( 1695 - 1755 


 ( 1842 - 10900 ) , 


 1844 - 1916 


 MEMOIR 


 A. J. B 


 W. G 


 the MUSICAL 


 190 


 MR . CHARLES 


 the NEW ORGANIST of 


 1895 


 1916 


 MACPHERSON 


 PAUL ’S CATHEDRAL 


 stnd habityy progress and poverty . | be change , in art no less than in the social scheme , 
 van clonde ! by G. H. CLUTSAM . a destructive policy seem to be the only reasonable 
 fter a lonp we tae ae be method of deal with all his dangerous privilege 
 sweetnes , ee ee eee eee | and the general collapse of his credit competence . 
 ng buds M. René Lenormand , whose ' Etude sur /harmonie| a singular feature in the attitude of those who 
 tain and , Moderne ' have be very capably translate by Mr.| should be strenuously concerned in support the 
 of revere Herbert Antcliffe , reveal himself as an enthusiastic | old authority , be the significant neglect to reply to any 
 ) which bi appreciator of almost everything that differentiate the | of the many recent attack on their pretension . a 

 modern consideration of Harmony from the old as a/ select champion would certainly have a doubtful 
 factor in musical expression . his scrutiny of its| privilege ; but his presence on the field , consider 
 aspect , however , be not always mark with discretion , | the various interest involve and the evident 
 and many example include in his book be not| necessity for support , at least , a moral obligation 
 only inaccurately systematize , but be of extremely | towards innumerable pupil , be imperative . also , he 
 doubtful — — , in " ny ! — _ = — — — in = — _ in — of an 
 echnique be analogous to much that be disturb the | accident . at the moment , the malefic influence be 
 rungs artistic sense in the world of painting . it have , | too obviously still hamper the struggle of those 
 in the midst of its sane representative , a number of| who would bring the new material fairly into the 
 charlatans , mountebanks , Aoseurs , and incompetent | light of day , and even the sympathetic M. Lenormand 
 mummer whose bunkum be confusing and perplexing |i at pain to suggest that he have no intention of 
 the real and high artistic issue at stake , and certainly | formulate the rule of a new technique , mainly , it 
 if a refined , tasteful , and learned musical authority , } would appear , because he have not the courage or 
 as M. Lenormand unquestionably be , find a difficulty | insight to break away from the essential of the 
 in distinguish the dross from the impeccable , the | old idea . 
 average amateur be not likely to be more secure in his| _ his book be encumber with the jargon of a system 
 judgment . ; that betray itself as obsolete in the very attempt to 
 the main fault of M. Lenormand be , on its own plane , adapt it to the new speech . of course it be possible , 
 something equivalent to that of Dr. Kitson , in that | with labour , to transpose the sense of the new into the 
 it be concern with a futile attempt to reconcile the | practice of the old , but the operation be so extravagant 
 live with the dead . he be imbue , dispassionately | that the student be never likely to disentangle its multi- 
 however , with the idea , formulate in his excellent | farious inconsistency before he have lose all patience 
 preface , that * whether they wish it or not , all those | withthem . if the interested student really endeavour 
 — I — or my te ay renee = - grasp the force of all hg a ' ange all 
 the idiom of that phase of the art that be represent | from the many example he offer of the modern 
 by the achievement of the 18th and 19th century . ' | composer ’s art he would soon be induce to give up 
 far , ' but the page on which be inscribe the illus- | composition as a hopeless job . his alternative be to 
 trious name of Bach , Mozart , Beethoven , Schumann , | try for himself , and with never a help hand hold 
 Wagner , & c. , have scarcely be turn , when already | out to he , unless he be a positive genius he make a 
 new formula appear , which no didactic work have yet | veritable mess of it all . 
 set in order . ' and , in a footnote , ' in this search for| this effort , with some such result , be visible in many 
 new formula , each race seem to wish to affirm its| quarter in our own immediate and particular midst . 
 personal genius , by free itself from german art . ' unfortunately , what the sensitive student , otherwise 
 but the real genius of the race that be not | well - equip , fail to realise in the matter of the new 
 Teutonic have never be busy reflect german art ; | technique , the layman and general critic of his 
 the genius of the British provide an outstanding | travail be scarcely likely to understand . he may go 
 exception . it have be entirely subservient to Teutonic | his way in the wake of all that he appreciate without 
 formula , and only quite recently , in the innumerable | suffer any reproach for his technical indiscretion . 
 text - book that provide our youth with such an| the purely literary side of his lucubration — what 
 exhilarating education , have it be possible to find| might be term the emotional ' swank ' — easily and 
 excerpt that illustrate the tendency and | frequently apologise for they , however fatuous , vacant , 
 characteristic of any musical nation other than the | and irrational they may happen to be . to return to 
 German . M. Lenormand . 
 we have entirely neglect , during the last twenty } for the reason that his book be entirely uninterested 
 = * r~ a — — os ag of — | in the material that — up — most - Dr. ro S , 
 at be good from the treasure - house of all school , | it be , in a sense , a corollary and complement of that 
 and of create a distinct and characteristic technique | work . solution to the new problem accord to the 
 that might have result in the possession by this /| old light be , as I have already suggest , not a very 
 race of the most eclectic art in the world . but owe | difficult or embarrassing matter , although in detail 
 to the want of imagination and the conservative | they necessarily become terribly involved and lumber 
 _ f ropensitie of the british professor whose authority | with intricacy . under this system of analysis it be 
 post " " J " have never be resist , the opportunity have be | quite possible to find two or three distinct elucidation 
 organist ® lose . not only that , but he have be entirely| of many of the chord - position exemplify , even 
 la I responsible for the general and easily - sustain | when they be not particularly complex or puzzling . 
 ~ = reproach that the ' English be not a musical nation . ' | Dr. Eaglefield Hull , for instance , consider that Ravel , 
 ~y { | but now , in a terrible hour when all thing appear to | in one of his ' Valses ' : 
 ce of 
 > who knov 
 full faith © 
 tandard 

 i d severe 
 ion Serie 
 yan , bras 
  orchestt 
 the Suité 




 I , 1916 . 193 


 6 ) ( 0 ) _ - 


 ~ 4 33 Q 


 A LITTLE BACH problem 


 _ _ 


 195 


 ON BACH 


 196 


 I , 1916 


 SAINT - SAENS ’S ORATORIO ' LA TERRE 


 promise , ' 


 M.G 


 197 


 ESENTATION to MR . J. S. SHEDLOCK 


 second ' A. & M. ' supplement . 


 the 


 199 


 1746 ) , 


 SS 


 EDINBURGH SOCIETY of ORGANISTS : 


 lecture - demonstration on organ - voicing 


 200 


 BACH ’S MISDEMEANOURS 


 to the editor of ' the MUSICAL TIMES 


 ROYAL PHILHARMONIC SOCIETY , 


 QUEEN ’s HALLFor February 28 a new orchestral work , ' Spring Fire , ' by 
 Arnold Bax have be promise , but it be withdraw becaue 
 at rehearsal it be find not possible to overcome its grest 
 difficulty in time for the concert . there be some moni 
 in this which the composer should take to heart . but , 
 notwithstanding this omission , the programme present 
 be a fully interesting one . it include Arnold Bax ’s ' lh 
 the Faery Hills ' ; Sterndale Bennetts Overture , ' the 
 Naiads ' ; Mozart 's ' Symphonie Concertante ' for solo violin 
 and solo viola , play by M. Ysiiye and Mr. Lionel Tetti ; 
 and the ' Scheherazade ' Ballet music 

 on March 13 the final concert of the season be give . 
 Mr. Frederick Corder conduct his elegy for twenty - foar 
 violin and organ . Mr. Frank Bridge conduct bis 
 tone - poem ' summer , ' which be write for a ' small ' 
 orchestra that be practically the Beethoven orchestn ; 
 it be , on the whole , an agreeable and dainty work 
 Schumann 's Pianoforte Concerto in A minor , the solo par 
 of which be most charmingly play by Miss Myra He s , 
 be a much - appreciate item . Mr. Ben Davies sag 
 ' through the Forest , ' from Der Freischiitz ; and Stravinsky 's 
 extraordinary Ballet music ' Petrouchka ' be repeat ' by 
 request ' ( we wonder whose),and it be again demonstrate 
 that however its fancifulness may arrest attention , much ofits 
 ' local colour ' unfit it for performance in a concert room 

 Sir Thomas Beecham conduct on both occasion . his 
 bold and , one might add , ruthless breaking of suid 
 philharmonic tradition have , on the whole , be justify by 
 result . the audience have be good , if not overwhelming . 
 the 105th season will begin on October 30 




 the 


 ROYAL CHORAL SOCIETY 


 ROYAL ALBERT HALL 


 the 


 the LONDON CHORAL SOCIETY 


 ETY 


 XUM 


 201 


 LONDON SYMPHONY ORCHESTRA . 


 QUEEN ’S HALL 


 QUEEN ’S HALL ORCHESTRA 


 performance of 


 ' the DREAM of GERONTIUS ' and 


 NEW choral work by SIR EDWARD ELGAR . 


 a remarkable scheme 


 by our own correspondent 


 CN BNL OL 


 SEN 


 EVENING ANTHEM 


 S3 ) — SS SF 


 SSS SSS 


 $ — > — — _ | 0 , — SSS 


 — _ — — _ 4,—+ — — — — _ 


 XUM 


 1 LZCIN 


 _ — = — _ — 


 XUM 


 THROUGH TH 


 _ — f 


 -+4- 9 — — _ - — _ - — — — - PPP _ — _ — — _ — — — — — _ - - 


 209BOURNEMOUTH 

 the Symphony Concerts continue their successful course , 
 the principal work of interest recently perform comprise 
 Brahms 's ' tragic ' Overture and third Symphony , Rimsky- 
 Korsakov ’s Sinfonietta on russian theme , Tchaikovsky ’s 
 theme and variation from third suite and his ' pathetic ' 
 Symphony , Dvordk ’s ' from the New World ' Symphony , 
 and Mozart ’s Overture to ' Cosi fan Tutte . ' at the twentieth 
 concert M. Joseph Jongen conduct his picturesque Fantasia 
 o two Walloon Christmas Carols , and his Violoncello 
 Concerto , a work of considerable austerity , which be very 
 tiectively play by M. Maurice Dambois . the remain 
 soloist , all of whom add to their former reputation , have 
 be Mr. Julian Clifford ( Mozart ’s D minor Pianoforte 
 Concerto , and a clever set of variation on an old british 
 q2 Song by Ernest Farrar ) , Mr. Felix Salmond ( Saint- 
 séns ’s Violoncello Concerto in A minor ) , Mr. Lloyd - Powell 
 ( Beethoven ’s C minor Pianoforte Concerto ) , and Miss Lena 
 Kontorovitch ( Glazounov ’s Violin Concerto ) . 
 _ variety and comprehensiveness be still the predominant 
 tature of the ' Monday Specials . ' one afternoon be 
 devote to ' old ' music , at which nothing later than the 
 mozartian period find representation ; this concert have for 
 wloist Miss Gwenydd Powell , a very capable local violinist , 
 ind Mr. Matthew Newton ( tenor ) . on February 28 a 
 Hethoven programme be provide , the ' Pastoral ' 
 symphony , ' Fidelio ' Overture , and the Rondino for wind 
 astrument fill the major part of the bill ; Miss 
 Ellen Boyd sing commendably . the follow Monday 
 ¥ a particularly interesting , the scheme consist of music 
 ' y belgian composer , with a visit conductor , M. Paul 
 soossens , conductor of the Kursaal Royal Orchestra , Ostend . 
 M. Goossens obtain good result from the band , the work 

 XUM 




 BRISTOL 


 210 


 I , 1916CAMBRIDGE 

 the University Musical Society concert on March 17 be , 
 artistically , a great success . Mr. Albert Sammons , who 
 receive a warm reception , play the unaccompanied 
 Prelude and Fugve in G minor of Bach , and with the 
 orchestra , Mozart ’s Concerto in G. the orchestra play 
 Beethoven ’s eighth Symphony , and the choir sing a series of 
 five english folk - tune arrange by Dr. Vaughan- Williams . 
 on March 11 , at Newnham College , Dr. Charles Wood ’s 
 new Cantata ' Eden Spirits ' be perform for the first 
 time . a most enjoyable and delightful hour ’s music be 
 give in St. John ’s Chapel on March 5 , through the energy 
 and enthusiasm of Dr. Rootham and Dr. Ezard , and one or 
 two little - know work of Palestyina and Byrd be hear 
 for the first time . the programme consist of ' Siderum 
 rector ' and ' Ave Maria ' ( Byrd ) , and ' Conditor alme 
 siderum ' ( Palestrina ) , two Purcell anthem , ' praise the 
 Lord , o Jerusalem ' and ' my beloved spake , ' with orchestral 
 accompaniment , and Corelli ’s eighth Concerto for Strings 
 and Organ 

 the text of the ' Conditor alme siderum ' be the old one of 
 the Advent evening hymn , and the plainsong melody which , 
 with the text , be at least as old as the 5th century , be in 
 Mode 4 . the hymn be the first of a collection of ' Hymni 
 Totius anni ' which Palestrina publish at Rome in 15809 . 
 the melody in the last stanza be sing in canon at the 
 fifth by the second tenor and the second alto . the ' Ave 
 Maria ' of Byrd be a comparatively simple composition 
 from the first book of ' Gradualia . ' the ' alleluia ' 
 constitute a short second part , after which the first part be 
 repeat . the setting of the ' Siderum Rector ' of Byrd 
 appear in a collection of ' Cantiones quae ab argumento 
 sacrae vocantur , ' compose by Tallis and Byrd which be 
 publish in 1575 . it be for five voice , and be independent 
 of the plainsong melody proper to the hymn ; it be indeed 
 more definitely rhythmical in character than be usual in music 
 of this style , reflect the metre of the text . the first 
 stanza be sing through by three voice , and repeat by the 
 full choir . the second stanza be also sing twice , first by 
 four and then by five voice , a short but very beautiful 
 ' amen ' close the composition 




 _ _ 


 DEVON and CORNWALL , 


 DEVONIn blend of tone and sensitive sympathy of expression the 
 ' Isca ' Glee Singers at Exeter show themselves wel- 
 practise when , on March 4 , they sing Quartets in support 
 of the V.A.D. Vocal solo by Messrs. Belgrove and Wilk , 
 and violoncello play by Miss Helen Mott , add intere 
 to the occasion 

 while the future of Torquay Municipal Pavilion sill 
 hang in abeyance , event of musical importance have sw . 
 taine the interest of the public . the Symphony Concerts 
 give by the orchestra under Mr. Basil Cameron have 
 include Beethoven ’s C minor and ' Eroica , ' Dvorik ’ 
 ' from the New World , ' and Kalinnikov ’s in G minor . a 
 novelty on February 17 be the ' overture to a Molitre 
 comedy , ' by Henry E. Geehl , who conduct this item , 
 and a Suite , also a novelty , entitle ' Fairyland , ' found on 
 some of Grimm ’s fairy - tale . his music be facile and 
 attractive , and illustrate the subject cleverly . Max 
 Bruch ’s ' scottish ' Fantasia , with Mr. Barry Squire as solo 
 violin , be excellently give . on February 23 Mr. Benno 
 Moiseiwitsch join the orchestra as pianist in Rachmaninovs 
 Concerto No . 2 ; on March 9 Mr. Felix Salmond and the 
 orchestra play Lalo ’s Concerto for violoncello and 
 orchestra ; and on March 16 Dr. Rumschisky play the 
 pianoforte part with the orchestra in Liszt ’s Concerto my 
 on February 19 the platform be occupy by a number ® 
 blind vocalist , who sensitively sing solo and dvet . 
 Madame Regan accompany , the Municipal Orchestra 
 play several number , and Mr. Barry Squire play 
 violin solo . the object of the concert be to benefit the 
 National Fund for Soldiers and Sailors blind in the Wa . 
 Torquay Municipal Choir , with the orchestra , muster to 
 about a hundred and forty performer on February 23 a¢ 
 sing ' Cavalleria Rusticana ' with good spirit , Mr. E. W. Goss 
 be chorus - master . he wasalso responsible for an excellent 
 performance of ' Britons , alert ' ( ' Caractacus ' ) . the 
 principal singer be Misses Mary Leighton , Adelaide 
 Hartland , and Pickard , and Messrs. Frederick Blamey a 
 George Baker 

 Mr. A. J. Hawkins give an organ recital on a new orga ? 
 in Exmouth Primitive Methodist Church on March 1 . 4 
 unique event be the performance by Exmouth Choral 

 _ 
 d ' Messiah , ' fifty - seven g the r= snap of the EDINBURGH . 
 oe eee wa , 28 ee Miss Aileen D’Orme , Miss Dorothy Webster , Mr. Mullings , 
 ise artistic intention , and have his ¢ hold — ideal | snd Mr. Radford be vocalist at a Ballad Concert aiven te 
 iefore his member . in aloe e out his purist performance | February 22 . Miss Jean Sterling Mackinlay sing and act 
 of the oratorio he have to — ous es — afternoon in her usual inimitable style a number of folk - song and 
 and give the last twenty- ae the evening—@ | ballad , and Miss Lena Kontorovitch be violinist at the 
 ' Messiah ' festival indeed ! the soloist be Miss N. | eee concert , 
 Pine Coffin , Miss Gertrude Winchester , Messrs. Dean| the second of the New Reid Concerts take place on 
 Trotter , and S. J. Bishop . a small orchestra , include the February 26 . Brahms ’s trio , op . 114 , for pianoforte , 
 necessary characteristic brass effect , " support the choir , clarinet , and ’ cello , receive a fine interpretation . 
 for whom the entire performance be , in its way , a triumph . Prof. Tovey introduce his own Sonata in b flat , Op . 16 

 Holsworthy Wesleyan Choir , conduct by Mr. L. J. | for pianoforte and clarinet . Beethoven ’s Sonata in 
 Orchard , sing onan _ — Mendelssohn , and Goss , | 4 major , Op . 69 , for ’ cello and pianoforte be excellently 
 ata sacred concert on March 9 . play by Mr. Percy Such , and a nocturne in b flat by 

 CORNWALL . James Friskin , a Glasgow composer , be a striking item 




 LIVERPOOL 


 MANCHESTER and DISTRICT 


 213at two of the Tuesday Mid - day Concerts organize by the 
 Committee for Music in War - time , that of February 22 

 ht the Beethoven Amateur Orchestral Society to the 
 sotice of the large public , and in the conclude movement 
 { Guilmant ’s Organ Symphony ( soloist , Mr. Sydney H. 
 Yicholson ) , the massive grandeur of the playing arouse 
 meat enthusiasm . on March 13 there be give by a 
 hundred singer of the Hallé Choir ( under Mr. R. H. Wilson , 
 sith Mr. Nicholson again at the organ ) , what , without 
 imeverence , may be call a ' potted ' version of ' Acis and 
 Galatea . ' these concert have be most successful when 
 pa to some extent from the routine recital - concert , and 
 mesenting programme within the strict limitation of time 
 ind place which make they accessible to a busy market - day 

 ience 

 on March 6 , at the Albion Hotel , the eighty - second 
 gssion of the Gentlemen ’s Glee Club be conclude , and 
 Alderman T. H. Jenkins , an ex - Mayor of Salford , and 
 ‘ sint treasurer - secretary of the Club since 1866 , receive a 
 testimonial from his fellow - singer in recognition of his work 
 ind good comradeship during those fifty year . what 
 s revolution in choral attainment and appreciation he have 
 witness 

 the two concert of the Brodsky Quartet ( March 7 and 18 ) 
 end the season of this combination in a blaze of glory . 
 Dr. Brodsky and his compatriot Sapellnikov give a great 
 Sonata evening : César Franck , Paderewski in a , and 
 Beethoven in e flat major . Sapellnikov ’s playing have much 
 the same characteristic as Richter ’s conducting , emphasise 
 ul that be big and noble , comparatively neglectful of subtlety 
 in detail : a great player , though not perhaps so ideal a 
 chamber - music man as , say , Siloti . on the second date , 
 two towering work make up the programme . in the A minor 
 trio of Tchaikovsky ( /7 memoriam Nicholas Rubinstein ) , 
 the late W. H. Dayas ’s most distinguished lady pupil , 
 Miss Lucy Pierce , join Messrs. Brodsky and Hatton , 
 the latter of whom have for two season now play vice 
 Carl Fuchs , unhappily still intern in Ruhleben . it be only 
 fitting , and in no way derogatory to the absent one , to 
 emphasise Hatton ’s distinguished aptitude for chamber - music 

 this phase of his art be now fully recognise at its true 
 worth . formerly his power be know to the few , now 
 they be acknowledge by the great public . Miss Pierce 
 find her great task thoroughly congenial ; especially must 
 oe admire her finely control rhythmical fervour . 
 Schubert ’s C major Quintet , in which Mr. William 
 Warburton play second ’ cello , provide a worthy 
 conclusion to a season of much distinction . this work be to 
 be repeat on April 18 , with Miss McCullagh as second 
 ‘ ello 




 NOTTINGHAM and DISTRICT 


 XUM 


 OXFORD 


 214 the MUSICAL TI 


 SHEFFIELD and DISTRICTAt the Wednesday five o’Clock Concerts , organize by 
 the Misses Foxon , some interesting music have be revive . 
 Mr. Collin Smith and Mr. Cyril Cantrell play Henry 
 Eccles ’s Sonata in G minor for ’ cello and pianoforte , a work 

 of rare freshness and rhythmic strength . the fine cantabile 
 playing of Mr. Smith make its slow movement especially 
 effective . Misses E. Griffith and E. Cook , and Messrs. 
 C. and A. Smith make up a competent pianoforte quartet 
 party , fully qualified to do justice to Frank Bridge ’s now 
 popular Phantasy . Mozart ’s Trio No . 4 , in C , be prettily 
 play by Misses E. Wood and D. Bingham , and Mr. A. 
 Smith , and the same performer show versatility of style in 
 the duet fromi Schumann ’s ' Fantaisiestiicke . ' of notable 
 individual performance may be name the singing by Miss 
 Lenore Carter of four of Beethoven ’s Scotch song arrange- 
 ment ( with pianoforte , violin , and ' cello obbligati ) , Miss 
 Winifred Elliott ’s artistic singing of the contralto air ' to 
 live water , ' from Bach ’s Cantata ' the Lord be my 
 shepherd , ' and Miss Ethel Cook ’s fanciful playing of 
 Schumann ’s ' Papillons 

 Miss Winifred Rowbotham give further evidence of her 




 YORKSHIRE . 


 LEEDS 


 BRADFORD . the MUSICAL TIMES.—ApriL 1 , 1916 . 215 

 onginal work , which provide a hard nut for choralist to 
 mck . the work be more than sympathetically perform . 
 Verdi 's beautiful ' Stabat Mater ' and Tchaikovsky ’s 
 ' Hamlet ' Overture be also give , and Miss Carrie Tubb 
 mas the soloist . the last three of the Free Chamber Concerts , 
 sbich Mr. Midgley so ably engineer , have to be record . 
 on February 21 , a Pianoforte Trio by Arthur Hinton ( Op . 21 ) , 
 hrensky ’s ' Elegiac Trio , ' and Grieg ’s Violin Sonata in G 
 be play by Miss Mabel Priestley , Mr. G. S. Drake , 
 ind Mr. J. H. Woodcock , and Mr. Charlesworth George be 
 the vocalist . on March 6 Pianoforte Quartets by Hurlstone 
 e minor ) and H. Westrop ( in a flat ) , with Beethoven ’s 
 String Trio ( op . 9 , no . 2 ) , be play by Messrs. Dunford , 
 Thornton , Drake , and Midgley , the vocalist be Miss Violet 
 Walker . at the sixth and last concert on March 20 , two 

 snoforte Quintets be hear , Dvordk ’s charming work 




 other townsnoteworthy feature of the concert be Mr. Albert Sammons ’s 

 very fine performance of the first and second movement of 
 Elgar ’s Violin Concerto . Miss Stiles - Allen be the solo 
 vocalist . at the last of the Halifax Chamber Concerts , on 
 March 3 , the Catterall String Quartet be hear in work by 
 Schubert , and Beethoven ( op . 131 ) , with Frank Bridge ’s 
 ' three lyrical piece . ' a concert of the usual type by 
 the highly efficient Glee and Madrigal Society , under 
 Mr. Shepley , on March 18 , also call for mention . at 
 Harrogate , on February 29 , Mr. Julian Clifford , assist by 
 his wife as vocalist , give a pianoforte recital , an interesting 
 feature be his clever and effective transcription of Reubké ’s 
 well - know fugue in C minor 

 miscellaneous 




 OXFORD DEGREES in MUSIC 


 content 


 185 


 191 


 193 


 195 


 DURING 


 DAMS , J 


 the last month . 


 USLING , G. 


 _ _ _ 


 = SOL - FA publication 


 the H. W. GRAY CO . , NEW YORK . 


 publish for 


 EDWIN SAWER 


 ( BASS SOLOIST ) . 


 N.E 


 CENTRAL DEPOT FOR RUSSIAN MUSIC 


 J. & W. CHESTER 


 PIANO PEDALS 


 every organist 3 


 NORMAN & BEARD 


 PNEUMATIC PEDAL attachman ! 


 FOR the PIANO 


 L.L.C.M 


 MUSIC 


 DON , W. 


 C , and of 


 _ _ — _ 


 D 's 


 ENT 


 XUMLonpon : NOVELLO and COMPANY , LimITep 

 the MUSICAL TIMES.—ApriL 1 , 1916 . 217 
 EEE 
 r 
 anthem for ASCENSIONTIDE . 
 " above all praise 2 and all majesty ee Mendelssohn 14d let not your heart be troubled(doublechorus unac . ) M.B. Foster 3d . 
 ve be the glorious work . Haydn 1d . let not ( four - part arrangement , with organ ) Myles B. Foster 3d . 
 * achieve be the no work ( 2nd chorus ) .. Haydn utd let their celestial concert all unite . andel 14d . 
 * all glory to the i amb .. ' Spohr 14d . | * lift up your head oe Handel and 3 L. Hopkins , each 5 
 awake up , my glory ee oe es M. Wise 3d . | * lift up your head we ° . Ss . mee Taylor 3d . 
 " Christ become foo ! unto death . a J. F. Bridge lift up your head ° - Turner 2d , 
 Christ be not enter into the tas Places .. Eaton Faning 14d . | * look , yesaints   .. Myles 4 Foster 3d . 
 come , ye child oe .. Henry John King 3d . o all ye people , clap your hand H. Purcell 3d . 
 for it become he ee oe ‘ ete at whe s 14d > clap your hand . J. Stainer 6d . 
 ' one w ) " on ae * Croft , 4d . ; W. B. Gilbert ed . clap your hand T. T. Trimnell 3d . 
 byes King . - o Bach 14d . | * o God , the King of Glory be H. Smart - 
 Grant , we beseech T hee .. _ _ H. Lahee rd . | * o God , when thou " pom ae Mozart 3d . 
 Grant , we beseech thee ( collect ) ae as A. R. Gaul 3d . | * ohowamiable .. - . Barnby 3d . 
 " hallelujah unto God 's Almighty Son . ae Beethoven 3d . | * o Lord our Governour . Gadsby 3d . 
 * how excellent thy I wy 4 OLord .. . , — _ . Lord a _ ernour Baxtee ite : 
 ® then be rise wit ris vor Atkins 4d . | * o rise Lord . Barn 14d . 
 i be rise r . re ‘ Osmond Carr rand J. 4 r ea . * = to Fegan 4 gate J. 4 Adlam 4 
 ye then be rise ( two part yles B. Foster 3d . ejoice in the Lor alkin 14d . 
 tat my Father 's house H. Elliot Button ar and J. MaudeCrament , ea . 3d . | * singuntogod .. F. Bevan 3d . 
 in that day . George Elvey 4d . | * ten thousand time ten thousand E. Vine Hall 3d . 
 in that day ( open ye ' the gate ) , oe ew F.C. Maker 3d . the earth be the Lord 's .. " T. T. Trimnell 4d . 
 " it shall come to pass ot os - _ = — = 14d . | * the Lord be exalt wt Genk John E. West 14d . 
 | will not leave you com ort ess = sit ' . Byrd 3d . the Lord be King . Gadsby , 6d . ; H. J. King 4d . 
 ' King all - glorious .. J. Barnby 6d . thou art a priest for ever os oe S. Wwesles 3d . 
 King all - glorious na Cc horus a arr . for four voice ) + . wd " * " where th portal - Ch . ee 3d . 
 * leave we not , neither forsake we tainer 14 nere thou reignest . Schubert 3d . 
 let not your heart .. Eaton F aning and G. Gardner , each 3d . who be this so weak and helples ess Rayner 3a . 
 ANTI { tem for W hitsuntide . 
 and all the people see .. - J. Stainer 6d . in my Father 's house .. .. J. Maude Crament 3d . 
 * and — . come . oe ‘ a a - Wood 3d . it shall come to pass es G. Garrett 6d . 
 and when the day of Pentecost a i . W. Smith 3d .   * it shall come to pass B. Tours 14d . 
 * as pant the hart .. _ - ' ae - Spohr 7 7 et God arise Greene 6d . 
 * as the hart pant . . : . éa Mendelssohn 14d . et God arise T. T. Trimnell 4d . 
 behold , pe the promise é on - . J. Varley Roberts 4d . * let not your heart be trouble . H. G. Trembath 14d . 
 * come , Holy ¢ — * ul we Attwood 14d . — down , Holy Dove . B. Luard - Selby 3d . 
 come , Hol ost ; - vey and » Hatton , each 4d . | * o clap your hand . Stainer 6d . 
 come , Holy Ghost . C. Lee Williams and Palestrina , each 2d . | * o give thank ' mn J ; Elvey 3d . 
 come , thou Holy Spirit es ° J. F. Barnett 3d . | * o Holy Ghost , into our mind .. G. A. Macfarren 14d . 
 do not I fill heaven and earth . = Hugh Blair 3d . * oh ! for a close walk with God ne .- Myles B. Foster rgd . 
 * eye hath not see ( two - part setting ) . - » Myles B. Foster 3d . o taste and see .. * goss ; A. H. Mann , each 3d . 
 * eye hath not see ( four- " pe art setting ) -- Myles B. Foster 34 . * o taste and see - oe _ Sullivan rd . 
 fear thou not on 8 as - ae Josiah Booth 14d.| o thou , the true and only ight Mendelssohn e . 
 give thank unto God . a - oe 4d . o where shall wisdom be find o ie 6d . 
 glorious and powerful God " = - . Orlando Gitbons 3d . | * our bl Redeemer : E. V. Hall 3d . 
 Dae from Teman .. oe es ea w , Cc . — — _ " M4 * praise i. , ete Lord daily J. B. " Callin 14d . 
 isaSpirit .. ee os ss oe ’ .S. Bennett 1 sing to the Lord Smart ts . 
 * great be the Lord . - ee a W. Hayes 4d . * spirit of mercy , truth , and love . B. Luard - Selby my 
 , = Holy Spirit ee ee - Tm J. y vo 4 — _ of na truth , oe H. A. C — - 
 ail ! breath of life ' ic a ae omas Adams 1 e eye of all wait upon Thee xibbons 4d . 
 happy I be the man . - on E. Prout 8d . | * the glory of the God of Israel T. Adams 3d . 
 t dwelleth in the secret pl ace .. Josiah Booth 4d .   * the Lord come from Sinai John E. West 3d . 
 * Holy Spirit , come , o come ( ad a Sanctum ) G. C. Martin 14d.| the Lord descend . ayes rd . 
 I be in the spirit . . ws : Blow 6d . the Lord be in his Holy Temple J. Stainer 4d . 
 ' I will magnify thee . . ' a ° J. H. Parry 3d . the Lord be in his Holy Temple E. H. Thorne it d : 
 * I will not leave you comfortless ee oe Bruce Steane 2d . the love of God be shed abroad S. Reay 14d . 
 ' iwill praythe Father .. on - - . G.W. Torrance 14d . there be no condemnation H.S. Irons 3d . 
 ht gonotaway .. - . - - Thomas Adams 14d.| the Spirit of God . " y Arthur WwW. { 4 - — 3d . 
 gonotaway .. ee - es ° A. J. Caldicott 3d . | * the wilderness .. ohn . Goss , ad . ; * S.S. Wesley 6d . 
 pa ng = ‘ w. we : wos e. C. S. Hea + * when God of old come down from Heaven .. E. bp a 3d . 
 ' if ye love I Mon a be , and R. Stewart , each 14d we will rejoice . éa - oe roft 4d . 
 if ye love I Bruce Steane 2d . when the Day of Pentecost A. Kempton 3d . 
 if ye love I Herbert W. W areing ' and W. g 2 Westbrook , each 3d . whosoever drinketh J.T. Field rd . 
 anthem for TRINITYTI DE . 
 almighty and everlasting God . " a Gibbons 14d . | * in Jewry be God know .. J. Cc te Whitfeld 14d . 
 almighty God , who hast promise én -- H. Elliot Button + in sweet consent .. H. Thorne 3d . 
 " Angel Spirits , ever bless se ' - Tchaikovsky 2d . in the fear of the Lord J. V. arley Roberts 3d . 
 ascribe unto the Lord .. a we ee S.S. Wesley 4d . let the peace of God J. Stainer 4d . 
 " behold , God be great on ne ‘ a E. W. Naylor 4d . | * let thy merciful ear A. R. Gaul 14d . 
 beloved , if God solovedus .. = in J. Barnby 14d . | * light of the world E , Elgar 3d . 
 beloved , let we love one another os .. Gerard F. Cobb 14d . | Lord of all power and might E. T. Chipp 3d . 
 be yeallofonemind .. ee - . Arthur E. Godfrey 3d . | * Lord ofall powerand might .. William Mason 14d . 
 bless be the man wa n - John Goss 4d . Lord of all power and might ( man ’s voice ) « J. Barnby ad . 
 blessing and glory mn as ' es Boyce 14d . * Lord , we pray thee e J. Varley Roberts 14d . 
 " blessing , glory .. oo a = sa Bach 6d . o Father bl ... } . Barnby 3d . 
 come , ye + a on oe ee — a > 4 ee . iL r hast prepare A. - — 4 
 camefrom Teman .. oe es Stegga 4d . oyful Light ours 4d . 
 1 God 80 love the world .. oe an . Matthew Kingston ite : " ol ak my trust . re a King Hall 14d . 
 = , olord .. " - on - Mozart 14d.| Otasteandsee .. ae J. Goss and A. H. Mann , each 3d . 
 a 7 to we , Lord . ee a - .   o H. Elliot Button rd . | * otasteandsee _ .. A. Sullivan r4d . 
 ai Cr ne Light ow J. T. Field , 2d . ; * G. C. Martin 4d . o where shall wisdom be find ? Boyce 6d . 
 ' holy , holy , h ; es os oe Crotch 3d . ponder my word , o Lord Arnold D. C ~ ond rad . 
 holy , Lord God Almighty ‘ sm ce ja T. Bateson 4d . | * praise his awful Name .. Spohr ad , 
 ' how goodly be thy tent " a we - F. Ouseley r14$d.| rejoice in the Lord oe G. C. Martin 6d . 
 ' how lovely be thy dwelling .. - on Spohr = * see what love hath the Father .. Mendelssohn 14d . 
 ' hymn to the Trinity .. - - a Tchaikovsky 14d . | sing tothe Lord . ee a 8d 

 h beady alpha and Omega .. - on es Ch . Gounod 3d . | * stand up and bless ra oss 4d . 
 i alpha and Omega .. ia 3 J. Stainer 14d . | teach I thy way " W.H. Gladstone , tid . 5 te Le Moir 3d . 
 be Alpha and omega .. ae ' J. Varley Roberts 3d . | * the Lord hath be mindful .. . S. Wesley 3d . 
 1 behold , and lo ! .. » - - Blow 6d . | * the Lord be my Shepherd G. re Macfarren 14d . 
 henge that the Lord be great 7 es F. Ouseley 14d . | * the Lord be my Shepherd J. Shaw 3d . 
 ' = the Lord .. oa Cuthbert Harris , 3d . ; * J. Stainer 6d . the Lord will comfort Zion H. Hiles 6d . 
 te magnify .. we = os J. Shaw 3d . | thou art worthy , o Lord F. E. Gladstone 3d . 
 | will sing of Thy power . " = - - Greene 4d . | thou shalt shew I the path of life Alan Gray 14d . 
 will sing of Thy power . aa ‘ i aN A. Sullivan 14d . | we humbly beseech thee wt H. Elliot Button 1d . 
 4 will sing unto the Lord - - oe H. Wareing 31 . whatsoever be bear of God H. Oakeley 3d 
 humble faith .. ° es ° ee G. Garrett 14d . | who can comprehend Thee Mozart 3d 




 218 


 1916 


 music for lent & EASTER 


 a simple form of CHANT service 


 for the 


 OFFICE of HOLY COMMUNION 


 E. a. HUTTON 


 the 


 CHANT COMMUNION SERVICE 


 WITH eucharistic hymn 


 C. W. A. BROOKE , M.A 


 compose by 


 BASIL HARWOOD 


 NOVELLO ’S 


 anthem . 


 hymn and ‘ tune 


 HYMN to the FALLEN 


 HYMN for CHRISTIAN soldier 


 ently touch the WARBLING LYRE 


 c0 


 HY 


 omposition by GEORGE C. MARTIN 


 anthem . | service . 


 HYMN tune and carol . : . 


 the art of train CHOIR boy . 


 word and music . exercise only . 


 220 


 9d on AM SFWNHKH OW ONI AU BW WD 


 for FEMALE or boy ’ voice 


 whatsoever thing be write aforetime 


 edit 


 IN 


 IN 


 XUM 


 revise price 


 COMMON prayer 


 of 


 and the 


 edition . 


 INDIA PAPER edition vs : 


 INDIA PAPER E dition : 


 ENG 7 JA N D 


 SONG 


 ARNOLD B E RESFORD . 


 INDIA PAPER E dition : 


 CHORALE prelude 


 for the ORGAN 


 C. HUBERT H. PARRY . 


 first set 


 original composition for the 


 content 


 ORGAN 


 second set . 


 original composition for the ORC 


 content 


 AN 


 the NAZARENE 


 JOSEPH H. ADAMS 


 RAINBOW 


 OUR music reading ladder for beginner 


 album for the ORGAN 


 NOVELLO'’SNo . 7 . 
 TWELVE 

 funeral music ) . 
 No . 
 BEETHOVEN 
 bl be they that mourn ( Requiem ) 
 CHOPIN | 9 . Marche Solennelle . 
 Funeral March . WILLIAM FAULKEsS | 10 . Marche Funébre 

 HANDEL | 12 . Lament 




 the village ORGANIST 


 FUNERAL music 


 twenty 


 SHORT and easy piece 


 ORGAN 


 the 


 composer 


 for 


 various 


 content . 


 2 . SPRING SONG 


 7 . PRELUDE in D MINOR 


 S. PRELUDE ... 


 13 . INTRODUCTORY voluntary on the RUSSIAN HYMN 


 15 . LARGHETTO and ALLEGRO 


 LONDON 


 select piece 


 LIMITED 


 TSCHAIKOWSKS 


 " MENDELSSOHN 


 MENDELSSOHN 


 MENDELSSOHS 


 AN 


 LAIKOWSKS , 


 LAIKOWSRY 


 DELSSOH EN 


  DELSSORN 


  DELSSORN 


 XUM 


 223 


 DOLL’S - HOUSE suite 


 five little piece 


 FOR 


 LITTLE FOLK 


 FOR 


 PIANOFORTE SOLO 


 compose by 


 HUBERT BATH . 


 the 


 WOODLAND DANCES 


 a set of easy piece 


 FOR the 


 PIANOFORTE 


 compose by 


 ERNEST NEWTON . 


 WEBSTER ’S 


 child 's primer 


 of the 


 theory of music 


 twenty - third thousand 


 NOVELLO ’S elementary 


 manual 


 physical exercise , dance 


 AND game 


 IN the 


 INFANT SC ~-HOOL 


 MARGARET ALEXANDER HUGHES 


 the music arrange by 


 SELECT ORGAN music 


 by italian composer 


 NET 


 NEW FRENCH publication 


 CHAMBER MUSIC 


 NOVELLO and COMPANY 


 LONDON 


 progressive study 


 for the pianoforte 


 edit , arrange in group , and the fingering revise and supplement 


 FRANKLIN TAYLOR 


 fifty - six book , price one shill each . 


 from the above 


 select PIANOFORTE study 


 progressively arrange RY 


 FRANKLIN TAYLOR 


 in two set ( eight book ) , price one shill and sixpence each book . 


 XUM 


 M. 879 + 


 ROY 


 MIDSU 


 A JUNI