


 publish on the 


 CHORAL SOCIETY 


 ~V.O 


 ROYAL 


 ROY AL AC ADE MY of MUSIC , 


 YORK GATE , MARYLEBONE ROAD , N.W. 


 F. W. RENAUT 


 THE ROYAL COLLEGE of MUSIC , 


 PRINCE CONSORT ROAD , SOUTH KENSINGTON , S.W. 


 HIS MAJESTY the KING 


 H.R.H. the PRINCE CHRISTIAN , 


 K.G 


 TRANCI EXAMINATION , 


 COLLEGE of ORGANISTS 


 THE ROYAL 


 THE GUILDHALL -HOOL OF MUSIC . 


 HN CARPENTER ST . , VICTORIA EMBANKMENT . E. ( 


 MANCHESTER SCHOOL of MUSIC 


 OCTOBER , 1 , and 4 , 1912 


 ( : SIR HENRY J. WOOD . 


 ACKTE , DONALDA , ADA FORREST , CARRIE TUBE 


 CLARA BUTT , MURIEL FOSTER , DORIS WOODALI 


 MESSIEURS 


 WILFRID DOUTHITT , HERBERT HEYNER , 


 CLARENCE WHITEHILL . 


 PIANOFORTI HERR MORIZ ROSENTHAI 


 PTUESDAY MORNING ‘ ELIJAH 


 MAKERS . 


 < D MISCELLANEO ! 


 WEDNESDAY morning . 


 MATTHEW . 


 WEDNESDAY evening . 


 SUN . 


 AND MISCELLANEO 


 ‘ the MESSIAH 


 AND MISCELLANE 


 FRIDAY morning 


 FRIDAY evening 


 SEPTEMBER 1 , 1912 


 IROME 


 QUEEN 


 the MUSICAL TIMES 


 AND SINGING - CLASS CIRCULAR . 


 found in 1844 . 


 first of every month 


 NADE 


 HALL 


 CONCERTS 


 BIRMIN 


 YGHAM 


 MUSI 


 AL 


 UNIVERSITY of DURHAM 


 FESTIVAL 


 MANCHESTER COLLEGE of MUSIC 


 STANLEY WITHERS 


 UNIVERSITY MANCHESTER 


 NCORPORATED 


 MUSICIANS 


 EX AMINATIONS 


 GUILD GAZETTE 


 ORGAN VACANCIES . 


 incorporate 18 


 -M. , L.V.C.M. , F.V.C.M 


 MR . CHARLES KNOWLES 


 choral FESTIVAL concert in 


 SOUTH AFRICA 


 SOLO PIANIST ) . 


 MR . W. H. BREARE 


 TO student and the profession 


 GEVCIK SCHOOL of VIOLIN - PL AYING 


 t= ALEXANDRA PALACE CHORAL and 


 ORCHESTRAL SOCIETY 


 IQT2 - 13 


 1913 


 WEDNES 


 THURSD : 


 FRIDAY 


 SATURD ? 


 DEAR 


 ND 


 the 


 THIRTEENTH 


 MUSICAL festival . 


 COLSTON HALL 


 BRISTOL 


 OCTOBER 23 , 24 , 25 , and 26 , 1912WEDNESDAY f t.o p.m , * * Elijah Mendelssot 
 Oct. 23 . ( 8.0 p.m. " Das Rheingold = ag 
 sicaieiali ( 12.0 noon , " * Die Walkiire agner . 
 THU RSDAY pm . M. ' Paderewski . Concerto . ' hopin 

 Uct . 24 . { a * * Caractacus Elgar . 
 Noon , " ' Siegfried Wagner . 
 RIDA Herr Fritz Kreisler . concerto . Beethoven . 
 ve p - m. ' Samson and Delilah Saint - Saéns . 
 ( 1 noon , " * G 9 a eaten , Wagner . 
 SATURDAY » .m . Grand Miscellaneous 
 ( - popular programme at popular price . 
 vocalist . 
 Miss A. Nicholls Miss Perceval Allen . Miss C. Hate 
 i lice wse Miss Mabel Manson . Miss Alice Ha ure . 
 Miss Phyllis Lett Miss Marion Beeley . Miss Edith Clegg . 
 s Jones Miss Maria Yelland . Miss G. Winchester . 
 r Corneliu Mr. Lloyd Chandos . Mr. Morgan King 
 Herr Hans Bechstein . 
 Clarence W ill Mr. Robert Radford . Mr. Frederic Austin . 
 Ir . Dalt Bak Mr. Charles Knowles . Mr. Arthur Winckworth . 
 Mr. Percy Heming 
 ( e Festival Choir and Orchestra of » performer . 
 conductor : Mr. GEORGE RISE LEY . 
 rder por ticket may now be book , winary Progras 
 tfree . 
 Mr. A H. in retary , 4 , C sIston St. , Bristol . tel . : No . 44 

 SALL , Sec 




 HEREFORD MUSIC AL L FESTIVAL 


 SEPTEMBER » II , 12 , ND 13 , 1912 


 principal 


 SCOBIE 


 IE 


 M. J. G 


 the OLD FIRM 


 P. CONACHER & CO 


 SPRINGWOOD WORKS 


 HUDDERSFIELD . 


 two gold medal 


 PIANO PEDALS 


 H. P. COLEMAN , F.R.C.O 


 the MALKIN PATENT PEDAL CO . , LTD . , 


 voice training . 


 ehremayer system of 


 sight - playing 


 the 


 L. M. EHRE M. AYER , 27 , CHANCERY LANE , 


 LONDON , W. C 


 A fine modern viol IN 


 SOLD by W. E. HILL & son 


 business 


 street 


 IOS 


 at their place of 


 140 , NEW BOND 


 LONDON , W 


 56 the 


 MUSICAL 


 professional | notice 


 MISS DOROTHY BAILLIE - SMITH 


 SOPRANO ) . 


 MISS ALICE HARE 


 MISS ESTE LLA L INDEN 


 SOPRANO 


 MISS DASIE E. AV be 


 CONTRALTO MEDALLIST 


 ENOR 


 M RS 


 MR . E RNEST . PE NFOL D 


 MR . JOS . RE ED 


 ( TENOR ) . 


 MR . MONTAGUE , BORWELL 


 WINIFRED MARW OOD 


 WALM LANE , CRICKLEWOOD , N.W 


 REGINALD HALE 


 ( BARITONI 


 MR . 


 BARS TONE ) 


 MR . HENRY MALLETT 


 BASS - BARITONE 


 MR . HERBERT TRACEY 


 MR . M. MONTAGU - NATHAN 


 DR . A. EAGLEFIELD HULL 


 CONCERT organist ) . 


 |the LONDON COLLEGE for chorister 


 composer ’ MSS . 


 evision of MUSICAL . composition 


 _ L.R.A.M. ( PAPER WORK 


 L.R.A.M. , A.R.C.M 


 late success 


 VOICE TRIAI 


 R. WILLIAM A 


 F.R.C.O. . : 37 


 BAC . exercise , 5 . final MUS . BAC , EXAM . , ¢ 


 first exam . for MUS . BAC . , 2 . : 


 HERBERT WEATHERLY 


 F.R.C.O 


 F.R.C.O 


 D R 


 * FUGUE . 


 " MATER 


 COACH | 


 DRED 


 HU NDE 


 EC 


 49 


 HE 


 HE 


 O.M 


 US.B 


 W ANTED.—ORGANIST & CHOIRMASTER 


 RGANS 


 ORGAN 


 O be sell 


 IMPORTANT . discovery . 


 ONLY 


 TO MALE vocalist 


 four HUNDRED and sixty - four p 


 ORGANS and TU NING 


 establish 1750 


 GRAY & DAVISON 


 ORGAN BUILDERS , 


 PRATT STREET , N.W 


 48 , SOUTHFIELD ROAD , OXFORD , 


 128 , HOLT ROAD , LIVERPOOL 


 YS by 


 SIR EDWARD ELGAR 


 VIRELAI 


 PASTOURELLE 


 EDI 


 2 . S 


 29 


 IN 


 I , 1912 . 563 


 1 g : 69 


 . .KLIN TAYLOR 


 SW - 


 fifty - six book , price one shill each . 


 from the above : 


 select PIANOFORTE study 


 progressively arrange by 


 FRANKLIN TAYLOR . 


 in two set ( eight book ) , PRICE one shilling and SIXPENCE each book . 


 XUM 


 the 


 MUSICAL 


 564 


 MICHAELMAS 


 BIRMINGHAM 


 STIV AL NOVELTIES 


 the MUSIC 


 ODE 


 maker 


 ARTHUR O'SHAUGHNESSY 


 CONTRALTO SOLO , CHORUS and ORCHESTRA 


 EDWARD ELGAR 


 FIFINE at 


 ORCHESTRAL 


 the FAIR 


 DRAMA 


 LN 


 GRANVILLE 


 MINIATURE 


 BAN TOCK 


 SCORE 


 BROADWOOD 


 | PLAYER - PIANOS 


 grand and upright 


 the most sensitive player on the market 


 ( the SHAKESPEARE 


 BIRTHDAY 


 | ILLUSTRATED catalogue on application 


 BOOK 


 C.V.O 


 BOSWORTH 


 17 , HANOVER SQUARE 


 THE ROYAL COLLEGE 


 CO . , 


 LONDON , W. 


 OF ORGANISTS . — 


 FELLOWSHIP ( F.R.C.O 


 ASSOCIATE EX AMIN : ATION 


 FELLOWSHIP EXAMINATION 


 N 4 


 AND MUSIC 


 JULES MASSENET 


 1842 - 1912 


 1912 


 1877 , ' I 


 1912 


 THE MUSICAL 


 AND SINGING - CLASS CIRCULAR 


 JULES MASSENET . 


 CALVOCORESSI . 


 12 


 1848 


 1848 


 XUM 


 1912 . 565 


 ard 


 136 


 THE 


 568 


 — _ — _ 


 1USIC 


 + sf - = 


 the MUSICAL TIM 


 N 4 


 — — _ _ _ — — - @-76 


 ERNEST NEWMAN 


 ES.—SEPTEMBER 1 , IQ12THE FUTURE of CHAMBER - MUSIC . 
 by RuTLAND BouGHTON . 
 i 

 of late year it have be a subject for frequent 
 comment that chamber - music have cease to develop . 
 from Haydn to Tchaikovsky it grow side by side 
 with the symphony ; all the great symphonist be 
 also writer of string quartet and pianoforte trio : 
 their powerful emotion be express in ful ] 
 orchestral colour , their more intimate emotion in the 
 delicate tint of the string quartet and its congener , 
 but then come a distinct pause in chamber - music . 
 the symphonic tree send out all sort . of fresh 
 branch in the form of symphonic - poem and 
 choral symphony ; and the same broadly - sweep 
 instrumental spirit spread itself into the domain 
 of opera , for in the work of Wagner more 
 especially we be face with a musical development 
 which be as symphonic as it be dramatic . when 
 Wagner declare that the incorporation of word 
 with the symphonic - form have sound the death- 
 knell of the symphony as it be then know , he 
 be much deride ; and to this day wiseacre be 
 not want to point out that Brahms and other 
 have since write valuable music in that same 
 form . but great mind intent on an obvious main 
 principle be no stickler for detail of exception , 
 and Wagner ’s dogma be sufficiently substantiate 
 by the fact as they stand . from Haydn to 
 Beethoven the symphony develop as a form . 
 no symphony write since Beethoven offer any 
 further constructive development in the same 
 direction . Brahms , the most perfect of the 
 post - beethoven symphonist , get no far than 
 the systematise four movement , with their 

 orthodox detail of first and second subject , free 

 fantasia , and the rest ; and in the other the disin 

 tegration of the symphonic - form , already present 
 in the later work of Beethoven , proceed with 
 considerable rapidity . Liszt , Berlioz , Tchaikovsky , 
 and Richard Strauss deal with the form in 
 such a way that the title cease to have any 
 meaning . ' Tchaikovsky , least heterodox of the four , 
 write work which might as fitly be call french 
 overture or ( in the Bach sense ) as 
 symphony ( in the Beethoven sense ) . it be not 
 necessary to labour the point ; nor , indeed , need 
 it have be refer to at all , if some quite 
 unnecessary dust have not be raise in anti- 
 wagnerian quarter with a view to discredit the 
 dramatic value , as oppose to the purely sensuous 
 value , of music . ' this fact stand out clearly : 
 that in make music the more ready vehicle for 
 expression of human feeling , Beethoven be 
 obliged to violate the formula of sonata or 
 symphony - form ; and as he deal more completely 
 with emotional expression , so do he find himself 
 get near and near to the realm of definite 
 external thought , until he make that colossal 
 experiment of unite the symphonic - form with the 
 definite intellectual concept of poetic art . 
 personally , I think Wagner be right in regard 
 the ninth symphony as the end of ' pure music . ' 
 that Beethoven proceed thereafter to write 
 another ordinary symphony prove nothing . from 

 suite 




 ICTHE MUSICAL TIMES.—SepTEeMBER 1 , 1912 . 571 

 the point of view of orchestral development both ' of the form itself . the form have , for the time 
 the fourth and the eighth symphony be reaction . | be , become definitely crystallize ; and this 
 as the fourth symphony be to the third , and the |indicate either that the need of chamber - music 
 eighth to the seventh , so the tenth might have / no long exist , or that whatever need there be be 
 be to the ninth . such speculation help in noja thing apart from the life of to - day . now this 
 way to an understanding of those inner emotional | may be a good thing or a bad thing ; in either case 
 force which cause the normal growth of the form|it be worth understand . we should not allow 
 in Beethoven ’s hand to become increasingly plastic , |the most delicate and refined form of music to 
 respond as to its shape more and more readily | pass from we without know the reason 

 to the grow emotional demand of Beethoven’s| what chamber - music be we may learn from its 
 nature . and just to this plasticity no later / name . it be the music of home and intimacy . 
 symphonist have contribute one jot . whatever of|‘that realise , we may understand part ( at any 
 true symphonic development exist to - day occurs|rate ) of the reason for its decadence . man and 
 in the symphonic - poem and the music - drama.|women live less at home than they do of old ; 
 the ' heldenleben ' of Strauss and the second act of | consequently emotion be more general , less intimate . 
 ' Tristan ' be in the direct line of symphonic descent . | the delicate and subtle shade of feeling which 
 such music be as clearly evolve from the ! generate the chamber - music of the 18th century 
 symphony of Beethoven as they in turn were|are not so easily available for the modern 
 derive from the Suite of dance . whatever is| composer 

 good and permanent in the work of the s ) mphonist | nevertheless , through the coarse fibre of the 
 from Haydn and Strauss , derive not from the | present age there run a strong , noble thread of gold , 
 conventional form but from the association of|which will probably bind the whole modern life 
 that form with life itself — with the desire to find al with the spirit of loveliness . ' the passion of 
 mean of expression for the vary tide of human } Whitman and Swinburne , the mighty force of 
 feeling and imagination . under the stress of that } Wagner and Strauss , the mystic vision of Watts and 
 desire the form undergo many modification of the blatant vulgarity of Manet — all these be fitting 
 shape accord to the inform spirit ; but such | revelation of ' the modern world ; and they bear 
 variation no more cut off the live art from its| with they the power to weld this fierce struggle 
 ancestral line than variation of feature and / life into a thing great than the world have ever 

 physique deprive a child of its forefather . know before . but the more completely the value 
 of beauty be recognise in the world we be 
 ii . make , the more surely will each individual soul 

 but while the symphonic tree have be sink in upon itself , and in the repose of 
 develop luxuriant branch in the form of|comparative loneliness find a refine power 
 symphonic - drama , choral symphony , and music-| wherewith to counteract the coarsening , and even 
 drama , chamber - music have remain at a standstill . | brutalise , influence of mob - thought . every 
 as pure lyrical expression the chamber - work of | great artist have a holy love for little thing . the 
 Brahms , Dvorak , and Tchaikovsky be valuable ; |fierce Swinburne of the ' song before Sunrise ' 
 but they open out no fresh vista . as expression | melt to reverence in his ' Baby Songs . ' the rough 
 f living feeling they be , if we care to face the|stormy Wagner of ' the ride of the valkyrie ' 
 fact , less vital than the later quartet of Beethoven . | become quiet and tender in the ' Siegfried Idyll . 
 he , the last of the writer of great chamber - music , |the sky - raptured Watts settle into childlike 
 here as elsewhere intent upon the problem of| humour in ' good luck to your fishing . ' and while 
 make an abstract art a factor in everyday life,|the mighty , violent spirit of these time prefer , 
 necessarily develop the form of the string quartet|as it ought , a mighty , violent art , the day 
 according to his momentary need for emotional|cannot be far distant when strength of passion 
 expression . if we compare his quartet with his| will be account dangerous unless it be balance 
 symphony , we find that whereas both have their|by strength of restraint , and the valour of strife 
 origin in the sonata , each undergo a different|despicable unless it can pass into the valour of 
 method of development , until ultimately the smaller|peace . if restraint and peace have not the 
 and intimate form diverge from the original stock | exhilaration and glory of the storm , they have 
 much more definitely even than do the symphony . | subtle beauty for which soon or later the 
 the later Beethoven symphony , notwithstanding | stormy soul will most thirst . and such intimacy , 
 all their growth and eccentricity , be much near | delicacy , and subtlety be to be well express in 
 to the statuesque symphonic - form of mozart|chamber - music . the union of a few intimate 
 than be the later Beethoven quartet to Mozcart ’s | friend in the seclusion of an ordinary home can rise 
 chamber - music . but while Wagner and Strauss |to its most perfect rapture in the string quartet . it 
 have carry the symphony into new sphere , |i a kind of music which sound thin and vapid ina 
 nearly all the post - beethoven quartet writer are|concert - hall . however full atone the player obtain 
 reactionary , and near to Mozart in spirit and in| they be at a disadvantage in a room comfortably 
 orm than to the work which immediately | seat more than a hundred person . indeed , if 
 precede they . Grieg , Smetana , and Debussy | the music be to have that degree of intimacy which 
 have add variety to the delicate colouring of the lit need , it will be give in an ordinary room 
 string quartet , but no composer have be move | where people regularly live . that will mean rather 
 irom within to make a more living and real thing ! more carpet and curtain than in a concert - hall 

 572 the MUSICAL TIMES.—Sepremser 1 , 1912 

 so that a room small even than the one already | — unless , perhaps , we except the drama of the 
 indicate will be no disadvantage . the player | Greeks . 
 should never need to give the sense of striving } now what have be do with orchestral ar 
 to make tone . they must always deal with soft|/can be do with chamber - music . so I sugge 
 rather than loud effect . ' to see four player of|the follow line of development for those 
 stringed instrument lead one to expect only a } musician who would preserve the most subtle and 
 small volume of sound . a roughness of bowing , | delicate fragrance of their art : 
 which may be well enough , and even occasionally } 1 . to associate the form of chamber - music . 
 necessary , in the orchestra , be incompatible with the | and especially the string quartet , with definite idea 
 refinement of chamber - music . the timbre result | lay down by title or emotional programme — to 
 from the easy , unforced emotional playing of a/| write , in fact , tone - poem for concerted music in 
 few fiddler in a comparatively small room has|the chamber . ' the idea choose for association 
 a spiritual quality which can be hear under no| must of course have that quality of intimacy and 
 other circumstance ; and if that refinement be | subtlety which will render they appropriate . Dr 
 miss the whole ra / son d’étre of the thing has| Walford Davies have do something of this sort in 
 go . it be entirely miss from the last|his ' Peter Pan ' Suite . the nursery be part of 
 much - belaude performance of the Joachim| that domestic life for which chamber - music can do 
 Quartet in the old St. James ’s Hall . but since}much ; which parenthetically suggest _ that 
 those day a new era have be inaugurate . the| Strauss ’s ' Sinfonia Domestica ' have more fittingly 
 Broadwood Concerts , the Wessely , Walenn , Motto , | be conceive as a Quartetto Domestico ! but 
 London , Catteral , and other quartet be on the| the matter can be carry much far , and into 
 move . no one will accuse these body of be | more spiritual and less fantastic path . 
 intent on the commercial side of thing . String-| 2 . ' io give to chamber - music vocal and even 
 quartet playing do not pay ; consequently only the | ( in a quiet way ) dramatic value . the only work 
 fine artist take it up . but the mere playing of a| of this kind know to I be Dr. Walford Davies 's 
 few establish quartet will not rekindle the ember ' Prospice , ' for baritone and string quartet ; the 
 of this form of music . the two main thing to be|}same composer ’s Pastorals for vocal quartet , 
 foster be frequent performance in thousand of | string quartet and pianoforte ; and two dramatic 
 home by student and amateur , and a new | work of my own—‘The Chapel in Lyonesse , ' 
 development of the art - form itself as the zsthetic| for three voice , string quartet , and pianoforte , 
 need of the time may suggest . the first of these|and ' the daughter of the Sun , ' for reader , 
 be , I think , already to be notice ; the second have | two singer , and string quartet . having experi 
 yet to be consider . |mente in this direction myself , I can perhaps 
 give some record of result . the piece involve 
 ai. |a reader be not satisfactory , and will have to 
 we have see that although Beethoven in his| be remodelle ; the speak - voice breaking in 
 symphony afford new vantage ground for | upon the music spoil the hypnotism without 
 Wagner and Strauss , he be the last writer of| which art can not exist . the other piece have so far 
 chamber - music to develop the quartet - form to any| seem satisfactory . thus Mr. Ernest Newman 
 we have also seen| write after a recent performance : ' the 
 that his development of the intimate art be if| combination of the vocal and instrumental factor 
 inything more far - reach than his development | be as new as it be effective ; each be always lend 
 of the symphony ; and that every divergence from | a strange impressiveness to the other . ' 
 the sonata formula be due to a great intensity| I do not apologise for thus refer to my own 
 f feeling consequent upon the art be fertilize | work in this matter , because apart from Dr. Davies 
 by definite external thought . but there be this|no other composer know to I have follow any 
 great difference between his work in these separate | definitely new line in this branch of music . nor 
 sphere : to the symphony he bring the / do I regard anything yet in existence as more than 
 suggestiveness of title and programme , and finally | a hint of what can be do . Dr. Davies himself 
 the clarifying influence of poetry ; the quartet he|has write no develop organic work in this 
 leave in the comparative dusk of pure music . the|style , and satisfactory chamber - music can no 
 form of the final quartet be obviously dictated|more be make out of detach item than can 
 by the exigency of thought which music by satisfactory orchestral music . the difficulty which 
 tself be powerless to reveal ; but he give we only composer of this new art have to d val with be how 
 one or two indication of the inspirational idea , | to introduce the vocal element organically ; a mere 
 and never do he indicate the musical scheme | song or vocal quartet with glorified accompaniment 
 by the sure - point finger of the poet . in the| will by no means solve the problem . 
 beginning be the word , and so long as man have 

 degree worth consideration 




 THI 


 B.C , 201 


 BC , 2 


 USC , 


 CT 


 the CHINESE and their music . 


 573 


 BES ) SCALE 


 ANCIENT LUS ( BAMBOO TI 


 574 the 


 1912 


 OF = = ES SS SS 


 = SSS 


 tt 


 ow 


 I , 1912 . 575 


 SHORT bibliography 


 576 


 1912 . 577 


 578 


 the MUSICAL TIMES.—SEPTEMBER 1 


 1912 


 GILES 


 FARNABY 


 ORSMOND ANDERTONThe father in the 

 of nasty medicine . in spite of his idolatry of 
 Shakespeare , he reject he : he have see the Bard 's 
 | portrait ad nauseam on the stage , on bookstall , jp 
 | frontispiece , on mantelpiece . Milton , he fear , 
 would appear starched and puritanical , with precisian ’s 
 | band and gown . many other be propose , but his 
 | choice be for Sir Thomas Browne , and Fulke Grevil 
 | Garrick , too , Kit Marlowe , and a few other such 
 |unorthodox worthy and unworthie be invite 
 | so to speak , rather than the Olympians . in much the 
 same vein Browning choose man like Abt Vogler 
 and Sordello for his dramatic monologue rather thar 
 |the recognise hero . and this attitude be a quite 
 | intelligible and natural one . it be pleasant sometimes 
 to leave the open highway of thought , and wand 
 | through the unfrequented lane , just as one like t 
 moor one ’s punt in a shady backwater away from the 
 glare and traffic of the main stream . just so , too , one 
 |feel about Giles Farnaby . who yearn to mee 
 Handel , or Hummel , or Cherubini , those 7 major 
 of their own day ; yes,—shall we whisper the 
 heresy ? — or even Beethoven , and many another of 
 the orthodox and classical College of Cardinals 
 whereas the more unassuming man , man like Chopin , 
 | Monteverde , or Couperin — could they walk into ow 
 | study for an hour how pleased we should be 

 among such , all who have study his unpretentious 
 | piece in the Fitzwilliam Virginal Book and feel their 
 | curiously attractive individuality , would unhesitatingly 
 place Giles Farnaby ; and the spell to conjure up this 
 pleasant shade will soon in some sense be place 
 within the power of all by the publication ( Novello & 
 | Co. ) during this month of an album of a dozen of his 
 piece edit by Professor Bantock 




 10OWD 


 APPETITE . 


 SMITH 


 WAGNERIAN 


 BERTRAM 


 the problem which beset the modern world . among 
 these music hold a foremost place . it be hardly 
 mention in the available sketch of his career ; 
 | for he be not bring directly into contact with it , 
 rhen again the Wagnerian , as the total number of | be Ibsen when he approach Grieg about he 
 his performance mount up and he may count himself | ' Peer Gynt ' music . a setting have be make , | 
 n some small measure a critic , be continually shift | believe , of ' Lucky - Per ’s wandering , ' but it be not 
 his ground ; put new value upon the different | widely know ; hence the fact that one hear but 
 ct , " diffe rent passage , and different work . again | little of Strindberg in the vé / e of musician . he be , 
 and again he will re - arrange the order , in his opinion , | however , like Nietzsche and Gainsborough in _ this , 
 of the four drama of the ' Ring . ' ' Walkiire , ' which | that , though primarily absorb by other study , his 
 ad completely bowl he over at the first cycle , | love of music be great and lifelong . 
 lust give pride of place to ' Siegfried , ' and finally — it to obtain full information about Strindberg ’s view 
 ay be — to * gotterdimmerung . ' at an advanced stage |on music be scarcely possible at the present time , 
 his education ' Rheingold , which he have unduly | very little having be write about the intimate 
 despise , spring to a high place in his affection . | side of his life , apart , perhaps , from the regrettable 
 lhe keenly anticipated ' moment ' which stand out | domestic disturbance which punctuate it . we be 
 om a performance of the ' Meistersinger ' be once | tell , however , that he have a particular fondness for 

 prize Song ' and the Sachs * monologue ' ; then he | Beethoven ’s sonata . on the whole he seem to have 

 find they be the Quintette and the ' Trial song ' ; and | prefer Beethoven to any other composer , which 
 tinally , it may be , his heart be set above all else on the | speak much for his musical intelligence . it be say 
 ntroduction to Act III . and the intermediate music of | that he play the pianoforte a great deal and with 
 he second Aci , while it be more than likely that there | considerable skill , and that in his leisure hour he 
 re small orchestral incident that he have gather at | enjoy go through the work of his beloved 
 ome former hearing and treasure as his own , know | master 

 full well that few of those about he have notice them| a large amount of evidence go to show that 
 itall . he pass also from the early didactic period | Strindberg have no mean theoretical knowledge of 
 when every motive must be separately herald and he | music . ' this man of many part have penetrate into 
 must probe for its intention , to the period when he no | the secret of the art . he study harmony with more 
 long call motive by their pet name nor view the | than an amateur ’s seriousness , and be much attract 
 score shen painfully disintegrate . it be all a splendid | to the organ , the mechanism of which he know well . 
 voyage of discovery , whose interest be wonderfully | one of his last work be a contribution to musical 




 ONI , 1912 . 581 

 literature in the form of an original system of notation 
 which be to abolish that at present in general use . 
 of this work he be very proud . but unhappily his 
 method — which he apply to one or two classical 
 composition — have be no more fortunate than that 
 of Rousseau or than the curious shorthand of Beethoven 
 himself . it reveal the true Strindberg , for it be 
 personal and revolutionary . the music be write , 
 if I mistake not , in figure 

 this love of music make itself feel in his work . 
 in one of his good poem , ' the journey to town , ' he 
 introduce an elaborate description ofthe ' Appassionata ' 
 Sonata , which he deem Beethoven ’s great . he 
 read into it wonderful thing ; a depiction of the 
 world and its travail , of the chaos which must precede 
 the dawn of universal bliss . in the autobiographical 
 ' Inferno ' allusion be make to Schumann ’s ' Aufschwung . ' 
 a rustic organist be the central figure of one of the 
 novel , and now and again there be much explanation 
 of the structure of the organ and of the technical side 
 of music . in the fine play ' Rausch ' he obtain the 
 right atmosphere by introduce a performance of 
 Beethoven ’s sonata in D minor ( Op . 31 , no . 3 ) , and 
 giving direction as to how it must be play . later 
 inthe play the music break off , and only a few bar of 
 the Finale be hear as though they be a fragment . 
 it be the practising of a ' night bird . ' a somewhat 
 similar use be make of a Bach toccata in ' the Dream 
 Play , ' where it have to wage war with a popular waltz . 
 in addition to these there be passing reference , to 
 the ' entry of the boyard , ' for example , and such 
 macabre title as ' the dance of Death ' and ' the 
 Spook Sonata’—the latter a modern 777//o del Diavolo 
 for aught I know 

 one feel with Strindberg that he relate music to 
 life , that he see in it something of the cosmic 
 harmony which he seek so vigorously , and which 
 somehow always elude he . that one who have 
 suffer so much and have be vouchsafe more than 
 a glimpse into the abyss of the inferno receive 
 infinite solace by this mean must remain a cause 
 for rejoicing . and it be , perhaps , appropriate that the 
 last impression which we have of the fighter who have 
 weather so many storm be an entirely peaceful 
 one , and in it we see he surround by the thing 
 he love well — his child , his flower , and his music 




 D. C. PARKER 


 ON listen to music : ANOTHFR 


 POINT of VIEW . 


 the musical 


 582 


 1912take , again , the modern cadence , wherein harmonic 
 change be perhaps more clearly perceptible than in 
 any other one special form . let a student be teach 
 hrough all stage , the easy to the advanced , to 
 listen to cadence ( in chant , hymn - tune , song , 
 small piece , and so on ) ; to notice how these ' point 
 of rest ' serve to punctuate the phrase - rhythm ; how , 
 far , one phrase ' balance ' another ; how a phrase 
 be here artistically elongate , and here unexpectedly 
 curtail ; how the actual development of the cadence 
 itself have proceed from the well - nigh eternal V.—L. , 
 IV.—I. , 1L — V. , v.—vi . formule of early day to 
 its present often complicated but nevertheless very 
 striking and original construction . with such guidance 
 a student will revel in the wonderful beauty of a cadence 
 such as , ¢.y . , that of Grieg ’s ' An den Friihling , ' 
 Op . 43 ( ' a thing of beauty and a joy for ever ' ) , as much 
 the most cultured musician . it be idle to 
 dispute the fact that , as Holmes - Forbes have put it , 
 ' sentiment become more profound in proportion as 
 it becomes more thoroughly pervaded by intellectual 
 comprehension 

 we be tell that it be ' well criticism ' to compare 
 a Beethoven work ( presumably a sonata ) ' with a 

 as do 

 not long ago at a Symphony Concert I hear a 
 lady solemnly assure a friend by her side at the close 

 of the first movement of a Beethoven Symphony that 
 |that be the end of the Symphony ; and when the 

 those who ave able to follow 




 xum 


 the 


 FESTIVAL novelty 


 IS 


 1 


 584 


 NEW CHORAL setting of PSALM 


 XLVIIL , by EDWARD ELGAR 


 LS : = SS = = 


 " 3 - | — — _ — — : 


 _ - — — 7 — - — = 


 2S SS 


 the 


 the early harmonize chant of 


 the CHURCH of ENGLAND . 


 the 


 I ; 1912 


 SS = = — _ 


 xum 


 xum 


 h - = _ 


 6 — z = 


 _ 7 


 accessory . 


 ORGAN RECITALS 


 ANTHEM or COMMUNIO 


 SHORT 


 — _ — — — - — — — _ — + — -——- 


 3 - 4 _ — — — — — - — — -—- _ _ 7 — $ $ — _ $ — $ _ _ _ — — _ _ - _ 


 6 — — — — = — — — 3 


 . 5S 


 SS 


 XUM 


 19 


 xum 


 O save VICTI 


 TA 


 SS 5 - 4 


 ss = 


 ss 25 


 SNE 


 SS 


 XUM 


 593 


 I , 1912 


 appointment . prevail among music publisher in Great Britain of 
 omit to put the date on record . the two volume 
 of the catalogue contain no few than 1,529 page 

 with two column on each page . they be a monument 
 of extraordinary labour and painstaking . the result do 
 not submit easily to a reviewer 's analysis , but some interesting 
 point come to light . the music of Bach barely occupy a 
 column , while that of ' Heendel ' occupy nearly forty . the 
 catalogue of Dibdin ’s stage - work and song be give in 
 twenty - five column , and many queer title the list of lyric 
 Beethoven have one entry , consist of a volume 
 there be some sectional heading such as 
 writer on 

 contain . 
 of three sonata . 
 psalm , the list of which cover fifty page . 
 topic connect with old music will doubtless find a helpful 
 stimulus in this work 




 CHORAL MUSIC , 


 594 the 


 1912 


 song . 


 VIOLIN MUSIC , 


 book receive 


 CHAUVINISM IN MUSIC 


 10 the editor of ' the MUSICAL TIMES 


 XUM 


 1899 , 


 XUM 


 1912 . 595 


 WILLIAM VINCENT WALLACE . 


 of * MUSICAL 


 596 


 ST . GEORGE ’S HALL , LIVERPOOL : 


 FIRST LADY PERFORMER 


 TO the editor of ' the MUSICAI TIMES 


 to 


 dear 


 PRE 


 SIR , 


 dear 


 the 


 1912 . 597 


 LONDON OPERA HOUSE . 


 to the editor of ' the MUSICAL TIMES 


 PERCY 


 FIDELES . ' 


 ' the MUSICAL TIMES 


 ADESTE 


 to the editor of 


 CLAUDE TREVOR 


 preservation child ’s voice 


 OF 


 W. H. BREARE 


 AN analysis of CHORAL tone 


 ADAM SCOTT 


 teacher ’ method . 


 the 


 1912 


 the most popular composer . 


 the editor of ' the 


 HENRY COATES 


 HENRY LAHEE 


 MUSIC 


 599 


 MUSIC at the court of FREDERICK the 


 GREAT . 


 the 


 the promenade CONCERTSThe most important and the well receive of the less - familiar | more strikingly demonstrate than ever before 

 work in the programme be Mr. Hamilton Harty ’s bright 
 and attractive ' Comedy Overture , ' and an exceptional trio 
 of soloist be find in Miss Carrie Tubb , Mr. Frank 
 Mullings , and Mr. York Bowen . Beethoven ’s ' Egmont ' 
 Overture , Tchaikovsky 's ' 1812 , ' Wagner ’s ' Tannhauser ' 
 Overture , and Wormser ’s suite , ' L’enfant prodigue , ' help 
 to make up an excellent ' popular ' programme 

 Monday , August 19 , be the first Wagner night , with 
 a much - familiarize programme and a large audience . 
 August 20 bring the first hearing in England of a 
 piedmontese suite by Sinigaglia that recall his piedmontese 
 Dances , especially in the use of folk - tune . on August 21 
 three piece by Fiocco , orchestrate by Mr. Norman O'Neill , 
 be perform for the first time . the adapter deserve 
 praise for the restraint and modesty with which he have 
 mould the tempting medium of the modern orchestra to the 
 modest design of the old composer . give such judgment 
 as Mr. O’Neill have show , there be a large field open for the 
 unemployed composer in the re - orchestration of old music . 
 the same concert provide the first hearing in England of a 
 triple Concerto for violin , violoncello , and pianoforte by 
 Paul Juon . there be no obvious reason why it should not 
 be the last hearing in England . the most patient and 
 sympathetic listening fail to detect beauty or other merit 
 beyond that of an occasional fine passage of rhetoric that 
 emerge as if by accident from an arid waste of ascetic 
 modernism . long and well - deserve applause be shower 
 upon the three gifted lady — Misses Marjorie Hayward , May 
 Mukle and Auriol Jones — who provide the performance . 
 afterwards Brahms ’s third Symphony be give a romantic 
 performance 




 the JAQUES - DALCROZE TRAINING SCHOOL 


 AT DRESDEN . 


 602 


 1912 


 FOLK - SONG and dance . 


 STRATFORD - UPON - AVON 


 the cult of 


 SUMMER school 


 LL 


 conference on FOLK - SONG 


 and dance 


 _ — _ 


 1912 . 603 


 PROCESSIONAI 


 the ° * TIDESWELI 


 MORRIS DANCE , at STRATFORD - UPON - AVON 


 1912 


 CONCERNING examination 


 XUM 


 by our own correspondent 


 BOURNEMOUTIIThe last week in July see the resumption of the orchestral 

 acerts after the annual vacation of the member of the 
 band , the usual Thersday afternoon Symphony Concert be 
 lirecte on July 25 by Mr. F. King - Iall , the leader , in the 
 continue absence of Mr. Dan Godfrey . the principal item in 
 theprogramme be Mendelssohn 's ' Scotch ' Symphony , and the 
 wloist be Mr. Charles Whittaker ( a violinist of the orchestra ) . 
 Mr. Godfrey return in time for the concert on August i , 
 show all his accustomed resourcefulness in the performance 
 fa programme that include Schubert ’s ' unfinished ' 
 Symphony , a work for which our conductor have a particular 
 regard , Brahms ’s ' academic ' Overture , Edward German ’s 
 graceful incidental music to ' Romeo and Juliet , ' and a pleasing 
 concertstiick for flute and orchestra by Hofmann , the latter 
 tem be skilfully perform by Mr. Jean Gennin , a member 
 { the orchestra . on August 8 a Beethoven programme be 
 submit , the scheme include the ' Leonore ' no . 3 
 overture , Rondino for wood wind : land horn , turkish March 
 from ' the ruin of Athens , ' Romance in F for violin , and 
 the fifth Symphony . the large audience present be 
 reward with some very sound playing , which culminate 
 na conspicuously successful performance of the Symphony . 
 yet another member of the orchestra , Mr. Algernon Holland , 
 be the soloist in the romance , his interpretation be both 
 ntelligent and tasteful 

 we have have visit from ' Jimmy ' Glover and Miss Marie 
 Hall within the last few week . the former direct the 
 Municipal Orchestra through a selection of piece that be 
 notable for its variety , range from an excerpt from Coleridge- 
 Taylor ’s ' Nero ' music to a fantasia on nautical air arr : inged 
 y the conductor 




 DEVONSHIRE 


 TOWNS 


 MANCHESTER and DISTRICTscore 

 Catterall lead , the principal wood - wind player come from 
 ( Jueen ’s Hall , and the rank and file reveal many well- 
 know name not hitherto identify , perhaps , with first 
 class orchestra , but most capable player for all that . 
 \ comparison of Sir Henry Wood ’s draft - programme 
 for this series with those of his more famous ( ueen ’s 
 Hall ' prom . ' naturally reveal many point of similarity . 
 last season do much to enable Manchester to make 
 up leeway in the matter of music know elsewhere , 
 but unfamiliar in Cottonopolis ; but there be yet much 
 worth know , and Sir Henry be judiciously introduce 
 work such as Liszt ’s Fantasia on Beethoven ’s ' Ruins 
 of Athens ' ( with Mr. Egon Petri at pianoforte ) , Percy 
 Grainger ’s ' Mock Morris ' for string and ' Molly on the 
 Shore , ' the ' Rosenkavalier ' valse of Strauss , Tchaikovsky 's 

 Fantasie 




 BRIEFLY SUMMARIZED . 


 DURB/ 


 HLARR 


 ALTENBURG 


 BASEL . 


 BAYREUTH 


 BERLIN 


 607 


 BREMEN 


 COBLENZ 


 ESSEN 


 HAGEN 


 MANNHEIM 


 MUNICH 


 NURNBERG . 


 608 the 


 OSTEND 


 1912 


 OV , 


 ORG 


 ct 


 * syncopation and emphasis 


 content 


 the 


 E51 


 MUSICAL 


 gner , 


 UGHT 


 the 


 1912 . 611 


 publish for 


 the H. W. GRAY CO . , NEW YORK 


 BB 


 CORONATION MARCH 


 IQTI 


 EDWARD ELGAR 


 special notice 


 SEPTEMBER 21 . 


 SATURDAY 


 SHORT PRELUDES 


 for the 


 ORGAN 


 ROM : ANCE 


 BASSOON and ORCHESTRA 


 EDWARD ELGAR 


 FULL SCORE . 


 the MUSICAL time 


 scale of term for advertisement 


 the 


 12 


 16 


 NOVELLO 'S 


 album for PIANOFORTE and 


 STRINGED instrument 


 two violin , VIOLA 


 AND VIOLONCELLO 


 DOLMETSCH , 


 HANDEL , G. 


 LONDON 


 17 


 20 


 NOVELLO and COMPANY 


 COWEN , FREDERIC H. 


 HOLST , GUSTAV VON 


 LEMARE 


 LIMITED 


 2 OG 


 ANTHEMS NEW 


 SING a song of PRAISE 


 CUTHBERT HARRIS 


 complete list 


 compose BY 


 6 W. G. ALCOCK 


 XUM 


 1912 


 F HARVEST ANTHE MS 


 WIT 


 FOR 


 FOR te 


 HARVEST FESTIVAL MUSIC . 


 CANTATAS . 


 SONG of thanksgive HARVEST CANTATA 


 for SOPRANO , TENOR , and BASS ( or CONTRALTO ) soli for SOPRANO ( or TENOR ) and CONTRALTO ( or 


 and CHORUS BARITONE ) SOLI and CHORUS 


 the word by 


 ROSE DAFFORNE BETJEMANN 


 the word write and arrange by 


 A GOLDEN HARVEST by 


 for TENOR and BASS SOLI and CHORUS JOHN E. WEST . 


 _ _ the music compose by a song of thanksgive 


 THOMAS ADAMS , for CHORUS and ORCHESTRA 


 for TENOR and BASS — CHORUS , and ORGAN TH E GLEANE R ’S HARVEST 


 THOMAS ADAMS for FEMALE voice 


 for TENOR and BASS SOLI , CHORUS , and ORGAN or TH E JUBILEE CANTATA 


 SMALL ORCHESTRA for SOLO voice , CHORUS , and orchestra 


 BY by 


 HUGH BLAIR . C. M. VON WEBER 


 HARVEST CANTATA a HARVEST song 


 for CHORUS , SEMI - CHORUS , and ORGAN for SOPRANO SOLO and CHORUS 


 BY by 


 GEORGE GARRETT . C. LEE WILLIAMS . 


 TWELVE hymn for HARVEST the SOWER WENT FORTH SOWING 


 let all our brethren join in one , 7OVTT 


 the joy of HARVEST and SEA 


 A HARVEST hymn of PRAISE come , ye thankful PEOPLE , come 


 HARVEST F ESTIVAL 


 book 


 contain TALLIS 's prece and response , the 


 canticle and special psalm 


 and SET to new and appropriate 


 chant by 


 SIR J. BARNBY , MYLES B. 


 SIR A. C. MACKENZIE , SIR J 


 AND other 


 point for chanting 


 FOSTER , 


 STAINER 


 four new HYMN tune 


 compose expressly by 


 BARNBY , SIR J. STAINER 


 JOHN E 


 SIR J. 


 WEST 


 ORG an MU SIC 


 HARVEST F estival 


 VILL AG E ‘ ORGANIST 


 F. CUNNINGHAM 


 the 


 WOODS 


 EDWYN A. CLARE 


 REDUCED price . 


 1912 


 POPULAR CHURCH 


 J. 4H. MAUNDER 


 MUSIC 


 service 


 ORGAN . 


 CHURCH CANTATA , 


 composition 


 ORGAN 


 PIANOFORTE . 


 anthem . 


 I , 1912 . 617 


 1891 


 composition by 


 notation . one 


 thousand 


 STAFF HUNDRED and 


 the HOLY CITY 


 A SACRED CANTATA 


 _ ORCHESTRA . 


 the TEN VIRGINS 


 ALFRED R. GAUL 


 the prince of peace 


 the prince of peace 


 a SACRED cantata 


 four solo voice , CHORUS 


 ORCHESTRA . 


 FOR and 


 for three solo voice , CHORUS and " antata 


 for the season of 


 1 lent and good friday 


 suitable 


 8 . RUTH 


 PASTORAL cantata 


 use in place of worship 


 concert purpose 


 for 


 or for 


 LONDON 


 NOVELLO and COMPA 


 the 


 great be the LORD 


 CRYSTAL PALACE 


 TRIENNIAL HANDEL FESTIVAL 


 1912 . 


 the SELF L e ction 


 compose by 


 EDWARD ELGAR 


 CALEB SIMPER ’S 


 NEW HARVEST anthem , 


 EF 


 SEI E and H ' 


 AV 


 popular church service 


 CHORISTER ’S aid to 


 MONOTONING 


 BY 


 C. S. FOSBERY , M.A 


 OGETHER with an appendix consisting of solo 


 perform at the GENERAL rehearsal , 


 SATURDAY , JUNE 22 , 1912 


 selection from " SAMSON 


 miscellaneous selection . 


 appendix . 


 MUSIC 


 TO 


 A MIDSUMMER night 's dream 


 school and college 


 BY 


 R. DUNSTAN 


 HI 


 the 


 MUSICAL TIMES.—SEPTEMBER 


 I , 1912 


 HEREFORD FES 


 MUSIC 


 STIVAL 


 ON the , natinity 


 WILLIAM DU ! NBAR 


 set to MUSK 


 FOR SOPRANO SOLO , CHORUS 


 HUBERT H 


 SION of our LORD 


 TO ST . MATTHEW 


 ODE 


 AND ORCHESTRA 


 C. PARRY 


 the PAS 


 according 


 set to 


 JOHN SEBASTIAN BACH 


 edit 


 MUSIC by 


 STABAT MATER 


 CHORUS 


 FOR SOLI , and ORCHESTRA 


 compose by 


 ANTONIN DVORAK 


 REQUIEM 


 FOR SOPRANO and BARITONE SOLI , 


 and ORCHESTRA 


 CHORUS 


 compose by 


 JOHANNES BRAHMS 


 RHAPSODY 


 ORCHESTRA 


 AND 


 compose by 


 JOHANNES BRAHMS 


 SURGE ILLUMINARE 


 eight - part CHORUS 


 the WANDERING JEW 


 CHORUS , and ORCHESTRA . 


 PAUL ENGLAND 


 rd RY 


 FRIEDRICH HEGAR 


 JAPPY CHAPPY 


 MUSICAL 


 BY 


 WITH MUSI 


 W. HEWLETT 


 TE . 


 BY 


 NOVE LLO 'S 


 HYMNS and TUNES 


 FOR 


 * a\tow thank W E AL L our GOD . " 


 the 


 HY MN TUNES 


 ART HU R ‘ SU LLIVAN . 


 HYMN TU NES S _ and LITANIES 


 HYMN TUNES 


 HYMN TU NES 


 T. RICH : ARD M. \T THEWS 


 HYMN TI NES 


 T. WORSL EY STANIFORTH 


 AND COMPANY 


 the DAY school HYMN BOOK 


 additional hymn 


 HYMN tune 


 compose by 


 J. STAINER . 


 HYMN TUNES 


 JOSEPH BARNBY . 


 HYMN TUNES and carol 


 compose by 


 GEORGE _ & MARTIN . 


 P ROC ESSIONAL HYMN TU NES 


 LIMITED 


 RECITAL 


 ORIGINAL 


 for the ORGAN 


 serie of 


 edit by 


 EDWIN H. LEMARE . 


 for the pianoforte . 


 compose by 


 CLEMENT M. SPURLING 


 content 


 composition 


 SIX easy piece 


 FOR VIOLIN and PIANOFORTE 


 C. H. LLOYD 


 content 


 FOR VIOLIN and PIANOFORTE 


 compose by 


 C. H. LLOYD 


 PIA 


 WITH 


 1912 


 just 


 TWELVE sketch 


 BY 


 FREDERIC H 


 book 


 IN four 


 publish 


 the month 


 FOR 


 the pianoforte 


 COWEN 


 content 


 now issue as a net book 


 technique 


 AND 


 expression 


 PIANOFORTE playing 


 FRANKLIN TAYLOR 


 extract from preface 


 with numerous musical example from the 


 work of the GREAT master 


 new and revise edition 


 the ORGAN 


 JOHN STAINER 


 edit by JOHN E. WEST 


 the 


 O22 


 NOVELLO ’S 


 select list of REC 


 mix voice 


 MALE voice 


 FEMALE voice 


 three - part ( S.S 


 publish part - song 


 30 


 LONDON 


 NOVELLO and COMPANY 


 LIMITED 


 OCTAVO edition of part - song 


 ENTLY 


 ORIG 


 PRELUDI 


 CANTILE 


 MARCIET 


 OFFERTC 


 2 WEDDIN 


 BERCEUS 


 7 . FANT 


 XUM 


 THE MUSICAL TIMES 


 ORIGINAL composition 


 FOR the 


 ORGAN 


 compose by 


 ALFRED HOLLINS 


 original composition 


 for the 


 ORGAN 


 compose by 


 WOLSTENHOLME 


 SEVEN piece 


 FOR the ORGAN 


 se by 


 DUBOIS 


 COMP 


 THEODORE 


 content 


 PRELUDE , 


 7 . MARCHE - SORTIE 


 INTERLUDE 


 PRIERE 


 SEV EN PIECES 


 for the ORGAN 


 ALEXANDRE GUILMANT 


 content : 


 OFFERTOIRE ' 4 . minuetto 


 WEDDING MARCH 5 . 


 BERCEUSE 6 . POSTLUDE 


 7 ) FANTAISIE SUR DEUX MELODIES ANGLAISES 


 6 . POSTLUDE CANTIQUE 


 SEPTEMBER 1 , IQI2 . 623 


 NOVELLO ’S 


 album for the ORGAN 


 MARCHE TRIOMPHALE 


 SHORT postlude 


 for the 


 ORGAN 


 1 . GRAND CHCEUR 


 ALLA MARCIA 


 SIEGESLIED 


 conclude VOL U n t ARY 


 POSTLUDE 


 original composition for the ORGAN two bagatelle 


 FOR 


 SEVEN STRING ORCHESTRA . [ LEN 


 compose by 


 CHORALE prelude PERCY E. FLETCHER 


 C. HUBERT H. PARRY 


 content 


 composition for the ORGAN 


 EDWIN H. LEMARE 


 COMPOS ition for the ORGAN 


 oase 


 elementary teaching 


 examination question 


 the 


 the 


 1912 . 625 


 elementary music manual 


 hint 


 ON the 


 PIANOFORTE 


 chiefly to boy 


 EDWARD D. RENDALL 


 AND 


 how to work they 


 HARRIS 


 R.C.O 


 CUTHBERT 


 PREFACE 


 NOVELLO ’S music primer 


 MILITARY BAND 


 GEORGE MILLER 


 equal temperament 


 in theory and practice 


 BY 


 HENRY SPAIN 


 RAINBOW 


 OUR music reading ladder for beginner 


 20,000 


 WEBSTER 's child 's primer 


 theory of music . 


 NEW and revise edition 


 WILD GEESE 


 POEM 


 ORCHESTRA 


 WITH the 


 FOR 


 HAMILTON HARTY 


 FULL SCORE . 


 FLAT 


 for full orchestra . 


 compose by 


 EDWARD ELGAR 


 arrangement for PIANOFORTE SOLC 


 BY 


 SIGFRID KARG - ELERT 


 NEW SONGS 


 PRICE two shilling each net 


 GONG of the pilgrim . 


 MEADOWS . 


 I ove in the 


 \ SUMMER ’s DAY 


 HEART . 


 LDREN SLEEP 


 where the CHI 


 A SOUL 


 Z UMMERZETZH 


 SERENADE 


 " the WAND OF YOUTH " 


 ( FIRST SUITE 


 compose by 


 EDWARD ELGAR 


 PIANOFORTE SOLO 


 STRINGS and ORGAN 


 ORGAN ) 


 VIOLONCELLO and 


 compose by 


 A. HERBERT BREWER 


 SMALL ORCHESTRA : 


 ALLEGRETI 


 BY 


 W. WOLSTENHOLME . 


 arrangement for SMALL ORCHESTRA : 


 TS , 


 VIOLIN and PIANOFORTE 25 , 


 arrangement for SMALL ORCHESTR 


 SOLEMN MELODY 


 compose by 


 H. WALFORD DAVIES . 


 FUI L or HESTRA . 


 AUF WIEDERSEHEN 


 MOI 


 SPEAIGH 


 STEPHE ? 


 SWINSTE 


 1912 


 CTHREE JOVIAL WELSHMEN . 


 the DRUMMER BOY 


 C. LEE 


 WILLIAMS 


 now issue as a net book 


 A treatise 


 MODERN 


 ORC HESTR . ATION 


 CHEF DORC HES 


 HECTOR BERLIOZ 


 the TRE 


 VOCAL . 


 BY 


 inst RU mentation 


 aao 


 four trio for MALE voice 


 NEW FOREIGN 


 AILBOUT , 


 | AUBERT 


 BAEKER 


 DEBUSSY 


 WICKENHAUSER , R 


 KARG - ELERT , 5S 


 RITTER , A. 


 VIERNE , I 


 BRAHMS 


 DUKAS , P 


 DUPIN , P. 


 KASTNER 


 PORTNOFF , 


 STOJOWSKI , S. 


 ORCHESTRAL 


 DE - U SSY , 


 MASSENET , 


 SEYBOLD 


 TSCHAIKOWS SKY , P 


 BERGER , W 


 | BORTKIEWICZ , S. 


 CHAMINADE 


 MUSIC 


 PIANOFORTE 


 AND HARMONIUM . 


 ORGAN 


 CHAMBER MUSIC 


 PARTS and SCORES 


 LONDON 


 62 


 PUBLICATIONS 


 THEMUSICAL TIMES.—SeEpTEMBER 1 , 1912 

 t ] RONSON . . : : EE ... 
 » Associated Board Examinations , 1917 
 he Associated Board Examinations , 1913 . 
 vu 
 PIANOFORTE . ey SINGING — ( continue ) . ne 
 LOCAL CENTRE — INTERMEDIATE grade . LOCAL CENTRE — ADVANCED GRADF . 
 4 ( . Seudis , ool SOPRANO . 
 ( in G , No . o ( I I 1 Book 11 ) : . . 
 scu in e flat . op . 16 . n ! PANSE x.—40 Vocal exercise , ae i , ~ S. 15 , 16 and 18 
 \ r sona ea n \ ae dite by a s Recit . : " ' oh ! didst thou know " } 
 , = os Zien ) , a — Hanne \Air : " ' as when the dove j no . 8 
 Scn . in A , op . 1 n : : " " Acis and Galat egiste ? 
 Cramer.—iIn Dm N 4 ( Frank Tay Studies . Book ? ) 1 A. C. MACKENZIE " a birthday , " op . 17 , no . 3 Office fo 
 Cu Valse in A _ oo 4 , n : MEZZO - SOPRANO . 
 | EN morgengr i on N . — _ . { recit . : " * you see , my friend ) 
 i > AME in E. No . 66(5 Llin Tavioe 's Stu Book ) t Hanpet . | air : " ' amaze to find the foe so near " } r¢ 
 Sreipett.—In b flat , op . 78 , no . 12 ( Frank Taylor 's studie : : " Belsh 
 B , . Epwarp Evcar.—“‘A child asleep = 
 BeETHOvVEN.—S t EE , o 4 , no . 1 , rst M ( i c R pa yee pe 
 y Ag Zi rer ) we { recit . : ' or lull'd with grief " | « cq , 
 MENDE i Lieder e Worte , op n 9 hanpt | air : " ' sweet rose and lily ) Theodora 
 sepenenen ae TENOR . 
 LOCAL CENTRE — advance grade . concont.—e < lesson , no . 2 . 12 , 18 ' 
 Czerny.—In F , ( p- 74 no . 4f _ — re * * stay , shepherd , stay 
 M iFLI in B , op . 70 , n t r 6 Ane { air * * Shepherd , what art thou pursuit ig 
 SEELI Int oo no . ¢ I Rake and Galan 
 BreeTHovi Sonata in ( Op . 10 , no . 1 , Last Movement BARITONE . 
 ( Edite y Agnes Zimmer ) , { recit . : " ti Dio lesian ’s natal day + 
 I HA KY Vals f pt r , op . 40 , no . 9 2c HANDEL . 1 air : " go , my faithful soldier , go ' El 
 ( RNY I A , o 74 N 26 ( Frank Tay Studie Theodora - 
 book 16 ) « 4 BASS . MISS 
 I vic Bs EI InDr r , op . 12 , no . 12 ( Franklin Taylor 's a Reci ' " ' unjust reproach Leony MR . 
 h studi + 27 ) ; - . I oe { air : " * Alcides ’ name in late story oma 
 gon SS eee SCHOOL _ examination — primary . 
 BegtTuovs Sonata D , Op last movement ( edit by : Menpessonn . — " evening song " ( no . 379 , Novello ’s S a 
 Agnes Zimmerm ) song ) . ' I t 
 HARBERBI Ja 1 , op . 53 , no . 1 € 6 school examination — ELEMENTARY 
 Crementi.—In ¢ " no t of " gra r 8 BARITONE . 
 LorsCcHH -—In A , Op . 67 , no . 1 : PANSERON.—42 exercise , part 1 , nos.3and5 .. 2 — 
 BaAcH I f my 3 Concerto " ( edit by Karl Klindworth ) BASS . - tf 
 CHort Maz in ¢ minor , op . 41 , no . 1 Hanpet.—Leave I , loathsome light ( " ' Semele " ' ) 5 1S 
 S S — pr ay — ep " t ° — : , MISS 
 a. HOO ! . examin \tion -- primary . _ , school examination — high division . MR 
 " aie oe so NO . ; 
 SCHOOI examination . elementary . concone . 50 lesson , a 
 Ber M 1.—Prelude : M ' Douze petit Ropert Franz . — Widmung " ( a Dedi cation ) 
 — — — . a . : TENOR . 
 ( eR in D , op . 99 , N 65 ( Franklin Taylor 's Studies , PANSERON.—Vocal Exercises , part ~~ & 2and 7 " M ! 
 — — _ si , N ‘ I hande * where'er you walk ( " Semele ) ( Novell 
 A atina in © , op . 5 1 , rst movement 1 6 song for tenor from Handel 's Oratorios ) we 2 MISS 
 Lorscunonn.—In C , op . 65 , no . 8 2 ¢ BARITONE . MR . 
 . ~ 1 in C of onze Lecor Op . 1¢ 1 © Concone . — 40 lesson , no . 21 and 22 i - 9 
 school } preg my ees 8 low division . C. H. H. Parry . — ' ' why so pale and wan 
 C ERNY.—In C , op ( Fra klin Taylor 's Studies , Book 17 ) 1 ¥ BASS . 
 ~ one in A , op r ' ; - I Hanpve .. — " tear such as tender father shed " ( " ' Deborah " ) é TS 
 geena tte ae te or Gs Sui tee * * class - singing examination . rl 
 Sockas ) ; ; ; — ' ine Tue Scuoot Rounp Book ( book go , Novello ’s School Songs ): 
 Czerny.—In F , op . 748 , no . 24 ( Franklin Taylor 's Studies , Old ni mom ee ee ees MISS 
 book 2 ) . Tonic Sol - fa _ .. : ve oe ae ‘ é MR . 
 BEETHOVEN Tem i Minuetto , from Sonata in G , Op . 49 — -- - 
 no . 2 ( edit by Agnes Zimmermann ) 1 6 VIOLIN . 
 SCHOOL examination — HIGHER division . local centre — intermediate grade . 
 LoESCHHOE in G , op . 66 , no . 17 ; o scale and arpeggio , as require for these examination : 
 Bacu.—Invention in two part , no . r , in b minor 1 6 THe Juntor Viowinist , book xiv edit by C. Egerton " TI 
 LoESCHH in C , op . 66 , no . 23 > Lowe . ee ee r 0 
 HeELLEer prelude in A minor , op . 81 , no . 2 g A. H. Brewer.—Auf Wiederset 1en 
 BurGMo.ut La Marche , op . 109 , no . 17 . 1 1 + A.C. Mackenzie.—Saltarello from six piece . 2 
 CZs vv . . D , or 99 , no . 24 ( Franklin Taylor Studies , — . Cc ENTRE — ADV ANCE d g RADE . I 
 k : ! 
 STEIBELT in F minor , op . 78 , no . 5(Franklin Taylor 's Studies , Do nt . o exercise progressif , no . 13 and 14 
 book 22 ) ; ; .. 4 SC hool examination — p rimary . 
 BeeTHoven.—Bagatelle in C , op . 33 , no . 2 1 t| Emm Krevuz.—First Steps for the Violin , Part 1 ( page 22 and 23 

 SINGING . school examin . \tion — elementary . " M 
 UPTMANN.—Sonatina No . 1 in C , » , 10 f : 
 LOCAL CENTRE — INTERMEDIATE GRADE . — ene MADA 
 SOPRANO . ORGAN . MR . J 
 PANSERON.—go Vocal Exercises , part 1 , no . 5 , 6 and 11 LOCAL CENTRE — advance grade 




 BARITONE VIOLONCELLO . BAN