


 EAR 


 C.O 


 N.W 


 ND 


 the MUSICAL TIMES 


 AND SINGING - class CIRCULAR 


 found in 1844 


 publish on the first of every month 


 ROYAL CHORAL SOCIETY 


 ROYAL ALBERT HALL 


 the ASSOCIATED BOARD 


 of the R.A.M. and the R.C.M. 


 for local examination in MUSIC 


 DECEMBER 1 1921 


 - GUILDHALL SCHOOL of MUSIC . 


 . , . > , > tot 


 YORK GATE , MARYLEBONE ROAD , LONDON , N.W.1 — _ _ — — 


 MANCHESTER 


 the MUSICAL 


 ROYAL 


 COLLEGE of MUSIC 


 MANCHESTER 


 BIRMINGHAM & MIDL 


 EN A ' A 


 SCHOOL 


 J. CROSS 


 OF M 


 A.R.A.M 


 USIC 


 AND INST 


 SCHOOL of MUSK 


 G B K , \ D.M 


 SESSION 21 


 the IDEAL 


 OF 


 memory - training 


 MUSICIANS 


 strengthen the 


 IMAGINATIVE 


 MUSICAL 


 AND 


 ITUTI 


 method 


 FOR 


 QUICKENS and 


 MEMO 


 ry , the 


 PERCEPTIVE power 


 A CORRESPONDENT write 


 SCHOOL of MUSIC 


 LOXHAM 


 STREET 


 BOLTON 


 LONDON COLLEGE of MUSIC 


 GREAT MARLBOROUGH STREET , LONDON , W 


 examination — local and HIGHER 


 the LONDON COLLEG E for CHORIST er , 


 the WARDROP CORRESPONDENCE COI.LEGE , 


 BEDFORD ROW , LONDON , W.C.1 


 APPRECIATION of MUSIC . 


 the T ECHNIQUER 


 ALL instrumentalist 


 RICHARD H. WALTHEW , I 


 voice training 


 appreciation . 


 CO 


 M. M 


 XUM 


 I A.M 


 ter , 


 LEGE , 


 NCE 


 PREPARAT 


 DIPLOM 


 INDIVIDUAL 


 AND ALL 


 AND 


 complete 


 numerous success at 


 this month 'S sp 


 LON 


 819 


 ANI 


 FOR 


 a of T.C.L. R.C.O 


 these examination . 


 ECIAL course 


 practical work 


 NORMAN 


 MUS . DOC . | 


 ROAD 


 TELEPHONE 


 ARCM . ARCO . 


 LRAM 


 48 , LINDEN 


 opinion of pupil . 


 LONDON , W.C. I 


 REDLAND 


 SPRANKLING 


 BRISTOL 


 7 5 


 MR . CHARLES TREE 


 LE CTURE - recital 


 PHI < T of THI BEL ¢ I 


 WALLASEY MUSICAL FESTIVAL . 


 five guinea 


 BY POS 


 CJ ) 


 OF VO 


 application for MEMBERSHIP 


 CASHEL APPLICATION , GRADUAL payment APPLICATION , 


 BEECH AVENUF , SHERWOOD RISE , NOTTINGHAM 


 the M.C.C. have secure MORE success at 


 DURHAM than all the rest of the CORRE 


 FREE 


 201 , ILKESTON ROAD , NOTTINGHAM 


 the MUSIC AL 


 AL 


 MORECAMBE MUSIE 


 COMPETITION FESTIVAL 


 10 


 the complete syllabus of the 


 COMPETITIONS be now ready , 


 s1 et , MORECAMBE 


 CORRESPONDENCE ‘ TUITION 


 MUS . D 


 D BURROWS 


 A.M 


 OSTAL revision lesson 


 DR . NORMAN SPRANKLING 


 7 LJ 


 MR . W. H. BREARE 


 TO student and the profession 


 MIA 


 RINTING manuscript 


 I ( I DEPART 


 MR 


 MR 


 CH . \RL E S THORNTON 


 BASS BARITONI 


 TRACEY 


 PITCHER 


 ERBERT 


 R. J 


 MR 


 MISS 


 AL B E RT GARCIA _ 


 production and singing 


 voice 


 PROFESSIONAL notice . 


 MOUNTFORD SCOTT ( TENOR ) , 


 A.R.A.M. CONTRALTO 


 EDWARD BENNETT " 


 " PRANK CARLETON PL 


 RALPH WILLIAMS M 


 BASS - BARITONE , 


 \ HK RNON TI . \RRISS 


 BASSO ( ¢ 


 CANTERBURY € ( THEDRAI 


 LEWIS STAINTON — 


 XUM 


 TON 


 THE 


 MRS . J. R. MAITLAND 


 COMPOSE RS MSS . 


 revise and prepare for printing 


 THOROUGH understanding and PRACTICAL 


 EFFICIENCY 


 M.C. , F.R.C.O 


 BAKER 


 WKESBURY 


 GPE IAL CORRESPONDENCE COURSES 


 R.A.M. , A.R.C.M. SPECIAL 


 ARTHUR ELLARSHAW , L.R.A.M. , 


 FREDERICK GREEN , L.R.A.M. , 


 F.R.C.O SPECIALIST in CORRESPONDENCE 


 CHANGE of ADDRESS 


 ROAD , GORLESTON - ON - SEA 


 58 , AVONDALI 


 192 ! $ 23 


 ERBERT HODGE , F.R.C.O. , , A.R.C.M 


 IN CORRESPONDENCE 


 A. G. 


 SPECIALIST 


 COACHING 


 ADAME LARKCOM , F.R./ 


 HELENA MARKS 


 SPECIAL correspondence course 


 recent success in paper work 


 MEMORY 


 RGANIST 


 the 


 1921 


 TIRED , 


 YEQI 


 M * . R. HERBERT HODGE , F.R.C.O. , A.R.C.M. , 


 HURCH 


 S.W 


 RGAN for 


 SALE , 


 POR SALE . — ORGAN 


 ARES M 


 PIANOFORTE 


 TS MANUAL 


 LAVIER 


 MUSIC 


 want , 


 ULL FATHOM FIVE . 


 EPAIRS . VIOLINS , ’ CEI LOS , guitar , 


 EAR 


 G roundwork of music and 


 musical composition revise . 


 GUIDE to A.R.C.M. DIPLOMA . 


 PIANO teacher ’ examination in the art of 


 TEACHING 


 DE PRESS , ETC 


 THE CRESCENT , ROUNDHAY , LEEDS 


 BLACKBURN ’S edition of 


 ORATORIOS 


 HYMN of PRAISE . | JUDAS . 


 ST . PAUL . | ELIJAH 


 WOMAN of SAMARIA . 


 creation 


 JOHN PUBLISHERS 


 SO101 


 QUE 


 SP 


 XUM 


 ORGAN 


 — _ _ _ 


 MILGROM 'S 


 CONCERT direction 


 recital and concert arrange 


 324 , REGENT STREET , W 


 NEAR QUEEN 's HALL ) . " phone : LANGHAM 2714 


 first - class operatic and oratorio vocalist , 


 instrumentalist , concert party , ETC . 


 ON my book 


 please state your requirement to above address 


 ALBERT DOWNING 


 ( CANADA 'S popular TENOR 


 QUEEN ’s HALL ; -KOLIAN HALL ; PEOPLE ’s PALACE ; PUBLIC HALL , CROYDON : 


 ; ‘S PIANOS 


 MILGROM ’s ) PIANOS . 


 special discount to ' the profession . trade supply 


 MILGROM ’S CONCERT DIRECTION , 


 324 , REGENT STREET , w.1 


 phone : LANGHAM 2714 . ( NEAR QUEEN ’S HALL 


 TRINITY COLLEGE of MU SIC 


 the RT . HON . the EARL of SHAFTESBURY , K.P. , K.C.V.O 


 B ISHOPSGATE INSTITU 


 NOVELLO CHOIR 


 WOODLANITD SKETCHES the 


 ROGER QUILTER ’S music to the carol , madrigal , folk - song 


 ' where the rainbow end RACK 


 : ; , 2 ROOK ! 


 XUM 


 NGS 


 OOK 


 ST . PATRICK ’S ( R.C. ) CATHEDRAL , 


 the EXTERIOR 


 the ORGAN 


 SPECIFICATION 


 MIPASS 


 SWELL 


 ORGAN 


 ORGAN 


 ORGAN 


 the WESTERN ‘ TOWERS 


 large and small bellsprelude : * the Cuckoo ’ lan den Gheyn 

 Ave Maria Schuhert 
 sonata See Van foe , 
 Adagio ( ' pathetic ' Sonata Beethoven 
 * Le Retour de la Fauvette ' te Boeck 
 Irish Folk - Tun 

 t ) * Londonderry Air . ' 
 ( 4 ) * snowy - breasted l’ear ) . ' 
 ? Foggy Dew 

 the composer ’s intention 

 all these item be listen to 
 M. Nauwelaerts be one of the good represep 
 tative carillonneur of the modern belgian schoo 
 his playing be most brilliant , with well - defineg 
 rhythm , and to he technical difficulty be nop 
 existent . his expressive be amply 
 display in the music of Schubert ang 
 Beethoven , which reveal to the listener the 
 extraordinary possibility of the instrument in th 
 hand of such a virtuoso . 
 recital be give in 
 evening , also on Monday 

 powers 




 CHARLES 


 KGECHLIN 


 CALVOCORESSI 


 761 


 6 = 2s ss ES = — — _ — = " 


 U 2 


 6 — = e 


 ' a — l= = = : 


 some italian composer of to - day 


 POSTLUDIUM 


 RESPIGHI 


 834 


 \LALEONA 


 16 , 1881 


 ASCO 


 LIUZZI1 


 188 


 PRATELLA 


 PERRACHIO 


 PIZZETTI 


 THE MUSICAL 


 1921 


 THE OLD VIC . ' : an APPEAL 


 AL 


 NEW light on early TUDOR 


 COMPOSERS 


 30 , 520 ) , 


 838 the MUSICAL 


 1921 


 H /EBUSSY WROTH * " PELLEAS ET MELISANDI 


 SOLOIST ’S income at PARIS 


 ON TRANSCRIBING BACH 'S CANTATAS 


 acoustic and music 


 1 


 MONTEVERDUS LOST ' ARIANNA ' 


 NICOLAL OBUKHOI 


 HUNGARIAN FOLK - MUSIC 


 A DUTCH COMPOSER 


 BELGIAN COMPOSER 


 unknown work by great composer 


 OLD guitar MUSIC 


 GERVASE ELWES MEMORIAL 


 the 


 840 


 1921 


 E.C. 3 


 PIANOFORTI 


 SONGS 


 H.G 


 _ — _ 


 C. W. 


 VIOLIN and CHAMBER MUSIC 


 the MUSICAL 


 F. B 


 FOLK - song , shanty , and NURSERY RHYMES 


 CHURCH 


 H. G 


 2S 


 844 


 THE MUSICAL 


 the 


 ADMIRABLE crichton : NEW STYLE 


 A. K 


 EE 


 THE MUSICAL 


 MR , goossen ’ concert 


 ONDON SYMPHONY ORCHESTRA 


 1921 


 MR . SAMMONS ’ concert 


 PHILHARMONIC SOCIETY 


 CHORAI 


 ETY 


 H.G 


 SYMPHONY CONCERTSQueen ’s Hall Symphony Concerts be run a 
 popular course under Sir Henry Wood ’s direction . 
 on October 22 the Symphony be the ' Eroica , ' 
 Dr. Ethel Smyth conduct two excerpt from her 
 ' Boatswain ’s Mate , ' and Moiseiwitsch — play 
 Tcherepnin ’s C sharp minor Concerto . some of 
 Wagner 's Fire Music and Stravinsky ’s * firework ’ 
 signalize Guy Fawkes ’ Day , when the Symphony 
 be Tchaikovsky ’s fifth , and Lamond play the 
 Jeethoven G major Concerto 

 Mr. Adrian C. Boult ’s Sunday afternoon concert 
 with the British Symphony Orchestra go from 
 success to success , and the design of the programme 
 have be fully justify . on October 30 the work 
 choose be the ' Hebrides ' Overture , Beethoven ’s 
 fifth Symphony , the ' good - humoured Ladies ' Suite , 
 and Armstrong Gibbs ’ Ballet music , ' the betrothal . ' 
 Mr. Frederick Holding give Elgar ’s Violin Concerto 
 on November 13 , the overture be * Egmont , ' and 
 the Symphony Mozcart ’s in e flat . W. MCN 

 CHAMBER CONCERTS 

 there have be great activity in chamber music . 
 new work have come to light , but none have stand 
 t well . Pizzetti ’s Quartet , play by the Catterall 
 Quartet for the London Chamber Concert Society , be 
 a disappointment . it sound like an early work . 
 other composer , from Bach and Beethoven down- 
 wards , have suffer in the same way . a reputation 
 build on first - rate work bring out the second - rate . 
 M. Fauré ’s Pianoforte Quintet , play by M. Cortot 
 and the Allied Quartet for the Classical Concert 
 Society , cause no pulse to quicken 

 british work have have plenty of attention , and 
 one note with pleasure the follow performance : 
 Frank Bridge ’s Phantasy Trio in C minor by Miss 
 Rhoda Backhouse , Mr. Felix Salmond , and Mr. 
 Harold Craxton ; Goossens ’ Phantasy Quartet by 
 the Philharmonic Players ; York Bowen ’s Quartet 
 in G , Op . 46 , by the Spencer Dyke Quartet ; a work 
 by Mr. Alfred Wall by the new Beatrice Hewitt 
 Pianoforte Quartet ; a Septet for string and wind by 
 Mr. J ] . R. Heath , give for the first time at a concert 
 of the Guild of Singers and Players 




 MR . JOHN COATES 


 OTHER SINGERS 


 W. MCN 


 VIOLIN and VIOLONCELLO 


 848 


 PIANISTSvery d the more of himself he put into a 

 even so slight a thing as the Beethoven G major 
 Rondo become an experience that remain in the 
 memory among the fleeting impression of " busy 
 concert - voinyg 

 we have also have Pouishnov and Cortdét again 




 WORKS 


 SO 


 * — _ _ — — — — 


 CF . 7 ° | = . [= = = = = |= = = ; 


 92 2 


 = FS . = = 


 = = = . SS 


 ¢ 2 _ ; 


 2 - 3 ... - 


 be in my 


 head 


 192 


 * ' RUDDIGORE ' revive 


 the RUSSIAN BALLET 


 the SLEEPING PRINCESS 


 ROYAL COLLEGE of MUSIC 


 ROYAL PHILHARMONIC SOCIETY 


 GOLD MEDAL present to SIK HENRY WOOD 


 the MUSICAL 


 L SUCCESS 


 0.30 


 the NOVELLO CHOIR 


 N.W.O0 


 ROBERT FAYRFAX 


 ALBANS 


 celebration at ST . 


 854 


 the MUSICAL TIM 


 ST . MICHARI ’S , CORNHILI 


 BACH recital and a musical festivai 


 MOLD PARISH CHURCH 


 FI 


 accessory 


 LONDON CHURCH CILOLR ASSOCIATION SOUTHWARK CATHEDRAL 
 Brame ’ * Requiem ' will be sing on Saturday , 
 December 10 , at 3 p.m. the London Symphony 
 Orchestra will assist . no ticket be require 

 the revival of the Liverpool Church Choir Association ’s 
 annual Festival , after a lapse of eight year , be attend 
 with gratifying musical success in St. George ’s Hall on 
 October 18 . twenty - two choir combine in a responsive 
 body of between four and five hundred voice of man and 
 boy , with a few lady , and Sir Ivor Atkins , of Worcester , 
 as guest - conductor , be warmly appreciative of the ' virility 
 and sympathy of the singer . ' the music include 
 Sir Ivor ’s impressive anthem ' there be none that can 
 resist thy voice , ' and his splendid setting in a and d of 
 the Magnificat and Nunc Dimittis . Sir Ivor conduct a 
 fine performance which reflect great credit on the choir 
 master concern . Mr. Branscombe conduct the other 
 item — Bairstow ’s beautiful ' save we , o Lord , ' Elgar ’s 
 ' Ave Verum , ' Thorne ’s ' let we now praise famous man , ' 
 for man ’s voice alone ( sing /7 memoriam ) , and 
 Mendelssohn ’s * o great be the depth . ' three trombone , 
 tuba , and timpani supplement the organ in the accom- 
 paniment , which be ably play by Mr. H. Goss Custard , 
 whose organ solo , the first movement from Widor ’s sixth 
 Symphony , be a brilliant performance . also worthy of 
 note be the playing of Beethoven ’s * Equali ' for four 
 trombone , the player be station aloft in the cross- 
 gallery . the Festival have unfortunately result in a heavy 
 deficit . -—-M. Marcel Dupré pay a return visit to Liverpool 
 on October 20 , and greatly impress a large audience at 
 St. George ’s Hall by his ready skill in improvisation , the 
 subject give to he be Arne ’s ' rule , Britannia . ' 
 other piece include Franck ’s Choral in B minor and the 
 Cantiléne from Vierne ’s second Symphony . in Bach ’s 
 d major Fugue clarity be sacrifice to speed , and the 
 tinkling registration of the Purcell Toccata in A do not 
 suggest the strength underlie the framework . W. A. R 

 the Southwark Diocesan Plainsong Association sing its 
 seventh annual Festival Evensong in Southwark Cathedral 
 on October 27 . the service be render by a hundred and 
 twenty - five voice , and the production and finish of the 
 music reach a very high level . this result , due in the 
 first place to the musical director ( Mr. E. T. Cook , organist 
 of the Cathedral ) , reflect no less credit upon the six 
 individual choirmaster who bring their singer to the 
 rehearsal with the music already well know and practise . 
 this be a feature none too common in choir festival . the 
 faux - bourdon in the Canticles be by italian composer 
 of the 16th century , the Magnificat be by Carolus Andreas 
 and the Nunc Dimittis anonymous . the Motet be Byrd ’s 
 * justorum anime 




 ORGAN recital 


 OSS 


 appointment 


 ' the MUSICAL PRESS 


 LIS 


 IC 


 FLL 


 IODERN scale and acoustic 


 F.R.S 


 A. V. SAINSBURY 


 scale and tonality 


 the MUSICAL 


 1921 


 HAND development for the performerin actual point of fact , even then the cessation be apply 
 to every note , though the speed of the mental operation be 
 apt to deceive we 

 far , we be tell that ' one hand in five hundre 
 thereabouts , be form by nature for play an instrument 
 follow this statement to its logical conclusion , we be face : 
 with the proposition that the hand of Bach , Beethoven , 
 Chopin , Liszt , Rubinstein , \c . , be therefore cast accord 
 to some mystic formula of flexor , extensor , and soon . my 
 own observation and reading point to the conclusion t ! 
 almost the only common characteristic of these hand be 
 their possession of a thumb and four finger , with the usu 
 joint and muscle incidental thereto . we know also that 
 in the case of Ludwig van Beethoven any fortuitous provisior 
 of muscular equipment suitable for pianoforte playing be 
 greatly assist by assiduous practice in the small hour « 
 the morning , under the supervision of exacting taskmaster 
 revert to Chopin , we have the apparent contradictior 
 of an artist who lack the ability to play with a har 
 bright touch , but who surely , if ever any man be iormé 
 by nature to play an instrument , be that man to a degre 
 which even the ' Techniquer ' will have a _ hard 
 emulate 

 play , we be also tell , require two position of the 
 hand , one normal and one extended . as there be at leas 
 forty - two distinct and easily classify variety of touch , al 
 affect the position of the hand , and also some hybri 
 ind collateral specie , all the above be far modify 
 by rotation limitation to sition 
 seem to be rather absurd ! it be truly ' a great point t 
 keep in view , ' the relaxation of a// muscle except thos 
 actually in use , whether of hand or arm , as well as finget 
 muscle . I submit that if we wish to become player , an 
 not automata - like * ' techniquer , ' then proper muscula 
 training , direct by a real live human will , be the mean 
 this end 




 FORMER ' 


 A CORELLI FORGERY 


 KNELLER HALL concert : a correction 


 why use word 


 the musical 


 192ould not arrive within many quaver of it , ' and there from the J / usical 7ime of December , 1801 

 ay | lite a few university don to - day who think that BEETHOVEN ’s music be now listen to with an attentior 

 e Largo in the acme of musical perfection . but 




 L. N. C. BARNABY . Gui . " bs 

 and delight that his real friend and admirer could scarcely 
 have anticipate . not unfrequently , indeed , these { eling 
 border on prejudice , since it be impossible that amateur 
 generally can appreciate those portion of his work which the 
 cultivate professor be often at a loss to understand ; 1 
 theless it be gratifying to witness the anxiety with which 
 uninitiated endeavour to comprehend what be term classical 
 writing , emanate from great a man ; exert their 
 auricular and intellectual faculty to admire that 
 all probability , be far from be congenial with their pre 
 1 ' recollection of Beethoven , " by 

 and 

 ROYAL ACADEMY of MUSIC 

 a course of three lecture on Beethoven be give 
 principal in the Duke ’s Hall on Wednesday afternoon c 

 mence October 26 , two of which have be previously hear 
 at the Royal Institution in June last . in the first tl 
 lecturer deal with the revise attitude of the present 
 generation ; personal characteristic of the master ; method 
 of work , discovery , and the influence of literature upor 
 his music ; young Schumann ’s appeal to Germany in 18 

 for a national monument 

 the second lecture be mainly devote to an interesting 
 survey Beethoven ’s own style and 
 it influence upon pianoforte technique ; the variation and 
 sonata ( illustrate by Mr. Harold Craxton ) ; the lecturer 's 
 personal acquaintance with great Beethoven player 

 the subject of the last lecture be : the great String 
 ( Juartets ; bread - work and pot - boiling ; the attitude of 
 London and Paris towards the composer contrast ; the 
 Philharmonic Society ’s connection with he ; his end , 
 general remark upon his genius . Mr. Il . Wessely 
 student play the last ( Quartet , Op . 135 

 the Sainton - Dolby Prize , for soprano , have be award 
 to Lucy Goodwin , a native of Nottingham 

 chamber concert be hold at Bishopsgate Institute every 
 Monday at 1.10 p.m. for an almi - sion fee of 3a , w icl 
 include programme and tax . the director be Mr , Fran 5s W 
 Sutton . on November 7 the music include movement 
 from work of Mendelssohn , Beethoven , and Mozart 

 an atientior 
 ould scarcely 
 hese { elings 
 hat amateur 
 rks which the 
 tand ; never 
 th which the 
 me cl issice ] 
 < erting thei 
 at which , in 
 th their pre 
 ethoven , " by 




 — $ — $ _ _ _ . 


 ROYAL COLLEGE of MUSIC 


 M. J. 


 TRINITY COLLEGE of MUSIC 


 the WELSH MUSICAL FESTIVAL at 


 MOUNTAIN ASH 


 the 


 864 


 1921 


 by our own CORRESPONDENTSBELFAST 
 the Belfast Symphony Orchestra make a very successful 
 eginning of its season by a concert in Wellington Hall , on 
 October 22 
 the Orchestra , carefully train and brilliantly conduct 

 y Mr. E. Godfrey Brown , earn distinction in Beethoven ’s 

 ghth Symphony , Coleridge - Taylor ’s RKhapsodic Dance 




 BIRMINGHAMIn the evening the Orchestra give a Wagner programme , 
 which include the overture to the ' mastersinger ' and 
 * Tannhauser , ' also the prelude to act 2 and 3 , and the 
 ' entrance of the god into Walhalla , ' from ' Rheingold , 
 and two vocal selection , the Prize Song and Elsa ’s Dream , 
 sing by Mr. Frank Titterton and Miss Margaret Harrison , 
 Mr. Appleby Matthews , a wagnerian enthusiast , convey 
 his enthusiasm to his rank and file 

 the Sunday concert at the Grand Hotel have greatly 
 improve as regard attendance , and so have the playing of 
 the orchestra . the programme be varied in character , 
 english composer be well represent . symphony by 
 Beethoven , Haydn , Mozart , Dvorak , and César | ranck 
 be the principal feature of these enjoyable programme 

 the Sunday evening orchestral concert at the Grand 
 Theatre , on October 30 , be conduct by Mr. Joseph 
 Lewis with infinite care and excellent result . Dvorak ’s 

 symphony ' from the New World ' be the principal item , 
 in which the City Orchestra achieve artistic phrasing and 
 fine tone - quality 

 so far the fine concert of the season be the City of 
 Birmingham Orchestra ’s second symphony concert at the 
 Town Hall , on November 9 , when Mr. Albert Coates con- 
 ducte a greatly augment orchestra of nearly a hundred 
 performer . Mr. Appleby Matthews have already prepare 
 the programme , which comprise Rimsky- Korsakov ’s 
 * Cortége de Noces , ' the * Siegfried Idyll , ' Scriabin ’s gorgeous 
 * Poeme de |’Extase , ' and Beethoven ’s C minor Symphony , 
 the last two conduct without a score . in addition to these , 
 Mr. Coates introduce the Bach - Elgar C minor Fugue . 
 it be altogether a memorable concert , especially in tone 
 power and overwhelming climax . naturally it arouse 
 the enthusiasm of the audience in the full manner 

 on the evening of Armistice Day a concert be give 
 at the Town Hall , and a collection realise 446 , 
 which will be allot to the SAirmingham Ma 
 Christmas fund . the concert be organize by the 
 Birmingham Police Band , under the direction of Mr. 
 Appleby Matthews , who direct a programme 
 unique in character . on this occasion the Birminghan 
 Choir make its débit under Mr. Joseph Lewis , the 
 choirmaster and conductor . César Franck ’s setting of the 
 150th Psalm and Elgar ’s * for the fall , ' be impressively 
 perform . intense solemnity be realise by Beethoven 's 
 * Equali , ' give out by four trombone play from a 
 concealed position 

 Arnold Bax ’s G minor Quartet be among the work 
 play by the Catterall Quartet on October 14 , under the 
 auspex of the Birmingham Chamber Concerts Society , at 
 the first of five Miss Beatrice Hewitt have 
 establish a Pianoforte ( Juintet under her name , the string 
 player be Mr. Louis Pecskai , Mr. Paul Beard , 
 Mr. Frank Venton , and Mr. J. Cattock . at their first 
 concert , on November 5 , they do justice to the familiar 
 Brahms and Dvorak Quintets , and a Quartet by Mr. Alfred 
 Wall receive its first performance at Birmingham 

 concert 

 Carlisle Choral Society give its first concert of the 
 season in the Drill Hall on November 17 under the con- 
 ductorship of Dr. F. W. Wadely . 
 Schubert ’s ' song of Miriam , ' with Miss Agnes Nicholls as 
 soloist , Elgar ’s ' black Knight , ' and Beethoven ’s ' Eroica 

 Symphony 




 BOURNEMOUTH 


 BRISTOL 


 CAMBRIDGE 


 CHATHAM 


 CORNWALL 


 COVENTRY and DISTRICTFlorence M. 
 violin solo . 
 the first of the Armstrong - Siddeley Motor Works musical 
 organization to hold a concert this season be the military 
 band , which , under Mr. John H. Williams , be hear in an 
 interesting programme at l’arkside on November 5 

 the Catterall Quartet provide the programme at the 
 Coventry Chamber Music Society ’s first concert in St. 
 Mary ’s Hall on November 7 . composition by Beethoven , 
 Elgar , and Borodin be perform , and a large audience 

 Hanson act as accompanist and also play 




 DARLINGTON ANID DISTRICT 


 DEVON 


 the 


 192 ! 867Songs of the Sea ' by Mr. Walter Belgrove , with male 
 yuartet accompaniment and Dr. Ernest Bullock at the 
 pianofort Haydn ’s String Quartet , Op . 76 , No . 4 , and 

 Beethoven ’s * Kreutzer ' Sonata provide instrumental music , 
 and a quartet of mixed voice sing Beale ’s ' come let we join 
 the roundelay , ' ' sweet day so cool ' ( E. C. Bairstow ) , and 
 ' task my fair ' ( Champneys 

 Plymouth Orpheus Male Choir ( Mr. David Parkes ) have 
 already appear three time this season at the ' celebrity 
 concert . " on the last occasion , November 4 , Miss Amy 
 Evans , Mr. Fraser Gange , and Miss Adela Verne be the 
 visit artist 




 DUBLIN 


 EDINBURGH 


 GLASGOW 


 868 


 1921 


 HASTINGS 


 INVERNESS 


 LIVERPOOL 


 20 


 the 


 1921 869 


 MANCHESTER and DISTRICT 


 NEWCASTLE - ON - TYNE 


 NOTTINGHAM and DISTRICT 


 TH and DISTRICT 


 SOUTH WALES 


 the 


 1921 871 


 _ — _ the fir 

 by Mr. Percival Hodgson , play quartet by Beethoven , | 
 Haydn , and Dohnanyi . for the second concert , on| 
 Novem er 3 , local talent have be secure . the pro- 
 gramme contain Elgar ’s * the snow ' and ' fly , singe 
 bird , ' with pianoforte and _ violin accompaniment , 
 Beethoven ’s Pianoforte Trio in C minor , and Brahms ’ 
 Pianoforte Quartet . this policy of introduce local 
 instrumental talent in alternate concert of the series be 
 stimulating , and highly to be commend , and might be 
 profitably adopt in many other district 

 for the Cardiff chamber music concert on October 22 in 
 the hall of the High School for Gurls , the Chamber Music 
 Plavers ( Messrs. Sammons , Tertis , Salmond , and Murdoch ) 
 have n engage , and the programme consist of 
 quartet by Schumann ( e flat , Op 47 ) , Fauré ( c minor ) , 
 and Dvorak ( e flat . op . 87 




 YORKSHIRE 


 BRADFORD 


 LEEDSA musically interesting service be hold in Leeds Parish 
 Church November 2 , when the late organist , Dr. 
 Bairstow , conduct , and Dr. Tysoe , the present organist , 
 act in that capacity . there be a full orchestra , and the 
 choir of York Cathedral co - operate . anthem by Dr. 
 Bairstow and Dr. Alan Gray be sing with orchestral 
 accompaniment , and the ' Marcia Funébre ' from the 
 * Eroica ' be impressively play , and be more effective 
 than Dr. Basil Harwood ’s Gloucester Organ Concerto , in 
 which organ and orchestra be not quite at one 

 the London String ( uartet give concert at the 
 University on October 15 and 17 , and the University 
 recital have be give on October 26 , by Miss Helen 
 Guest , who play Glazounov ’s Sonata , Op . 74 , and on 
 November 8 by Mr. Harold Hallis , who give a very well 
 arrange series of song . on November 2 the Symphony 
 Society , an amateur body , give a concert under Mr. 
 Harold Mason ’s conductorship , when Beethoven ’s second 
 Symphony meet with a creditable performance , ( uilter ’s 
 ' child ’s Overture ' be one of the most enjoyable 
 thing in the programme . the Leeds New Choral Society 

 on 




 SHEFFIELD 


 872the MUSICAL TIMES — DeEcrEmsBer 1 1921 

 their good form , though they give an enjoyable performance 
 of Borodin ’s second Quartet . Beethoven ’s Op . 127 and 
 Howells ’ ' Lady Audrey ’s Suite ' fill out the programme to 
 rather more than ideal length 

 poor orchestral work , from whatever cause , spoil the 
 Musical Union ’s concert performance of ' Samson and 
 Delilah . " the choir sing finely , and Miss Edna Thornton 
 as Delilah , Mr. Walter Hyde as Samson , and Mr. Herbert 
 Heyner as the High Priest be all excellent . Dr. Coward 
 conduct 




 other YORKSHIRE townsfeature of a programme the quality of which do credit to | 
 Halifax Chamber 

 Society ’s discrimination . at the 
 Concert on October 21 the Catterall Quartet play 
 Herbert Howells ’ * Lady Audrey 's Suite ' and a Quartet 
 in G by Arnold Bax , the classic be represent by 
 Beethoven ’s C sharp minor Quartet ( Op . 131 

 the Harrogate Symphony Concerts come to a close on 
 October 12 , 
 take place . its chief feature be 
 ' Afrique , ' in which the pianist be Miss Ethel Davey . 
 Mr. Julian Clifford conduct 




 AMSTERDAM 


 the 


 192 ! 87hews cheap success , he can not be too highly , 
 extoll 

 Madame Noordewier - Reddingiusm , whose style in deal 
 with Bach can hardly be rival , be hear to great 
 advantage in two of the fine aria of the immortal Cantor , 
 when , on October 30 , Mengelberg gratify we with a 
 beautiful reading of the third * ' Brandenburg ’ Concerto and 
 the second suite in b minor.- the second part of the 
 programme consist of Diepenbrock ’s ' hymn to the night ' 
 and the overture to Aristophanes ’ ' the bird . ' Eugen 
 d’Albert ’s reappearance at Amsterdam , on November 3 and 
 6 , can not be record with such satisfaction as might have 
 be expect . the former high level of his performance 
 of Beethoven ’s fourth and fifth Pianoforte Concertos be 
 approac e only in the last - name . D’Albert seem , 
 however , to find himself in a more congenial atmosphere 
 when it come to display his technical wizardry in Liszt ’s 
 ' Danse Macabre . ' I refrain from enlarge upon his solo 
 recital on November 9 , which , musically at all event , 
 bring a still great disappointment . the scheme of the 
 concert of November 10 and 13 include on each occasion 
 Respighi ’s splendid ' Fontane di Roma , ' which , as an 
 instance of modern programme music in its most gratifying 
 form , be receive with uncontested acclamation . on the 
 first of these occasion Mengelberg also advocate the cause 
 of his colleague , M. Cornelius Dopper , whose ' Adagio 
 Mesto ' with variation he produce after having bestow 
 every imaginable care upon its preparation . the result be 
 that the undeniable merit of this very clever work be 
 make evident to a far great extent than have be the case 
 when the composer himself conduct it some time ago 

 on November 2 the first concert of Der Anbruch take 
 place . * ' Anbruch ' ( ' Dawn ' ) be a Society recently found 
 by german and austrian composer for the propagation of 
 modern music . it be hope ultimately to extend this 
 Society over the whole of musical Europe , and thus to form 
 a sort of * Musical League of Nations . ' the scheme of four 
 chamber music and three orchestral concert to be give at 
 Amsterdam in the course of this season include , besides 
 work of modern german and austrian composer , much of 
 the modern dutch school and a sprinkling of french work , 
 not , however , of the late example . the first chamber 
 music concert , which be entrust to the care of the 
 Hollandsch String ( Quartet , bring a String Quartet by 
 Henry Zagwyn ( a dutch composer ) which show clever 
 workmanship . after this M. Emile Enthoven , who be 
 yet barely eighteen , introduce a Pianoforte Suite of 
 his own , in four movement , but the young composer be 
 obviously not yet able to run free of his model ; and so 
 there be very little of Enthoven , and , among other , very 




 BERLINA well - educate composer , with a mission , strive 
 to achieve praiseworthy aim . popular theme , 
 logically develop , a clear and fine orchestration . 
 above all , agreeable melody , hostile to fashion . at 
 the same time inherit fault — lengthy and heavy 
 language . be he to find a friend , to develop self- 
 criticism , perhaps he could give we the much desire 
 popular opera in the style of Humperdinck ’s , his 
 teacher ’s , * * Hiinsel und Gretel 

 while wish 
 Richard and 
 critic by the ear , 
 history — to a past as well as to a future period . 
 study his development since his op . 1 , and 
 the splendid performance of his ripe work , the writer 
 would fain be ' on the side of the angel ' and proclaim 
 he a genius who have force his music upon the world , 
 whether the world like it or not . history repeat itse 
 Franz Schreker too be a great power that can not be ignore , 
 much less annihilate by adverse criticism . we may 
 abominate his music , but we can not avoid admiration for 
 the masterfulness alike of the conception and execution of 
 his music - drama , and we shall have to endure that which 
 now seem unendurable . orchestral player may protest 
 that his music can not be play . they will have to learn 
 to play it , just as their predecessor have to learn to play 
 Beethoven ’s , and Wagner ’s , and Strauss ’ music 

 Montag 




 F. ERCKMANN 


 MILAN 


 21 


 NEW YORKasking » much of the New York public to listen to 
 two hundred orchestral concert in one winter , so reason 
 prevail , and the Philharmonic have this year absorb the 
 National , put some of the good player of the new 
 rchestra into the old one , retain Josef Stransky as 
 hief conductor , with Henry Hadley as associate , and 
 ide Wilhelm Mengelberg and Arthur Bodanzky as 
 guest ’ conductor , thus obtain financial assistance from 
 patron who have be ally with the National . it would 
 ave be a hard blow to music - lover at New York to have 
 n the Philharmonic fall by the wayside , overcome by its 
 wnger competitor , for the pe rsonal element of the 
 popularity of the conductor be not the first consideration in 
 this case . Stransky have many admirer , as also have 
 the other conductor , but the public bestow its strong 
 flection on the organization itself , which have weather 
 0 many storm since 1842 , and have grow in eighty year 
 ma modest band of forty member , who stand ( except 
 the violoncellist ) while play , to the modern group of a 

 dre man select from the good that can be obtain . 
 \ a matter of sentiment , Stransky , at the opening 
 ncert of the eightieth season , play Beethoven ’s fifth 
 Symphony , which open the first concert give by the 
 Society on December 7 , 1842 . the inevitable novelty be 
 a Prelude and Fugue for pianoforte and orchestra by 
 Daniel Gregory Mason , with Mr. John Powell at the solo 
 nstrument . it must have be the personal popularity of 
 Mr. Mason and Mr. Powell that produce the storm of 
 applause , and demand for the repeat appearance 
 f composer and performer , for it seem a vague com- 
 sition , lack construction , and confusing to the listener 

 give the benefit of the doubt 

 at the first concert of the Boston Symphony , Mr. Monteux 
 play Rimsky - Korsakov ’s ' Sadko ' and some Debussy 
 xlection . in both of these he be more successful than 

 va with the Symphony , which be Beet hoven ’s * eroica , ' 
 unfortunately the french conductor be follow the fashion 
 set by other of the day , play Beethoven as if he be a 
 modern composer , take all sort of liberty with the 
 tempi , and make violent contrast in dynamic 

 the climax of the open week of the musical season 
 va the advent of Richard Strauss . when Toscanini 
 ame here last year he bring an orchestra with he — a 
 grave mistake , for there be no orchestra in Italy to 
 compare with ours . Dr. Strauss and his manager be 
 wise , and the famous musician have embark on a series of 
 n the United States , use the Philadelphia 
 chestra as his instrament . arrive only four day before 
 his first concert , rehearsal be necessarily few , so the first 
 programme include only work familiar to the player 
 ' Don Juan , ' ' Till Eulenspiegel , ' and the ' Symphony 
 Vomestica . " Carnegie Hall be pack to suffocation , and 
 Richard the 2nd ( as he be familiarly call here ) meet with a 
 tremendous ovation as he step on to the platform , the 
 deafening ipplause last for several minute , and it be 




 PARIS 


 DECADENCE 


 * CAMILLE 


 ROME 


 1,000 


 LEONARD PEYTON 


 TORONTO 


 F. H. A 


 the PALESTRINA MEMORIAL 


 LEONARD PRYTONString ( Quartet be give chamber concert 

 the Memorial Hall , Kingston , on the second Sunday in 
 month , until April 9 . on November 13 the pro 
 vral includ ( Quartets by Haydn ( Op . 75 ) and Mozart 
 ( n i. in G Schubert and Beethoven ( the Quintet , 
 op . 1ol ) be in the programme for December tt , 
 a lecture - demonstration of the ' Techniquer ' will be give 
 v Mr. R. J. Pitcher at the London Academy of Music on 
 Thursday , January 5 , at 8.0 , Mr. R. H. Walthew 
 will in th hair . and the music play will be draw 
 from Tchaikovsky , Chopin , and Scriabin . no ticket 
 require 
 the Sir H. W. Trickett , Ltd. , Chora ! Society open 
 its season at King ’s Hall , Waterfoot ( near Manchester 

 on November 9 . the programme , give under Mr. George 
 Firth ’s direction , include Walmisley ’s ' Music all powerful , ' 
 Elgar ’s ' the shower , ' and Coleridge - Taylor ’s * Viking Song 




 dure the last month . 


 " HURCIL HYMNAL for the CHRISTIAN 


 OFMANN , H 


 CHOOL SONGS . 


 — SOL - FA SERIES : 


 the H 


 \GNE 


 publish for 


 W. GRAY CO . , NEW 


 YORK 


 THE MUSICAL 


 TEU 


 NEW 


 CYRIL 


 STRING QUARTET 


 PRELUDE 


 PASTORALE 


 ELEGY 


 RONDO RETROSPETTIVO 


 ELKIN & 


 AK STREET , REGE 


 AND of 


 ALL 


 dure the last month 


 A.R.C.O ' the RUDIMENTS of 


 < CRITICISM F 


 TUITION 


 CORRESP ONDENC E 


 L.R.A.M 


 A.R.C.M 


 CHAMBER MUSIC 


 PY 


 COT T. 


 FANTASY 


 FOR 


 OBOE 


 IDYLLIC 


 the CHELSEA " POPS 


 the FOXON FIVE O'CLOCKS 


 ( SHEFFIELD 


 SHEFFIELD UNIVERSITY 


 NT STREET , LONDON , W.1 


 MUSIC SELLERS 


 YORK SERIES 659 


 VIOLIN - P " IN - 


 the MALKIN PATENT PEDAL CO . , LTD . , by 


 NEWCASTLE - UNDER - LYME 


 8 , SAMUEL B. GRIMSON BE 


 the SINGER 's ART . " 


 \. J. LARKCOM , F.R.A.M. , CECIL FORSYTH . 


 ianual for singer and teacher 


 for TENOR and BASS SOLI , and chorus ( S.A.T.E 


 HAS be acquire B\ 


 VOICE CHORUS ( T.T.B.B 


 NEW CHRISTMAS CAROLS LONDON , W.1 


 SER 


 AROL of the three KINGS 1 


 S ! FREDERICK BRIDGE 


 W.G.A ' - 


 126 , BOND STREET 


 the 


 192 ! s81 


 music for CHRISTMAS ] ORGAN MUSIC 


 service . 


 anthem 


 five set of CHRISTMAS carol 


 POPULAR CHURCH MUSIC 


 J. H. M AUNDER 


 service 


 ORGAN . 


 CHURCH CANTATA . 


 twelve original tune 


 set to 


 FAVOURITE hymn 


 BY 


 PRICE SIXPENCE 


 for CHRISTMAS 


 NOVELLO ’S 


 ALBUMS for the ORGAN 


 THE VILLAGE ORGANIST 


 CHORAI 


 LO , NEW BORN JESUS 


 O'ER the MEADOWS 


 SLEEP , HOLY BABI 


 CHARLES STANFORD 'S 


 ; REAT NATIONAL SONG 


 A CAROL of BELLS 


 SIR 


 ENOCH 


 BY 


 BASIL HARWOOD 


 two CHRISTMAS carol 


 music for advent and CHRISTMAS 


 eurhythnm 


 think in action , 


 the principle and practice of VOCAL ANI 


 physical therapy 


 esigne for the use of 


 physical education 


 RY 


 H. H. HULBERT , 


 FOLK - song 


 english origin 


 6 collect in 


 T. MEE PATTISON ’S popular cantata 


 the ancient mariner 


 _ song by 


 HENRY G. LEY . 


 four album 


 VHITH the moon the LONG ROAD lie 


 FAR in a WESTERN BROOKLAND 


 STAINER & BELL 


 spanish scene 


 MINIATURE SUITI 


 IANOFORTE and ORCHESTR4 


 N CASTILE 


 OSEPH H. ADAMS 


 the JOSEPH ADAMS MUSIC publishing C 


 TO candidate for MUS.D. 


 HFIELD STREET , LEICESTER 


 the APPALACHIAN MOUNTAINS 


 CECIL J. SHARP 


 WITH pianoforte accompaniment . 


 second serie . 


 MINOR melody 


 J. M. STUART - YOUNG 


 1921 


 the 


 ANI 


 NT 


 REDUCED price 


 A WESTMINSTER PILGRIM 


 SIR FREDERICK BRIDGE 


 TEN shilling and SIXPENCE NET . 


 opinion of the press 


 DAILY GRAPHIC 


 WESTMINSTER GAZETTE 


 spectator 


 MUSICAL standard 


 MUSIC trade review 


 YORKSHIRE POST 


 graphic . 


 the 


 approve by a REPRESENTATIVE committee of CLERGY 


 LIMITED 


 musical editor : 


 music edition . word edition . 


 word only 


 CHILDREN ’s supplement , SEA?P?ARATEL ) . 


 referee : 


 NOVELLO and COMPANY , LIMITED 


 LONDON 


 specially suitable as present 


 CHRISTMAS and NEW YEAR 


 LONDON 


 JOHN SEBASTIAN BACH 


 48 prelude and fugue 


 the well - temper clavichord 


 edit by 


 HAROLD BROOKE 


 IN two part 


 the " discus 


 REG 


 ORGAN BLOWER 


 the quiet efficiency of the " discus 


 AS supply to WESTMINSTER ABBEY , YORK MINSTER , ETC . , ETC 


 vate 


 ORGAN BLOWING specialist for the past thirty year 


 ' estimate submit free . 


 VRITE 70 


 17 , WHITE LION STREET , LONDON , n.1 


 the MUSICAL 


 1921 


 SHORT 


 SET 


 twenty 


 AND EASY PIECES 


 FOR 


 J. W. 


 IT 


 PRICE , 


 NOVELLO 


 INDON 


 the 


 SHILLINGS EACH 


 AND COMPANY 


 ORGAN 


 SET IV 


 SET 


 SET 


 LIMITED 


 the 


 now ready 


 three piece 


 the 


 the 


 OF 


 FREDERICK 


 MERCHANT 


 VENICE 


 ROSSE 


 MUSIC 


 ARRANGED for ORGAN 


 HAWKES & SON , 


 DENMAN STREET 


 PICCADILLY CIRCUS , LONDON 


 AND at PARIS , TORONTO , and NEW 


 FUGUE IN C MINOR 


 BACH 


 PRANSCRIBED for LL ORCHESTRA 


 FULL SCORI 


 ornamentation 


 IN the work OI 


 FREDERIC CHOPIN 


 BY 


 JOHN PETRIE DUNN 


 RR 


 887 


 NEW foreign publication 


 PIANOFORTE SOLO 


 CHAMBER MUSIC . 


 ORGAN . 


 EUVRES des compositel 


 RS serbe 


 NEUF melody POUR PIANO et chant 


 net 


 now ready 


 popular ORCHESTRAL edition 


 arrange by the composer 


 A children overture 


 NET price . 


 important novelty 


 G. FRANCESCO MALIPIERO 


 A CLAUDIO DEBUSSY 


 PIANO SOLO 


 OMAGGI 


 three piece for PIANO SOLO 


 ALFREDO CASELLA 


 five marionette piece for PIANO DUET . 


 AL 


 OR 


 the strife be o'er 


 ANTHEM for EASTER 


 GEORGE RATHBONE 


 ORGAN . 


 s,2 


 = — — — = = = = SS SS = I SS 


 make in ENGLAND 


 the strife be o'er 


 — = SS ST 


 SS 7 


 2 ; 88 


 the strife be OER 


 oe 


 SESS OSS ESS - = 


 5 - 5 


 hh 


 l { | 1 


 wh 


 SS — _ 


 = — — — — — fr 3 


 the strife be o’er . 


 — — _ — — — - - _ — _ — — — — - — _ 


 the strife be o’er . 


 _ — — — - — _ _ 9 


 — > 4 — — _ _ — _ — _ _ 


 = = ES SSS SS 


 8=§=7 


 the strife be o’er 


 SS 


 = = = = = > : 2 SSS SS 


 the strife be o'er 


 — — — { — — _ _ _ _ — — — — _ + — _ » — _ » — 9-—+ 


 ss = : SS SS SSS 


 — — e = = I——-4 = so 


 the strife be o'er 


 a — _ 


 extra supplement . 


 NOVELLO ’S OCTAVO anthem 


 compose by 


 GEORGE C. MARTIN 


 73 


 19 


 331 . 


 1006 


 72 


 724 


 983 . 


 445 


 limit 


 make in ENGLAND 


 THUS SAITH the LORD GOD 


 HARVEST ANTHEM 


 compose by 


 GEORGE E C. MARTIN 


 @—97- j — = = f = — _ _ | - _ _ — # - — _ # : # 7 


 > = — £ = | 2 - 8 - 3 — — - # 


 3 - 5 - -| — -—- — — 


 ACN 


 HH 


 THUS SAITH the LORD GOD 


 _ — _ — _ — _ 


 SNL 


 ~——#- EE 


 THUS SAITH the LORD GOD 


 nn — 


 THUS SAITH the LORD GOD 


 ESS SS = = . — — — 


 THUS SAITH the LORD GOD 


 SS SS SS 


 THUS SAITH the LORD | GOD 


 SS 


 - | < xn 


 THUS SAITH the LORD GOD 


 } | — _ — x\ 


 — — — @ 40 — — 


 . J — _ — — 


 — _ — _ _ | 


 2 a 


 SS 


 10 


 — _ -\ = — 3 


 _ _ = 


 THUS SAITH the LORD GOD 


 SS 


 5 ? ° =| — _ — 


 THUS SAITH the LORD GOD 


 = — — — _ , — _ | — _ — -- — — — 


 SS 


 ( 11 


 NOVELLO ’S 


 OCTAVO edition of anthem 


 6/19 | 


 | t t 


 c= s25 = = = 5 = = = = = 5 SS = SS 


 4 a 


 1 ) make in ENGLAND 


 - ~ — t _ — — — t 7 — 


 5 = = = = : SSS = : — H 


 SHH SHEP 


 the eye of all wait upon THEE 


 — — — SSS NS SS 


 the eye of all wait upon thee 


 4 ss = ES se 


 arise , SHINE , for thy light be come 


 anthem for CHRISTMAS 


 h. a. CHAMBERS 


 CF 2 


 ¢ tenor . 


 arise , shine , for thy light be come 


 SS 


 18 


 SS 


 SS SSS 


 arise , SHINE , for thy light be COME 


 2s 


 ss 


 ARISE 


 SHINE , for thy light be come 


 ss = = { + — = — _ 


 CG 


 ss = — _ 


 n--2 


 ss = — — — =| 


 1 LN 


 ARISE , SHINE , for THY light be COME 


 sen | 


 WA 


 11 


 LI 


 41 


 SN 


 LI 


 CON 


 10 


 MIE 


 CEN 


 ARISE , SHINE , for THY light be 


 come 


 ss 


 AGN 


 ARISE , SHINE , for THY light be come 


 FULL 


 ARISE , SHINE 


 SSS 


 for THY light be COME 


 | — _ — — _ — 


 CHRISTMAS CAROL 


 1 ) make in ENGLAND 


 the coming of CHRISTMAS 


 the coming of CHRISTMAS 


 the coming of CHRISTMAS 


 extra supplement 


 NOVELLO ’S part - song book . 


 ( second serie 


 WELCOME , YULE ! 


 ANCIENT CAROL , 15TH century 


 SET by 


 C. HUBERT H. PARRY 


 — _ — . ° PI p| 


 MAOE 


 IN ENGLAND 


 WELCOME , YULE 


 399 


 extra supplement . 


 this day 


 FOR CHRIST- 


 MASTIDE 


 LONDON 


 make in ENGLAND 


 AN UNACCOMPANIED CAROL for CHRISTMAS DAY 


 this day . 


 DAY 


 ILLIAMS : 


 _ — _ _ — _ _ — — - — — _ — _ . _ 


 this day 


 0 . 397 


 se the 


 2 COND SERIE S. 


 extra supplement . 


 NOVELLO ’S CHRISTMAS CAROLS 


 BIRTH be bear to - night 


 FHOMAS ADAMS 


 for CHRI 


 ST- 


 ND COMPANY , LIMITED 


 make in ENGLAND 


 CHRISTMAS CAROL ? ' 


 : ~\ . I 0 


 extra supplement . 


 NOVELLO 'S PART - SONG book 


 A collection of 


 87 


 88 


 89 


 91 


 92 


 93 


 94 


 95 


 brbeee 


 229 


 230 


 231 


 232 


 233 


 234 


 235 


 236 


 237 


 238 


 239 


 240 


 241 


 242 


 243 


 244 


 245 


 246 


 247 


 248 


 249 


 250 


 251 


 252 


 253 


 254 


 255 


 256 


 257 


 258 


 MADE in ENGLAND 


 ( second serie . ) 


 LONDON TOWN - 


 the music compose by 


 EDWARD GERMAN . @ 


 _ _ - — — _ ; — | — { — — — _ + + 4 { — - . — _ — 2 — 


 XUM 


 LONDON town . _ 


 L_—__= _ TET 


 HI 


 extra supplement 


 SSS SSS SES 


 3=5 1 


 LONDON town 


 ( 162>- SSS ES 


 -9 = SS > SNE — — — — ee : 


 LONDON town 


 LONDON town 


 HT 


 HT 


 HH 


 - 5 — — — $ $ — - ¥ -b-9 " 


 SSS IE 


 LONDON town 


 RS 


 SEES GEE WEEE | 


 9-)——4 — — _ 


 LONDON town 


 5 - 5 


 TE 


 SS SSS 


 LONDON town 


 - = = SS : 


 _ f 


 — — — _ — _ « 


 SE SE = 


 LONDON town 


 pp- 


 * - _ ~ _ — — 


 - _ | - = — [ ee 


 OL — 


 SSS 


 ~ _ — _ — _ _ — — _ — _ _ SS 


 12 


 SOPRA 


 SOPRANO 


 LTO 


 BASS 


 NG 


 ( second serie 


 DREAM - love 


 FOUR - part song 


 word by CHRISTINA ROSETTI 


 MUSIC by 


 PERCY E. FLETCHER 


 SS 


 MADE in ENGLAND 


 dream - love 


 — _ - _ — 


 SEN 


 dream - LOVE 


 SS 


 SSCS EL A 


 SS — — — _ 


 dream - love . 


 ES ES 


 dream - LOVE 


 SS   — = 


 MY 


 XUM 


 dream - love . 


 PP — . — $ — — 


 HL 


 DREAM.LOVE 


 WT 


 to the CLAUGHTON ST . CECILIA CHORAL SOCIETY . 


 O lovely MAY 


 TRIO 


 word by HENRY WETHERED 


 compose by 


 EDWARD GERMAN 


 arrange as a trio for female voice by the composer 


 SCTE EI EARN RA LSE UEP a strate MSTA OTE 


 - — = _ _ — — — " 3 _ * = — — _ — _ _ 


 made ! in ENGLAND 


 O lovely MAY 


 nx — 3 — . ' 


 XUM 


 CNL cant cell 


 extra supplement 


 O lovely MAY 


 O lovely MAY 


 — _ — _ — — _ — — ' - — 


 LAWN 


 _ — _ _ _ _ 


 O lovely MAY ! 


 O LOVELY MAY 


 5 — + ) — — ~ — _ 


 O lovely MAY 


 _ — SSS 


 7 _ — _ — _ 


 SD 


 O lovely MAY 


 6 ? S e — — — 


 LN 


 7 ° . A 


 13 


 6 ° - SS   — — — — — — — — — — — — — — — — — — — — — —   — — — — — = = 


 " — n 12 


 ' > Q .. - i 


 extra supplement 


 NOVELLO ’S 


 a collection 


 358 


 195 


 582 


 71 


 1006 


 158 


 1 - 21 


 of 


 1254 


 1369 


 661 


 544 


 933 


 187 


 399 


 357 


 1085 


 385 


 521 


 545 


 1310 


 63 


 99 


 1307 


 878 


 639 


 402 


 584 


 1222 


 601 


 447 


 223 


 743 


 1095 


 1002 


 PART - song- book 


 PART - song 


 GLEES 


 AND 


 madrigal 


 C.H 


 MADE in ENGLAND 


 MA 


 second serie 


 RCH of the CAMERON MEN 


 the WORDS and AIR by MARY M. CAMPBELL 


 for CHORUS of mix voice ( UNACCOMPANIED ) 


 BY 


 GRANVILLE BANTOCK 


 $ — _ — — — = — — ~—_2| — : — — — ' 9 - » — — _ , — . 


 ) — 5 . 22 # 


 MARCH of the CAMERON MEN 


 S J - 


 ABE 


 MARCH of the CAMERON MEN 


 MARCH of the CAMERON MEN . 


 UL = 


 MARCH of the CAMERON MEN 


 — 2 = . — — — ~ = 3 — 


 " PE 


 ; ' I SS - — 


 MARCH of the CAMERON MEN 


 — e — — — 4 


 4 } - £ — _ @ — _ — — — — _ — — — — _ } — — 


 N * c4 2 * 


 MARCH of the CAMERON MEN 


 SS SSS 


 MARCH of the CAMERON MEN 


 2 2 


 XUM 


 MARCH of the CAMERON MEN 


 — _ _ 


 NOVELLO ’S part - song- book 


 a collection of part - song , glee , and madrigal . 


 1 - 21 


 217 


 674 


 515 


 17 


 " 81 


 478 


 3 113 


 . 101 


 20 


 _ 1074 


 - 1387 


 485 


 ~ 1102 


 1091 


 1340 


 218 


 - 1318 


 - 859 


 ' 525 


 146 


 . 796 


 1257 


 788 


 " 335 


 " 582 


 71 


 158 


 353 


 1162 


 extra supplement 


 A collection of 


 PART - song 


 1307 


 878 


 639 


 402 


 584 


 1222 


 601 


 447 


 223 


 743 


 1095 


 1002 


 and 


 272 


 1272 


 1122 


 359 


 380 


 1087 


 427 


 906 


 847 


 757 


 583 


 1255 


 731 


 1212 


 734 


 315 


 466 


 94 


 101 


 1145 


 1147 


 66 


 1199 


 314 


 967 


 668 


 102 


 1143 


 1210 


 899 


 317 


 507 


 360 


 193 


 497 


 10§2 


 671 


 1214 


 791 


 713 


 1032 


 615 


 999 


 383 


 madrigal 


 ENGLAND 


 MADE IN 


 NOVELLO ’S part - song- book 


 glee 


 second serie 


 ORPHEUS with his lute 


 four - part song 


 from the music to " HENRY VIII 


 music by 


 EDWARD GERMAN 


 arrange for mix voice by the composer 


 may be SUNG without accompaniment if desire 


 XUM 


 extra supplement 


 ORPHEUS with his lute 


 ORPHEUS with his lute 


 SAN 


 XUM 


 ORPHEUS with his lute 


 9 — h 4 — — --\~ — _ — : — — |- — -- 


 SS SS 


 ORPHEUS with his lute 


 XUM 


 ORPHEUS with his lute 


 SS 


 ORPHEUS with his lute 


 = = S= _ 


 , — $ — _ — _ — _ — _ — _ 


 PPP , D 


 EXTRA supplement 


 the LONDON MUSICAL COMPETITION 


 festival . 


 1921 


 CHORAL society . 


 CHAPEL CHOIRS . 


 HEW 


 W. N 


 1921 . 3 


 ELEMENTARY school orchestra 


 TRINITY COLLEGE scholarship . 


 BEDFORDSHIRE EISTEDDFOD 


 PEOPLE ’s PALACE ( EAST LONDON 


 EVENING institute 


 VARI0US CLASSES 


 ELEMENTARY SCHOOLS 


 the school MUSIC 


 iiasting 


 1sstring trio and three string quartet compete in 
 chamber music by Haydn , Mozart , and Frank Bndge . a 
 special prize for string quartet be offer by Mr. T. S 

 Henderson , an enthusiastic viola - player and propagator of 
 chamber music , for which he set part of Beethoven ’s ninth 
 ( Quartet . this be play with uncommonly good exsemdie 
 by four amateur whom Miss Annie Kenwood have carefully 
 train . remain class vocal duet and 
 quartet , pianoforte accompaniment , amateur composition , 
 girl guide , ear - test , action - song , and elocution 

 on the first day Mr. Ernest Fowles lecture on ' great 
 iritish Composers , ' to the considerable entertainment and 
 instruction of his hearer 




 PLYMOUTH 


 299 


 GREENOCK 


 XUM 


 WS 


 extra supplement 


 the SOUTH - EAST LONDON FESTIVAL 


 E. CLEITH HILL.—April 12 and 13 

 among the village around Dorking and Leatherhead the 
 practice of choral singing have be foster for many year 
 by this little model Festival , hold this year for the twelfth 
 time . a feature be make of bring everybody together at 
 the end of a day ’s competition for a concert of orchestral 
 music , good solo - singing , and massed choral performance . 
 on the first evening a chorus compose of choir from 
 Coldharbour , Ewhurst , Fetcham , Headley , Holmwood , 
 Mickleham , Peaslake , and Shalford sing some of the day 's 
 test piece , include Holst ' ’s ' turn back , o man ' and 
 Dowland ’s ' his golden lock . ' song be give by Miss 
 Lucia Young , al an orchestra play Beethoven ’s seventh 
 Symphony , Butterworth ’s ' bank of green willow , ' and 
 Ravel 's ' Pavane . ' at the second concert choir from 
 Abinger , Albury , Blackheath , Brockham , Capel , North 
 Holmwood , Shere , and Westcott join in Bach ’s cantata , 
 ' Bleib bei uns , ' with Miss Muriel Marshall , Mr. J. Steuart 
 Wilson , and Mr. Frederick Taylor as soloist , and the 
 Symphony be repeat . on each occasion Dr. Vaughan 
 Williams , a local resident , be the conductor . the 
 competition be judge by Mr. Geofirey Shaw and Mr. 
 Steuart Wilson 

 2 the school music 




 CORRIGENDUM 


 XUM 


 14subscription form 

 THAYER 'S LIFE of BEETHOVEN 

 the first english edition . correct , revise , and edit by 
 H. E. KREHBIEL 

 the good biography of Beethoven , although it be originally write in English , have hitherto be 
 obtainable only in German . 
 this be the work of 

 ALEXANDER WHEELOCK THAYER 

 not only have the work be complete , but an english edition , with the desire condensation , will 
 shortly be publish by or under the auspex of 

 the BEETHOVEN ASSOCIATION of NEW YORK , U.S.A 

 the english edition have be revise and correct by Henry Edward Krehbiel , the well - know critic 
 ind musical scholar of New York , from the original manuscript and other material entrust to he by 
 Mr. Thayer ’s heir , and use in the spirit and with the purpose indicate by the author before his death 

 the Edition will be publish in December , 1921 

 by arrangement with the Beethoven Association of New York , Messrs. Novello & Company have 
 undertake the publication of the work under a sole Agency contract for Great Britain and the Colonies 
 other than Canada ) , and they have receive a definite promise from the Association that copy will be 
 deliver in London not later than December next . the price of the work ( three Volumes ) be £ 5 5 . net . 
 a limited number of copy will be supply to subscriber use the attached order Form 

 not later than JUNE 30th inst . — 
 at £ 3 13 . 6d . net . 
 colonial subscription , other than canadian , post before July 20th prox . , will be accept , provide 
 sufficient subscription copy be available when the subscription be receive by the publisher 




 SUBSCRIPTION order formsee exception in favour of Colonial subscriber , as above 

 to Messrs. NOVELLO & COMPANY , LIMITED , 
 160 , WARDOUR STREET , 
 LONDON , w.1 . 
 DEAR sir , 
 please enter my name on your subscription List for one copy ( three Volumes ) of THAYER ’s 
 " LIFE of BEETHOVEN , " correct , revise , and edit by Henry Edward Krehbiel , to be deliver to I in 

 or about December , 1921 , on receipt of which I undertake to remit the subscription price , viz . , £ 3 13s . 6d , 
 yours faithfully 




 EL EE TE LT EIT i et io CT = 


 EXTRA SUPPLEMENT 


 PEOPLE ’s PALACE ( EAST LONDON 


 the SCHOOL MUSIC 


 INSTRUMENTAL 


 the SCHOOL MUSIC 


 review — JUNE 1 , 1921 


 MORECAMBE . 


 [ from our correspondent 


 NORTH nott 


 WIRRAL and EDDISBURY 


 the SCHOOL MUSIC 


 EXTRA supplement 


 FEMALE - voice choir . 


 BRISTOL EISTEDDFOD 


 2 the SCHOOL MUSIC 


 EDINBURGH 


 FEMALE - voice choir . 


 SCHOO 


 ADULT CHOIRS 


 WORCESTERSHIRE 


 MANCHESTER ORPHEUS GLEE SOCIETY 


 1903 . 


 XUM 


 EXTRA SUPPLEMENTBLACKPOOL FESTIVAL.—October 18 - 22 

 several feature of this syllabus deserve comment . for 
 the first time all the pianoforte music have be choose from 
 the work of native composer — John B. McEwen , Felix 
 Swinstead , York Bowen , and Benjamin Dale having be 
 draw upon . the latter ’s ' night fancy ' be the test in a 
 new open class for adult player . in the string class Bach , 
 Mozart , Bazzini , Grétry , Boyce , and Elgar be use , and early 
 work of Beethoven in the trio and quartet class 

 the conclude day should furnish some superb singing 
 in the mixed - Voice Challenge Shield Class , where Bach ’s 
 motet , ' sing ye to the Lord , ' be the test , two movement 
 be sing by each choir in the afternoon , the four good each 
 be privilege to sing the complete work in the evening . 
 an adjudicate bench which embrace Sir Hugh Allen , 
 Mr. Frederic Austin , Mr. Walter Nesbitt , and Mr. 
 C. Kennedy Scott may claim high distinction for 
 competence in judgment on Bach performance . the 
 music in the Female - Voice Class be well off the beat 
 track — an early , strongly individual ' Impromptu ' by 
 Sibelius , and Mr. McNavght ’s adaptation of the Rhine- 
 maiden ’ music from ' Rheingold ' and ' Gétterdimmerurg ' 
 be prescribe . both conductor and singer will in 
 these thing be compel to study the accompaniment no 
 less than the voice part . too frequently in accompany 
 work at competitive festival the accompaniment have be 
 regard as a thing of quite secondary importance , where 
 it should have have real salience . other very interesting 
 choral work be include in the final day ’s scheme , and 
 string orchestra have the opportunity for gain acquaint- 
 ance with a suite draw from the dramatic work of Purcell . 
 but the chief claim to distinction in this syllabus be the 
 abandonment of the old line on which for many year the 
 solo - singing class have be conduct . the sub - division 
 of each voice into lyrical and dramatic class serve its 
 day ; last year the entry be quite unwieldy . repetition 
 of fine song may be tolerate up to a point , but when the 
 entry run into hundred human nature rebel 




 NORTH OF ENGLAND MUSICAL TOURNAMENT 


 EXETER EISTEDDFOD 


 CORNWALL 


 DEVON 


 CLEETHORPES 


 LEAMINGTON 


 C. E. G. 


 the BLACKPOOL GLEE and MADRIGAL 


 SOCIETY 


 WESTMORLAND FESTIVAL , I9I0 


 GENTLEMEN 's CONCERTS , MANCHESTER , 1914 , 


 advice TO SOLO SINGERS 


 popular PIANOFORTE album 


 FOR young performer 


 HUBERT BATH ERNEST NEWTON 


 DOLL’S - HOUSE SUITE WOODLAND DANCES 


 FRANCESCO BERGER HUBERT G. OKE 


 eighteen little piece } three piece 


 EDMONDSTOUNE DUNCAN | SCHUMANN 


 happy thought _ piece for the young 


 ARNOLD KRUG SCHUMANN 


 TEN LITTLE piece three pianoforte sonata 


 ARNOLD KRUG CLEMENT M. SPURLING 


 scene from FAIRY - LAND SIX short and easy piece 


 th . KULLAK CLEMENT M. SPURLING 


 twenty - four piece 


 our village in SUMMER 


 MAX MAYER E. A. SYDENHAM 


 BAGATELLES six short and easy piece 


 MENDELSSOHN TSCHAIKOWSKY 


 SIX CHRISTMAS PIECES CHRISTMAS ALBUM 


 FRANCESCO BERGER 


 FIRST step at the PIANOFORTE 


 PRICE FIVE shilling 


 NG 


 review 


 extra supplement 


 federate the festival . 


 2 the school MUSIC R 


 BLACKPOOL MUSICAL FESTIVAL 


 47 


 the SOUTH - EAST LONDON FESTIVAL 


 VAL . 


 extra supplement 


 MANCHESTER as a competition 


 centre , 


 ( from a correspondent 


 1921 


 full orchestra 


 string orchestra . 


 other choral competition 


 from a correspondent . ) 


 NOVELLO 'S CLASSICAL 


 SONGSLowe Parts tn Stay and Tonte Sol- -fa 
 thirty - five 
 Al Mendelssehu 
 Mendelssohn 
 Handel 

 Handel 
 Giordani 
 Mozart 
 Schumann 
 Beethoven 
 Schubert 
 Mendelssohn 

 Purcell 
 Mendelsschn 
 Schubert 




 VOLUME 


 classicalhark ! hark ! the lax Schubert | whither 
 hear th ny weep Handel | who be Sylvia ? 
 hey , Bal Schumann 
 y a ) 
 VOLUME ii . 
 -t. rrvtr r 
 fhirty - six classical song 

 angel , ever bright and fa .. Handel | Lord , at all time I will bless thee .. 
 Ave Maria . on ' ' , Schubert | lotos flower , the 
 bird be softly calli : \ . Mendelssohn | o star of Eve ese 
 blow , blow , thou winter wind a Arne | old german Spring song ( Frithlingslied 
 by Celia 's Arbour ( the Garland Mende Issohn | on wing of song 
 come of Spring , the Schumann | rose among the heather 
 Cradle Sony Schubert | sail ; song , the 
 Evening Star , the Schumann Slumber , beloved 
 Fisher 's Song Schubert smile dawn of happy day , the 
 free mind , the Schumann | thou art repose 
 Garland , the ( by Celia ’s Arbour I a Issohn | though far away a 
 Gemtle zephyr Sterndale Bennett | thou'rt like unto a flower 
 Holiday on the Rhine , A Schumann | to music ... 
 Hunts man , rest Schubert | trust in Spring 
 I love thee Beethoven | two Grenadiers , the 
 Toy « Phe Mendelssohn | Wanderer 's night - Song 
 know ’ st th the land Beethoven | where'er you walk 
 Lay of the impri 1 ] ul Schubert | where the Bee suck ... 
 Litany Schubert 

 VOLUME III 




 THIRTY- . IGHT classical SON 


 VOLUME 


 THIRTY CLAS 


 IV 


 SICAL song . 


 PRICE three shilling EACH volume 


 LONDON 


 NOVELLO and COMPANY 


 LIMITED 


 song 


 g 


 extra supplement 


 review 


 the WELSH MUSICAL FESTIVAL 


 1921 


 MANCHESTER as a competition centre . 


 A MANCHESTER EISTEDDFOD . 


 29 


 JUVENILE choir . 


 CONGREGATIONAL choir . 


 MALE - voice choir . 


 mix - voice choir 


 forthcome festival 


 1921 


 1922 . 


 27 - 29