


 RICE 


 XUM 


 the MUSICAL time 


 and singing - class circular 


 publish on the first of every 


 month 


 SEPTEMBER 1 , 1881 


 ORFOLK 


 N TRIENNIAL 


 HER most gracious MAJESTY the QUEEN . 


 principal work : 


 WEDNESDAY MORNING.—THE MARTYR of ANTIOCH 


 ‘ the SIR JOHN " GOSS exhibition . — t HE 


 ONDON SUNDAY SCHOOL CHOIR . — 


 OF 


 R SCHARY 


 BUSH 


 BASSES , 


 70 . 


 _ 74 


 XUM 


 XUM 


 ME 208 HIL ES 


 NTERPOINT 


 PU plication « 


 444 


 sirst - class PIANOFORTE TUNER 


 Y , 20 


 o first - class PIANOFORTE house . — 


 uthor ’ work correct , revise , 


 XUM 


 XUM 


 1881 . 445 


 M EL BOURNE exhibition , 1881.—first 


 th E 


 VIOLIN and BOW 


 maker and repairer 


 GEORGE WITHERS & CO . 


 WHOLESALE importer 


 MUSICAL S TRIN CS 


 A fine collection of italian instrument . 


 BUTLER S MUSICAL instrument 


 MALEY , YOUNG & OLDKNOW 


 ORGAN BUILDERS , 


 KING ’S ROAD , ST . ‘ PANCRAS , N.W 


 JAMES CONACHER and son , 


 ORGAN BUILDERS , 


 BATH BUILDINGS , HUDDERSFIELD 


 NEW MUSIC - E NGRAV ING 


 steam printing ) 


 exhibit in 


 50 per cent . CHEAPER 


 » , HATTON GARDE N , LONDON , E.C. 


 now ready , NE W E dition of 


 » 2 SACRED music with english word . 


 » 3 » music with VOCAL and ORCHESTRAL 


 part . 


 4 . MUSIC for the PIANOFORTE . 


 » 5 secular VOCAL music . 


 SACRED MUSIC with LATIN word . 


 12 , BERNERS STREET , LONDON , W 


 GIVERS and . " ENTREPRENEURS 


 GENERALLY . 


 to CONCERT.G 


 to the clergy 


 CHU RCH FI stival 


 CHOIR - boy 


 orchestra and choir . 


 AGNES ZIMMERMANNBRRHWWHDASRWHr 
 a 

 two piece ti no . 2 nshine ... . » each O ) 
 oe see 6 
 ngec d for yr Org van by y ‘ J. Stainer . net 6 
 k 0 . 1 . caprice . no . 2 " Auf dem Wasser . 
 ; a = we each 3 0 
 j ise wes asa ' 2 0 
 ein e minor . op . 20 = e oe ie 3.0 
 2 , Sarabande , and Gigue 4 0 
 arrangement . 
 menuetto from Haydn ’s quartet in D minor eg Pe 
 Corelli ’s Sonata in e major , compose for the Vi ‘ olin , arrange 
 for Piano Solo .. vee ove wae wn oe 6 
 Bourrée in £ 9 , by J. S. Bach 2 6 
 Bourrée in C , by J. S. Bach 2 6 
 Gavotte in G , by J. S. Bact a 6 
 wae a certo . compose for the Harps sichord or Organ , by 
 . Handel ... , 5 0 
 no . : 5 R. Schumann 's Skizzen fir den Pedal F el ( Sketches 
 _ for the Pedal Piano ) .. . 3 0 
 stto alla polacca , fror n Beethoven ’ s Se renade , op . 8 , for 
 ‘ iolin , Viola , and Vi iol oncel 3.0 
 Scherzo from Beethoven ’s trio , ' fo r Violin , ' Viola , and Violon- 
 cello , op.9 , no.1 .. : ' 3.0 
 M etto from ditto , ditto , op . 9 , no . 2 aes 3.0 
 ) etto from Schubert 's Quartet , op.29 ... 3 0 

 sell at half - price 




 LONDON : LLO , EWER and CO 


 XUM 


 447 


 HARVEST anthem & hymn 


 WWW ADA 


 twelve hymn with tune | 


 HARVEST 


 select from the hymnary . 


 price one 


 PENNY 


 O sing unto the LORD 


 FULL anthem for four voice 


 H. — — anthem 


 new anthem for HARVEST festival 


 THOU , o ) GOD , art _ praise d an sion 


 J. G. CALLCOTT . 


 easy full harvest anthem . 


 [ will extol THEE , o GOD , my king 


 UNTO the l 


 nedicite . 


 for SOLO voice , CHORUS & ORCHESTRA 


 HARVEST 


 THANKSGIVING MARCH 


 for the organ 


 ALBERT LOWE ’s HARVEST anthem . 


 ALBERT LOWE 's HARVEST carol . 


 HOL ¥ be the seed - time 


 J. S. BACH ’S 


 N all the major and minor key 


 W. T. BEST 


 on of 


 REDUCTI 


 price 


 NOVELLO ’S 


 SELECT ORGAN piece 


 NOVELLO ’s 


 melody for 


 ORG 


 SHORT 


 the 


 448 


 TRINITY COLLEGE , LONDON 


 class and lecture 


 local examination in 


 elementary MUSICAL knowledge . 


 HIGHER examination in MUSIC . 


 CHAMBER MUSIC COMPETITION , 1881 . 


 PRIZE essay on a musical subject , 1881 


 the CALENDAR 


 the MUSICAL time _ 


 scale of term for advertisement 


 to be perform at the WORCESTER FESTIVAL 


 the BRIDE 


 A CANTATA 


 compose by 


 A. C. MACKENZIE . 


 price one shilling and sixpence . 


 the WIDOW of NAIN 


 SACRED CANTATA 


 for SOLI voice and CHORUS 


 by 


 SEPTEMBER 7 ) , 


 NORFOLK and NORWICH MUSICAL FESTIVAL , 1881 


 the 


 SUN WORSHIPPERS 


 A CHORAL ODE . 


 CHARLES NEWTON SCOTT 


 A. GORING THOMAS . 


 PRICE one shilling and sixpence . 


 SALVATOR MUNDI 


 A SACRED CANTATA 


 the music compose by 


 XUM 


 XUM 


 449 


 the MUSICAL time 


 AND singing - class CIRCULAR . 


 SEPTEMBER 1 , 1881 


 promenade concert 


 450 


 CLEMENT MAROT and the HUGUENOT 


 | PSALTER . 


 | IV 


 XUM 


 XUM 


 613 


 452 


 63 , 64 , 65 , 67 , 111 


 142 , 144 


 XUM 


 XUM 


 453 


 the great composer , sketch by 


 THEMSELVES . go on to Breslau , our master be somewhat 
 disquieted by the coldness of the public at certain con- 
 cert which he attend before give hisown . onone 

 ance of Beethoven ’s " c minor , " and Berlioz augur 
 from this a fiasco for himself . ' ' you be mistaken , " 
 say an enthusiastic lady amateur , who lack finesse , 
 " the public admire the chef d’euvre of the great 
 master as much as possible , and if they do not 
 applaud , it be out of respect . ’' Berlioz be too keen 
 a humorist not to appreciate this explanation . he 
 add , ' I be much afraid of be respect , but 
 happily without occasion , for at my concert the 
 assembly , to whose respect I doubtless have no 
 adequate claim , think it a duty to treat I after 
 the vulgar usage adopt all over Europe towards 
 popular artist , and I be applaud in a fashion the 
 most irreverent 

 during the whole of this tour our master be busy 
 with his ' * Damnation de Faust , " the libretto of 
 which he have write himself , or rather complete , 
 since portion of a translation of Goethe ’s lyric by 
 Gerard de Nerval , set to music by Berlioz twenty 
 year early , and two or three scene by Gandonniére , 
 be incorporate in the work . Berlioz find it 
 easy to be at once poet and composer . he write 
 word and music with unexampled facility , take 
 advantage of every opportunity , in season or out of 
 season , to push on with the task 




 XUM 


 455 


 456 


 the MUSICAL TIMES 


 SEPTEMBER i , I88I 


 MUSIC for the PEOPLE 


 XUM 


 457 from this post he be 
 recently , with four other , discharge ( in order to 
 reduce the expense of the establishment ) , and be now 
 without employment or mean . he be earnestly 
 | desirous of resume his profession as a teacher of 
 |music . sincerely indeed do we echo the word of 
 the writer of the notice forward to we : ' can 
 | nothing be do to give he a lift in that direction 

 some time ago we draw attention to the fact of a 
 ' ' Beethoven Laundry " be establish at Kilburn , 
 and of a street in the immediate neighbourhood 
 be also name after the great composer . why 
 this particular spot should have be select for 
 such an honour we have never be able to discover ; 
 but it must be regret that so excellent an example 
 should not have be follow in other part of the 
 metropolis . we do not desire that more laundry 

 458 

 the MUSICAL TIMES.—Sepremper 1 , 1881 

 should be identify with the name of an eminent 
 musical artist ; but it do appear strange not only 
 that none of our modern square or street should 
 be dedicate to the memory of the world ’s composer , 
 but that no project for place a statue of one in 
 some open public space should even be moot . as 
 a proof that such a custom prevail in country at 
 least presume to be not more musical than our own , 
 it may be mention that the Philharmonic Society 
 of New York have recently open a subscription for 
 a statue of Beethoven , which be to occupy a pro- 
 minent position in the Central Park . now con- 
 sidere how much we pride ourselves upon a know- 
 ledge of and love for this composer ’s work ; and , 
 moreover , with the recollection of the good office 
 perform by our Philharmonic Society in commis- 
 sione he to write for english audience , it be 
 scarcely credible that we should allow the Americans 
 to be beforehand with we in pay so obvious a 
 mark of respect to his memory . but even suppose 
 that we be patriotic enough to glorify only those 
 born on british soil , surely Purcell and some few 
 other of the old english composer might be con- 
 sidere worthy of such national recognition ; and we 
 could also name some more modern writer of whose 
 composition we have just cause to be proud . there 
 can be no reason why we should not erect statue in 
 our public thoroughfare to the great hero of war ; 
 but surely some such testimonial of gratitude might 
 be spare for the great hero of peace 

 one of the most earnest worker in the cause to 
 which our own journal be devote have drop from 
 the rank ; and not only in the new world , where its 
 labour be carry on , but in other country where 
 it have long earn the respect of art - lover , this 
 loss will be deeply feel . Dwight ’s Fournal of Music , 
 publish at Boston , in the United States , be one 
 of those periodical which , whilst reflect the 
 opinion of the editor , be ever ready to admit the 
 matured thought of those whose object be to 
 promote the healthy progress of the art . it may le 
 that , as it hold itself aloof from personal conflict , 
 other journal more exciting in character find 
 great favour with the majority of reader ; or it 
 may be that the editor , tired of his weary work of 
 twenty - nine year , wish to retire upon his well- 
 win fame . at all event , in a few pathetic sen- 
 tence , the announcement appear in the Fournal for 
 July 16 that with one more number the publication 
 end ; and by this time , therefore , Dwight ’s Fournal 
 of Music be a thing of the past . we should be 
 sorry to believe that , as state in his farewell word , 
 Mr. Dwight be compel to bring to an end so 
 excellent a journal solely from want of patronage ; 
 and can not but think that have he desire to continue 
 what must be to he a labour of love , mean would 
 have be find in so artistic a city as Boston for 
 supply he with sufficient fund for the purpose . 
 but as in the conclude sentence of his address he 
 tell we that he have " ' no heart to ask or to accept 
 further guarantee from friend , " we fear that the 
 resolution he have take be irrevocable ; and can only 
 therefore couple the expression of sorraw we feel 
 at say farewell to so old and valued a compatriot 
 with a sincere hope that he may long live to enjoy 
 that repose from his duty which we should have 
 prefer to find more amply rewarded 

 by the medical profession , and certain rule lay 
 down for the treatment of such case as would be 
 likely to yield to its influence . we have recently 
 hear of a doctor who , find his patient in a state 
 of confirm melancolia , manage to induce she to 
 try over some of the music for which she have an 
 especial fondness in former year , and thus not only 
 restore she temporarily to comparative cheerfulness , 
 but , by prescribe a repetition of this medicine — and 
 see that she obey his direction — at each of his 
 visit , manage in an almost incredibly short time 
 to effect a permanent cure . of course in this case , 
 and in all other of which we have hitherto hear , 
 the remedy act indirectly upon the nervous system , 
 and almost unconsciously the patient be relieve . 
 but we now find that the curative process be more 
 directly apply . M. Vigouroux , a I’rench surgeon , 
 it be say have obtain the mitigation of pain by 
 administer a recurrent series of sound - wave , by 
 mean of a tuning - fork and a sounding - board , to the 
 affected part . upon this method M. Bondet have 
 devise an important improvement . a tuning - fork 
 be keep in constant vibration by mean of an electro- 
 magnet , and the undulation be communicate to 
 the skin by mean of a rod . neuralgia be thus 
 remove in a few minute , and anesthetic effect be 
 induce by a long action . we be glad to find 
 that this important matter have now assume so 
 practical a form , and look forward with much 
 interest to the record of its further development 

 Tue Sacred Harmonic Society ’s Concerts commence on 
 November 11 . the series will include performance of 
 Handel 's ' " ' Judas Maccabzeus , " " Messiah , " ' ' Solomon ; " ' 
 Macfarren ’s " St. John the Baptist ; ’' Mendelssohn ’s 
 * ' Elijah ' ; Gounod ’s ' ' Messe Solennelle " ; Beethoven 's 
 ' Mount of Olives " ; Sullivan ’s ' * Martyr of Antioch ’' ; 
 Haydn ’s * Creation " ; and Costa ’s * Eli 

 Tue twenty - fourth season of the Monday popular 
 Concerts will commence on October 31 , and continue , 
 with the usual break at Christmas , until April 3 , 1582 , 
 in all twenty - one concert . twenty Saturday concert 
 will also be give , commence on November 5 and ter 
 minate on April 1 , 1882 

 Durinc Mr. Carl Rosa ’s season of English Opera at 
 her Majesty 's Theatre , commence in January , 1882 , in 
 addition to four of Wagner ’s work , it be announce that 
 he will produce an Opera by Balfe , call ' the Painter of 
 Antwerp . " the libretto , originally write in Italian , 
 will be adapt into English by Mr. W. A. Barrett 

 Tuer Philharmonic Society begin its seventieth season 
 on February g , 1882 . eight concert will be give , the 
 prospectus include Beethoven ’s ' Choral ' ? Symphony , 
 Berlioz ’ * * Return to Life , " Rubinstein ’s ' ' Paradise lose , " ' 
 and a new work compose expressly by Raff 

 we be inform that Herr Franke , who have recently 
 be with Herr Richard Wagner at Bayreuth , have arrange 
 with he to hold the exclusive right to the performance of 
 the ' " Meistersinger ' ? in England and America in 1882 , 
 1883 , and 1884 




 xum 


 xum 


 459 


 review 


 460as the author of this book tell we in his preface that it 
 be a question whether he should not have entitle the 
 volume ' ' Phases of Unmusical England , " it may be 
 imagine that he do not give a remarkably glowing 
 description of our progress in the art . but we be glad to 
 say that he have hope for we ; for , although at present 
 music in this country be ' fetter with somewhat serious 
 obstacle , " he be of opinion that ' under the new order of 
 thing — a right system of musical education , " these will 
 disappear . whether Mr. Crowest imagine that this 
 ' * new order of thing " ? will be materially promote by 
 the publication of the work before we we can not say ; but 
 as he devote so much of the book to gossip article 
 upon matter which have but small relation to artistic 
 progress — such , for example , as ' ' Encores and Encoring , " 
 * * Street Music , " ' * Pianofortes on the Three- Years System , " 
 " Women and Music’’—we can scarcely think that the 
 cause he advocate will be either urge forward or im- 
 pede by his effort . yet he be in earnest when he really 
 do go to work upon the abuse of the art . we tremble 
 as we approach the chapter upon " Musical criticism , " ' 
 for we be meet on the threshold by this definition : ' * a 
 Critic.—Fancy . an embodiment of one ’s own wonderful 
 ability , many other people ’s besides , and his own clever- 
 ness " ' ; and , to anybody who can thoroughly understand 
 the author ’s meaning , we may imagine that this would be 
 extremely crushing . but it be our duty to go forward ; 
 and far on we be tell that as ' ' musician do not 
 spring up on english soil near so rapidly | as do capitalist , 
 clergyman , shopkeeper , and mechanic , " it be the office of 
 critic to help forward the musically ignorant . well , 
 we have always imagine that this , to a great extent , be 
 be do by the musical press ; but Mr. Crowest seem 
 to have discover that , as a rule , the critic be either 
 too learned or too ignorant , the former class , amongst 
 other display of their knowledge , invariably make re- 
 ference to the tympani , corni , and other italian name 
 for musical instrument , instead of the more homely 

 english word ' ' drum " and ' " ' horn ’' ; and the latter 
 cover their want of information by the use of such 
 phrase as , ' ' Miss Somebody ’s singing be ' throaty , ' 
 and Mr. Somebody else ' lack both tone and execution 
 in his playing , ' " give , as a final example , that a writer 
 once say ' Herr play Beethoven ’s Sonata in 
 three sharp with his accustomed ability , " with reference 
 to which sentence Mr. Crowest remind his reader that 
 ' the key of F sharp minor be also indicate by the signa- 
 ture of three sharp , " forget , we presume , that the critic 
 under correction never assert that the Sonata be in A 
 major . weare not so much inform in this chapter how 
 criticism should , as how they should not , be write ; but 
 as the author tell we that " the plan of bring over to 
 this country artist of all kind and size , physically and 
 artistically , have be well test , " we suppose that he 
 would wish those who notice the vocal or instrumental 
 talent of foreign artist to allude also to their height and 
 weight . the chapter on ' " Church Music " contain many 
 acute observation upon the manner in which the service 
 be perform in the various english church , mix up 
 with other which , however good in theory , can have no 
 relation to the practical part of the subject . indeed , when 
 the author tell we he be ' ' scarcely sanguine that it would 
 be possible to devise a service which , in its musical 
 bearing , would commend itself to all party , ' the 
 sentence which follow — that this ' ' should not prevent 
 step be take which would perhaps go far towards 
 consolidate and strengthen Church party and to 
 heal difference which be to a great extent imaginary " 
 — seem simply absurd , for the very difference which be 
 ' imaginary ' ? to some be of vital importance to other ; 
 and the good we can do , therefore , be to cultivate 
 mutual forbearance and respect . but it be in the article 
 head ' Musical Commercialisms " ' that the author 
 most decisively speak out ; for here he not only 
 enumerate several grievance , but suggest a remedy 
 for they . admit that we have now cheap edition of 
 the standard oratorio , masse and opera , he fall foul 
 of the ' ' sheet - music , " which he say be always mark at 
 an absurdly high price , although he afterwards tell we 
 that , as it be sell at half the sum which appear on the 
 title - page , this be ' really feel in theory only , and not in 
 practice , which after all be the thing to be chiefly con- 
 sidere . " ' we be perfectly ready to agree with he that 
 this custom should be abolish ; but when he go on to 
 say that the back of the title - page of a song be leave 
 blank , another blank occur on the last page but one , 
 and the outside page be appropriate to the publisher ’s 
 advertisement , constitute a fraud upon the purchaser , 
 because he do not receive his music at a shill a sheet , 
 we can not but think not only that he have forget the 
 fact of sheet - music be sell at half - price , but that he 
 argue upon the ' shill a sheet " tiseory without inform- 
 e himself whether any such compact really exist between 
 the publisher and the public . the grave charge , however , 
 that he bring against those who issue cheap oratorio to 
 the public be that they be " inaccurate , inartistic , and 
 misleading . ' ? our reader will , we be certain , be glad to 
 know how he prove this , and we hasten , therefore , to 
 inform they . Mr. Crowest possess a copy of Haydn ’s 
 " creation , " and — utterly disagree with the manner in 
 which the Recitative ' ' and God say , let there be light in 
 the firmament , " be write , which he say be ' ' due almost 
 wholly to editor and publisher ’' — propose an arrangement 
 of his own , and tell we that this isthe manner in which the 
 piece would ' rightly stand . " the well - know passage in 
 the ' * Messiah , " * * behold , and see if there be any sorrow , " 
 he affirm be , as print , ' ' simply nonsense . " the word 
 " behold " should not be ' ' follow by a blank , with a subse- 
 quent strange outbreak , ' and see ' ; but only unite the word 
 ' behold and see , ' and the meaning be at once apparent . " 
 have Mr. Crowest sufficiently study this passage he 
 would have see that when , at first , the composer wish 
 the word ' ' behold " ' to be sing as an exclamation , he place 
 a rest after it ; but in the follow bar , where he de- 
 sire the word ' ' behold and see " to form one phrase , 
 he note it accordingly . the beautiful recitative , ' ' thy 
 rebuke hath break his heart , ' too , in the ' Messiah , " 
 Mr. Crowest rearrange , and moreover coolly assure we 
 that a young ' ' musical apprentice " would have shape it 

 xum 




 xum 


 TENOR SOLO and CHORUS 


 from the ANTHEM , " all they that trust in THEE " ( PSALM 125 . ) 


 A 2 


 222 SSE 


 ROUND JERUSALEM STAND the MOUNTA 


 AINS 


 QD — 


 XUM 


 XUM 


 SS 


 XUM 


 XUM 


 ROUND JERUSALEM STAND the mountain 


 } ULL 


 SSS 


 466 


 one SHILLING EACH 


 THOMAS ANDERTON . 


 ( he WRECK of the HESPERUS 


 E. ASPA . 


 the GIPSIES . 


 ASTORGA . 


 STABAT MATER . 


 BACHOD GOETH up with shouting . 
 GOD ’s time be the good . 
 my spirit be in heaviness . 
 O light EVERLASTING . 
 BIDE with US . 
 A STRONGHOLD SURE . 
 MAGNIFICAT . 
 J. BARNBY 

 BEETHOVEN 

 ENGEDI , or DAVID in the wilderness . 
 mount of olive . 
 MASS in C ( Latin Worps ) . 
 MASS in C ( latin anp ENGLISH ) . 
 RUINS of athen 




 INTERNATIONAL EXHIBITION ODE , 1862 


 REBEKAH 


 BRAHMS . 


 A SONG of DESTINY . 


 CARISSIMI . 


 JEPHTHAH . 


 CHERUBINI 


 SIR M. COSTA , 


 the dream 


 NIELS W. GADE . 


 CHRISTMAS EVE . 


 the ERL - KING ’s daughter . 


 HERMANN GOETZ . 


 BY the water of BABYLON 


 NCENIA . 


 CH . GOUNOD . 


 the SEVEN word of our saviour on the 


 daughter of JERUSALEM 


 GALLIA . 


 J. O. GRIMM . 


 the soul ’s aspiration 


 HANDEL . 


 DETTINGEN TE DEUM . 


 UTRECHT JUBILATE . 


 O praise the LORD with one consent . 


 ACIS and GALATEA . 


 HAYDN . 


 SPRING . SUMMER . AUTUMN . WINTER . 


 LONDON 


 DR . HILLER . 


 A song of victory 


 G. A. MACFARREN 


 MAY day . 


 MENDELSSOHN . 


 | as the HART pant . 


 | come , let we sing . 


 | when ISRAEL out of EGYPT come . 


 not unto US 


 LORD , how long wilt thou forget I 


 hear my prayer 


 the first WALPURGIS night 


 MIDSUMMER night ’s dream 


 CHRISTUS 


 to the son of art 


 MEYERBEER 


 MOZART 


 PERGOLESI 


 ROMBERG . 


 the transient and the eternal . 


 ROSSINI 


 F. SCHUBERT . 


 SONG of MIRIAM . 


 MASS in G 


 R. SCHUMANN . 


 ADVENT HYMN , " in LOWLY guise . " 


 MANFRED . 


 NEW YEAR ’S SONG 


 E. SILAS . 


 MASS IN C. 


 ALICE MARY SMITH . 


 ODE to the NORTH - EAST WIND . 


 SPOHR 


 the last judgment . 


 GOD , thou art great . 


 the CHRISTIAN ’s prayer . 


 HYMN to ST . CECILIA 


 A. SULLIVAN . 


 FESTIVAL te deum 


 C. M. VON WEBER . 


 JUBILEE CANTATA 


 S. WESLEY . 


 DIXIT DOMINUS . 


 S. S. WESLEY 


 o LORD , THOU art my GOD 


 NOVELLO , EWER " and CO 


 XUM 


 XUM 


 467 


 468 


 foreign NOTESHermann Goetz ’s posthumous opera , ' ' Francesca da 
 Rimini ' ? be produce on the 11th ult . at the Leipzig 
 Stadt - Theater where it be , however , but coldly receive . 
 in the opinion of competent critic the friend of the 
 gift composer of ' * the Taming of the Shrew " have 
 render a doubtful service to his memory by bring 
 to light this unfinished and unequal dramatic work 

 Professor Maria von Bocklet , a well - know musician 
 and teacher of the pianoforte at Vienna , die in that city 
 at the age of eighty . he be a pupil of Beethoven 

 the Neue Zeitschrift fiir Musik have the follow : 
 ' ' Anton Rubinstein , having recently be entreat by 
 some of his friend to play during the come season at 
 Vienna , the great virtuoso state in reply that he intend 
 to undertake but one more concert - tour in England , and 
 then to withdraw from performance in public altogether 




 XUM 


 XUM 


 469Leipzig.—At St. Thomas ’s Church ( August 6 ): Motett , " Panis 
 angelicus " ( Palestrina ) ; " ich liebe , weil erboret , " Motett ( Rhein- 
 berger ) . at St. Thomas 's Church ( August 20 ): " Herr , wer wird 
 wohnen , " Motett for chorus and soli ( Hauptmann ) ; Misericordias 
 ( Durante 

 Marburg.—Academical Gesangverein ( July 28 ): Motett , " Ich lasse 
 Dich nicht " ( Bach ) ; air , " Jessonda " ( Spohr ) ; Schicksalslied 
 ( Brahms ) ; Choral Fantasia ( Beethoven ) ; finale , ' * Loreley " ( Men- 
 delssohn ) ; vocal soli ( Bruch , Gade , Kleffel 

 Sondershausen.—Lohconcert ( August 14 ): overture , ' " ' Anacreon " ' 
 ( Cherubini ) ; serenade ( Mozart ) ; ballet music , " Paris and Helena " 
 ( Gluck ) ; funeral March , ' ' Gotterdammerung " ( Wagner ) ; symphony , 
 a major ( Reinecke ): overture , ' ' Benvenuto Cellini " ( Berlioz 




 correspondence 


 COLLEGE of ORGANISTS.—CONFERENCE on 


 ORGAN construction . 


 to the editor of ' ' the MUSICAL TIMES 


 W. GRIFFITHS 


 to the editor of ' * * the MUSICAL TIMES 


 470 


 to the editor of ' ' the MUSICAL TIMES 


 N. B 


 ORGAN pedal attach to pianoforte . 


 to the editor of ' ' the MUSICAL TIMES 


 to correspondent 


 BRIEF summary of country news 


 XUM 


 XUM 


 47roice . the service commence with a processional hymn , 
 " art thou still athirst for God ? " by Dr. Stainer , which be efiectively 
 give by the surpiiced choir , aid by a small band of wind instru- 
 ment . the Special Psalms be sing to chant by Massey , Elvey , 
 and Ouseley . the Magnificat and Nunc dimittis be Dr. Stainer ’s 
 arrangement of gregorian tone ; the anthem be " lift up your 
 head " ( Messiah ) ; the hymn before the sermon , " praise to the Holiest 
 in the height " ( Dr. Dykes ) . after the sermon Sir John Goss ’s 
 te deum in A be sing , and the recessional be a conti luation of 
 the opening hymn , " art thou still athirst for God ? " the service 
 be intone by the Rev. J. Utten Todd , egg eer Priest of Duaster ; 
 the lesson be read by the Rev. W. W. Herringham and the Rev , 
 J. G. Howes ; and the preacher be b Rev. T. Keble , Vicar of 
 Bisley , Gloucestershire . Mr. John Warriner , choirmaster to the 
 Union , and organist of the Church , preside at the organ , and per- 
 form ' ' fac ut portem " ' ( Rossini ) ; Andante in G ( Batiste ) ; Festive 
 March in D ( Henry Smart ) , & c 

 EpinpurGu.—Her Royal Highness the Princess Beatrice and their 
 Royal Highnesses the Duke and Duchess of E dinburgh go on the 
 morning of the 25th ult . to hear the grand organin the University Music 
 Class - room , where they be receive by Sir Herbert Oakeley , who 
 play a selection = music by Bach , Handel , Beethoven , Menc ielssohn , 
 & c. , and his Ns dinburgh March , " dedicate to his Royal Highness the 
 Duke of E dinburgh . Princess Beatrice herself try the organ , and 
 graciously accept from Sir Herbert a photograph of the fine instru- 
 ment 

 Gotcar.—On Saturday afternoon , the 13th ult . , a demonstration 
 take place in aid of the fund of Huddersfield Infirmary . the musical 
 arrangement be under the management of Mr. Henry Pearson , 
 conductor of the Golcar Choral Society . the programme , which 
 consist of selection from Handel ’s Messiah and some hymn , be 
 very effectively carry out . the Linthwaite band , for which part 
 be specially write by Mr. H. Pearson , render excellent service , 
 and some of the trumpet part be very well play on the cornet . 
 the chorus be sing with the heartiness , accuracy , and precision 
 for which the singer of the district be famous 




 IS5SI 


 472 


 BIRTH 


 death 


 EW , revise , and enlarge edition 


 EW , revise , and enlarge edition 


 4 XPERIENCED PIANOFORTE , HARMO- 


 dure the last month . 


 SAT . 16.60 , 


 GARDNER . 28 . 


 reduce price : — 


 XUM 


 CO 


 ARLES 


 XUM 


 MUSIC for 


 advent and CHRISTMAS 


 composition 


 A. C. MACKENZIE 


 ant hem for F ' our voice 


 PART - song for man ’s voice 


 song 


 ROSSETTI : — 


 PIANOFORTE MUSIC . 


 SOLOS . 


 duet 


 ORCHESTRA 


 NOVELLO , EWER & CO . ’s music primer 


 A diction ARY 


 musical term 


 opinion of the press 


 song 


 compose by 


 BERTHOLD TOURS 


 LONDON ; NOVELLO , EW ER and CO . 


 compose by 


 J. BARNBY . 


 LONDON : NOVELLO , EWER and CO 


 474 


 the 


 ORGANIST ’S quarterly journal 


 of original composition 


 edit by 


 VOLUME iii . 


 GA 


 XUM 


 XUM 


 VOLUME VII 


 475 


 476 


 81 . 


 82 . 


 83 


 84 . 


 85 


 the ORPHEUS 


 NEW serie 


 collection of glee and part - song for MALE voice 


 VOLUME VI . 


 NDON : NOVELLO 


 EWER and CO 


 XUM 


 NOVELLO ’s collection of 


 for FEMALE voice 


 LONDON : NOVELLO , EWER and CO 


 478 


 music of ' the bible 


 with an account of the 


 development of modern musical instrument 


 from ancient type by 


 the 


 by his daughter 


 MARY COWDEN CLARKE 


 letter from BAYREUTH 


 descriptive and critical of 


 WAGNER ’s 


 DER RING DES NIBELUNGEN 


 with an appendix by 


 JOSEPH BENNETTcritical judgment — intensify by long experience — the gift of a fine 

 lucid , and nervous english style .... 
 these famous performance , Mr. Bennett ’s little book can not be too 
 highly recommend , and those amateur who wish to have a general 
 idea of Wagner 's theory will find they describe in language less 
 enthusiastic certainly than in the letter of the composer ’s avowed 
 disciple , but without prejudice , and above all without a trace of 
 intention to ridicuie . .. . in the appendix be interesting sketch 
 of Nuremberg and Salzburg , and an account of a visit to the grave of 
 Mozart , Beethoven , and Schubert . ”—Manchester Examiner 

 we find so much which we can cordially indorse that we have 
 great pleasure in recommend the little volume as an interesting 
 record of the important event which it describe . "—A cademy 




 CARL ENGEL 


 content of VOL . I. 


 content of VOL . I 


 LONDON 


 AN essay on the growth of 


 the MUSICAL scale 


 and of 


 modern harmony 


 uniform with " musical myth and fact 


 the literature of 


 NATIONAL MUSIC 


 CARL ENGEL 


 second edition . 


 a dictionary of 


 musical term 


 edit by 


 the life of MOZART 


 include his correspondence 


 by 


 EDWARD HOLMES 


 the general history 


 of the 


 SCIENCE & practice of music 


 SIR JOHN " HAWKINS 


 the 


 story of MOZART 's requiem . 


 NOVELLO , EWER and CO 


 XUM 


 the MUSICAL TIMES.—SEPTEMBER 1 , 1881 


 OVELLO ’S FOLIO edition 


 of 


 MENDELSSOHN ’s 


 thirteen two - part song 


 two shilling and sixpence ; 


 NOVE LLO ' ’S OCTAVO edition N 


 of 


 MENDELSSOHN ’S 


 thirteen two - part song 


 one shilling 


 glish 


 composition 


 BY 


 EDWARD HECHT 


 SONGS . 


 PALMER 


 PIANO SOLO . 


 four - part song . 


 TO CHORAL society . - 


 the MUSICAL TIMES 


 each contain forty - eight choral piece , 


 sacred and secular 


 LONDON : NOVELLO , EWER and CO 


 TONIC 


 479 


 NOVELLO ’ s ' original OCTAVO edition 


 the chorus 


 IN VOCAL SCOREESPECIALLY for the use of 
 choral society 

 BACH ’S passion ( ST . MATTHEW ) ... es cae . 
 BEETHOVEN 'S MOUNT of OLIVES ... .. .. .. 0 6 
 BENNETT 'S MAY QUEEN Ft et ole er 
 HANDEL ’S MESSIAH a ee eee _ 0 8 
 i JUDAS MACCABEUS .. « . « : « ws . 08 

 SAMSON ... ... .. I Sas en 




 L'ALLEGRO 1 0 


 NOVELLO ’S 


 SOL - FA serie 


 translate and edit by 


 ATHALIE MENDELSSOHN I 0 


 CHRISTMAS CAR -OL S , " new and old 


 CHRISTUS . ELSSOHN O 6 


 LORD , how long wilt THOU 


 LORELEY MENDELSSOHN 6 


 school ROUND B OOK . 


 SONG for the NEW YEAR 


 the SLEEPING beauty . 


 JOHN SEBASTIAN BACH ’S | 


 progressive study 


 preliminary to the 


 forty - eight prelude and fugue 


 edit by 


 JOSIAH PITTMAN 


 NDELSSOHN 


 a full directory 


 the plain song 


 of the 


 REV . THOMAS HELMORE , M.A 


 SONGS 


 SIR W. STERNDALE BENNETT 


 reduce price , three shilling 


 HANDEL 's MESSIAH 


 arrange for the pianoforte by 


 BERTHOLD TOURS 


 NOVELLO ’S FOLIO edition 


 OF 


 ENDELSSOHN ’s pianoforte work 


 ENDELSSOHN ’s LIEDER OHNE WORTE 


 NOVELLO ’s OCTAVO edition 


 OF 


 ENDELSSOHN ’s pianoforte work 


 ENDELSSOHN ’s LIEDER OHNE WORTEThe only edition contain the 7th and 8th Books , paper 
 cover , 4s . ; cloth gilt , 6s . cheap edition , paper cover , 
 a . 6d . ; cloth gilt , 4s . 6d 

 BEETHOVEN ’ S SONATAS . edit by Acnes 

 ZIMMERMANN . paper cover , 5s . ; cloth gilt , 7 . 6d 




 the offertory sentence 


 with an appendix for festal use , 


 SET to MUSIC by 


 JOSEPH BARNBY . 


 the offertory sentence 


 SET to MUSIC by 


 J. T. FIELD 


 reduce price 


 short voluntary 


 for the 


 ORGAN 


 arrange by 


 JOHN HILES . 


 the 


 A SERIES of select piece 


 arrange by 


 J. W. ELLIOTT 


 PIANOFORTE MUSIC 


 compose by 


 OLIVER KING 


 ACR GR GR or UN CA WAR CR CRA DL D 


 XUM 


 MODERN 


 four - part song 


 for mix voice . ( S.A.T.B 


 19 : 6 


 39 


 ASHDOWN & PARRY , 


 HANOVER SQUARE 


 BOADICEA 


 QUEEN of the ICENI 


 CANTATA 


 compose by 


 the word WRITTEN 


 RITTER ALBUM 


 for the ORGAN 


 A collection of fifty - four original piece 


 compose in honour of 


 A. G. RITTER . 


 by the 


 most eminent german composer of ORGAN MUSIC 


 edit by 


 RUDOLPH PALME . 


 482new foreign publication 

 s. ds 
 BEETHOVEN.—Rondino for eight wind ncsigeati ar 

 range for Piano Duet " 3.0 
 BIBL , R.—Op . 29 . collection of piece by ' celebrate modern 




 _ _ _ _ LONDON : NOVELLO , EWER and CO . 


 ~ NATIONAL SONGS 


 arrange as PIANOFORTE SOLOS 


 BY 


 RENE FRANCK . 


 ~ SUBSCRIPTION edition _ 


 OF 


 MOZART ’S work 


 publish by 


 BREITKOPF & HARTEL , of LEIPZIG . 


 the 


 LEGEND of FAIR MELUSINE 


 A CANTATA for SOLO , CHORUS , & ORCHESTRA 


 compose by 


 HEINRICH HOFMANN . 


 SONG of the NORNS 


 A CANTATA for 


 FEMALE voice , SOLO , CHORUS , & ORCHESTRA 


 compose by 


 HEINRICH HOFMANN . 


 CINDERELLA 


 A legend 


 for SOLO , CHORUS , and ORCHESTRA 


 HEINRICH HOFMANN 


 JACK & the BEANST : ALK 


 EDMUND ROGERS 


 ROBERT 


 A MORNING , COMMUNION , 


 ST . JOHN the EVANGELIST 


 A SACRED CANTATA or CHURCH ORATORIO 


 the music compose by 


 PHILIP ARMES 


 A SACRED CANTATA 


 the MUSIC by 


 XUM 


 483 


 SEVENTY - seventh edition . 


 PRICE one shilling , ENLARGED 


 COLLEGIATE and school 


 sight - singing manual 


 COLLEGIA ATE ORGAN TUTOR 


 THIRTEENTH edition . % 


 book 2 , 3 , & 4 


 COLLEGIATE and school | 


 SINGING manual 


 round , four - part song , MADRIG al , motett , | 


 supplemental 


 book of exercise 


 learn to SIN ‘ G at sight 


 HENRY GADSBY 


 ONE SHILLING 


 the 


 school round book 


 a collection of one hundred 


 round , catch , and canon 


 REV . J. POWELL METCALFE , M.A. 


 SACRED and secular music ! 


 for the use of school 


 edit by 


 JAMES 


 N NING the 


 manual of singing 


 for the use of 


 CHOIR - trainer & schoolmaster 


 by 


 RICHARD MANN . 


 and revise edition , with addition , by 


 NEW 


 CO L i e CT ION 


 DURANTE , HANDI , " LEO , SCARLATTI , STEFFANI , 


 NARES , WEBBE , 


 JAMES HIGGS , 


 ONE SHILLING 


 SU ITE IN E MAJOR 


 for the ORGAN 


 EMILE be ERN ARD 


 ORCHESTRA " and the CHOIR . 


 opinion , and music 


 SIC AL 


 454 


 the HYMNARY 


 A BOOK of CHURCH SONG 


 the follow edition be now ready 


 LONDON : NOVELLO , EWER and C0 


 TONIC SOL - FA EDITION 


 TONIC SOL - FA EDITION 


 the ANGLICAN HYMN - BOOK 


 he cree of ST . ATH : ANASIUS 


 educe price . 


 reduce price . 


 TE DEUM 


 EASY chant service for parish choir 


 by 


 S. C. COOKE . 


 SPOHR ’S 24th PSALM . 


 reduce to threepence each . 


 * A. MACFARREN ’S two - part anthem 


 t et not your heart be trouble . 


 485 


 GLICAN 


 7PHE ANGLICAN CHORAL SERVICE BOOK . 


 USELEY and MONK ’S PSALTER and 


 OULE ’s collection of 527 chant , 57 


 PSAL TER 


 OULE ’S DIRECTORIU M CHORI ANGLI- 


 OULE ’S DIRECTLORIUM CHORI ANGLI- 


 HE order for the HOL Y COMMUNION 


 WILFORD | } MORGAN ’S GRAND M : M. ( ARCHES . 


 { ARCIA GIU BILANTI 


 MARCHE JOYEUSE 


 MARCHE MILITAIRE 


 MARCH IN C MINOR 


 T ° conductor of CHORAL society . 


 XUM 


 HYMNS 


 POINTED for chanting 


 the 


 CATHEDRAL PSALTER 


 AYN CO . 


 NOVELLO ’S collection of 


 INE HUNDRED and sixty - fiv 


 response 


 to the 


 commandment 


 edit by 


 GEORGE C. MARTIN 


 SUB - organist of ST . PAUL ’s CATHEDRAL . 


 J. T. MUSGRAVE ’S 


 4 4 4 


 then I think O EE 


 music by 


 J. T. MUSGRAVE . 


 IGENTLE wind , around she HOVER 


 PART - SONG . 


 CHURCH MUSIC 


 compose by 


 J. T. MUSGRAVE 


 the 


 canticle and hymn 


 of the church , 


 point for chanting , and SET to appropriate anglican chant , SINGLE and double 


 TOGETHER with 


 response to the commandment , 


 edit by the 


 REV . SIR F. A. GORE OUSELEY , BART . , M.A. , 


 AND 


 EDWIN GEORGE MONK 


 HARROW SCHOOL MUSIC 


 ORATORIO . — CHR IST an d his soldier . " 


 SINGING QUADRILLES 


 NARCISS = and ECHO | six CHRISTMAS carol 


 ? 7 yt 


 XUM 


 NOVELLO , EWER and COVS 


 PIANOFORTE ALBUMS 


 BERTHOLD tour 


 PRICE one shilling each 


 composition | composition 


 JOHN SEB . BACH | GEO . FR . HANDEL 


 LONDON : NOVELLO , EWER and CO 


 MINOR 


 publish by 


 the only complete edition 


 NOVELLO , EWER & CO . revise edition 


 include the " LIEDER OHNE WORTE 


 LIEDER OHNE WORTE 


 CHEAP edition . 


 ST . PAUL » ... 5 ( 20 ) phe only . complete edition 


 LONDON : NOVELLO , EWER and CO . LONDON : NOVELLO , EWER and CO