


 ( um 


 HE MUSICAL time 


 found in 1844 


 publish on the first of every 


 month 


 ROYAL CHORAL SOCIETY 


 ROYAL ALBERT HALL . 


 ROYAL ACADEMY of MUSIC , 


 TENTERDEN STREET , W 


 THE ROYAL COLLEGE of MUSIC , 


 PRINCE CONSORT ROAD , SOUTH KENSINGTON , S.W 


 H.R.H. the PRINCE of WALES , K.G. 


 FRANK POWNALL , 


 ORGANISTS 


 the ROYAL COLLEGE OF 


 THE GUILDHALL SCHOOL of MUSIC 


 LICENTIATESHIP 


 WARDOUR 


 STREET , SOHO , 


 BIRMINGHAM MUSICAL FESTIVAL , 


 COATES WILLIAM GREEN , JOHN HARRISON , 


 ANDREW BLACK DALTON BAKER , WILLIAM 


 MISCHA ELMANPart I. ( ELGAR 

 Beethoven ) ; 
 the LORD " 
 follow work to 

 the KINGDOM 




 WALTER CHARLTON 


 BIRMING HAM and MIDLAND in ISTITUTE 


 SCHOOL of MUSIC 


 GRANVILLE BANTOCK 


 session 1905 - 06 


 442 


 HANOVE 


 MR 


 VIM 


 VIISS G 


 ENGAGEMENTS 1 


 CHAMBER 


 MR . CHARLES 


 NOTTINGHAM 


 ACIS and 


 NOTTINGHAM ORCHESTR 


 BRISTOL 


 KING 


 ABERDEEN CHORKAL 


 BRISTOL 


 TODMORDEN MUSIC 


 WESTON - SUPER 


 CAKDIFI 


 TIL L ETT 


 AND CONCERT 


 LONDON , W 


 CLARA BUTT 


 MR 


 WITHERSPOON 


 JOHANNES WOLFI 


 KNOWLES 


 PROMENADES 


 LEEDS CHORAL 


 WALPURGIS NIGHT 


 CORONATION ODI 


 GOLDEN LEGEND 


 HUGO GORLITZ , 


 SOLE agent for 


 KUBELIK 


 SOLE agent for 


 THE BOHEMIAN STRING QUARTET 


 SOLE agent for 


 SOLE agent for 


 SOLE agent for 


 important notice . MR . HUGO GORLITZ 


 ROYAL 


 MANCHESTER COLLEGE OF MUSIC 


 NAT [ ONAL SOCIETY of MUSICIANS 


 local MUSICAL examination 


 INCORPORATED guild of CHU RCH 


 musician 


 ASSOCIATE ( A.LG CM . ) licentiate @.LG.CM ) FEI 


 XUM 


 THE 


 I , 1906 


 UNIVERSITY of DURHAM . | 


 309 , OXFORD STREET , LONDON , W 


 TOBIAS MATTHAY 


 PIANOFORTE 


 SCHOOL 


 for instruction under his teaching method . 


 S ETAI 


 VICTORIA COLLEGE of MUSIC , 


 LONDON . 


 INCORPORATED 1801 


 OF MUSIC 


 TINDALL 


 NATIONAL COLLEGE 


 A.N.C.M. , L.N.C.M. , F.N.¢ 


 church organist " society 


 AND strength of 


 finger and wrist 


 PERFEA t 


 looseness , controi 


 ease , certainty , and brilliancy in 


 OCTAVE - playing 


 LONDON , 


 graduate postal lesson in HARMONY 


 counterpoint , theory of music , form and 


 musical instrument 


 stand 


 A.T.C.L 


 PROFESSIONAL notice 


 change of address . 


 FFRANGCON - davy ) . 


 SEVCIK ’S NEW violin method . 


 HERR HEINRICH DIT TMAR 


 MR . ‘ SIVEY LEVEY 


 . at the PIANO 


 MISS ESTELLA L INDE N 


 MISS ETHEL RADBURN 


 SOPRANO ) . 


 MISS AMY SARGENT 


 A.R.A.M. ( SOP RANO ) . 


 MISS E ‘ LEN N CHIL DS 


 MADAME LESLIE DALE 


 MR . FRANCIS G LYNN 


 MR . GWILYM RICHARDS _ |PR.EAGLEFIELD HULL , LOVAT LODGE , HUDDERSFIELD 


 97- 


 AR 


 > MUS.B. 


 SITION 


 | R.C.O. 


 R.C.0 


 FIELD 


 ATED 


 C.0 . 


 two 


 AND 


 KUM 


 PREP 


 | ARROW SCHOOL . — ASSISTANT MUSIC 


 440 


 N 5 ! | 


 I s D I 


 ) W H M 


 H i N.W 


 O M ( H 


 I i N.W 


 THE 


 I , 1906 


 AMERIC \N ORGAN 


 RGA 


 N.B.—T 


 RGA 


 RACT 


 USIC STUDIOS 


 N PRACTICE 


 PIANOFORTE 


 O.P.C 


 H M. RL 


 W ANLED 


 OR 5S 


 USIN 


 EV ERY ORGANIST 


 PNEUM 


 PIANO 


 NORMAN & BEARD 


 1 PRAC . 


 UKLE 


 RION 


 ACH 


 HAM 


 447 


 THE OLD FIRM . THE 


 P. CONACHER & CO , PARISH CHOIR 


 SPRINGWOOD WORKS for 


 consisting of 


 NICHOLSON and CO . , various setting of the OFFI 


 ORGAN BUILDERS 


 — — and a communion HYMN 


 the office for PRICE one shilling and sixpence , 


 set to music by 


 ALFRED R. GAUL , a handbook 


 600 question w ith answer 


 BY 


 arrange for the ORGAN | : 


 BY | preface to the fifth edition 


 GEORGE CALKIN 


 E word write by 


 the music compose by 


 XUM 


 ce 


 e 


 448 


 LONDON 


 institute 1872 


 SCHOLAR ship 


 local exhibition 


 1 local examination , FIFT\ 


 HIGH R examination 


 local enamination 


 INSTRUMENTAI VOCAL music examination 


 teaching - DEP . partment 


 SE LE ( te 1 ) PIANOFORTE 


 study 


 progressively arrange 


 FRANKLIN TAYLOR 


 IN two set ( eight book 


 EDITOR 'S PREFACI 


 BOSWORTH & CO . ’S 


 unrivalle : ! and DANCE 


 PIANOFORTE SOLOS , CLASSI 


 AN ALBUM for every household 


 ARENSKY SCHMELING GILLET CORNELIUS 


 ALETTER KOMZAK HELMUND SCHUTI 


 CZIBULKA BOHM REINECKI ZELLER 


 CUI BORODINE FRANSLATEUR LEONCAVALLO 


 BOSWORTH and CO . , 5 , PRINCES ST . , OXFORD ST . , W 


 S. COLERIDGE - TAYLOR ’S 


 NERO 


 PRELUDE 


 processional MARCH : 


 first entr ' ACTE ( * nero 


 EASTE KN DANC E 


 ld 


 XUM 


 449 


 JULY I , i906 , 


 UPPINGHAM SCHOOL . 


 IOHD 


 UPPINGHAM CREST 


 SCHOO 


 the REV . EDWARD CARUS SELWYN , D.D 


 1s00 


 ii 


 1871 


 XUM 


 451 


 1890 


 the OLD SCHOOL house 


 the first schoolroom ( 1584 


 1o73 


 XUM 


 XUM 


 the DAVID CONCERT room and gymnasium . 


 school building , show 


 PLEO 


 CHAPEL , schoolroom 


 and COLONNADE 


 XUM 


 KUM 


 the old STUDIESthe follow interesting information 

 great many boy avail themselves of this permission , 
 and with some of they attendance become quite a 
 habit . I remember a few year ago , when we be 
 prepare Beethoven ’s C minor Symphony , our 
 audience on Sunday evening grow large from week to 
 week ; sometimes we have quite a hundred boy 
 listen to the rehearsal . the result be that you 

 begin to hear the main subject of the Symphony 
 whistle on the cricket - field , and in the quad of the 
 schoolhouse , and that by the time of the actual 
 performance our young audience have become thoroughly 
 interested , and to some extent even capable of 
 intelligent appreciation of the music . now , I think , 
 for a schoolboy to carry away with he , when he 
 leave , a memory of the C minor Symphony , as an 




 the SCHOOL CHAPELof the iperior person ' that all this be waste on the 
 schoolboy . I beg to differ . I think our motto ought 
 to be ' for the young , the good be just good enough . ' 
 at our last Christmas concert we have among other 
 thing , the ' prisoner ’ Chorus ' from ' Fidelio , ' which 
 be enthusiastically encore . it be true I have repeatedly 
 point out to my singer the exquisite beauty of the 
 music , and I have notice that with every practice they 
 get more interested and warm up . no doubt they in 
 their turn talk of it to their friend , and in this way 
 boy themselves have prepare the ground . yet all 
 lk and my own could never have effect such an 
 outburs f en siastic applause as we have at the 
 concert , if there have not be true appreciation of the 
 i ity of the music in the audience . 
 Mr. David hold sensible view upon . the 
 musical training of the boy commit to his 

 to far quote from the paper already 
 refer to : 
 in try to rouse in boy a genuine feeling for music 
 and to give they a start in the appreciation of it , 
 must , in my opinion , begin by offer to they work 
 that be simple and transparent in form and harmon 
 easy to grasp and not too difficult to execute . 
 instrumental music we must encourage the study of 
 early master , especially of Haydn and Mozart . 7 
 art of Beethoven rest not only on the form but also 
 the spirit of his great precursor , and again it be 
 Beethoven alone who give we the cue to the under 
 standing of everything that have come after he to this 
 very day . 
 these word of wisdom , utter by a man who 
 be a true artist and an _ educationist of long 
 experience , can not be too widely promulgate or 
 two strongly endorse 

 in conclusion , it be a proud day in Mr. David 's 

 room be open by Dr. Joachim . at the 
 concert which follow the great violinist play 

 Beethoven ’s Violin concerto , the programme in 

 clude a selection from ' Elijah ' ( part I. ) , the 
 ' Idomeneo ' overture , two madrigal , — ' since first 
 I see your face ' ( Ford ) and ' the silver swan 




 RICHARD L. HARRISON , 1867 - 1572 . 


 GEORGE A. FALK , 1889 - 1895 . 


 HENRY G. LEY , 1903 - 1904 


 E. C. SELWYN 


 MENDELSSOHN DAVID 


 KNOW 


 UM 


 the MUSICAL TI 


 FELIX MENDELSSOHN BARTHOLDYgreat . as a solo performer he stand in the first 
 rank : as first violinist in the Gewandhaus orchestra 
 he prove d himself a model Concertmeister as 
 leader of a string quartet he be almost unrivalled 

 and his aptitude for teach amount to } 
 genius lhe influence of such a man _ soon 
 become far reach , especially as he be a 
 pioneer for instance , he be the first to play 
 Bach ’s Chaconne in public ( Gewandhaus , January 
 21 , 1841 ) . all honour to he for that . outside 
 Vienna he be the first to bring to public notice | 
 the later string quartet ( include the fugue ) of | 
 Beethoven . he have a Grove - like affection for 
 Schubert . by degree he introduce at his 
 concert the good of Schubert ’s chamber music , to 
 the ght of Leipzig music - lover , who receive 
 those genius - inspire strain with enthusiasm 
 as a friend of Schumann he be no less a 
 propagandist of his chamber and orchestral music . 
 the lowing extract from a letter write by 
 David to Mendelssohn will be read with interest , 
 if not amusement . it be date ' Leipzig , August 4 , 
 1841 
 ' erday Sx nann come to I and treat I to 
 r 's silence , from which I finally gather that he 
 wish to bring his symphony once more before the 
 | c. Ile then give I understand — pantomim 
 hat he be willing to pay for a special rehearsal . 
 \fter I noke tw urs , twice pass his hand 
 r n at ul ment a remark wish to 
 s hat , forget his glove , nod I , 
 \ t the wrong door en to the right — and he 
 w 
 i sm of his taste and the wide outlook 
 ( \orizon be show in regard to 
 t f Brahms it be at the David ( Quartet 
 ( r vel n t sma all of the ( old ) 
 Gewar of Dee ver 17 , 1853 — that Brahms , 
 young man age twenty , introduce his 
 Sonata in c ( op . 1 ) and Scherzo in e flat minor 
 ( op . 4 ) , be as a matter of fact 
 e David be almost alone among thi 

 it can hardly be say that he perpetuate in his pupil 
 Spohr ’s [ his master ’s ] method and style . ... as a 
 teacher his chief aim be to give to his pupil a thorough 
 command of the technique of the violin , and to arouse 
 and develop their musical intelligence . there as else- 
 where the classical work of violin literature naturally 
 form the main stock of teaching material . at the 
 same time David lay great stress on the study of the 
 modern french master , maintain that , irrespecti i ve 
 of musical value , their work , be as a rule writ en 
 with the aim of bring out the " capability of the 
 violin , contain a large amount of useful material for 
 technical training . the correctness of this theory be 
 strikingly prove by Joachim , who as Boehm ’s pupil at 
 Vienna , be make thoroughly familiar with the tech 




 xum 


 the 


 197 35 


 musical prodigy . 


 MUSICK 


 749 ; 


 MUSICAL TIMES 


 JULY 1 , 1906 


 4602 


 XUM 


 CUM 


 the MUSICAL ti 


 master BENJAMIN HALLET 


 465 


 HARRISON 


 BERTHA 


 466 


 BARRY CORNWALL 


 MUSICK 


 MACCHABEUSThe above information be furnish by a newspaper 
 publish at a university town ( in England ) , and 
 form part of the notice of a concert at which 

 Beethoven ’s fifth Symphony be play . poor Kate 

 styl 




 467from the MUSICAL TIMEs of fifty year ago 

 MADAME CLARA SCHUMANN give a pianoforte recital 
 onthe 17th June . this be the programme : — variation 
 in EJ , on a theme from the Eroica Symphony , by 
 Beethoven ; two divertimento ( op . 17 ) , and Suite de 
 Pieces ( no . 1 , op . 24 ) , by Sterndale Bennett ; variation 
 on ' Aus dem bunten Blattern ' of Robert Schumann , by 
 Clara Schumann ; Sarabande and Gavotte ( in the style 
 of Bach ) , by Johannes Brakens ; Clavierstiick in A major , 
 by Scarlatti ; Carneval ( scene mignonnes , Op . 9 ) , by 
 R. Schumann . at the end of each piece , the audience 
 give unequivocal mark of satisfaction . Madame 
 Schumann ’s own piece be very pretty , and very difficult ; 
 it be on a most melodious theme , and be beautifully 
 play . at the end of the concert , Madame Schumann 
 respond to the universal re - demand , by again play 
 Scarlatti ’s Clavierstiick ; which be well fitted to 
 conclude such a concert , be a wonderful piece of 
 interpretation and execution.—Zhe AZusical Times , 
 July , 1856 

 who be Johannes Brakens ? ' the reader may be 
 inclined toask . the only answer be that Brakens be a 
 misprint — which will happen even in the well - regulate 
 journal — for Brahms ! we have every reason 
 to believe that this be the first public performance 
 of Brahms ’s music in England . the J / usica/ World , 
 in a notice of the recital ( which take place at the 
 Hanover Square Rooms ) , say : ' the Sarabande of 
 the " new man , " Johannes Brahms , be extremely 
 difficult , extremely uncouth , and not at all " zz the 
 style of Bach . " ' thus spake J. W. D. , include the 
 italic 




 . VI h 


 @:- @ 6 _ — = 3 


 XUM 


 the MUSICAL 


 I , 1906 . 469 


 HANDEI 


 P. ROBINSON 


 FHE QUADRUPLE CHANT 


 470 


 _ $ = = = | = | = 2 


 5 f 2 | | = = |= ] 


 ? _ ; _ 


 2 © s 


 32 - , | 


 ¢ - _ ; — _ | _ — _ _ 


 _ = — 4 _ 


 ( $ 22 = f 


 ve } 


 XUM 


 the 


 XUM 


 ORGAN for NEW ZEALAND 


 4 concert HALL 


 GREAT O 


 H i S » C 


 G ) I 


 D H 16 


 EACI 


 the MUSICAL TI 


 472 


 ORGAN recital 


 ORGANIST IASTER appointment 


 AND CHOIR 


 XUM 


 SPRANG 


 ALTO 


 ORGAN 


 anthem for harvest or general thanksgiving . 


 34 - 4 — | - | = | = | - | - | 


 - - } 2 _ - | = - 


 6 ? 2 


 the JOY of the LORD be your strength 


 oo 0 


 TESS 


 SS 


 — — = 2 j 


 XUM 


 1 , 19 


 the JOY of the LORD be you 


 = 3 " = | = | — = | : : | | IAS " 


 SOPRANO SOLO . . , 


 +5 2 \ 


 ¢ | SS | | | 


 6 — = - | - | _ | 


 | " | I I 


 BASSES . — 


 1 , 1906 


 the JOY of the LORD be your strength 


 HORUS 


 : - — " — — — 1 0 — — 


 LL + * 4 - 2 ° -@ [ 2 


 _ — quartet ( or CHORUS ) . 


 4 @ P 


 — _ i } 


 = tt = ~ - 2 > - 


 7 7 


 — — — ZI - 


 1906 


 the JOY of the LORD be your strength 


 t I 


 ll 


 " 1.4 ' 


 — 4 _ - + 


 -- 9 9 


 — _ — — — _ — ; 


 J — _ — _ 


 1542 


 the 


 KUM 


 I , 1906 . 481 


 72 


 NEW part - song 


 W TRI ( 


 ti 


 1905 


 483 


 buck on ' PROLEGOMENA to 


 MUSICAL criticism . ' 


 LINCOLN MUSICAL festival . 


 ( by our special correspondentscaffolding of criticism ' possess by 

 from Parry we expect only choral music , but in this instance 
 at least such an attitude will lead to the neglect of a work of 
 singular power , full of tragic intensity , and with its emotion 
 unfettered by any mannerism . Dr. Cowen conduct his 
 ' Phantasy of life and love , ' and this , too , may be reckon 
 among his good composition , strongly dramatic , well con- 
 traste , and brilliantly orchestrate . the more familiar 
 thing in the programme be group round Beethoven ’s 
 eighth Symphony , of which an excellent performance be 
 give urider the direction of Dr. G. J. Bennett , who as 
 conductor of the festival and its artistic head , have now raise 
 it to a high state of efficiency and artistic distinction 

 on the second day there be two performance in the 
 cathedral . for they a large chorus of 478 voice have be 
 get together , divide into 156 soprano , 125 contralto , 
 93 tenor , and 104 bass . the nucleus consist of 188 
 voice from the Lincoln Cathedral choir and Lincoln 
 Musical Society , and nearly as many ( 175 ) come from 
 Nottingham . these have be train by Dr. Bennett , and 
 small contingent hail from Grimsby ( train by Mr. 
 S. W. Smethurst ) , Hull ( train by Dr. G. H. Smith and 
 Mr. Doorly ) , Spilsby ( Mrs. Massingberd ) , and Gainsborough 
 ( Mr. Montgomery ) . the thorough training and consequent 
 efficiency of this heterogeneous body be such that , although 
 it be find impossible to arrange for a single full rehearsal , 
 and chorus and orchestra come together for the first time 
 at the actual performance , there be no hitch , and 
 scarcely any hesitancy , a slight want of steadiness in one 
 or two of the chorus in ' Israel in Egypt ' be the most 
 | noteworthy lapse from perfection . on the other hand the 
 tone be beautiful and well - balance , no part stand out 
 from the ensemble , the style be vocal and expressive , and 
 some of the more tender passage — as , for example , the last 
 page of the Brahms Requiem — be really finely render 

 a brief survey of the programme will show that the task 
 thus accomplish be no light one . a thoroughly festive 
 |note be strike at the outset by Dvordk ’s ' Te Deum , ' a 
 |work which , to use Beethoven ’s favourite expression , 
 | must have be evolve in a distinctly ' unbuttoned ' mood 

 if contrast be desire it be certainly attain in 
 Sir Hubert Parry ’s ' voces clamantium , ' which be austere 
 jin character , tremendously earnest and dignified . the 
 afternoon programme end with Brahms ’s ' german 
 requiem , ' which be precede by the ' tod und Verklarung ' 
 of Richard Strauss . the excellent singing of the chorus in 
 the Requiem deserve especial mention , as do Dr. Bennett 's 
 | impressive reading of the music 




 MUSIC in CAMBRIDGE 


 ( by our special correspondent . ) nusica 

 the Joachim Quartet visit Cambridge on May 9 , and 
 a more than usually large audience listen to their perform 
 ance of Schumann ’s Quartet in F , Beethoven ’s in B fiat 
 ( Op . 130 ) and Haydn 's cheerful Quartet in G.——On 
 May 17 a pleasant concert be give in the Hall of Trinity 
 College by invitation of the Cambridge University Musical 
 Society , at which the Society ’s amateur orchestra , under the 
 direction of Mr. F. C. S. Carey , give a very satisfactory 
 performance of Mozcart ’s Nachtmusik , ' Elgar ’s 
 minor and Bach ’s Concerto for 
 two pianoforte in C minor . the solo part be play by 
 Dr. Gray and Mr. C. B. Rootham . 
 ihe annual College concert be give in the ' May 

 Kleine 
 Serenade for string in 




 ROYAL OPERA at COVENT GARDEN 


 JONGLEUR DE NOTRE - DAME 


 XUM 


 MII 


 LES DEUX PIGEONS 


 PHILHARMONIC SOCIETY 


 the MAGPIE MADRIGAL SOCIETY 


 the FORTY - SECOND TONKUNSTLER- 


 FESTIVAL of the GENERAL GERMAN MUSIC 


 TI 


 TI 


 the MUSICAL TIMES 


 JULY 1 , 1906 . 48 


 HEXHAM ( TYNEDALE 


 LYNN . 


 ESKDALE TOURNAMENT of SONG , WHITBY 


 SHREWSBURY . 


 LYTHAM ( LANCASHIRE ) . 


 ROYAL COLLEGE of MUSIC 


 GUILDHALL SCHOOL of MUSIC 


 489 


 LONDON SYMPHONY ORCHESTRA 


 TONIC SOL - FA ASSOCIATION 


 SOUTH HAMPSTEAD ORCHESTRAThe reputation already acquire by this orchestra , con- 
 ducte by Mrs. Julian Marshall , be fully sustain at the 
 twentieth annual concert of the Society which take place on 
 June 12 at Queen ’s Hall . the chief feature of an over - long 

 programme be Beethoven ’s Violin concerto , the solo part 

 of which be beautifully play by Herr Fritz Kreisler 
 praiseworthy performance be give of Brahms ’s Symphony 
 in E minor ( no . 4 ) , and the ballet music from Mozart ’s 
 ' Idomeneo . ' the dramatic singing by Sefior Luis Alvarez 
 be greatly appreciate 




 MR . WILLIAM HENLEY ’s quartet party 


 MISS ELENA GERHARDT ’s vocal RECITALMiss Edna Hoff , who hail from New York , hold her first 
 recital in London at .“olian Hall on June 6 . she have a 
 flexible and fresh - toned soprano voice , her programme 
 attest to good taste , and her interpretation be 
 distinguish by refined intelligence . Miss Hoff be assist 
 |by Mr. Herman Sandby the danish   violoncellist . 
 |Mr . Hamilton Harty play the accompaniment most 
 | sympathetically 

 amongst the many pianoforte recital recently give , 
 that by Mr. Harold Bauer on June 6 at Bechstein Hall 
 linger in the memory by reason of the intellectual and 
 emotional significance of his reading . his selection 
 |containe Beethoven 's Sonata in C minor ( Op . iii ) ; 
 Schumann ’s ' Carnaval ' and Handel ’s Suite in G ; the 
 inclusion of the last - name piece call for special com- 
 mendation — it be music well worthy of revival 

 Mr. Albert Cazabon , a young violinist , make a very 
 favourable impression at his recital at Steinway Hall on 
 June 8 . he produce a good tone from his instrument , 
 and play with firmness , taste and brilliancy . assist by 
 Miss Margaret Bennett , an admirable reading be give of 
 | Beethoven ’s Sonata for violin and pianoforte in F ( Op . 24 ) . 
 Miss Dorothy Crompton contribute some vocal solo 

 49¢ the MUSICAL TIMES.—Jv1 




 I , 1906admirer by her vivacious and clever pianoforte play at 
 | her orchestral concert , conduct by Mr. Henry J. Wood 
 M. Hardy - The be a tenor vocalist train in the good } at ( Queen ’s Hall on June 14 . she be to be commend for 
 school of french singing . his style , perhaps , would be more | having revive Henselt ’s Concerto in G minor , which be 
 ppreciate in the drawing - room than in the concert - room , | well worthy of be hear occasionally ; in this and in 
 but he manifestly give pleasure to his audience at Bechstein | Rubinstein ’s Concerto in D minor the young artist play 
 Hall on June 12 . with great brilliancy and intelligence 

 most enjoyable evening be give by Madame Jeanne 
 Raunay and Mr. Harold Bauer on June 12 at Bechstein Hall . on the occasion of Mlle . Marie Dubois and M. Jan 
 Madame Raunay give remarkably fine reading of the } Hambourg ’s pianoforte and violin recital ( .Eolian Hall , 
 eroine ’s great scena in Gluck ’s ' Iphigénie en Tauride , ' | June 15 ) brilliant and significant interpretaticn be secure 
 and be equally successful in César Franck ’s ' Le Mariage | of Beethoven 's Sonata for pianoforte and violin in A ( Op . 12 , 
 des roses ' and Berlioz ’s ' L’Absence . " . the accompaniment | no . 2 ) and Lalo ’s ' Symphonie Espagnole . ' in the latter 
 be beautifully play by Mr. Bauer , whose pianoforte solo | work Mr. Hambourg be associate with Miss Daisie 
 include Schumann 's ' Faschingsschwank aus Wien ' and | Buckrout , whose rendering of the pianoforte arrangement 
 Brahms ’s rhapsody in b minor . of Lalo ’s instrumentation merit great praise . mile . 
 - Dubois ’s chief solo be Schubert ’s Fantasia ( Op . 15 ) , which 
 she admirably interpret 

 Miss Ellen Wigley give a successful concert at Steinway 
 Hall on June 12 , at which Madame Frickenhaus and other 
 urtist assist those remarkably clever young lady , Misses Ruth 

 ncert on June 13 at Steinway Hall . excellent rendering | June 19 at -Kolian Hall , the chief instrumental work be 

 be give of Beethoven 's Quartet in C minor ( op . 18 , no . 4 ) , | Schumann ’s Pianoforte trio ( no . 2 ) in F ( op . 80 ) , of w ! ich 
 ar Borodine ’s Quartet in a minor , no . 1 . < a special | an excellent interpretation be secure ; and the vocal trio 
 feature of the afternoon ’s music be the performance select include ' the nightingale ' ( Thomas W eelkes ) , 
 i d to be for the first time in England — of Vivaldi ’s concerto | ' o sweet pleasure ' and ' return from the village ' ( Jeal 
 ! ree violin , a work which consist of a vivacious | de la Borde ) , and ' Brautlied ' ( Robert Kahn ) . the young 
 A , a brief but most expressive Avdan / e , and a vigorous artist also contribute solo on their respective instrument 
 rhythmical /ima / e , the pianoforte accompaniment pianoforte , violin , and violoncello — much to the manifest 
 ng play by Mr. Charlton Keith . enjoyment of an appreciative audience . 
 the late pupil of Prof. Sevcik , style himself ' Floris , ' Dr. Ludwig Wiillner sing most impressively at his re ital 

 make his first appearance in England on June 13 at/|on June 20 at Bechstein Hall . every song be give with 
 een ’s Hall . he be understand to be a young brother |a truth and intensity of expression that impart to each a 
 ! hemian violinist Franz Ondricek , and he would | vivid personality , and the recital be a splendid lesson to 




 14 . J 


 491 


 MUSIC in BIRMINGHAM 


 from our own correspondenta testimonial concert of quite an exceptional character 
 be give to Mr. F. W. Beard in the Town Hall on | 
 May 26 . as conductor of the City Choral Society , Mr. 
 Beard have do excellent work for seven season past , 
 without fee or reward other than the artistic result achieve . | 
 the Society organize the concert , and assistance be } 
 generously give by composer and artist whose work have 
 be give and interpret at the Society ’s concert . the | 
 live composer represent be -Elgar , Stanford , Cowen 
 and Granville Bantock ; the conductor be Sir Charles | 
 Stanford , Mr. Henry J. Wood , Mr. Bantock and Mr. Beard | 
 himself , while the soloist include Mrs. Henry J. Wood , 
 Madame Kirkby Lunn , and Messrs. John Coates , Dalton 
 Baker and Plunket Greene . in addition be the full | 
 chorus and band of the Society . the programme comprise 
 Stanford ’s ' Songs of the sea , ' selection from Elgar ’s | 
 ' King Olaf , ' Cowen ’s ' John Gilpin , ' two lyric , Bantock ’s | 
 ' Ferishta ’s fancy ' ( Brow ning ) , and a _ miscellaneous 
 selection . the function be a great success , the hall be 
 crowd 

 the promenade concert at the Theatre Royal terminate 
 on June 2 with a plebiscite programme which include 
 Tchaikovsky ’s ' Pathetic ' symphony , ' Casse Noisette ' suite , | 
 and ' 1812 ' overture ; Beethoven 's ' Leonore ' overture no . 3 ; 
 Wagner 's ' Tannhauser ' overture and ' ride of the valkyrie ' ; 
 and Elgar ’s ' pomp and circumstance ' march in D. there 
 be an enormous attendance , and Mr. Landon Konald and | 
 Mr. Max Mossel be greet with hurricane of applause 

 the musical matinée at the Rooms of the Roy al Society | 
 of Artists be bring to a close on June 9 , when Mr. Oscar | 
 Pollack direct his two hundred and ninetieth concert . 
 there be a capital attendance and much applause 




 MUSIC in ONFORDFROM our own CORRESPONDENT 

 the first concert of the present term take place on May 2 
 in the Town Hail under the auspex of the Musical Club , 
 when the Joachim ( uartet give an excellent chamber 
 concert . the programme consist of Beethoven ’s string 
 ( Juartet in e flat ( Op . 74 ) , Haydn ’s in D ( op . 76 , no . 5 ) 
 and Brahms ’s quintet for Clarinet and string in b minor 

 Op . 115 ) , a work compose for Prof. Miihlfeld , who play 

 the clarinet part 

 only the most important of the College concert give 
 during the ' Eights Week ' can be notice . Balliol lead off 
 on May 20 with a chamber concert give by the Wessely 
 which Schubert ’s ( Juartet in C minor be 
 perform . Exeter follow on May 22 with a concert 
 which include Sir Hubert Parry ’s ' Lady Radnor ’s suite ' 
 for string and Tchaikovsky 's Serenade for string ( Op . 38 ) . 
 the excellent rendering of several part - song reflect great 
 credit upon the training of Mr. C. E. Winn , the organ 
 on the following evening Keble 
 give a capital concert . the programme , chiefly orchestral , 
 include Beethoven ’s ' Leonora ' Overture No . 3 , Brahms ’s 
 Orchestral Serenade , the Scherzo from Berlioz ’s ' Romeo 
 and Juliet ' and Tchaikovsky ’s ' Casse Noisette ' suite , 
 these piece be intersperse with song and part - song . 
 Mr. F. Shaw , the organ - scholar , conduct this exceedingly 
 pleasant evening ’s music - making . on May 25 ( ueen ’s 
 give its concert , the most important item be a new short 
 cantata ' legend of the North , ' for male voice , compose 
 for the occasion by Mr. Percy Godfrey , who conduct . 
 the programme also include a chorus , ' the Festival , ' by 
 Sir Frederick Bridge , who honour the Society by occupy 
 the conductor ’s desk 

 Dr. Edvard Grieg have the honorary degree of Doctor of 
 Music confer upon he in the Sheldonian Theatre on 
 May 29 , when an enthusiastic attendance welcome the 
 popular scandinavian composer , the semicircle and gallery 
 be nearly fill with fair admirer of his genius . 
 Dr. Grieg seem much delighted and gratified , and when 




 the MUSIC 


 492 


 AMSTERDAM 


 \NTWER 


 BASLE . 


 BERLIN 


 COLOGNI 


 DUSSELDORF 


 ELBERFELDFRANKFURT - on - MAIN 

 old Johann Schenck ’s once famous opera ' Der Dorfbar- 
 bier ' ( the village barber ) have be very successfully revive 
 by the operatic class of the Raff Conservatorium . the work 
 be first perform in Vienna in 1796 , when Schenck 
 ( 1753 - 1836 ) be in his forty - fourth year . to - day he 1s 
 chietly remember because he give Beethoven some lesson 
 in counterpoint , and in a fit of enthusiasm kiss Moaart ’s 
 hand during the overture at the first performance ol 
 * Die Zauberfliite . ' who could blame he for that kiss 

 GORLITZ 

 the programme of the sixteenth Silesian Musical Festival on 
 June 17 - 19 include Mozart ’s ' Requiem ' and Schumanns 
 * Faust ’ Scene ( first day ) ; Bruckner ’s ' Te Deum , 
 R. Strauss ’s ' domestic Symphony , " Liszt ’s symphonic poem 
 ' Prometheus , ' and his chorus in Herder ’s * Prometheus 
 unbind ' and the f7a / e from Wagner 's ' Gotterdammerung 
 ( second day ) ; Beethoven ’s eighth Symphony , Pianoforte 
 concerto in C minor by Count Hochberg , Georg Schumann s 

 YLIM 




 493 


 HALLE 


 HEIDELBERG 


 HELSINGFORS 


 KLAUSENBURG ( TRANSYLVANIA ) 


 LEIPZIG , 


 MANNHEIM 


 MAYENCE . 


 MILAN 


 MUNICH 


 PARIS7 
 on the organ and pianoforte he have enthuse audience in 

 ee . ~ ctul 
 nearly every civilized country . M. Saint - Saéns play , Fnswers to Correspondents , ae 
 before a brilliant audience , the Andante and A//egro from his , . ; , a — 
 first concerto , Beethoven ’s e flat concerto — a reminiscence | _ D. B.—The instrument — inscribe ' 1617 , G. Plumtre ' - _ 
 of his early triumph as a pianist — and two small piece | of which you send usa photograph be an early specimen of the = 
 from his pen , viz . , ' wedding - Cake ' and the ' Khapsodie horizontal zither . two melody string , tune in unison , why 
 d’Auverene . ' Madame Auguez de Montalant sing several | run over the finger - board where the letter for the note be we 
 of the master ’s song , MM . Francis Planté and Léon| mark . the finger - board have lose some of its fret as well exan 

 as its lettering . then there be also five accompaniment 
 string pluck with the finger of the right hand , whils , 
 the thumb ( as in the modern german zither ) strike the 
 melody - string with a small thimble - plectrum . Pretorius 
 ( 1619 ) , who give a picture of a similar instrument in his 
 * Organographia , ' call it the Scheidholt : in his instru 
 ment , however , there be only two or three accompaniment 
 string . an almost identical form be now_in use in part of 
 France , where it be know as the Briche or Epinette des Vosges , 
 in Norway there be a like rectangular form in use call 
 Hommel . we much question the date 1617 on you 
 instrument . it seem too early for its advanced form and 
 arrangement . Pretorius ’ Scheidholt be much more 
 elementary . however , only a thorough examination of the 
 curiosity would satisfactorily determine this 




 XUM 


 I , 1906Wigmore Street , W 

 Doxis . — ' Beethoven ’s Cookery Book ' be unknown to we ; 
 perhaps you be think of Beeton ’s csianitiine treatise on 
 the culinary art 

 R. S.—Yes , the balanced swell pedal on an organ be quite 
 as — as the ordinary swell pedal 




 $ 772 


 special notice 


 the MUSICAL TIMES . 


 scale term for advertisement 


 dure the last month . 


 LIMITED 


 FREDERIC 


 UGGAN , REV . A. S. 


 490 


 HH 


 O 'S 


 VOLI , N 


 DI 


 MAU 


 T ' NIC 


 V ILLIAMS 


 | 7 ILNER 


 UR 


 ENNARD 


 LEWELLYN - DAVIS 


 CHOOL 


 the SCHOOL MUSIC REVIEW 


 the SCHOOL MUSIC REVIEW for JUL 


 AINS ! — 


 CITY of MELBOURNE , AUSTRALIA . 


 JOHN CLAYTON , 


 W. H. REED 


 arrangement for PIANOFORTE SOLO 


 by 


 CHARLES J. WOODHOUSE 


 XUM 


 XUM 


 the MUSICAL 


 I , 1906 . 497 


 anthem 


 I be ALPHA and OMEGA 


 compose by 


 CH . GOUNOD 


 the world 


 compose by 


 EDWARD ELGAR 


 LIGHT of 


 COME , YE child 


 compose by 


 JOSIAH BOOTH 


 complete 


 list . 


 serie . 


 LUTE 


 the 


 LONDON 


 for trinitytide 


 1S. 


 TEN hymn 681 


 with tune 


 for use in school and for child 's festival 


 the music compose by 


 LANGRAN , S. SMITH , 


 AND other 


 the 


 J. STAINER 


 MUSIC CO 


 NATIONAL hymn and tune for child 's use 


 the 


 MUSIC compose by 


 G. C. 


 what can I give JESUS ? 


 HYMN for a children ’s flower service 


 ARTHUR C. BENSON 


 ARTHUR M. GOODHART 


 A FLOWE - service 


 CHILDRE N 


 A. J. HERVEY , M.A 


 A LITANY 


 SIR 


 JOHN STAINER 


 495 


 NOVELLO ’S HARVEST anthem 


 O K 


 1 G 


 C. H. I 


 G. A.M , 


 M B. I ; 


 W. H. I 


 F. H. , ¢ ¢ 


 H. W. W = 4 


 IG 


 O A ROG 


 ( | E. W ‘ 


 H ) F. 7 


 I B. 7 


 E. V.H 


 I M B. | " 


 I I. B 


 G. F. H ' 


 lute " serie of HARVEST anthem 


 LONDON : N 


 th 


 XUM 


 NEW 


 HARVEST anthem 


 the joy of the LORD be your 


 strength 


 HUGH BLAIR 


 BLESS ' the LORD thy GOD 


 J. VARLEY ROBERTS 


 se BY 


 the LORD be my strength and my 


 shield 


 e V 


 JOSIAH BOOTH 


 recently publish . 


 o be joyful in the LORD 


 BY 


 ALFRED R. GAUL 


 THOU SHALT keep the feast of 


 HARVEST 


 F. H. COWEN 


 he SENDETH the spring into 


 the VALLEYS 


 HERBERT W. WAREING 


 e by 


 the earth be the LORD ’s 


 compose by 


 ALFRED HOLLINS . 


 FATHER of mercy , GOD of love 


 REV . E. VINE HALL . 


 HARVEST FESTIVAL 


 book 


 contain TALLIS 's prece and response , the 


 canticle and special psalm 


 SIR J. BARNBY , MYLES B. FOSTER , 


 SIR A. C. MACKENZIE , SIR J. STAINER 


 four new HYMN tune 


 SIR J. BARNBY , SIR I. STAINER , 


 JOHN E. WEST 


 POPULAR CHURCH MUSIC 


 J. H. MAUNDER 


 service 


 ORGAN 


 CHURCH CANTATA . 


 compose by EDWYN A. CLARE 


 V. — * the child ’s song . 


 I I $ = , TEX 


 COMP osition B y E DWIN A. CRUSHA . JOHN HAWKE 


 HARVEST anthem . — _ — — _ 


 compose by 


 XUM 


 XUM 


 SONG of THANKSGIVING 


 A CANTATA 


 for harvest and general festival use 


 for SOPRANO , TENOR , and BASS ( or CONTRALTO ) SOLI and CHORUS 


 with hymn to be sing by the congregation 


 the word write and arrange by 


 SHAPCOTT WENSLEY 


 the music by 


 J. H. MAUNDER 


 PEACE LET all our brethren join in 


 one 


 the rainbow of 


 AN EASY HARVEST - tide CANTATA 


 seed - time and harvest the harvest feast 


 the glearer BARVESE make melody within your 


 twelve hymn for harvest he that SOWETH 


 now AUTUMN strew on EV’RY O LORD of HEAVEN , and EARTH , 


 PLAIN and SEA 


 AND 


 NOVELLO , EWER and CO . , NEW YORK 


 by 16TH , 17th , and 18th century composer . 


 anthem . 


 ALCOCK , JOHN ( 1715—1806 ) HAYES , PHILIP ( 1738—1797 ) . 


 BATTEN , ADRIAN ( » 30 ) . 


 = KING , CHARLES ( 1687—1748 ) . 


 01 » LOCKE , MATTHEW ( 1630 ? — 1677 ) . 


 CHILD , WILLIAM 6 1697 i 


 ' i o¢ h. 


 : PURCELL , HENRY ( 1658 ? — 1695 ) . 


 I O1 o 


 ( ' i i 14 5 i 


 P i 4 


 - ' REDFORD , JOHN ( /. 1535 ) . ' 


 GOLDWIN , JOHN ( 4 . 171 : : : 


 I ' WELDON , JOHN ( 1676—1736 ) . 


 XUM 


 SIC 


 NOVELL 


 service 


 KEMPTON , 


 MERBECKE , JOHN 


 PORTER , SAMUEL 


 PURCELL , DANIEL 


 PATRICK , NATHANIEL 


 PURCELL , HENR 


 ROGERS 


 TRAVERS , 


 glish CHURCH MUS 


 STAI 


 STAINER 


 1658 ? — 1695 ) . 


 BENJAMIN 


 1614—1698 


 OLD ENGLISH ORG AN MU SIC 


 NOVELLO 


 LONDON 


 20 . three seventeenth century piece 


 ND COMPANY , LIMITED 


 504 


 NOVELLO 's 


 CHORISTER serie 


 CHURCH MUSIC 


 A. H. D. PRENDERGAST 


 A. H. D. PRENDERGAST 


 AND 


 NOVELLO , EWER and CO . , NEW YORK 


 just publish 


 one hundred psalm 


 bible version 


 and 


 the canticle 


 point for chanting 


 extract from the preface . 


 LONDON : NOVELLO and COMPANY , LIMITED 


 spirit into our heart an evening idyl 


 AN ANTHEM E. A. ( ' RUSHA 


 compose by 


 THOMAS TALLIS 


 SONATA in G MINOR 


 FOR the ORGAN 


 compose by 


 ORGAN PADRE G. MARTINI 


 BY Ju st Pub lished 

 or JupaL " ) .. .. A.C. MACKENZIE 1 6 
 2 PRELUDE . — ( " ' Lounne ~~ = ' a .. WAGNER 1 o P euaiaaee RIES 
 3 ANDANTINO.—Sympuony , no . 4 , in f minor ) the RECITAL serie 
 TSCHAIKOWSKY 2 o a esa » ARR 
 4 slow movement . — { Piaxoro RTE concerto in BFLAT original composition for the ORGAN 
 MINOR ) TSCHAIKOWSKY 1 6 edit by 
 5 . CORON ? ATION MARC h on TSCHAIKOWSKY 2 o EDWIN H. LEMARE , 
 6 . three minuet . ae mphonie in C , G MINOR , and a 
 Ertat ) .. . « MOZART @ o ae 
 7 minuet . ~@emewa ws E — ( op . 1 , iii . ) . ae ay a tt ttt ~ 
 oa " » » 
 BEETHOVEN 1 o CONCERT overture 
 8 PRELUDE.—(“‘Cotomsa " ) ' A. Cc . — — 1 6 ; ' N 
 9 finale ( " o may we sing again hae good pair of in C MINOR 
 siren - . BH . H. PARRY ro compose by 
 10 . not TURNO . — " a ' mine MMER night wi ae TRICKER 
 MENDELSSOHN 1 6 H. A. FRICKER 

 price two shilling and Sixpence net 




 500 


 1906 


 concert organist 


 ription for the organ 


 the 


 from the work of various composer 


 A. L. PEACE 


 ( O S h i 


 N RAND RONDO , O 


 N OVERTURI DIE ZAUBRERFLOTI M 


 IN D MINOR 


 ORGAN 


 SYMPHONY 


 FOR THI 


 EDWIN H. LEMARE 


 DAILY TELEGRAPH . 


 EVENING STANDARD 


 DAILY NEWS . 


 CANTILENE RELIGIEUSI PRIERI . 


 MARCIETTA 6 . POSTLUDE CANTIQUE . SUDA SUES . 


 ALEXANDRE GUILMANT 


 2 . WEDDING MARCH 


 3 . BERCEUSE 


 7 . FANTAISII 


 MINUETTO 


 MARCHE TRIOMPHALE 


 POSTLUDE 


 SUR DEUX MELODIES ANGLAISES 


 everal choral work , 


 society . 


 PART - SONGS , 


 A SUITE 


 OLD ENGLISH dance 


 FREDERIC H. COWEN 


 2 . peasant ’ dance . 4 . old dance 


 arrangement for PIANOFORTE SOLO 


 SCOTSMAN 


 GLASGOW HERALD . 


 GLASGOW NEWS . 


 GLASGOW EVENING TIMES 


 produce at the PHILHARMONIC 


 SYMPHONIC 


 ON AN 


 BY 


 AFRICAN 


 1906 


 SOCIETY ’S - CONCERT , JUNE 14 


 variation 


 AIR 


 S. COLERIDGE - TAYLOR 


 the TIMES 


 DAILY TELEGRAPH . 


 STANDARD 


 DAILY GRAPHIC 


 EVENING STANDARD 


 NOVELLO AN 


 LONDON 


 MORNING POST 


 DAILY NEWS 


 GLOBE 


 PALL MALL GAZETTI 


 the GUARDIAN 


 1 ) LIMITED 


 COMPANY 


 the BALLAD 


 OF MESHULLEMETH 


 the oratorio " JUDITH 


 C. HUBERT H. PARRY 


 BE thou FAITHFUL unto 


 death 


 \ria from " ST . PAUL 


 MENDELSSOHN 


 rrange with VIOLONCELLO OBBLIGATO BY 


 J. W. SLATTER . 


 far from my HEAVENLY 


 home 


 SACRED SONG 


 EW EN BY 


 HENRY FRANCIS LYTE 


 the 3 } ED BY 


 E. J. MARGETSON 


 ROSE softly BLOOMING 


 SONG 


 from the OPERA 


 ZEMIRE and AZOR 


 e 


 LOUIS SPOHR 


 CHE FARO SENZA 


 EURIDICE 


 HOU ART GONE , ALAS , for EVE ! 


 from the OPERA 


 ORPHEUS 


 transpose edition 


 two song 


 IVOR ATKINS 


 THOU art COME " 


 ( MACEDONIUS 


 ALMA STRETTELL . 


 " 700 late 


 rd by 


 MATTHEW ARNOLD 


 I love THEE 


 SONG 


 THOMAS HOOD 


 the music compose by 


 JOHN POINTER . 


 HYMN to DIONYSUS 


 BACCH.E of EURIPIDES 


 anslation by 


 GILBERT MURRAY 


 FOR CHORUS and ORCHESTRA 


 ERNEST WALKER 


 IN SPRINGTIME 


 AN ALLEGRETTO 


 PIANOFORTE 


 WILLEM COENEN . 


 MELODY 


 FOR the PIANOFORTE 


 WILLEM COENEN . 


 XUM 


 I , 1906 


 5 ° 9 


 COMPOSITIONS 


 S|THE JUN 


 BERCEUSE 


 VALSE SERENADE 


 CAPRICE 


 compose BY 


 YOFORTE 


 JOSEPH HOLBROOKE 


 OLD ENGLISH 


 VIOLIN MUSIC 


 ALFRE D ) MOF FAT 


 prefatory note 


 edit by 


 S < GERTON LOWE4 . eleven MEL ODIE 2 . arrange for the 
 Violin in the first position , with Pianoforte 
 accompaniment ... sa shi ne wis 

 5 . SONATA in C MAJOR ( Mozart ) . for 
 j Violin ( First to third position ) and Pianoforte 
 6 eight song without word 
 ( MENDELSSOHN ) . arrange for Violin ( First 
 to third position ) and Pianoforte ose 
 | 7 . SONATA IN F MAJOR ( Mozart ) . for 
 Violin ( first to third position ) and 
 Pianoforte - na aa pate 
 | 8 . PHANTASIE STUCKE , Op . 73 ( SCHUMANN ) . 
 for Violin ( first to third Position ) and 
 Pianoforte és sea — — wat 
 9 . SONATA IN E MINOR ( Mozart ) . for 
 Violin ( first to Third position ) and Pianoforte 
 |}10 . three PIECES:—Funeral March , Prelude 
 in E minor , and Waltz in b minor ( CHOPIN ) . 
 arrange for Violin ( first to fifth position ) 
 and Pianoforte ... bad ~ _ wi I 
 11 . three romance , op . 94 ( SCHUMANN ) . 
 for Violin ( first to third position ) and 
 Pianoforte I eh aa I 
 12 . six duet for two arene op . 8 
 ( PLEYEL ) . first position < n 
 13 . six duet for two V IOL INS , ' op . 48 
 ( PLEYEL ) . first to third position wes 
 14 . scale and ARPEGGI ( C. EGERTON 
 | LOWE ) ... = ae 
 |15 . six sonatina for VIOLIN ( WeseR ) . 
 no . i to 3 . first to fourth position 
 } 16 . six sonatina for VIOLIN ( WEBER ) . 
 no . 4 to 6 . first to fourth position eat 
 17 , eight movement , from the String 
 Quartets ( Mozart ) . arrange for Violin 
 ( first to third position ) and Pianoforte 
 ( with 2nd Violin ad /#4 . ) . no . 1 to4 ae 
 18 . eight movement , from the String 
 Quartets ( Mozart ) . arrange for Violin 
 ( first to third position ) and Pianoforte ( with 
 2nd Violin ad /#4 . ) . no . § to8 an ia 
 19 . SONATA IN F MAJOR ( KOcHEL , no . 376 ) 
 ( Mozart ) . for Violin ( first to third position ) 
 and Pianoforte ... - _ 
 20 . RONDO IN G MAJOR ( BEETHOVEN ) . for 
 Violin ( first to third position ) and Pianoforte 
 21 . five celebrated piece ( ScHUMANN : 
 * * Lonely Floweret " ; HANDEL : Largo ; 
 HANDEL : Sarabande ; CLEMENTI : Adagio ; 
 SCHUMANN : ' ' slumber Song . " ) arrange for 
 Violin ( first to third position ) and Pianoforte 
 22 four celebrated piece 
 ( TsCHATKOWSKY : Chanson Triste ; HAYDN : 
 Menuet and Trio ; RUBINSTEIN : Melody in F ; 
 HAYDN : Gipsy Rondo . ) arrange for Violin 
 ( first to third position ) and Pianoforte ake 
 23 . SONATA IN C MAJOR ( K6cHEL , no . 296 ) 
 ( Mozart ) . for Violin ( first to third position ) 
 and Pianoforte . a si 
 24 . four char acte ristic piece 

 Romance 




 HERMAN KOENIG 


 ND 


 OK VIOLINIST 


 BREITKOPF 


 ENSELT , ADOLPH | F 


 \LKBRENNEI FRIEDRICH ( PIANOFORTE DUETS . 


 ISZT.—-H N 1 ¢ ORGAN . 


 KEIN E , CAI C.D | 


 O INA ALBI I S } H 


 LONDON : 


 BREITKOPF & HARTEL , 


 late addition to 


 & HARTEI 


 XUM 


 XUM 


 BREITKOPF & HARTEL 's 


 classical and modern MUS 


 KLENG EL 


 POPULAR 


 edition of 


 VIOLONCELLO 


 RUTZMAC HER 


 wind IN 


 SOLO book for FLU 


 VOCAL exercise 


 VOCAL duet . 


 PART - SONGS 


 INTERMEZZO 


 DORABELLA 


 OM the 


 IC | variation on an original theme 


 FOR ORCHESTRA 


 ompose by 


 EDWARD ELGAR 


 ADORAMUS TE 


 FOR ORCHESTRA 


 HUGH BLAIR 


 STR ISOEBEN ERSCHIEN 

 BEETHOVEN 
 UND SEINE 

 NEUN SY MPHONIE N 




 GEORG E ‘ GROVE 


 DEUTSCHE BEARBEITUNG 


 NARCISSUS and ECHO 


 | CANTATA for CHORUS , SOLI , and ORCHESTRA 


 ompose by 


 EDWIN C. SUCH 


 | BAL LAT A 


 | VIOLIN and PIANOFORTE 


 | se by 


 | HE NRY GIBSON . 


 the ORIANA 


 collection of early madrigal 


 british and foreign 


 LADY , your eye ... = ( 5 , ) ... THOMAS WEELKES 


 TRUST not too much , fair youth ..... ( 5 5 , ) ORLANDO GIBBONS 


 XUM 


 XUM 


 extra supplement 


 compose by 


 NOVELLO ’S OCTAVO ANTHEMS 


 J. VARLEY ROBERTS 


 65 . 


 631 


 315 


 each 


 BLESS the LORD THY GOD 


 anthem for H 


 ARVEST 


 word select by REV . T. T. BLOCKLEY , M.A. 


 ( CHAPLAIN of MAGDALEN COLLEGE ) 


 J. VARLEY ROBERTS 


 ORGANIST of MAGDALEN COLLEGE 


 4 _ = f 


 ' EE ! | , 


 bless the LORD THY GOD . 


 _ — _ —   ¢ a 


 QQ 


 — _ | 4 


 _ _ — 


 92 - - + 


 ! , = i _ — 


 ™ SOPRANO 


 d4 


 - " alto 


 2 7 


 c4 


 BLESS the 


 OQ " 7 ° : 


 " 124 


 LORD THY GOD 


 72 — |-- od 


 xx ' 


 xn | 


 YUM 


 KUM 


 BLESS the LORD THY GOD 


 . c4 - 


 5 ¢ 9 9 


 3 — _ 


 = = = SS = = = 


 ? @ 4 : _ 


 bless the LORD THY GOD 


 bless the LORD thy GOD . 


 2s 


 xum 


 bless the LORD THY GOD 


 ss | | 


 xum 


 bless the LORD thy GOD . 


 7/ — _ _ — = " , _ 


 se ss 


 = = e-9 ; , 


 7 , p ‘ | 2 ? 


 BLESS thr 


 LORD THY GOD 


 s , 


 chorale . 


 4 — _ — — 7 _ 


 a ' p 


 sen 


 con 


 ond 


 xum 


 BLESS the LORD THY GOD 


 } -S \ t 


 92 - a — — — 


 = = sss . = s= = = 


 230 


 LONDON 


 NOVELLO and COMPANY , LIMITED 


 1654 ? — 1714