


 


 found 1 


 PPPPEPD > > > > > > > > > > > > > > > > > > > > > > > > > > > > > > 


 WORLD FAMOUS 


 PIANOS 


 32 - 40 , WIGMORE STREET . W1 


 9.5.24 455444444445 


 ROGERS ‘ PIANG 


 PJ 


 GEORGE ROGERS & SONS 


 60 , BERNERS STREET , LONDON , w.1 


 xum 


 complete . " work 


 GRAMOPHONE record 


 DB 815 


 db 816 


 CESAR FRANCK VIOLIN SONATA 


 d % 9 


 970 


 d 971the Princesses p jlay golden apole , Rondo Princesses t d 959 
 dance infernale subject Kastchei 

 " WALDSTEIN " SONATA — BEETHOVEN 
 ( op . 53 c major ) 
 FREDERIC LAMOND ( Pianoforte ) 
 movement — Allegro con brio , | 
 = t2 
 second mov ement intro ' Ac F gio 
 Rondo : Allegretto moderato , | 
 Rondo : allegretto moderato , 2 
 Rondo : allegretto moderato , 3 
 sonata E flat . op . 31 — Scherzo ( Beethoven 

 




 363 - 367 , OXFORD STREET , LONDON , w.1 


 SPECI 


 MUSICAL TIMES 


 SINGING - class CIRCULAR 


 found 1844 


 publish 


 ROYAL CHORAL SOCIETY 


 ROYAL ALBERT HALL 


 APRIL 


 10 


 GOOD FRIDAY 


 ESSIAH 


 MISS DORA LABBETTI 


 MISS CLARA SERENA 


 MR . FRANK MULLINGS 


 MR . NORMAN ALLIN 


 HANDEL 


 MR . R. ARNOLD GREIR 


 ROYAL ORCHESTRA 


 ALBERT HALL 


 ROYAL ACADEMY MUSIC . 


 YORK GATE , MARYLEBONE ROAD , LONDON , N.W.1 


 H.R.H. DUKE CONNAUGHT , K.G. 


 1925 , A.R.C.O 


 CHAMBER CONCERT , 


 CHORAL CONCERT , 


 ROYAL COLLEGE MUSIC . 


 PRINCE CONSORT ROAD , SOUTH KENSINGTON , S.W.7 . 


 § MAJESTY KING . 


 ( MAJESTY QUEEN . 


 H.R.H. PRINCE WALES , K.G 


 PRINCIPAL 


 | training 


 MONTH 


 1925 


 VICTORIA EMBANKMENT , E.C.4 


 lesson 


 PRIVATE 


 R 7 


 ROYAL 


 MANCHESTER COLLEGE MUSIC 


 MAJESTY QUEEN ALEXANDRA . 


 290 


 R.A.M. R.C.M 


 GLASGOW 


 ATHENAZUM SCHOOL MUSIC 


 SESSION 1624 - 25 


 complete training course teacher . 


 BIRMINGHAM & MIDLAND INSTITUTE 


 SESSION 1924 1925 . LONDON SCHOOL SINGING . 


 20 ENRI STRE ' ISH SQUAR 


 LONDON COLLEGE CHORISTERS 


 PRESIDE 


 KEY 


 SIR 


 EM . 


 SC holarship 


 R offer , IVIN 


 EE TUL [ ION 


 4 4 4 


 FREE 


 RIVARDE SCHOOL VIOLIN PLAYING 


 1A , CHENISTON GARDENS , LONDON , w.8 


 LONDON ACADEMY MUSIC 


 NCES STREET , CAVENDISH SQUARE , W SIN'TH 


 COURSE lecture ABERYSTWYT H FESTIVAL 


 EARLY TIMES " WELSH SYMPHONY ORCHESTRA 


 S WALFORD DAVIES , 1 


 OPERATIC school . lecture - lesson class monthly LONDON , 


 found 10913 . 1100 specimen working . 


 JUR AIM 


 A.R.C.O. , F.R.C.O. , L.R.A.M. , A.R.C.M. , 


 20 , SHERWIN ROAD , NOTTINGHAM 


 MR . CHARLES TREE 


 ALBERT GARCIA 


 voice - production singing . 


 training opera concert 


 MANUEL GARCIA " ART SINGING 


 BOURNVILLE 


 " NEES 


 SPSS SESESESESESHSHHE THEE THESHESEHESESEHESESESESEEEEESESEESESESEES 


 MACKINNON 


 MUSICAL memory COURSE 


 pianist 


 EMPIRE HOUSE , 175 PICCADILLY , W.1 


 GUARANTEE 


 post coupon ‘ - day free booklet 


 professional notice . MISS MARY WILSON , F.R.A.M 


 FORM TEACHING , TOUCH , ACCOMPANIMENT , 


 YEVISI ( \N- MUSICAL composition . 


 YAPTAIN PERCY BAKER , M.C. , F.R.C.O 


 HAZELDENE , TEWKESBURY 


 _ | @PECIAL CORRESPONDENCE course 


 296 


 F.R.C.O specialist correspondence 


 ERBERT HODGE , F.R.C.O , , A.R.C.M. , 


 specialist correspondence coaching . 


 ADAME LARKCOM , F.R.A.M. , 


 W. J. FREDERICK PUGH , L.R.A.M. , A.R.C.M. , 


 uccessful coachin 


 D * : TAYLOR postal pupil 


 G. WEBBER , F.R.C.O 


 special CORRESPONDENCE COURSES : 


 recent success paper work 


 1915 


 1915 . 


 1916 . 


 1916 . 


 1917- 


 . 1917 . 


 1918 . 


 1918 . 


 1919 . 


 » 1919 . 


 + 1920 . 


 1920 , 


 1921 . 


 1921 . 


 1922 . 


 1922 . 


 1923 . 


 1923 . 


 1924 


 + 1924 . 


 » 1925 


 1914 . 


 1914 . 


 1915 . 


 1915 . 


 1916 . 


 1916 , 


 1917 . 


 1917 . 


 1918 , 


 1918 , 


 1919 . 


 1919 . 


 » 1920 . 


 1920 , 


 1921 . 


 1921 . 


 1922 . 


 1922 , 


 1923 . 


 1923 . 


 1924 . 


 1924 . 


 NEW COLLEGE , OXFORD . 


 AADDADADAADADAAAADAADAAADAAA 


 ST . MARY , 


 BASS WANTED 


 S.W.3 


 BRYANSTON SQU , 


 OK 


 


 DIA 


 F ' ) R 


 \.R.A 


 AVE 


 R.A.M. ; 


 1 . A.C 


 BASS 


 MUSICAL 


 1925 297 


 E.C.2 


 W.C.1 . 


 RG ANIST - CHOIRMASTER REQUIRED , 


 ST . JOHN WOOD , N.W.8 


 YANO PEDAL ATTACHMENT , 


 RGAN MUSIC sale , 


 treatise conducting . " | 12,000 


 MALKIN PATENT pedal CO . , LTD . , 


 NEWCASTLE - U NDER - LYME , 


 CHOIR MUSICAL JOURNAL 


 content APRIL 


 PRINCIPAL 


 SIMPLEXA 


 STRETCH , INDEPENDENCE , 


 STRENGTH 


 A.R.C.O. examination AIDS 


 SOLO - playing . score - reading . 


 transposition . accompaniment . 


 692810 


 INCREASES FLEXIBILITY , 


 LONGFORD 


 lecture - recital 


 MR . A. M. HENDERSON 


 L.R.A.M. , A.R.C.M. ) , 


 PIANIST LECTURER 


 OFORTE 


 NN STREET 


 STEINWAY 


 OBTAIN 


 perfect result 


 


 perfect INSTRUMENT 


 STEINWAY 


 1 & 2 , GEORGE STREET , CONDUIT STREET 


 FINAL book 


 BREARE VOCAL serie 


 VOCAL analysis : 


 SENSITISING breath 


 emotional evolution 


 N H 


 MUSICAL composition revise . 


 MUSIC MUSICAL literature 


 EEVES 


 HAROLD R 


 [ AFTESBURY AVENUE , LONDON , W.C.2 , ENGLAND 


 LONDON , W.1 


 BECHSTEIN 


 PIANOS 


 126 , NEW BOND ST . , W.1 


 BECHSTEIN PIANO SPECIALISIS 


 PIANOS 


 BECHSTEIN , BORD , 


 SCHIEDMAYER , ROGERS , 


 NEW SECOND - hand 


 cash hire purchase 


 74 - 76 , SOUTHAMPTON ROW 


 LONDON , W.C.1 


 PAN 


 FOLLOW lead 


 MASTER MUSICIANS 


 MELSA ARTHUR BROADLEY 


 BRITISH MUSIC STRINGS . LTD 


 334 , MONSELL ROAD , LONDON , N.4 . 7 


 breathing 7 


 ROBERT BROWNING . 


 set MUSIK 


 TENOR BASS SOLI , chorus , 


 ORCHESTRA 


 


 voice - production 


 


 


 


 1925 


 


 PILGRIM progress 


 narrative tone - poem ORGAN 


 ERNEST AUSTIN 


 PILGRIM unhappiness 


 critic 


 PILGRIM wander field , meet 


 EVANGELIST begin journey 


 IV 


 PILGRIM 


 


 AT.THE HOUSE THI 


 CROSS 


 PILGRIM journey PALACE 


 F humiliation COMBAT 


 PILGRIM APOLLYON 


 PILGRIM INTERPRETER 


 BEAUTIFUL 


 VANITY FAIR 


 IX 


 MOUNTAINS 


 


 DELECTABLI 


 DESCENT enchant land 


 HOPEFUL vision CHRIST 


 BEULAH THI 


 CELESTIAL CITY 


 THI 


 HI 


 


 J. H. LARWAY , 


 WELLS STREET , OXFORD STREET , 


 LONDON , W.1 


 14 


 THIRTEEN chorale 


 


 CHURCH CANTATAS motet 


 


 S. BACH 


 WEDDING 


 


 MARCH 


 


 ORGAN 


 WRITE 


 BASIL HARWOOD . B 


 ORI 


 SUITE 


 STRING ORCHESTRA ( quartet 


 ANDA } 


 THRE 


 DOMENICO SCARLATTI 


 THRE 


 . 


 JULIUS 


 


 SCORE , 


 music require cover 


 nice clean . 


 R. H. MUDDIMAN 


 1925 


 " discus " OKGAN BLOWEK 


 supply WESTMINSTER ABBEY , YORK MINSTER , ETC . , ETC . 


 WRITE NEW BOOKLET 


 estimate submit free , 


 write 


 WHITE LION STREET , LONDON , N 


 recent number 


 village ORGANIST 


 RELIG 


 YORK 


 D 1 FLAT 


 THEMA OSTINATA 


 covenanter ' MARCH 


 overture F 


 HANDEL 


 CONCERT 


 MINOR 


 short ANI 


 HOCHSTEN THRON 


 GELOBT 


 seven pastel L AKE CONSTANCE 


 PRELUD : 


 PRELUDE 


 MINOR 


 NNN 


 NOVELLO handbook musician . 


 fdite ERNEST NEWMAN 


 CHORAL TECHNIQUE interpretation 


 HENRY COW ARD . 


 teaching accompaniment 


 PLAINSONG 


 FRANCIS " BURGESS 


 


 ARNOLD DOLM ETSCH 


 APPENDIX 


 contain - illustrative piece . 


 


 SOURCES KEYBOARD MUSIC ENGLAND 


 


 CHARLES VAN DEN BORREN . 


 translate FRENCH 


 theory HARMONY 


 


 MATTHEW SHIRLAW 


 ORGAN WORKS BACH 


 


 HARVEY GRACE . 


 bless 


 COM 


 WRI 


 " JESU 


 


 " SING 


 " SPIRIT 


 ND 


 


 MUSICAL 


 303 


 NOVELLO 


 BACHS 


 bide 


 CHRISTIANS grave ye GLAD day 


 redeemer race - - 


 WOE THEE 


 CHRIS 


 COME , 


 depth 


 hungry man THY BREAD 


 GOD GOETH shout 


 GOD love world - 


 ' GODS time good 


 brightly shine - , 


 thou sufferest GOD guide thee 


 praise thee 


 IESUS SLEEPS , hope remaineth 


 let song rejoicing raise 


 LORD sun shield , 


 LORD shepherd , 


 JESUS 


 spirit heaviness 


 0 CHRIST , live 


 0 JESU CHRIST , thou PRINCE peace 


 o light EVERLASTING - - - ' 


 ) praise LORD mercy 


 teach , LORD , day number 


 praise GOD reign heaven 


 praise thou LORD , JERUSALEM 


 SAGES SHEBA , THI 


 SLEEPERS , WAKI 


 STRONGHOLD SURE , 


 noughit soundness body 


 THOU guide ISRAEL - - - 


 wailing , cry , mourn , sigh 


 VATCH YE , PRAY YE . - . 


 VHEN GOD recall spirit 


 edition 


 church 


 


 cantata 


 price shilling sixpence 


 pthe solo cantata 


 book ( book voice ) 


 price shilling sixpence 


 BACH motet 


 304 


 TRINITY COLLEGE MUSIC 


 K.P. , G.C.V.O. , C.E 


 RT . HON SHAFTESBURY , 


 3.C 


 E OLDROVI 


 SONGS 


 ARTHUR BENJAMIN 


 ELKIN & CO . , LTD .. 


 KINGLY STREET , REGENT STREET , 


 20 


 BROADWOOD 


 PIANOS 


 BOSWORTH & CO . , LTD 


 JUNE 5 mark 


 TERCENTENARY 


 ORLANDO GIBBONS 


 FEATURE 


 work commemoration 


 


 CHURCH SERVICES 


 ORGAN MUSIC . 


 boar head 


 MUSICAL interlude act 


 libretto TAKEN 


 SHAKESPEARE KING HENRY IV 


 MUSIC , found old english melody , 


 GUSTAV HOLST 


 PIANOFORTE arrangement VALLY LASKER . 


 MUSICAL 


 


 SKER 


 MUSICAL 


 1925 307 


 MUSICAL 


 time 


 april 


 44 = = 2 


 


 3z10 


 1925 


 m. C 


 vious 


 trend 


 1611 


 15 = 


 ; 071607 


 1599 


 154 


 1505 


 


 


 314 


 JOHN DANYEL 


 


 316 


 : SS 


 personality PURPLE 


 musical 


 1925d’Or ' kindred ? doubt 
 true Scriabin 

 ie Mozart Beethoven ( alike language , 
 outlook ) ? speak personally , | 
 hear | 
 wonder 

 remote 
 work | 
 
 exceptional example 
 greatness assert disability | 
 new language , detect , 
 baffling glory purple , emperor 




 audience 


 TYRANNY 


 


 musical 


 319 


 zo 


 229 - 30 performance ' star , ' 
 disregard platform study 
 audience point vantage , note 
 violent applause section , answer 
 section , till stimulus * focus ’ 
 spread applause general . 
 way persistent group , possibly 
 keen artistic motive , infect neigh- 
 bour spread disease entire house 
 find applaud , approval 
 virtuoso automatic response energy 
 

 let carry little far . musical 
 audience compose people 
 know music , , save 
 exceptional circumstance , familiar 
 good deal perform . 
 audience kind differ collection 
 assemblage . partisanship naturally , 
 sport ; critical attitude mind , 
 sport : distinction , result 
 forecast performance fall short 
 ideal . sport outsider win , 
 matter futile rendering , 
 Mozart Beethoven ' run . ' 
 musician deplore hapless performance 
 blaze inward fury point drop 
 nuance exaggerate , mind carry 
 ideal interpretation golden secret 

 music , anticipation found 
 early study knowledge pave way 
 outburst , emotion damp 
 intensify accord passage mutilate 
 hidden inner bring forward 
 heighten fabric enlarge conception 




 100 , 


 musical 


 _ — _ 


 1€t , 


 xum 


 thethe thing , use word , appear 

 z Beethoven Op . 98 , ' die ferne Geliebte , Ein 
 oe Liederkreis von Al . Jeitteles . Fiir Gesang und 

 sort thing 

 Pianoforte . . . von L. van Beethoven . ' 

 consist song , compose April , 1816 , 

 _ cycle describe detail 

 moa |show poet composer 
 deliberately anticipate development song form 
 composer write Beethoven 
 alter toany considerable extent . ' structure 
 sequence lyric — ms . 
 number consecutively 1 11 , ' succession 
 mood , turn adulatory , mournful rejoicing , 
 ( generally ) pathetic farcical ( obviously 
 engineer poem composer 
 opportunity variety art ) , 
 fact set d minor — 
 thing imagine beg 
 complete 

 thing evident case 
 Ravenscroft cycle . poem dialect , 
 section concern respectively 
 follow stage wooing Hodge 
 Malkyn 




 _ — — _ , 


 musical 


 new light late tudor composer 


 VII.—WILLIAM 


 H. GRATTAN FLOODhapel gift , stand steadfast old religion , unpublished letter 

 tury , interesting notice service BEETHOVEN 

 ritish Abbot Cook , Reading , Cardinal Gasquet s JEAN CHANTAVOINE 

 Marshall ( Beche ) , Colchester : prima donna Pauline Viardot , privi 

 ry leged copy letter , write Beethoven 

 elow , active measure persecution , find complete 
 jevise Cromwell , personal intercourse | edition work deal master . 
 impossible , trusty agent find person letter , tell 
 blind harper , afiliction musical | essential Beethoven life art , 
 skill bring kindly notice | event possess singularly vivid interest fit 
 King . staunch friend papal party , | series letter fact know , 

 tainh blindness render mission unsuspected , apparently fill gap historical dossier . " stage 

 far travel abbey , encourage | reach exegesis Beethoven life 

 rorks , imprison monk , bear letter house | work , appear expect 

 house , , doubtless , find safe way send | future unpublished 
 ngish Rome letter write Pope document . 
 enient Cardinals . I. 
 = ( letter note , write 

 riba d ontemporary writer comment ] ; , , ) word Beethoven handwriting . 

 Cycies lores Goings original text , english translation 

 t tune settest thine harp note high die 2 overturen folgen , und wird ihnen geholfen , 
 TS . > 7 : ano ch > > 
 hou thoughtest set bawdy bishop Rome jedoch mit der aussersten anstrengung . schreiben sie 
 Kio mir gefalligst , dass man Graz sicher alles 
 song   Aing Ss majesty . . . , ° 
 rwartete erhalle , jeioch muss man sich m _ voraus 
 early gefasst machen zur probe , da die sachen mit dem 
 ite November 15 , 1539 , Abbots Reading , postwagen zwar nicht zu spit aber auch nur eben zur 

 astonbury , Colchester martyr , rechten zeit ankomen werden.—BEETHOVEN . 
 n November 20 , William commit 

 Tower ( Brit . Mus . Cott . MSS . Titus B ) , 
 e end year , 

 orde ourt Harper , year later fall ill - health , Ursulines Graz 1812 , view 

 geant nd pass pe acefully away feast the| concert Beethoven supply orchestral 

 year Annunciation , 1564 . official entry the|(uisites . person , write 

 Declared Accounts ( Audit Office ) year end Rettich ( Otto Jahn Oftich , 

 ess Michaelmas 7 Eliz . , run follow Beethoven letter designate 
 letter o ) , convent management 

 ments Musicians — William , /arfer , half steward , bursar ; 

 en tt fragment composition } Graz concert occasion 

 t 1 Harleian MS . 7,578 , - book correspondence Beethoven Varena , 

 gland ’ maine piece Aston , Heath , , Mundy , imperial procureur Graz . end 

 ment R. Johnson . anthem include in| January , 1812 , Beethoven write Varena regard 

 year Add . MSS , 30,480 - 4 , date probably 1560 , intend concert , send time 
 anthem motet in| oratorio ( ' Christ Mount Olives ' ) 




 330be day 

 letter Varena , little later , date 
 February 8 , Dr. Kalischer , compiler 
 Beethoven letter note - mention , 
 , prove date postpone 
 month , read letter 

 receive Overtures Ilungary yester- 
 day , shall copy quickly possible 

 che delay , , 
 day , - write note , state 
 overture send morrow , 
 receive Graz March 23 

 true Beethoven difficulty 

 rbout copyist . clear 
 letter Varena,$ Beethoven , apologise 
 having miss post dispatch 
 overture , dread lest follow post 
 arrive late , ask Varena suggest 
 rapid mode despatch . note Varena 

 return question 

 Beethoven evidently receive } 
 satisfactory answer Varena , address 

 Baumeister , secretary pupil , Archduke 
 Rudolph , follow , March 12 , 1812 : € 
 send overture ' Nachspiel ' 
 Benefactor Ilurgary ; copy 
 y , send Graz behalf poor 

 . consider happy 
 , benevolent aim , art use . 
 need H.1.H. gracious master , 
 ind certainly let , 
 know slender intellectual power 
 belong H.I.H. soon overture t 
 copy , return H.I.H.—Yours truly 

 concert finally place , 
 Ursulines Graz , benefit 
 , Varena , Rettich 
 great hurry return orchestral music . 
 consequently 8 , 1812 , Beethoven write 

 Varena 
 Sir,—Still ill busy , 
 r letter . Ilow 
 character ? 
 ngry ; 
 music immediately concert , 
 time 
 unfortunately come late , 
 unfortunately spare venerable 
 lady cost copying . time 
 account charge copying , 
 moment worry kind misfortune 
 prevent [ like . 
 probably Hlerr O. , zealous goodwill 
 notwithstancing , delay inform , 
 oblige copying pay 

 , hypothetical 
 7 bd . 7 
 ! pr " ) . se 

 following year , Beethoven second 
 occasion send composition 
 Ursulines Graz , concert . 
 time , sum florin remit 
 copy expense ; accept , believe 
 come intermediary ex - King Ludwig 
 Holland , , live retirement Graz 
 ' thing Dutch , 
 altogether lawful way 

 , - qu -d line , insignificant 
 cursory reader , valuable 
 investigator . constitute miss link 
 relatively important chain , henceforth 
 regard restore strength 

 ii 

 second letter , address Maurice 
 Schlesinger , parisian editor founder 
 - know Gasef / fe Musicale , sign 
 Beethoven . write Carl 

 greatly - discredit nephew — dainty , 
 lalmost feminine handwriting , frequently act 

 auch werde ich die partitur des ( Quartetts moll 
 dort abgenen ; welches ich ihnen schon kingst geschickt 
 hatte , wef ich nur eine nachricht von Ihnen erhalten 
 hatte 

 Ich wiinsche Ihnen alles Gute u. Schdne , u. verharre 
 stets mit Freundschaft u. Anhiinglichkeit.—Ihr 
 ergebenster , BEETHOVEN 

 auch ich als schreiber dieses danke ihnen herzlich , 
 dass sie sich meiner erinnert haben , u. wiinsche , dass 
 Sie Ihr Versprechen uns recht bald Wien wieder 
 besuchen , erfiillung bringen méchten.—KARL 

 DEAR FRIEND,—TI receive letter ol 
 April 13 . reason reply soon 
 gap come ourcorrespondence 
 fill . fortnight , week , 
 new quartet finish . kindly send 

 Kalischer : * Beethoven Stimmtliche Briefe , ' ii . , p 
 close address following manuscript ann 
 Schlesingtr : * 1826 — Beethoven — Vienne 

 Mai 




 MUSICAL 


 1925i wish possible good , remain , 
 friendship attachment,—your devoted 

 BEETHOVEN . 
 writer letter , thank cordially 

 remember . desire speedily 

 KARI 

 like precede note , letter hint 
 series negotiation , complete correspon- 
 jence relate thereto . know Beethoven 
 ad sell Schlesinger , publisher , 
 frm establish Berlin Paris , 
 uartet minor , Op . 132 , F , op . 135 , 
 hich appear posthumous work September , 
 $ 27 , month death . Beethoven con- 
 nection Schlesinger firm 
 ubject important study Dr. Kalischer , * 
 commemorative pamphlet , 

 g document , publish firm 
 sical production , Robert Lienau , Berlin,+ 
 occasion - - fiftieth anniver- 
 sary birth Beethoven . tf 

 Ve compare letter publish | 
 nder number 1,145 1,149 Kalischer 

 undersigned , certify acquire 
 Jaartets property , 
 nce pay ducat gold , 
 receive Vienna , h » $ place , 
 likewise pay honorarium 80 ducat 
 gold delivery . '—M. scues[!nger 

 seine Zeitgenossen * 
 ind Berlin Berlin , Schuster u. L3ffler ) , chapter 
 n , die Schlesingersche Musikalienhandlung und 
 ) , ef Seq 
 firm Schlesinger , Berlin . 
 Beethove ind seine Verleger S.-A. Steiner und 
 er , Ad -Marx Schlesinger Berlin , ' & c. , bearbeitet von 
 r ( Berlin Vienna , Schlesingesche B 
 u ; Carl Haslinger qdm . Tobias ) s.d 
 ) Kalischer , viennese 
 Schlesinger - Unger pamphlet conjecture 
 Beethoven confuse 
 Schlesinger business man Vienna 
 receive 8o ducat Schlesinger 
 f receipt date September 10 , 1825 , publish 
 Unger pamplet , p. 91 

 Kalischer * Beethoven und 

 Beethoy 
 wo quart 
 Uesinger 

 second note write Beethoven 
 nephew , Carl , French 

 faites de cette lettre 

 fait de votre intention 

 manifestly refer rough copy letter 
 | write Beethoven , Carl copy 
 | send Schlesinger ; doubtless letter 
 | read 

 come content letter , 
 |very term reproduce , word word 
 | place , letter publish Dr. Unger 
 jin commemorative pamphlet Maison 
 | Schlesinger - Lienau , number 113 ( Baden , 
 | July 19 , 1825 ) , 114 ( copy , Baden , July 15 , 1825 ) , 
 | 120 ( Vienna , 31 , 1826 

 Quartet completion Beethoven 
 announce ' fortnight , week 
 |most , ' f major . finish 
 lonly October 30 , 1826 , Gneixendorf , 
 Beethoven stay brother , Johann , 
 | country 

 Quartet viennese publisher , 
 Artaria , b flat , op . 130 , compose 
 | 1825 , play time Vienna 
 | Schuppanzigh Quartet March 21 , 1826 . 
 | Quartet /7vwa / e ' grande fugue , ' 
 | publish separately ( 1827 ) Op . 133 . 
 | November , 1826 , Beethoven , 
 ithe Quartet b flat , replace fugue 
 | permanent /yna / e 

 word ' quintet ' particular interest 
 |this connection . confirm suggestion 
 Beethoven contemplate , year 
 life , writing work kind , 
 | Quintet , Op . 16 , 
 | pianoforte wind instrument ( 1797),and Quintet , 
 Op . 29 ( 1501 ) . * 
 | project journey London caress 
 Beethoven encourage London 
 | Philharmonic Society , Moscheles , 
 | pianist . death prevent realisation 

 Carl allude visit Maurice Schlesinger 
 Beethoven 1825 , Beethoven en 

 eialture Baden.t Carl , sociable 
 fond amusement , naturally desirous , 
 \for , repetition visit , 
 |which generally accompany pleasant 
 | reunion cabaret 

 yee 

 present time , Beethoven life know 
 | sufficient detail slight unpublished 
 document relate thereto acquire special value 
 importance connection 
 document fact throw — 
 receive — light . , , 
 case letter appear , 
 ‘ irst time , page Le Wénestre 

 Maurice hlesinger write 
 uld ve apt ' kindly 
 r 
 singer Unger 
 letter 
 finish 
 publisher 

 22 , p. 95 . ) 
 ndler affirm Beethoven , die , 
 irst movement quintet , intend 
 Jiabelli , Vienna 
 t canon write Beethoven f 
 |lines greeting , September 26 , 1582f 
 } Simmitliche Briefe , ' pp 193 - 194 ; Beetho 
 | Schlesinger - Unger pamphlet 

 string 

 r visitor , 
 Kalischer , * Beethoven 
 ven letter , . 115 , 

 MUSICAL TIMES — Aprit 1 1925 

 fourteen — song ordinary sort . what| man choir string ) analyse . obvious ! 
 influence bear ? M. Gérold , | thing Blackpool . arrive pianoforte 
 , Zumsteeg , Reichardt , , thirdly , ' work author , good Frenchman , protest 
 reminiscence Mozcart . ' jagainst ' Moments J / usica / s ' ( musicaux ) , 
 sketch german song 18th|solecism appear — a.s 
 century . Schulz esteem having set | ' Moment Musicale ' ! — London programme . 
 face worthless song - text . Reichardt , ' a| faulty French Schubert 
 man ingenuity great activity , ' set music | publisher . praise ' Grand Duo ' C 
 good german poet , song pianoforte , hand , remind Joachin 
 ' real musical value . ' Zelter , Goethe musical ] score . reminder worth pick : 
 adviser , leave song cut bad figure , } chamber musician trio , 
 consider alongside Schubert . | Quartets , quintet summarily treat 
 ballad Stuttgart composer Zumsteeg|M. Gérold point numerous link 
 influence far deeply man young | Schubert Wagner , compare 
 Schubert . viennese song- | scherzo ' death maiden ' Quartet 
 writer . Steffan , Marie Antoinette music - master , | Siegfried forge Song . 
 publish amiable popular set . | little Wagner debt 
 Mozart ' Violet,’and scanty masterpiece Schubert . compare Siegmund * Spring Song ' wit 

 form Beethoven . rank Zumsteeg } Schubert ' Erlafsee , ' word ' regungslos der 

 high possible , perpetually| blaue Schoos . germ 
 amaze immense advance variety andj ' Lohengrin ' page ' Die Erwartung ' ? 
 depth beauty Schubert M. Gérold deplore loss ' Gastein 
 predecessor . ' Symphony , ' assumption 

 M. Gérold deal formidable mass | exist original work 1825 . catalogue 
 Schubert song group accord } jt figure ' Symphony . 8 , C major . ' 
 poet . point p. 73 that|/does tell learn key 
 Schubert spur romantic innovation disappeared — , possibly , mythical — work . 
 strange , unearthly suggestion poem suggest Schubert regard 
 Ossian , captivate eighteenth | ' unfinished ' Symphony finish . 
 nineteenth year : , Sonatas Beethoven 
 movement , know ' unfinished ' Sonatas 

 mysterious element predominate | great c major Symphony ' , , 
 poem , grandiose picture nature contain , | structure monstrous . 
 rhapsodic character , vividly richness incomparable 
 strike young man imagination , determined beauty . ' sad page Schuberts 
 seek new mean expression . incessant futile attempt success 




 334 musical 


 1925 sand octave offend ear , anc ' Quelques Souvenirs d’un Editeur de Musique 
 d forbid matter | Par Jacques Durand . pp . 136 . Paris Durand 
 neiple , et fils , 2 fr . soc . ( autobiography 
 rarie , find author free superstition | know publisher . interest lie chiefly 
 ecause ' point , instance , certain fifth | writer personal recollection eminent 

 clave Beethoven work need ascribe , | musician meet 

 MUSICAL 




 1925 


 SWEDISH QUEEN MUSIC 


 NORWEGIAN FOLK - TUNES 


 MODERN ANS SHORTCOMINGS 


 


 LULLY 


 MONIUSZKO — SZYMANOWSKI 


 RUMANIAN PERIODICAI 


 M.-D. CALVOCORESSI 


 CHURCH MUSI 


 SOPR 


 , O.M 


 00 10 


 NOWSKI 5 


 SONG 


 - 


 arrange 8.a.7.b 


 HS ES SESS 


 NN 


 PARRY 


 HANG FEAR , CAST away care 


 340 MUSICAL 


 1925 


 CHAMBER MUSIC 


 MUSICAL 


 1925 341 


 EASY PIANOFORTE MUSIC 


 MUSIC 


 HARP 


 NEW MUSK 


 VIOLIN 


 STRING MUSIC 


 MUSICAL 


 1925 


 B.V. 


 STRING ORCHESTRA 


 ROYAL COLLEGE ORGANISTS 


 ( . ( CH 


 H. 


 SILBERMANN ORGANS 


 glance 


 LEFT KEYBOARDS 


 SID 


 _ _ _ _ 


 KGANS 


 MUSICAL 


 RIGHT keyboard 


 note BACH organ ARNSTADT 


 CHOIR - TRAINERS 


 MUSICAL 


 IAGNUS ARTYR , LONDON BRIDGE 


 VESTMINSTER CATHEDRAL recital . 1!ANOVER SQUARE 

 Church celebrate 
 March \t long list service music 
 include setting Beethoven C ( orchestra ) , 
 Walmisley d minor , Stanford C , Harwood fiat 

 




 MUSICAL 


 1925 


 recital 


 appointment 


 notation HORN : alter 


 meaning 


 346 MUSICAL ti 


 7 FORD 


 ALBERT HALL 


 ORGAN 


 FORD 


 MUSICAL 


 1925 


 J. SWINBURNE 


 1925 . 


 * PACKINGTON POUND ' 


 ( 1909 


 1059 


 W. H. GRATTAN FLOOD 


 MEN song WOMEN SINGERSELGAR MANCHESTER 
 Sir,—Even * ' Falstaff ' ( far 
 ascertain ) second Symphony 

 form Manchester , Symphony ' 
 Apostles ’ twice year | 
 respectively , city number people 
 possess apparently erroneous idea | 
 Elgar composer worth bother . occasionally 
 come painful conclusion Elgar - lunatics ave 
 lunatic , wrong tack ; 
 page Elgar score bring 
 ny sense . vead Elgar , 
 chance Aearzng ; 
 Mr. Neville Cardus aptly , 
 satisfying restaurant hungry 
 read menu . beginning season 
 announce Mr. Catterall play Violin | 
 Concerto Hallé Concert January 22 . joy ! } 
 hear — . programme 
 precede concert Mr. Catterall mention 
 connection Elgar , page 
 programme concert question , Beethoven 
 Concerto substitute . season 
 Elgar work mention prospectus | 
 scratch . disappointing , 

 real object write voice desire | 
 sound , comprehensive book great 
 composer . Mr. Newman little work to| 
 ' Apostles . ' book treat the| 
 Symphonies , Concertos , chamber music . forgot 

 music cinema 

 Sik,—I delighted read Mr , Clarke letter | 
 February issue J / ustcal Times , relate use | 
 - rate music cinema . play year | } 
 local picture house , use music great | 
 great — Bach find place , 
 audience humming term Brahms , Haydn , 
 Chopin , Cyril Scott , Debussy , Schumann , " c.—especially 
 Beethoven great composer . Mr. Clarke 
 , * judicious admixture music 
 light kind . ' good drama , finely 
 act beautifully stage , surely good music | 
 use , art , ancillary | 
 t , bind raise mind public | 
 unconsciously desire good . cinema | 
 enormous power spreading true musical | 
 education , work suddenly mean 
 real masse use 
 translate sound appealing , human emotion 
 screen . educate music - lover 

 e 

 , picture house great help ; 
 opportunity little - know work familiar 
 habitué , buy work learn 
 . complaint 
 management score music ' 
 classical , ' leave hear expression 
 regret departure Beethoven Sonatas , Xc . 
 ENip PAYN ! 
 , Clevedon , Somerset 

 Mary , 1y25 




 GRAMOPHONE record : english 


 foreign catalogue 


 KAIKHOSRU SORABJI . 


 WAGNER BASS CLARINET : 


 matter 


 ANDt Wagner 
 
 te tone 

 fully realise expressive possibility music ' ; 
 master style originally intend is|and report contain equally 
 mpossible natural alto use . | omission error ( inevitably , alas ! ) . 
 elerre reply correspondent | regard explanation ask : knowledge 
 , ' inevitable feeling discomfort | musical literature language , possession 
 istaste hear man sing voice feminine | fine musical library , deep study research 
 ' ype , ' * air unreality great audience musical history generally , authority satisfy 
 yment . ' singing Farinelli Caffarelli| contributor ; fear allow space 
 ¢two great pupil Porpora ) , Bernacchi ( pupil | long process enlightenment . refer , 
 ‘ tocchi ) , male soprano , great unreality | , Thayer Sangalli information 
 tan audience enjoyment , , ' God | Beethoven , read work know 
 Farinelli ' ? source inspiration miscall ' Moonlight ' 
 Mr. William Shakespeare excellent new | Sonata ( fully explain audience , 
 * , " Plain word singing , ' , refer | report ) , realise owe 
 isection female voice : apology 

 musical 




 350presentation find elocution 

 finally , lecture point stress 
 futility comparison matter art , 
 agree — despite knowledge da _ Vinci , 
 Shakespeare , Goethe , Giatto , Wergeland , Buonarroti , 
 Diirer , Rodin , Aristotle , Palestrina , Handel , Bach , Mozart , 
 — agree feel 
 Beethoven great spirit art , 

 Feste ’ come understand feeling 




 ARTHUR IKST . need hardly sorry 
 Ilis letter , , 

 write 
 Ilirst injustice . 
 touch cn main point 
 statement Beethoven ' ' music 
 language clear language write word . " 
 try demonstrate , composer 
 , cause 
 music absurd claim behalf . music 
 definite ordinary speech lose 
 charm . Mr. Ilirst scornful dismissal people ' * 
 agree meaning piece music " 
 answer " wow dis- 
 cover movement ' Moonlight 
 Sonata ' prayer , discovery ? \nd , 
 music clear language , f 

 feste 




 historian major OPERA HOUSI 


 DDRESSSbarps Flats 

 dog concert : hear Beethoven ? 
 ; hear noise . people 
 predicament.—sir Oliver Lodge 

 forgive Jim Connell ' Red Flag ' 
 responsible music — 
 George Bernard Shaw 




 W.C.1 


 FORGE 


 MUSICAL 


 1925 351 


 ROYAL ACADEMY MUSIC 


 MODERN harmony 


 MUSICAL 


 1925 


 H. GSIR WOOD concert 

 Sir Henry Wood conduct Beethoven fourth Symphon 
 ( Jueen Hall March 7 . time 
 Septet , Op . 20 , * Pastoral ’ Symphony — 
 time easy - going , smile Beethoven , 
 incline forget 
 - number Symphonies . gracious . 4 come 
 victoriously Saturday afternoon , concert 
 ordinary . Moiseiwitsch soloist 

 Beethoven centre previous concert 
 series ( February 21)—the C minor Pianoforte Concerto , 
 play M. José Iturbi , play , 
 refreshingly straightforward , unaffected , musicianly way . 
 Symphony Mozart , kk . 201 , small 
 piece english plain french 
 Butterworth ' Shropshire Lad ' RKavel 
 rhapsody 

 HENRY 

 LONDON SYMPHONY ORCHESTRA 

 M. Felix Weingartner conduct London Symphony 
 Orchestra concert March 9 , ' Euryanthe ' 
 overture symphony — ' Pastoral ' 
 Beethoven ' Fantastic ' Berlioz 

 conductor analytic mit 
 luscious sort music , Wagner , instance 
 ut programme gift intelligence tast 
 shine like good deed naughty world . , 
 concert necessarily browbeat 
 let word charm reasonableness , 
 Beethoven exquisitely 
 M. Weingartner 

 awe . 
 courtesy , persuasion . 
 tranquil , Berlioz fierily animate 




 IVA { ARMONIC SOCIETY 


 MR . BESLY concert 


 H. G 


 MUSICAL 


 time 


 S — APRIL 192 


 BIRMINGHAM STRING QUARTET 


 1A INI RIO 


 MUSICAL 


 1925 


 10 


 festival SCOTLAND 


 MUSICAL TI 


 20 - 28 


 BACH work stage 


 GLASGOW 


 MUSICAL 


 1925et \ recent programme Musical Society , 
 ( cl 

 Mr. H. J. Colson , include Beethoven fifth 
 lor . Ilarding egyptian lance , 
 s direction . music way 

 stival March 2 

 minor 

 ussy 
 iss 
 Ifeard th 
 somewhat distance . 
 remarkably , work hear great adv 
 Liszt symphonic poem ' Orpheus , ' 
 Max Mossel concert , February 18 , F1 
 e audience madrigal Weelke 
 folk - song Vaug Williams 
 sung.——A huge audience assemble 
 hear Paderewski recital March 20 , [ ilis pi 
 gramme include Bach Fantasia G minor , 
 arrange Liszt , Mozart minor 
 Sonata f Beethoven , p. ii , 
 theme Paganini , 

 1 Giovanni ’ Fantasia 

 minor 
 riation 

 Rondo , D 
 Brahms \ 
 piece Chopin . 
 beautifully 
 Sonata 
 iolin pianoforte outstanding feature 
 meert Miss Winifred Browne Mr. 
 William Pri Mozart Sonata F Brahms 
 1ajor Sonata include progra , 
 \rensky id minor Trio play Miss Beatrice 
 Hewitt , Miss Katie Goldsmith , Mr. J. Hock , 
 February | Schubert beautiful b flat Trio 
 Mr. Robert Parker sing song Strauss 
 Schubert . — — quartet ’ cellist play un 
 Bach arrangement Beethoven 
 concert 

 




 MUSICAL TI 


 RNE 


 GATESHEAD , suille 

 Symphony . _ soloist 
 Miss Floren e | ielden , 
 Mr. Charles Knowle 
 HALIrAX.—Elgar 
 Smyth ' hey , nonny 
 Crohoore , ' sing Halifax Choral Society 
 March 5 , Dr. Tysoe direction . Mr. Herter 
 Johnson play Beethoven G major Pianoforte Concerto , 
 Leeds Symphony Orchestra open concert witt 
 Handel - Elgar Overture . 
 annual concert Herefordshit 
 Orchestral Society Shire Hall 
 February 23 24 , Dr. Percy Hull conduct . 
 programme — occasion — include Brahmss 
 second Symphony , ' Brandenburg ' Concert 
 Stanford ' Shamus O’Brien ' Overture , number 
 | Elgar second * Wand Youth ’ Suite 

 Music- Makers , ' 
 Stanford 




 ITEREFORD 


 MUSICAL1925 359 

 ysual problem money shortage , danger 
 come end,——the Philharmonic Society 
 conclude winter season March 3 programme 
 Haydn Symphony , Beethoven ' Egmont 

 selection ' Iolanthe . ’——Sir Walford 

 library shelf avother thirty - year . — — Murdoch 

 evening contemplative reading 
 Beethoven C minor Pianoforte Concerto — interesting 
 stimulating thought , convincing . 
 aspect chamber music playing discuss 
 later . — — Inghelbrecht orchestral poem , base old 

 japanese Snow Festival theme , work — 




 MUSICAL T 


 1925music Scotland 

 notice Paderewski , 
 Mrs. Kent Fraser , Mr. 
 ind Glasgow . — — hay 
 appearance Prof. Tovey 
 Sunday evening 
 pianoforte recital Mr. Petrie 
 Beethoven , Chopin , Schumann ; 
 Marie Thomson ( soprano ) , Miss Mary 
 forte ) , Mr. Watt Jupp ( violin ) ; recital 
 Grierson Mrs. Maitland play 
 yr Concerto pianoforte string 
 ) p. 40 , pianoforte , 
 1 String Quartet plave work Beethoven 
 Beethoven r al Prof. Tovey ; 
 recital trio Bach Mozart , 
 pianoforte , violin , anglai , Prof. Tovey , 
 conjunction member 
 fourth University 
 Concerts , Edinburgh String Quartet play 
 Schubert , Mendelssohn , Hayd 
 concert , Prof. Tovey join quartet Brahms 
 pianoforte string , unveil bronze 
 Portrait Plaque Prof. 
 s predecessor Reid Chair Music Edinburg ) 
 ni wl cupie chair period 
 Mr. Adrian Boult conduct seventh 
 Xeid Orchestra C rts , Misses 
 Harrison play 1 Delius double 
 violin , ’ cello , orchestra . eighth 
 rt , Prof. Tovey dd conducting 
 ith Mr. Boult , play solo Beethoven 
 irth Pianoforte Concerto ' Prometheus ' Variations , 
 programme include * ' Eroica ' Symphony . — — 
 t ! Edinburgh | 
 lovey place conductor 
 Allt , programme include 
 Fleet , ' 2 Haydn Symphony , 
 harp , student ’ 
 Edinburgh Bach Society 
 hronological organ recital 
 St. Giles Cathedral , 
 Dolmetschs . 
 society ( conductor , 
 Beethoven 
 Miss 

 concert ' 
 lax 
 py 
 

 associate 
 month 
 h 

 Miss Jamieson 
 neilland early 
 oforte recital . — — Mr. Moonie Choir 
 laylor ' Bon - Bon Suite ' Hubert 
 © ' Connor , ' programme include 
 ' Perthshire Echoes , ' 
 - dint Catholic Choral 
 B. Moonie ) sing Beethoven 
 , ( ffertorium , Bach- 
 e Maria . ' strange bed - fellow , surely ! — 
 serie orchestral concert - lecture school child , 
 1 Mr. Herbert Wiseman Edinburgh 
 \uthority Messrs. Paterson , 
 trength . feature sixth 
 present series successful presentation child 
 [ Beethoven eighth Symphony.——Miss Jean Summers 
 soprano ) Mr. Chester Henderson ( ’ cello ) joint 
 f hi interesting item 
 Cello Sonata 

 Bruch 




 M.C.A , Music Wale 

 ABERY ru.—At College Thursday concert 
 follow item : 
 sixth concert , February 19 , trio Beethoven ( Op . | , 
 . 3 ) Brahms ( op . 87 ) , group pianotorte 
 solos . include ' Noel , ' Balfour Gardiner ; 
 - seventh concert , March 5 , B.J. Dale 
 Suite viola pianoforte ( play 
 Raymond Jeremy ) String Quintets M « 
 Brahms ( G major , Op . iii ) . 
 BANGOR.—The College weekly concert 
 reach total eighty - seven . eighty seventh 
 concert , March 12 , Herbert Howells Pianoforte 
 ( uartet minor hear time , 3s 
 Quartet flute string D major ( m zat ) . — — 
 February 12 13 miniature [ estival 

 l 




 MUSICAL 


 1925and welsh folk - music.——The weekly 
 concert University College prove 
 ' town gown . ' January 24 
 de John Ireland ' Phantasie Trio ' 

 t Beethoven Trio D major , Op . 79 . 

 sary 7 College Trio Frank Bridge ' second 

 lassical modern choral work perform 
 - vear , 
 special service Llandaff Cathedral 

 March 3 , Sir Walford Davies 
 t - lecture Bach , Beethoven , Brahms , 
 Beethoven use perspective ( musical 

 work . programme , play 

 aisO 

 pianoforte ) , Miss Evelyn Cooke ( violin ) , Mr. | 
 Williams ( cello ) , comprise Beethoven Trio | } 
 Bach Suite C major , ’ cello 

 najor , op . 70 , . 1 




 1S 


 GERMANY 


 MANUI E FALLA PIANOFO 


 OMPOSEI 


 FURTWANGLER programme 


 1a \ 


 LK 


 NEW FRENCH 


 musical 


 1925 


 NEW YORKheroine lurid drama , fair look , 
 wonderful singer exceptional voice , alsoa 
 remarkable actress , scene outlaw 
 teach fear despise , 
 learn love , reveal 
 till end piece , bea great 
 acquisition Opera House .   Lauri - Volpi , 
 outlaw , claim star , virtue 
 endurance , stage tobe 
 shout voice time . opera 
 beautifully mount , ballet exceptionally 
 attractive . | Montemezzi present , receive plaudit 
 audience , come chiefly listen feel 
 wait ' Paul Virginia , ' way 
 conjecture composer rival 
 ' L’Amore dei Tre 

 concert platform usual 
 good , bad , indifferent offering , superbly 
 perform masterpiece Bach , Beethoven , 
 Brahms , bad effort composition 
 charitable expose , 
 time space discuss . .\ performance deserve 
 attention , , Mengelberg wonderful ex- 
 position Richard Strauss ' Don Quixote . ' 
 time work play Philharmoni 
 Orchestra , probably Philharmonic conductor 
 , good thing 
 | reserve Mengelberg . ' Don ( Juixote ' s 
 know Strauss tone - poem , 
 programme music certainly 

 t 
 doubtful . 
 | programme music need study 
 afford ) necessary time 
 variation - 
 faithful servant Sancho Panza 
 , 
 inter 




 MUSICAL 


 1925 


 PARIS 


 forontominded 

 programme — creature 
 " like glad Cherubim ' ( Glinka ) , 
 watch ' ( Elgar ) , ' silent Land ' 
 [ riar ' ( Vaughan Williams ) , 
 | ( Stanford ) , ' Tempest ' 
 happy background fine playing 
 String Quartet ( Beethoven , D major , 
 Borodin , Mendelssohn , 
 occasion provide capacity house , 
 enjoy large Toronto audience . 
 mutual 

 merry- 
 * Feasting 
 ( Faning ) , ' Bushes 
 ' Blue Bird 
 ( Cornelius)\—made 
 London 
 Op . 18 , . 2 , 
 Debussy ) . 
 Londoners 
 enthusiasm 

 
 | Drewett , 
 Boris Hambourg ) find inspire - fill hall 

 work César Franck , Beethoven , Dvorak , Brahms , 
 Debussy . Mr. von Kunits form new String 
 ( Quartet ( Louis Gesensway , Phaidros Rosenfield , 
 Leo Smith ) , introduce Brahms Beethoven 
 | programme . Eaton Choral Society 
 | voice , Mr. Reginald Stewart , co - operation 
 orchestra seventy - player , spirited 
 performance Stanford ' Revenge , ' Lucy Gates 
 Umberto Saccheti soloist . Society 
 stage clever pageant , ' Progress , ' write George 
 Stewart . promising baritone , Mr. Leslie 
 Holmes , pupil Dr. Albert Ham , début 
 successful recital 

 H. C 




 VIENNA 


 


 ART ¢ \ gain praise 

 Bennett playing Beethoven Sonata ; 
 student Royal Academy 
 n 1856 , age sixteen , compete 

 n newly - found Mendelssohn Scholarship , 
 ( com 




 JOHN 


 BAN SERGEANT 


 MUSICAL 


 1925 


 AD 


 G. TI 


 content 


 TES!IS 


 AURAL 


 MUSICAL TIMES 


 charge advertisement 


 eee 


 dure month . 


 ACH , | . 


 GI 


 GEORGI 


 T NIC SOL - FA serie 


 publish 


 W. GRAY CO . , NEW 


 NNON , H. A. 


 


 H 


 MM " 


 YORK 


 HERBERT 


 1.8 


 IREW 


 IRED 


 . REQI 


 NTED 


 61 , GUNTERSTONE ROAD 


 MENTAL - hearing 


 acquire 


 hear mentally 


 WALTER H. WATSON , F.R. 


 SCHOOL VOICE CULTURE 


 VILLIAM WOLLER 


 IDAY | 


 WEST KENSINGTON , 


 INDON 


 script paper 


 sale 


 HIAWATHA ' 


 WEDDING - FEAST 


 selection 


 ORGAN 


 COLERIDGE - TAYLORK 


 TE 


 HUGH BLAIR 


 PUBLISHED 


 EW ENLARGED edition , male - voice choir 


 CAPTAIN STRATTONS 


 FANCY 


 BALLAD BARITONE SOLO WITII CHORUS 


 past PRESENT 


 GIATE church THI 


 UNITEI KINGDOM 


 _ — _ _ 


 dictionary % modern music 


 prospectus contain detail post free 


 MARCH ’ BULLETIN 


 OXFORD music 


 BOOKSMUSIC BOYHOOD , THOMAS Woop ( Oxford Musical Essays ) . 35 . 6d . nev 

 MUSICAL PILGRIM SERIES : series extended " ' Programme Notes " 
 work master . edit Dr. ARTHUR SOMERVELI 
 BACH " 648 . " I. Ann II , J. A. FULier MAirLanp , 
 BACH KEYBOARD SUITES . J. A. FULLER MAITLAND . 
 BEETHOVEN PIANOFORTE SONATAS . A. FoRBEs MILNE , 
 WAGNER ' " * ' MASTER - SINGERS NUREMBERG . " Cyrit WINN . 
 DEBUSSY RAVEL . F. H. Suera 
 1 . 6a . net book . 
 song 
 " MOOR . " Ropin MILFORD , 
 " LAWN white drive SNOW . " GorRDON SLATER . 
 " TEWKESBURY ROAD . " GorRDON SLATER , 
 2 . 

 CLARINET PIANO 




 OXFORD UNIVERSITY PRESS 


 NOVELLO MUSIC SUNDAY school festival 


 hymn tune . 


 publish notation combine 


 JESU , thy child love ... J. F. WHEELER ... H. E. B 


 O little hand G. W. HINSDALE H. E. B 


 roseate hue EARLY DAWN ' C. F. ALEXANDER ; . A. SULLN 


 GENTLE JESUS , MEEK MILD ° C. WESLEY J. STAINE 


 come se HOLY gladness J. J. DANIELL 


 LARVEY 


 VOVELLO MUSIC SUNDAY school festival 


 ROLAND roger 


 EASTER anthem 


 COM POS sition 


 ORATORIO . CHRISTMAS carol , 


 2 away GRIEF 


 ' ; MERRY CHRISTMAS MORN 


 ; 12 , SHEPHERDS ANGEI 


 sacre CANTATA . 13 . BETHLEHEM HILI ‘ 


 ESU ) -song 


 handbook musician 


 


 ORGAN work BACH 


 HARVEY GRACE 


 musical illustration 


 song 


 


 FRANZ SCHUBERT 


 vol . 1 . vol . 4 . 


 song SW song 


 MEZZO - SOPRANO voice . GERMAN english word 


 english version 


 J. TROUTBECK . 


 


 ALBERTO RANDEGGER . 


 translate 


 VOL . 2 . ( DIE SCHONE MULLERIN ) 


 GERMAN ENGLISH word 


 song " J. TROUTBECK 


 ELE ED , EI EI ' TRAN ate ALBERTO RANDEGGER . 


 VOL . 6 . 


 WINTER JOURNE)\ 


 song ( WINTERREISE ) . 


 — . = I~ GERMAN ENGLISH word 


 J. TROUTBECK 


 STIVAL MUSIC 


 PIANOFORTE 


 " HOLLIDAY , J. ¢ 


 VIOLIN PIANOFORTE . 


 SCHUMANN 


 song . 


 SOPRANO , TENOR , 


 LEVENSON , BORIS 


 BARITONE BASS . 


 $ ( WILLIAMS , GERRARD 


 4028 


 CHORAL . 


 mix voice . 


 O - N. S.-I MENDELSSOHN 


 WOODGATE , LESLII 


 AXTON 22 , HIGH STREET , NEW OXFORD ST 


 NOVELLO MUSIC SMAL 


 YRC H ESTRAS . suitable 


 2 3 


 1/6 1/6 


 JOHN SEBASTIAN BACH 


 48 prelude fugue 


 - TEMPERED CLAVICHORD 


 new edition , edit 


 HAROLD BROOKE 


 


 eurhythm : think action 


 design use teacher student vocal physical education 


 short synopsis chapter 


 practice EURHYTHMICS 


 ERNES 


 ADAM 


 EDWAR 


 INT 


 PERCY 


 C.H. H. 


 PERCY 


 RY 


 CATION 


 BOD ! 


 


 SPEECH 


 PARATUS 


 ‘ HMICS 


 379 


 shaft CUPID 


 word 


 FRED G. BOWLES 


 PERCY E. FLETCHER 


 key 


 MUSIC 


 


 STRING ORCHESTRA 


 BACH . PRELUDE FUGUE G MINOR 


 ADAM CARSE . BARBARA ALLEN , 


 D. DAVIS 


 SONG evening . 


 untie 


 VIOLIN 


 SCHOOL MARCHES 


 PIANOFORTE SOLO 


 BOOK IIIPrice shilling sixpence 

 content . 
 arrival visitor .. ae H. Hofmann 
 Bright Buxom Lasses , ' * Martha " ... Flotow 
 instrumental Band , Percy E. Fletcher 
 Little March , J. D. Davis 
 March ' ' Egmont " Beethoven 
 March " ' St. Polycarp " ... Ff . A. G. Ouseley 
 March wi Th . Kullak 
 March " ' Tannhauser " ' aa Wagner 
 march bed saa ene Myles B. Foster 
 March Priests , ' ' Magic Flute " 
 Soldiers ’ Chorus , ' ' Il Trovatore " 
 Toy Soldiers ’ March 

 Mozart 
 ; Verdi 
 ... [ schatkowsky 




 old english 


 MUSIC 


 edit 


 ALFRED MOFFAT 


 prefatory note 


 JAMES LATES 


 THOMAS AUGUSTINE ARNE 


 CHARLES MACKLEAN 


 + » WILLIAM CROFT 


 piece 


 guide 


 edit , arrange group , fingering revise SUPPLEMENTE 


 FRAN KLIN TAYLOR 


 octave 


 _ - . chord 


 staccato 


 - playing 


 ornament 


 left HAND 


 arpeggio 


 velocity ACCOMPANIED melody 


 rhythm 


 exercise weak finger 


 figure sequence 


 SPOKEN tc " intc . exercise facilitating _ inde 


 - book , price shilling sixpence 


 : 


 select PIANOFORTE study 


 FRANKLIN TAYLOR 


 set ( book ) , price shilling SIXPENCE book 


 NOVELLO ' 


 PIANOFORIE album 


 VOLUME i. VOLUME IX . 


 > volume \xii . 


 ALBU ‘ m ORGAN 


 


 MUSICAL 


 1925 


 E SHI 


 


 SIXPENCE 


 LOTH 


 II 


 12 


 SEVEN SHILLING 


 SHORT prelude ORGAN 


 LONDON 


 NOVELLO 


 SI 


 COMPANY 


 LIMITED 


 sketch pianoforte 


 FREDERIC H. COWEN 


 book 


 price shilling 


 content : — 


 arrangement SMALL ORCHESTRA composer . 


 CHARACTERISTIC waltz 


 VALSE BOHEMIENNE . 3 . VALSE DE LA REINE . 


 VALSE RUSTIQUE . 4 . VALSE MAURESOUE 


 compose 


 S. COLERIDGE - TAYLOR 


 PIANOFORTE SOLO . 


 CHAPPELL & CO / S 


 late SONG SUCCESSE 


 GUY D’HARDELOT . HAYDN WOOD . 


 MONTAGUE F. PHILLIPS . HERMANN LOHR 


 R. CONINGSBY CLARKE . ERIC COATES . 


 H. LYALL PHILLIPS 


 NEW YORK SYDNEY 


 handbook MINIATURE 


 orchestral chamber music score 


 complete list publish miniature score 


 thematic list 


 classical orchestral chamber work 


 GEORGE H. GARTLAN 


 SIR HENRY J. WOOD 


 7 _