


 XUM 


 NOVEMBER , 1925 


 SPENCER PIANOS 


 MURDOCHS 


 461/463 OXFORD STREET LONDON W1 


 ARCHIBALD RAMSDEN , LT 


 SCHIEDMAYER PIANOS 


 BEULHOFF PIANOS 


 PARIS . 


 LEIGHTON ROAD , KENTISH TOWN . N.W.5 


 60 . WIGMORE STREET . LONDON , W.1 


 ESTEY PIANOS 


 HIGHEST POSSIBLE . 


 DESCRIPTIVE CATALOGUE POST FREE . CORRESPONDENCE INVITED LO N N W 1 


 BIZET 


 CARMEN 


 SPECIALLY ARRANGED 


 CHORAL SOCIETIES 


 CONCERT EDITION ) 


 | ENGLISH TEXT 


 HENRY HERSEE 


 METZLER & CO . ( 1920 ) , LTD 


 ESTABLISHED 1788 


 142 , CHARING CROSS ROAD , LONDON , W.C.2 


 XUM 


 _ — _ — _ — _ — _ — — 


 — — — _ — _ — — _ 


 XUM 


 MUSICAL TIMES 


 SINGING - CLASS CIRCULAR 


 FOUNDED 1844 


 PUBLISHED MONTH 


 ROYAL ALBERT HALI 


 NOVEMBER 1925 


 MAJESTY KING 


 VICTORIA EMBANKMENT , E.C.4 


 ROYAL ACADEMY MUSIC 


 K GATE , MARYLEBONE ROAD , LONDON , N.W.1 


 1 4 


 MUSICAL ASSOCIATION . 


 MUSICAL 


 O2 


 1925 


 LOCAL EXAMINATIONS MUSIC 


 E 


 KING . 


 K.G 


 MA / JESTY 


 SCHOOI 


 ELOCUTION 


 R.A 


 ROYAL 


 MANCHESTER COLLEGE MUSIC . 


 H.R.H. DUKE YORK , K.G 


 DR . ADOLPH BRODSKY 


 STANLEY WITHERS , M.A 


 MANCHESTER SCHOOL MUSIC . 


 ALBERT SQUARI 


 J. 


 CROSS 


 A.R.A.M 


 PADEREWSKI 


 GLASGOW 


 ATHEN.ZUM SCHOOL 


 SESSION 192 


 MUSIC 


 LONDON COLLEGE CHORISTERS 


 SCHOOL MUSK 


 SESSION 1924 - 1925 


 H.M 


 ; FRANCIS , ; 


 96 & 95 , WIMPOLE STREET 


 TOBIAS MATTHAY 


 PIANOFORTE SCHOOL 


 COMPLETE TRAINING COURSE TEACHERS 


 LONDON SOCIETY ORGANISTS . 


 FOUNDED 1915 


 WARRINER 


 S.E.5 


 LONDON SCHOOL SINGING 


 MASTERY KEYBOARD 


 SIGHT - READING LESSONS 


 GUINEAS 


 COMPLETE 


 PRESS EXTRACTS 


 MUSICAL TIM 


 CTURES MUSIC . 


 WALFORD DAVIES 


 RESHAM ‘ 


 


 CHURCH , HAMPSTEAD . 


 [ AL ORGAN RECITAL 


 IME ™ MC TE TH 


 ‘ ISTICE ANNIVERSARY 


 VENING , NOVEMBER 


 CITAL 


 FARMER , 


 


 OD PRESBYTI 


 ROUGH PLACE 


 NOVEMBE 


 M. KINGSTON , B 


 ORGAN 


 RIAN CHURCH , 


 N.W. 


 RK 28TH 


 153 


 WILLIAM H. KERRIDGI 


 ANCIES 


 B. : \SSE S. 


 BASS STRINGS 


 VAC 


 BRASS 


 WOOD - WIND , 


 MADRIGAL 


 SOCIETY 


 1X 


 STANLEY C 


 SIMPLEXA ” 


 POCKET FINGER TRAINER 


 INCREASES TRETCH , INDEPENDENCE , 


 STRENGTH 


 FLEXIBILITY 


 1925 


 NUMEROUS SUCCESSES 


 A.R.C.M 


 PERSONAI LESSONS BRISTOI LONDON 


 BRISTOL . 


 PLAYING KEPT 


 PIANO 


 DURHAM — DUBLIN 


 12 ) 


 LONDON 


 SUCCESSES 


 MATRIC 


 FEE — DIPLOMAS 


 RECENT SUCCESSES 26 


 88 


 Q3 


 ART TEACHING 


 COUNTERPOINI 


 M.C.C 


 2 5 


 ORCHESTRATION 


 TEACHING 


 99 


 86 


 ARI 


 A.1.C.L. - 


 AR.C.M. , XIII 


 APPRECIATION . 


 MUSICAL 


 SIS 


 A.M 


 A.R.C.M. 


 IMPORTANT 


 FREE 


 


 20 , SHERWIN ROAD , NOTTINGHAM 


 _ 7 


 POST . 


 CHARLES , GILLETT PIANOFORTE SCHOOL , 


 CORRESPONDENCE COURSE 


 PERSONAL LESSONS CONSULTATIONS DAY EVENING 


 CHARLES A. GILLETT PIANOFORTE SCHOOL 


 SOUTH MOLTON STREET , NEW BOND STREET , LONDON , W.1 


 BATTERSEA POLYTECHNIC , LONDON , S.W.11 


 ORGAN RECITALS 


 WEDNESDAYS , 8 P.M 


 THALBEN BALL , F.R.C.O 


 NOTE PERFECT 


 MUSIC 


 MASTER - METHOD 


 MEMORY - PLAYING 


 KNOWLEDGE HARMONY REQUIRED . 


 MR . REGINALD C. FOORT , F.R.C.O. , 


 19 , BEACON HOUSE , HEMSTAL ROAD , LONDON , N.W.6 


 RIVARDE SCHOOL PIANOFORTE 


 RECITAL - LECTURES . 


 VIOLIN PLAYING 


 DR . NORMAN SPRANKLING 


 46 , CLARENDON ROAD , REDLAN 


 ENSEMBLE PLAYING 


 7955 


 RECENT SUCCESSES 


 1925 


 ; ORCHESTRATION . 


 FAMOUS MUSICIANS PRAISE 


 MACKINNON 


 MUSICAL MEMORY COURSE 


 CORRESPONDENCE LESSONS 


 GUARANTEE 


 CADILLY , W.1 


 MUSICAL 


 1925 


 MR . CHARLES TREE 


 BEL CANTO 


 STUDIO . 


 JOHN WOOD 


 VOCAL 


 QUEEN ROAD , ST N.W.8 . 


 VOICE - PRODUCTION SINGING 


 TRAINING OPERA CONCERTS . 


 PUPILS PREPARED A.R.C.M. L.R.A.M. EXAMS 


 MANUEL GARCIA “ ART SINGING ” 


 ALBERT GARCIA 


 TECHNIQUER 


 


 FLEXING , STRENGTHENING 


 


 STRETCHING 


 J. FITCH , F.R.C.O 


 EXAMINATION 


 A.R.C.M. , 


 AIDS 


 A.R.C.O 


 21 , B 


 SOLO - PLAYING SCORE - READING . 


 TRANSPOSITION ACCOMPANIMENT . 


 EXAMN 


 A.R.C.O 


 OPTIONAL 


 ELLINGFORD 


 PATENT PEDAL 


 -UNDER - LYME 


 TIZE MALKIN 


 NEW 


 ASTLE 


 BRITISH SCREEN MUSIC 


 SOCIE 


 ROYAL ACADEMY 


 YORK GATE , MARYLEBONE ROAD , L 


 MUSIC , 


 NDON , N.W2 


 ENTIATESHIP EXAMINATION 


 SEPTEMBER , 1925 


 PIANOFORTI 


 EXAMINERS : G. D ¢ 


 ORCHESTRAL INSTRUMENTS.—VIOLIN 


 VIOLONCEI PERFOR 


 LO 


 OFORTE ACCOMPANIMENT.~—J 


 PIAN 


 ( 74 


 EXAMINERS 


 RAINING 


 VOICI CUI 


 CREIGH 


 


 MUSICAL TIMES — N 


 YOVEMBER 1925 969 


 SIC PROFESSIONAL NOTICES . 


 MISS WINIFRED DENHAM 


 183 


 SOPRANO . 


 R.C.M 


 ELIZ . \BETH MELLOR 


 MISS LYDIA JOHN 


 4.R.A.M. , L.R.A.M. ) , CONTRALTO . 


 { 28 , ALBION ROAD , LONDON , N.W 6 . 


 KING 


 EVELYNE 


 L.R.A.M. , A.R.C.M. ) . CONTRALTO 


 WEST - END STUDIOS . 


 HOR . ACEC U RTIS 


 TORIO , WO RS . 


 H. AROL D KNOWLTON 


 TENOR , 


 EDMUND LANG 


 EDWARD ‘ REACH 


 T HOMP S¢ 


 N.W.11 


 MIL LARD 


 JAM ES CAPERN _ 


 BASS - BARITONE 


 VE RNON HARRISS 


 MISS MARY WILSON 


 ARTH UR LEES 


 FRANK POULTON ( LR.A.M. ) 


 BASSO - CANTANTE 


 TOM LLOYD ( L.R.A.M. ) 


 BASS - BARITONE 


 HERBERT TRACEY 


 BASS . 


 MR . 


 R. ARNOLD GREIR 


 F.R.C.O. , A.R.C.M. 


 RECITALIST ACCOMPANIST 


 MISS MARY L INDSAY 


 CONCERT DIRECTORS 


 ARTHUR MANGELSDORFEF 


 H. FORSTER RIC HARDSON 


 EVERARD C. VAN - ESSEN , 


 F.R.A.M. 


 EACHERS 


 TRAINING T 


 FORM TEACHING , TOUCH , ACCOMPANIMENT 


 MUSICAL APPRECIATION , AURAL TRAINING 


 MUSICAL COMPOSITIONS REVISED 


 WRITTEN SONGS 


 PERCY BAKER , M.C. , F.R.C.O 


 CAPTAIN 


 ENE , TEWKES 


 THOMAS CARPENTER , L.R 


 FRANK A. CHAPPLE 


 MUSICAL 


 MUS.B 


 FREES 


 DEG 


 


 PERC Y 


 GPECIAL CORRESPONDENCE COURSES : 


 A.R 


 H. BIBBY 


 A.R.C.M 


 M ' > I. BLAKE , A.R.A M. , ALR.C. M. 


 VW 


 A.M. , , 


 INDENCE ¢ RAM 


 CH . R.C.O 


 R. A. M 


 M. CHIN 


 KK 


 F.F SPECIAI N CORRESPOND ! 


 D * HAR 7 90 


 REVISES 


 R.C.O 


 RIS S MSS 


 H ERBERT 


 NX 


 HODGE 


 I.C.L 


 COMPOSITIONS 


 CHASTEY HECTOR , D 


 D SPECIALIS1 CORRESPONDENC E 


 ACHING 


 1 ) * : F 


 ADAME LARKC ( YM , F.R.A.M. , 


 EATHES , M. 


 R. ORLANDO 


 ISS F. HELENA MARKS 


 PARATION L.R.A.M. , , 


 L.R.A 


 W FREDERICK PUGH , L.R.A.M.,ARCM 


 YOSTAL TUITION , R.AM 


 TAYLOR P OST . AL 


 PUPILS 


 A.R.C.O. ; LRAM 


 2¢.0 . EXAM 


 SUCCESS G 


 MUSICAL TIM 


 ES — NOVEMBER 1925 971 


 SPECIAL CORRESPONDENCE COURSES : 


 973 A.R. ( 


 169 F.R 


 PCENT S SSES P APER WORK 


 O. EXTEMPORIZATION 


 ISS M \RGARET YOUNG 


 A.R.C. M 


 R.A.M 


 A.T.C.L 


 WORCESTER CATHEDRAL : — 


 ORCESTER CATHEDRAL . ; » OPPORTU NITY — BARGAIN PRICE . 


 F SALE.—OVERSTRUNG BOUDOIR 


 EXETER CATHEDRAL CHOIR 


 PII 


 CHELSEA POLYTECHNIC , MANRESA RD . , 


 - TIME DIRECTOR MUSIC 


 S.W.3 


 MUSICAL 


 TIMES 


 NOVEMBER 1 


 UPRIGHT 


 HSTEIN 


 N.W.S8 


 H ’ ARP 


 S.W.13 


 SALE.- 


 RS ’ EX . AMS 


 PIANO 


 TEACH 


 A.R.C.M 


 R.A 


 LINCOLN CATHEDRAL 


 B SEXTE1 


 IFIC N 


 DIMI 


 . 


 UNKNOWN TRUTH 


 DEVELOPMENT 


 ATHEDRAL 


 R.A.M. , A.R.C.M. , 


 W.1 


 S ! COND - HAND GLEI 


 SALE . 


 


 S 1 


 


 CHUI 


 TREATISE CONDUCTING 


 WRITERS . 


 MAIL 


 MUSIC 


 MUSIC 


 NY 


 H : AROL D -REE\ ES 


 _ — _ _ 


 HAROLD REEVES 


 10 , SHAFTE AVENUE , 


 SBURY NI 


 FOYLE MUS 


 ROAD 


 IC DEPT , 


 MUSICAL JOURNAL 


 NTS NOVEMBER 


 CHARING CROSS 


 CHOIR 


 PRINCIPAL CONTE 


 HANDEL MATTHESON 


 ADEI ANNE PROCTER 


 


 IATIONS 


 


 EF 


 


 Y 


 ITERS , 


 


 MUSICAL 


 


 


 POST FREE 


 WHIT 


 INTERESTING 


 WRITTEN EXPERTS AVAILABLE 


 


 LION STREET 


 BOOKLET 


 


 APPLICATION 


 WATKINS & WATSON 


 DISCUS WORKS 


 LONDON , N.1 


 


 


 VAUGHAN WILLIAMS 


 OXFORD 


 AMEN HOUSE 


 UNIVERSITY PRESS 


 E.C.4 , 95 , WIMPOLE STREET , W.1 


 18 


 OXFORD MUSIC 


 FORBES MILNE 


 MUSICAL 


 1925 


 TEXT - BOOKS 


 RY 


 MUSICAL 


 


 F.R.C.O 


 FORM 


 ALBERT HAM 


 OUTLINES 


 1TH ANALYSI 


 - KNOWN CLASSICAL WORKS 


 RUDIMENTS MUSIC 


 ELEMENTARY HARMONY 


 EDITION 


 SONG 


 ( 5 . A. T.B 


 PHERDS # MAG 


 BOWDLER 


 EPIPHANY 


 


 CHRISTMAS 


 CHRISTMAS EVE 


 SOPRANO SOLO MALE - VOICE CHORUS 


 14 , HANOVER STREET 


 SUPERB 


 BECHSTEIN 


 PIANOS 


 126 , NEW BOND ST . , W.1 


 BECHSTEIN PIANO SPECIALISTS 


 STEINWAY 


 STUDIOS 


 FURNISHED 


 LIGHT 


 HEATING 


 LIFT 


 PIANOS 


 COMFORTABLY 


 EL - CTRIC 


 CENTRAL 


 TELEPHONE 


 NEW STEINWAY 


 STEINWAY & 


 NEW STEINWAY 


 2 , GEORGE ST . , CONDUIT ST 


 PHONE 


 PIANOS 


 BECHSTEIN , BORD , 


 SCHIEDMAYER , ROGERS 


 NEW _ SECOND - HAND 


 CASH HIRE PURCHASE 


 SONS 


 HALL 


 MAYFAIR 6641 - 5 


 74 - 76 , SOUTHAMPTON ROW 


 LONDON , W.C.1 


 LONDON , W 


 MUSICAL 


 TIMES 


 NOVEMBER 1925 


 


 LHE 


 MUSICAL 


 


 SHAKESPEARES 


 MUSIC 


 BOARS 


 INTERLUDE 


 LIBRETTO 


 KING 


 OLD 


 HEAD 


 ACT 


 


 HENRY 


 TAKEN 


 IV 


 ENGLISH MELODIES , 


 GUSTAV HOLST 


 OP 


 PIANOFORTE 


 


 1925 


 LONDON 


 ARRANGEMENT 


 PRESS 


 NOVELLO COMPANY 


 42 


 VALLY LASKER 


 OPINIONS 


 1925 


 1925 


 LIMITED 


 076 


 1925 


 TRINITY COLLEGE MUSIC 


 TRINITY COLLEGE MUSIC . 


 HON . EARL SHAFTESBURY , 


 K.P. , G.C.V.O. , C.B.I 


 NEW ELGAR - SONG . 


 PRINCE SLEEP 


 MIXED VOICES 


 MARE 


 - SONG 


 ELKIN CHORAL SERIES 


 GRANVILLE BANTOCK , ERNEST AUSTIN , 


 CHARLES WATERS 


 KINGLY STREET , REGENT STREET , 


 LONDON , W.TI 


 BROADWOOD 


 PIANOS 


 SACRED MUSIC CHRISTMAS 


 ANTHEMS . 


 RICHARD 


 DERING , 


 GOSS , JOHN . 


 HANDL , JACOB . 


 HOPKINS , E. J 


 DI LASSO , ORLANDO , 


 CAROLS . 


 ADAMS , THOMAS . 


 CHRISTMAS CAROLS 


 BRIDGE , J. FREDERICK . 


 CHRISTMAS CAROLS , 


 SPECIMEN COPIES SENT RI 


 ORGAN MUSIC 


 BACH , J. S 


 GRUNDMANN , 


 MUSIC PUBLISHERS , 


 


 ENGLISH PSALTER 


 PSALMS DAVID 


 SPEECH - RHYTHM 


 PAUL S CATHEDRAI 


 


 ORGANIST ST . 


 ORGANIST YORK MINSTER 


 ( DIRECTOR MUSIC HARROW SCH ‘ 


 977 


 SINGING - CLASS CIRCULAR 


 NOVEMBER 


 1925 


 4 POSTSCRIPT “ MUSICAL 


 CRITICS HOLIDAY ’ 


 ERNEST NEWMAN 


 II . 


 MUSICAL TIM 


 ES — NOVEMBER 1925 


 


 980 


 1925Because audience 1820 recognises , let 

 greatness Beethoven , 1920 

 recegnise greatness Bartok , 

 deduce therefrom Beethoven genius 

 Bartok , satisfy Mr. Newman , 

 satisfy 

 clairvoyance , demands , 
 able discover ‘ audience 1920 
 respect musical intelligence artistic sensi- 
 bility 1820 ? ’ ask 
 Mr. Sorahji knows audiences 
 way different . surely reasonable 
 presumption grandfathers 
 intelligent , reacted 
 
 actual musical experiences , course , 
 ; times change . imagine 
 relation experiences 
 intelligence different . Mr. 
 Sorabji thinks , reasons . 
 case Mr. Sorabji leap 
 future distress abhorred 
 company — compelled point 
 comparison illegitimate . Beethoven 
 dead years ; Bartok stil 
 alive . Beethoven work complete , Bartok 
 . Beethoven work 
 surprises ; Bartok . Beethoven 
 greatness universally accepted ; Bartok 1s 
 . prudent thing surely leave com- 
 parison generation 1820 
 generation 1920 men 2020 . 
 able periods proper 
 perspective ; documents 
 hands ; know 
 personalities - day emerged crowd 
 way Beethoven emerged 
 crowd time . able 
 formula tried deduce 

 _ — _ 




 SONS . 


 981 


 BORWICK 


 WALKER 


 LEONARD composer ; Borwick 
 self - expression issue , 
 characteristic 
 heard ensemble 
 work kinds . trio , quintet , song 
 accompaniment , approach music 
 exactly spirit concerto pure 
 solo : simply share 
 transmitting composer thought , 
 duty , obtrusively subordinately , 
 musical circumstances direct 

 art means ran grooves . 
 volcanically stirring professed 
 emotionalist : recollect , particular , perform- 
 ance Chopin F minor Fantasie sheer 
 blaze . unnecessary respect 
 pianistic orthodoxies : thumbs 
 ways , took technical 
 risk suppose taught 
 Brought circle 
 classicism , feet great artist 
 great contemporary music alien , 
 sympathies stood . Rachmaninov , 
 Scriabin , Palmgren , , owed 
 heavy debts ; Englishmen 
 Debussy Ravel eyes 
 race . listener 
 greater sympathy went Bach Mozart 
 Beethoven Schumann Brahms , 
 men considerably 
 juniors 

 Odd little things occasionally happen ; 
 normally - class memory fail 
 reduce circling round round page 
 Bach discovering proper end , 

 leave notes Zargo 

 Beethoven Op . 10 , . 3 , extremely 
 surprised told . , 
 course , like performers , occasional 

 982 MUSICAL 




 CHANTING : 


 PSALTER 


 ANGLICAN 


 \ CHALLENGING 


 1925 


 934 


 6 : 7 


 MUSICAL 


 ‘ MESSIAH 


 MUSICAL 


 TIMI 


 UU 


 2S — NOVEMBER 1925 987 


 60 - 67 ; 78 - 8 106 - 109 ; 121 , 


 1433 153 - 1553 159 - 164 ; 34 ; 35 ; 


 I-10 


 4,15 ) 17 , 


 


 1925 989 


 XIII.—OSBERT PARSLEY 


 31,3 


 MUSICAL 


 TIMES — N 


 OVEMBER 1925 991 


 


 992 


 S.W.1 


 MUSICAL 


 993 


 CHORAL MUSIC UNISON SONGS 


 - SONGS CHILDREN FEMALE VOICES 


 S.S 


 5.S 


 994 MUSICAL 


 1925 


 MALE - VOICE 


 1S 


 MIXED - VOICI 


 1S 


 


 1925 995 


 VIOLIN 


 ORGAN MUSIK 


 MUSICAL TIM 


 996 


 H. G 


 SCORES WORKS STRING QI 


 SMALL ORCHESTRA 


 COLUMBIA 


 INCISIN 


 


 1925 


 997 


 H.M.Y 


 VOCALION1 Kocha . P ractive ices 
 Paul Kochanski couple attractive choices notes closed , comes lates 

 plays overmuch vibrato ( 10 - . ) . ‘ : ‘ 
 5 ° ment vocal records rarely meets } aie pee sey pee a. Pantin , 
 yvood John Coates Sinfes fe = 2B che = ae epee ‘ Cuarte : 
 Ou lter . Blow blow , thou winter wind . ’ Morley — oo eee ~ $ < — _ — _ . : - 150 ; Brahms 
 * ’ ’ * ° | Sextet B ; ‘ Tarn , ’ Eugéne Goosse , ; 
 lover lass , Linley ‘ Lawn , 
 white driven snow , ’ Morley song 
 vick . model light , easy singing , breath ' 
 control , rhythm ( 10 - . ) Player - Piano Wotes 
 record S milar excellence 10 . Olga WILLIAM DELASAIRI 
 Haley Grieg ‘ love thee ’ ‘ Les Trois 
 Princesses , ’ delicious song , apparently folk- 
 origin . Miss Haley sings refreshing beauty 
 tone rhythm . Chopin provides important ‘ * Duo- 
 Good operatic records Luella Paikin in|rolls month , played eminent pianis 
 Mad Scene ‘ Lucia ’ ( 12 - . ) ; Frank } - popular ‘ Polonaise ’ 
 litterton ‘ tiny hand frozen , ’ * La/ flat , Op . 53 ( 0231 ) , recorded Eugéne d’Alber 
 Bohéme , ’ ‘ Strange harmony contrasts , ’ from| certainly thrilling piece work , thoug 
 ‘ Tosca ’ ( 12 - . rarely , , enjoyed | personally prefer ‘ thun¢e 
 Malcolm McEachern record latest } horses ’ hoofs . ’ played astonishin 
 Richards ‘ Captain blaze ’ Sanderson ‘ The/| verve , despite high price roll whic 
 Old Shepherd . ’ words remarkably clear,| create wide demand . Arthur Rubinstes 
 abundant humour point ( 1o - . ) . | gives group Preludes , Nos . 1 , 4 , 10 , 
 24 ( 6811 ) . style playing pleax 
 equally , purely matter ¢ 
 POLYDOR taste . , , point serio 
 mechanical defect ; Prelude esseniia 
 parcel Polydor records reached , , | melody notes deprived accent owing th 
 believe , recent issues ! accent perforations cut opposite section 
 calling detailed discussion . / occur . intelligent owner + 
 struck excellence certain records | readily correct , doubt , | SUppoxt 
 works , apparently , been| rolls edited having regard leas 
 recorded country . , fine one| measure common - sense owners , | rea 
 couple Wolf songs , ‘ Der Kattenfiinger ’ | critics belittled Nocturne B , Op 
 * Verschwiegene , ’ sung Heinrich Schlusnus . In| , 1 ( 6443 ) . Certainly exoti 
 orchestral extraordinarily good — | effeminate atmosphere , Friedman hands 
 scurrying rats ; second is| unquestionable , cloying beauty . 1 
 notable beautiful messa - voce singer . | passage , instance , theme breaks 
 Violinists enjoy records Vitali trills exquisite example decorative writing 
 ‘ Chaconne , ’ player Vasa Prihoda . ! fancy , , work addition 
 feature accompaniment , quiet organ | charm reason hackneyed tha 
 tone reproduced successfully hitherto , Chopin works . 
 far know . odd 12 - . roll outstanding importance Scriabit 
 elaborate version Schubert | ‘ Poéme Satanique , Op . 36 , magnificently played 
 \ve Maria . ’ outstanding set records } Leo Sirota ( 0222 ) . 1 afraid harmon 
 Beethoven Sonata F , Op . 24,| style render caviare yeneral — s 
 violin pianoforte , played Robert Zeilet emphatic ally best - seller . , cours 
 Bruno Seidler - Winkler . pianoforte tone | advanced idiom , presents tit 
 inusually good , balance hardly composer characteristics — extraordinarily distinct 
 mproved . |‘bitter - sweet ’ harmony , ‘ wormy ’ counterpoint , 
 orchestral records pick | restless emotionalism — remarkable manner . 
 Beethoven B flat Symphony , played Berlin } roll recently analyse deta 
 State Opera Orchestra , conducted Hans Pfitzner . | certainly merits attentive study 
 succeed records classical ! help thinking Liszt ‘ Mazeppa 
 symphonies fail — , clarity brilliance.| Etude , D minor ( . 4 ‘ Etudes d’éxécutien 
 felt conventions | transcendante ( 0232 ) , approaches vulgar . 
 classical scoring , lower - octave - doublings | middle section fine example Lisztian tunt 
 wood - wind passages , responsible drab | floridly ornamented pianistically thrilling 
 effect Beethoven gramophone , | - statement good . 
 trace fault . Incidentally , | Emil Sauer execution certainly transcendent 
 records converted Symphony | fact , transcends inspiration , | thins 
 hitherto little appeal . | wonderful exhibition virtuosity 

 7 = Ps 4 ) ‘ Care ? " | ’ . . 
 n Raff ‘ Cavatina ’ Pierné ‘ Serenade , | patch National Gramaphonic Society 




 EOLIAN 


 P WI 


 


 1925 999 


 6817se su 
 wether 

 best hand - played rolls Schubert- 
 hark ! lark , ’ played 
 » 3 ) , Grieg ‘ Scherzo - Impromptu , ’ 
 3 , 2 ( A825 ) . bears 
 amistakable Grieg idiom , spontaneously 
 piece , played distinction 
 Litolff Scherzo ( A819 ) Genevieve 
 tot playing ‘ Marcheta ’ ( A817 ) commented 
 pon recently ‘ Duo - Art ’ form . 
 ‘ Beethoven lovers welcome issue straight- 
 form Sonata , Op . 14 , . 1 
 vigorous music , 
 provides splendid practice 
 entual pedalling . , work 
 nteresting dull according manner 
 serformance . Holbrooke ‘ Queen Mab ’ ( 24648 ) 50 

 ne 




 ANGELUS 


 89029 


 53056 


 51503 


 SIGHT - READING 


 1000 


 DARIUS MILHAUD 


 OLD HUNGARIAN MUSIC 


 WOTKS 


 MUSICAL 


 1925 1001 


 UTCH FOLK - TUNES 


 M.-D. CALVOCORESSIThe modern market prodigious extension . 
 moderate talents world - wide 

 Wagner craved vain , true 
 enjoyed present - day world 
 refuses musicians — stiller air , chance 
 peace , retirement , concentration . - day 
 
 Beethoven Bach need 
 — clatter publicity , critical , analytical , 
 gossiping 

 like position , , 
 interesting point formative effect 
 music . Clearly brought enormous 
 vulgarisation hand , opposition 
 music far - fetched subtlety , scrupulously 
 hedged . Prof. Weissmann chapter 
 Short , starts train reflection 
 carry . sums 




 MUSICAL TIM 


 1002 


 ES — NOVEMBER 1925 


 G. G 


 _ _ — ditorship Dr. Arthur Somervell , recently reviewed 
 s columns , issued | 
 Oxford University Press ( 1os . 6¢. ) . | 
 hardly beaten gift 

 Volfgang Amadeus Mozart . ’ F. Gehring . 
 seph Haydn . ’ Pauline D. Townsend . | 
 Felix Mendelssohn Bartholdy . ’ W.S. Rockstro . | 
 idwig van Beethoven . ’ H. A. Rudall . 
 Sampson Low . 25 . 6d . . ] 
 [ hese volumes series published 
 ago — good , judge the| 
 tthat contributors Julius Benedict | 
 - issued editorship 
 sco Berger . standard biography | 
 rse bear reprinting long period , a| 
 e text need addition modification , 
 ring work line latest 
 scoveries biographical data . 
 arently process applied 
 se series notice ; 
 sleading absence explicit indication 
 e volumes new works . 
 nfortunate , inasmuch reader feel | 
 fident text reliable matters fact . 
 ¢ publisher announcement flamboyant 

 s 




 OOKS RECEIVED 


 FESTIVAI 


 MCNAUGHT 


 LEI 


 DS 


 MUSICAL 


 1007 


 EEEsubstance ; fine thing 
 xonne { } rahms fourth Symphony ; 
 ge agner ‘ Siegfried ’ ‘ Die 
 aistersinger tower glow like range Alpine 
 ts ; Tchaikovsky Symphony child 
 tohim , ‘ Prometheus ’ great game ; 
 e hing mastery Holst ‘ Choral ’ 
 phony 
 L ’ SYMPHONY : GUSTAV HOLS1 

 word ‘ tirst ’ suggests Mr. Holst intends 
 , like Beethoven ; , 
 shas started late , , like Brahms . lobby 
 ter performance critic asked : ‘ 

 greater , Holst Beethoven ? ’ 
 estioner poor ignorance , question 

 e 

 ecomes instructive account fo 
 answer Beethoven prohibitions 
 time . point Ninth Symphony , 
 east nstrumental movements , 
 tto . Holst 

 kes . abuses liberty breaks con 

 lity style — far responsible 

 freer Beethoven create 
 eto throw open boundaries . Beethoven 
 rusts Sisyphus - like peak . Holst mounts 

 kit . Modern music like — tempers 
 mest liking knowledge composer 




 GLOUCESTERare glad able 

 achievement appropriate word 
 fault - finding spirit } said Sir Hubert Parry night , concert , 
 performances described good Hall ; properly 
 choral society work inadequate . decided commemorate tablet generous 
 Outside ‘ Choral ’ Symphony best achievement ] _ _ gift City Gloucester gallery adorns 
 Mass B minor . , fact , festival ] Hall , years ago - night 
 singing . Qui Tollis , Incarnatus , Crucifixus| gallery purpo 
 given simple purity . choral muscle } Festival , , occasion , Mayor Gloucester 
 stood firm tremendous middle presented address Parry , thanking great 
 reaches Mass include Credo ! service music generally Gloucester . Parry , j 
 Sanctus . uplifting , Sir Hug reply , said hoped gallery , increasing 
 Allen direct , considered performance . accommodation concerts , enable m 
 ‘ Sea ’ Symphony Dr. Vaughan Williams choir poor people enjoy advantage fine music , 
 gave asked composer bring happiness drab surroundings 
 conductor , Sir Hugh Allen . kept lives . necessary 
 tune wordless contributions ‘ Song . astonished , : 
 High Hills , ’ ‘ Eagle , ’ ‘ Prometheus . ’ believe , pleased know - night t 
 gave new est Wagner selections . history Choirs Festival ( 
 ‘ lr . Norman Allin heard observe Festival ) concert Shire Hall 
 chorus Gibichungs tremendous listened thousands people far outside 
 unnerved . ‘ (; 00d choral society work ’ limits county countic 
 attained n Dvorak ‘ Stabat Mater , ’ \Wood Great Britain . hope expressed ir 
 ‘ Dirge Veterans , ’ Stanford ‘ Songs realised , 
 Fleet , ’ Mozart ‘ Requiem , ’ Brahms’s| anticipated . Parry great Choirs 
 * Niinie ’ mutilated version ) , Mendelssohn } < splendid series works entwined round 
 ‘ \Vhen Israel Egypt came , ’ Beethoven heart Festivals , greatest 
 ‘ Choral ’ Symphony . remains inthe list ] ! sung morning original home . 
 choir function . singing faces looked jolly gatherings 
 Bax ‘ worldes joie ’ ‘ Mater ora filium , ’ — greetings cherished Dis 
 \lto Rhapsody ’ Brahms , Parry ‘ glories | on¢ losses hardest borne . Fes 
 slood state . ’ Stanford ‘ Heraclitus . ’ tivalin particular intimate connection wit ! 
 Purcell * ‘ Soul World , ’ Palestrina ‘ Assumpta | rs ane WOE Oe SN gets smell | pre tos 
 , 10 ) : likely choir orchestra 
 est Maria ’ Handel ‘ rash intruder’| pave having tea Highnam , 
 brought choir ata great content delight . man 
 competition festival . ‘ choir do| people feel happy , las 
 attend . Underthe heading ‘ tone’| ounce life cf ? 
 imagine adjudicator jottings : Sopranos life took , 

 fairly bright , thrill , pleasant ; loss quality reason spare hej 
 high . Contraltos — lovely . Tenors — loose 




 ANTHEM ADVENT 


 HARK 


 HARK ! THRILLING VOICE SOUNDING 


 HARK ! TI 


 IRILLING VOICE SOUNDING 


 H VX N \ 


 % NI 


 HARK ! THRILLING VOICE 1S SOUNDING 


 


 ROYAL COLLEGE ORGANISTS 


 6 . 30 


 OLYPHONIC REQUIEM 


 1G. R 


 SOUTHWARK CATHEDRA 


 


 1018 MUSICAL 


 1925 


 OOK 


 ERNE 


 MUSICAL TIM 


 ‘ F.R.C.O 


 MUZIO CLEMENTI 


 4 CORRECTION 


 DEFENCE O 


 


 GRAMOPHONE 


 CHRISTOPHER TYI 


 GRATTAN FLO 


 RECORD ANCIENT SONG SCHOO : 


 


 MUSICAL 


 1O2 T 


 W. A. JAMES 


 


 W. E. BELL - PORTER 


 SMALL 


 AMENDE 


 PIANOFORTE TRANSCRIPTIONS 


 CHOIR CONTROL ORGANIZATION 


 NEW DIPLOMA ay purchased Messrs 

 p.m.—Women Hour . Tlouse - cleaning . ( Beethoven . ) 
 lin programme Mai Lith . 
 thought Stracciari Serenade ‘ Damnation 
 ist ’ apoor effort . heard Satanic sneer : 

 inded like old gentleman clearing throat 




 MUSICAL 


 L ACADEMY MUSIClust realise worth import . Adverting 

 points interest , , , 
 tdetailed reference , particular commendation 
 n formance movements Beethoven 

 apposite 




 ROYAL COLLE ( MUSIC 


 1024 


 1925 


 GUILDHALI HOOL MUSIC 


 _ _ 


 SINGERS 


 1 ” MON 


 SOMI 


 1S 


 


 1925 


 : MD . ° 


 MIS \ * PEAKI 


 CHORAL SOCIET PROGRAMMES 


 


 


 KENHAM CHORAI 


 BER ) SE 


 CENTRAL LONDON CHORAI 


 BA 


 MENT 


 IONDSEY 


 OY ? SOC 


 MUSICAL 


 1925 


 HARMONIC 


 PHI ! 


 NNERSBUR 


 G 


 FO ! CHORA 


 _ NI 


 HESTRA 


 TT 


 HESTRA 


 | \ CHORA ND ¢ 


 N PHILHA } 


 


 20 


 SEVEN OSS 


 ETYWILLESDEN GREEN CRICKLEWOOD Ciioral 
 ( Mr. F. W. Belchamber ) . — * Messiah ’ : ‘ Ts 
 Old Japan ’ ; ‘ Hiawatha Wedding- ! east ’ ; ‘ Fass 
 ( Berlioz 

 Wii Cuorat Society ( Mr. Kenneth A. Brow : 
 — ‘ Choral ’ Symphony Mass C ( Beethoven 

 WimeikEpON CuurcH CHORAL Societ Mr. F , Wilme 
 Bates ) . — ‘ Pied Piper Hameli Parry ) ; ‘ 
 Banner St. George 




 VINCIA IORAL Psalm ( Elgar ) ; 
 Mass C min 

 Mass C ( Beethoven ): 20th 
 Battle Baltic ’ ; ‘ Requiem 
 Cherubini ) ; ‘ Lauda Sion 

 BIRMINGHAM FEstTIvAL CHORAL Soc!e1 Mr. Adrian C 
 Boult ) . — * Elijah ’ ; ‘ Job ’ ; Mass D ( Ethel Smyth 
 Sea ’ Symphony ; ‘ Alto Rhapsody ’ ( Brahms ) ; Ma 
 C minor ( Mozart ) ; ‘ Messiah 




 BLACK POO CHORAI ANI ORCHESTRAL SC 


 MUSICAL 


 1925 27 


 HTON 


 NIVERSITY MUSICAI 


 SOCIETY 


 


 ETY 


 


 URIMSBY 


 GUILDFOH 


 K1 


 K1 


 LAR 


 LE 


 NE 


 KLEY 


 INZANCE 


 ONIC SOC 


 RKCALDY M 


 CHORA 


 GH - - SEA CHORAI chietly orchestral 
 * - awakening ’ 
 elix Weingartner ; 
 ‘ Adrian 
 ORA ! . Union ( Mr. Hopkin Evans ) . 
 Berlioz ) ; ‘ Messiah ’ ; ‘ Choral ’ Sym 

 phony ( Beethoven ) ; * Requiem ’ ( Brahms ) . 
 ANCHESTER , HALLE Concerts ( Sir Hamilton 
 Harty ) . — Hallé Chorus sings ‘ Messe des Morts 

 Berlioz ) ; ‘ Messiah ’ ; Mass B minor ; ‘ 
 Ap 




 CHORA 


 YRMANTON CHORAL 


 RTH SHI PHILHARMONIC SOCIE1S 


 ALBERT 


 NION 


 YITING 


 MUSICAL 


 1925 


 NI RI 


 TABERNA E CHORAI 


 


 IETY . 


 \ SOCIETY 


 RMON 


 


 F. H 


 TY 


 FESTIVAL FEDERATION 


 CONFERENCE 


 


 HARVEY GRAC 


 ANNUAL REPORT 


 MUSICAL 


 RT VERSUS ARITHMETI 


 CONFERENCI 


 CONDUC 


 DATES 


 MUSICAL 


 1925 


 SIGHT - SINGING 


 


 DINNER 


 _ _ _ 


 MUSICALSociety gave 

 winter series Sunday 
 ty shestra began October II . Beethoven 
 ny principal orchestral item , 
 Eveline 
 Massenet ‘ Le Cid , ’ 
 pecially delightful Flower ’ Schumann . 
 — — Mr. ( sustav Holst visiting conductor 
 Symphony concert City Orchestra October 13 . 
 ec Hfaydn E flat Symphony , . 09 , 
 wn ‘ Beni - Mora ’ Suite * Fancy Holst 
 4 * symphony conducted Mr. Adrian C 

 Variations given . — — Miss 




 CENTENARY CATHERINE HAYES : 


 “ SWAN ERIN 


 ATHERINE HAYES BUSI Music Scotland 
 GLASGoW.—The British National Opera Company fare 
 better year - weeks ’ season 
 Glasgow . houses rule , close 

 Mr. Frederick Austin gratifying announcement 
 necessary local 
 guarantors . performances maintained good standard 
 , programmes hardly 
 described enterprising , novelty Bach 
 ‘ Coffee Cantata , ’ staged ‘ Coffee Cupid . ’ item 
 attracted large audience , doubtless result 
 staging spring Glasgow Bach Society 
 version delightful little work . 
 interesting feature Glasgow B.N.O.C. season 
 special matinée performance ‘ Magic 
 Flute ’ senior school - children , filled 
 theatre eager enthusiastic audience . 
 development promise.——At annua ! 
 Chamber Concert Week Glasgow Orpheus Choir , 
 music - lovers established 
 great events musical season , Léner String 
 Quartet played fourteen complete quartets 
 quartet movements Beethoven , Borodin , Brahms , 
 Debussy , Dvorak , César Franck , Goossens , laydn , 
 Mendelssohn , Mozart , Ravel , Richter , Respighi , Schubert , 
 Schumann , Smetana , Tchaikovsky , Hugo Wolf . 
 novelties , ‘ ( ) uartetto Dorico ’ Respighi , written 
 year , dedicated , Léner ( ) uartet , failed t 
 great impression , liked 

 




 32 MUSICAL TIN 


 SEBASTIANSonata f 

 nit , 
 | Corner , ’ Debussy ; Trio G , . 2 , slow movenn 
 Fin ule , Beethoven . Mr. E. T. Davies , Director 
 Music , giving series lectures ‘ Foundation 
 Music Musical Appreciation present ters 
 T'wo delivered , illustrations includig 
 | Handel Violin Sonata E , folk - tune arranger , 
 strings pianoforte , movements 
 Beethoven , Brahms , Dvorak . — — nteresting inp 
 vation activities Music Department sess ; 
 establishment school lecture - concerts + h , 
 secondary schools district . child 
 subscribers series . concerts , whi- 
 given Friday afternoons , approved loc : 
 education authorities , allowed place ¢ 
 school lesson day . concert t 
 place October 16 ; programme comprised : [ nt 
 ductory remarks Melody Rhythm , illustration : 
 Trio G major , Mozart ; slow movement Ty 
 Op . 11 , Beethoven ; Finale ‘ Horn ’ T ; 
 Brahms : movement String ( Quartet Bird 
 Haydn ; Welsh Miniatures pi te , violir 
 ‘ cello , Mr. E. T. Davies , directing 
 mecerts delivering helpful explanatory notes ont 
 pieces played ‘ art listening . ’——T 
 Choral Society preparing Bach ‘ Christ 
 Vaughan Williams Fantasy Christmas carols 
 performance December . orchestra engaged 
 ‘ New World ’ Symphony Moz art Symphony 
 G minor , lighter items 

 Bryn TANAT.—The fifth annual Festival 
 Montgomeryshire Musica ! Association ( Mr. W 
 Leslie leading spirit ) took place October 18 , 
 ‘ St. Matthew ’ Passion given , direct 
 Mr. Arthur Fagge , feature performance 
 singing school - children Choral fr 
 chorus . principal soloists Madame Laura Evan 
 Williams , Dr. Ben Davies , Mr. W.'R. Allen . Parr 
 * Blest Pair Sirens ’ sung direction 
 Mr. Adrian C. Boult ; number orchestral selectior 
 incluied Beethoven ‘ Leonora ’ Overture ( . 3 ) . Th 
 choral Festival showed great improvem 
 Mr. Leslie supporters congratulated 
 definite advance art technique 

 SARDIFE.—The series * international celebr 
 concerts given October 12 . Madame Fre 
 H{[empel vocalist , assisted Franz Mittler ( pian 
 forte ) John Amadeo ( flute).——It proposed 
 arrange testimonial Mr. T. E. Aylward , veter 
 conductor Cardiff Musical Society , nition 




 MUSICAL 


 1925 1033 


 25 


 4 2.00 


 RLANDS MUSICIANS ’ | 


 HERBERT ANTCLIFFI 


 NIONwork importance , partly strongly 
 individual character works , 
 Willem Pijper , unknown outside Holland , 
 probability loom large coming 
 years . second Symphony , played opening 
 concert , powerful alike ideas treatment . 
 long work , elaborate demands 
 unusually large orchestra . written strings , 
 flutes , oboes cor Anglais , clarinets , 
 bassoons double - bassoon , horns , 
 trumpets , trombones , tenor horn , contra - bass , tuba , 
 organ , harps , pianofortes , celesta , drums 
 arious kinds , tam - tam , bell , clapper , castanets , xylophone , 
 tambourine . composer rhythmic sense , 
 complete control forces , ability build 
 brief motive melodies broad , striking quality save 
 ecoming involved overwhelmingly noisy . 
 Seriousness prevails general sentiment , 
 piquant satire , occasional outbursts sheer joy , 
 end fourteen minutes takes perform 
 present feeling single note 
 fails significance . Sonata flute piano- 
 forte , played Joh . Feltkamp composer , 
 - song , “ Heer Halewijn , ’ sung Sem _ Dresden 
 Madrigal Society , straining effect . 
 work , , required rehearsal , possibly 
 slightly larger choir , right impressiom 
 qualities . Dresden moderns — 
 ultra - moderns , Diepenbrock historical 
 sense classic — gave striking work 
 Symphony Pijper . String ( Quartet based 
 old Dutch songs , ‘ Er een sneeuwwit vogeltje 
 ‘ Het daghet uijh den Oosten . ’ 
 perfect lucidity , beautiful writing strings , rhythm 
 flagged drawn utmost 
 tenuousness , emotional driving force 
 work inevitable . far hindering 
 work composer , quality , 
 quantity , Mijn . Dresden appointment 
 Director Amsterdam Conservatoire 
 hand aided 

 works , , f 
 beauty , background performance 
 Alphons Diepenbrock ‘ Birds ’ 
 Aristophanes . happy idea complete 
 stage performance work , 
 effect music judged . music 
 ! lovely , rich - toned Overture , suggestive 
 touches artistic culmination Beethoven 
 experiments ‘ Pastoral ” Symphony ; melody , harmony , 
 orchestration , beautifully combined express 
 summary beauty fun satire play 
 melodrama orchestra carries 
 voice speaker ( case meansa powerful 
 speaker ) vessel surface water . 
 feature slightest degree harsh loud , 
 disturbing element kind . wonder 
 Mijn . Evert Cornelis Utrechtsche Stedelyk Orkest 
 close , fine choral 
 orchestra ! need 
 
 , 
 Dutcl 

 thre 




 MUSICAL 


 1034 


 1925 


 GERMAN\ 


 ERATIC ACTIVITY BERLIN 


 HESTRAL CONCEER 


 ORHOLLAND 

 summer season Scheveningen Kursaal camet 
 end September 15 . weeks b 
 little exciting , exclusion 
 interesting events , appearance 
 conductor - composer Hubert Cuypers . Cuypers know 
 facile devotional Churcl 
 predilections evident Overture Vondel 
 ‘ Adam Ballingschap ’ music Heine ‘ Dit 
 ? words declaime 
 Rodie Medenbach . thematic construction ar 
 instrumentation works revealed great skill , 
 exceptional gift melody , feeling moder 
 harmony . greater effort resulted 
 originality . concert Schneevoigt conducte 
 Haydn Symphony G ( ‘ Parisian ’ ) Beethoven ’ 
 * Pastoral . ’ local artists Annie Tydeman 
 ( violinist played success London | . 
 year , occasion showed excellent taste 4 
 ability playing neglected Bruc 
 Mia Peltenburg , named singing 
 Senta Ballad songs Ropartz , Wolf , Hendrik 
 Andriessen extremely charming manner . Musici 
 Amateur Orchestra , conducted F , E. A. Koeberg , accom 
 panied Madame Peltenburg , players gave goo 
 account Cherubini ‘ Anacreon ’ Overtur , 
 ‘ Reformation ’ Symphony , * Casse- Noisette 
 Suite . September 8 , Erica Morini , young Vienne 
 violinist , great sensation purity 
 tone grace rhythm Mocart majo 
 Concerto , promptly engaged concert 
 following Friday , equal succes 
 Tchaikovsky D major . ‘ Soloists ’ concert o 
 September 13 items contributed members 0 
 Residentie Orchestra . artists 
 | appeared earlier season . afternoon concert 
 performance ‘ Der Freischiitz ’ given Roman 

 composer , 




 _ _ — — 


 36 


 GEORGE 


 1877 


 ( 1853 


 HERBERT 


 


 MUSICAL 


 1037 


 


 NARKY.—(1 , takes 

 Beethoven 

 f 




 MUSICAL 


 W.C.2 


 MUSICAL TIMES 


 CHARG ADVERTISEMENTS 


 MUSICAL 


 TIMES — N 


 OVEMBER 1 1039 


 CONTENTS 


 77 


 1000 


 SPECIAL NOTICE 


 MONTH 


 REWER , , HERBERT 


 LGAR , DWARD 


 TEVENS , C 


 STAY 


 OLST 


 ILLERS , G. 


 RCELI HENRY . — ‘ 


 SONGS 


 H. E. 


 CRIMI 


 HIMAN , E. H. — 


 903 


 2459 


 2490 , JOHANN SCHICHT 


 2402 


 E , FLETCHER 


 2404 


 CHARLES LONGSTER OS NS B 


 ST . JOHN DAY 


 HOLY INNOCENTS 


 M \W FEAST EPIPHAN 


 PUBLISHED . 


 NOVELLO 


 ALBUMS ORGA 


 SELECTED PIECES 


 WEDDING MUSIC ) 


 CONTENTS 


 MARCH 


 MARCH FINAL 


 LOTH , SEVEN SHILLINGS SIXPENCI 


 NEGRO SPIRITUALS 


 ARRANGED - SONGS . 


 SINNER , | 


 MALE VOICES . ( 2 


 BREATHING 


 VOICE - PRODUCTION 


 FAR - TRAINING 


 EURHYTHM : THOUGHT ACTION 


 H. H. HULBERT 


 L APPRECIATION 


 HYTHMIC MOVEMENTS 


 PRONUNCIATION 


 MUSICAL 


 TIMES — N 


 OVEMBER [ 925 


 CANTATAS 


 HOLY CHILD 


 SOPRANO , TENOR , BASS SOLI , 


 CHORUS , ORGAN 


 T. ADAMS 


 NATIVITY 


 CHORUS 


 


 MR SOPRANO 


 YMNS SELI 


 ADAMS 


 ‘ CHRISTMAS ORATORIO 


 ] . S. BACH 


 CHRISTIANS , GRAVE YE 


 GLAD DAY 


 CHRISTEN ATZET DIESEN 


 JS BACH . 


 ‘ THE_PALING 


 STARS 


 CHRISTMAS HYMN 


 


 TI 


 


 ES ORCHESTRA ) 


 DAL E 


 COMPANY 


 CHRISTMAS } 4 


 COMING 


 CANTATA FEMALE \ ES 


 H. M. BURNSIDE 


 M. B. FOSTER 


 C HRISTMAS 


 R CONTRALTO SOLO , CHORUS , 


 N. W. GADE 


 HRISTMAS NTAT 


 SOLI 


 KING 


 EVE 


 CHORI 


 TH WORDS 


 D. TJEMANN 


 MUSIK 


 IRST CHRISTM . ) MOR 


 WOF 


 S. J. STONE 


 H. LESLIE . 


 BETHLEHEM 


 SOLO VOICES ANI CHORUS 


 WORDS WRITTEN ARRA 


 E. C. NUNN . 


 IHE MUSIC 


 J. H. MAUNDER . 


 IE STORY . BETHLEHEL 


 SOPRANO , TENOR , BASS SOLI , CH 


 ORGAN 


 WORDS 


 WENSLEY 


 NGE 


 MUSIC 


 J. E. WEST . 


 LIMITED 


 RECENTLY PUBLISHED . 


 


 CAROL - ANTHEM 


 G. RATHBONE . C. V. STANFORD . 


 IND BEHELD GLORY SHEPHERDS WATCHED 


 SELECTED LIST . 


 A. ADAM . CH . GOUNOD . 


 O HOLY NIGHT NAZARETH 


 5 ANTHEM SOPRANO ( TENOR 


 SOLO CHORUS 


 T. ADAMS . E. V. HALL . 


 \RISE , SHINE , O JERUSALEM SHEPHERDS WA 


 ARRANGED BARITONE SOLO CHORUS 


 CTCHED 


 7 . ADAMS , A. HOLLINS . 


 W. G. ALCOCK . : 


 O COME , REDEEMER MANKIND 


 HEAVENS 


 F. BRIDGE . SING , O 


 B. L. SELBY . 


 E. BUNNETT . BEGINNING WORD 


 COME G. SHAW 


 E. BUNNETT . LET UNTO 


 BEGINNING BETHLEHEM 


 B. STEANE . 


 H. A. CHAMBERS . < ING > AVENS 


 CHRIST INCARNATION THY HOSTS 


 LATEST NUMBERS 


 ATIS€ 


 PECIALLY COMPOSED 


 MUSIC 


 NORMAN COCKER , 


 G. D. CUNNINGHAM , F.R.A.M. , F.R.C.O. , 


 WILLIAM FAULKES , 


 ARTITUR MEALE , 


 ORGAN 


 CHURCH CANTATA 


 MUSIC CHRISTMAS 


 ANTHEMS 


 CAROLS . “ ORGAN 


 MUSIC DEALERS , 


 OPULAR CHRISTMAS ANTHEMS — CAROLS JOSEPH C. BRIDGE 


 EDWYN A. CLARE 


 CHRISTMAS CAROLS 


 TIMES 


 NOVEMBER 1 


 925 


 MOWBRAYS 


 CAROL BOOKS 


 SEC \ SERIES 


 HARLES WOOD 


 MARTIN SHAW . 


 EDITED THI 


 " Y DEARMER , 1).D. 


 ERIES 


 SECOND SEA 


 OXFORD 


 MUSIC ADVENT CHRISTMAS 


 


 BASIL HARWOOD 


 ORGAN MUSIC 


 


 CLEEVES ’ 6 LIS 


 K NET 


 SYMPHONY WRITERS BI 


 ETHOVEN 


 OPERA STORII 


 - DAY YESTERDA 


 THI 


 RUDIMI 


 PRIMARY COURSI 


 NTS 


 CANDIDATE SCALE ARPEGGIO TESTS 


 


 YOUNG VIOLINIST SCALE 


 ARPEGGI 


 70 PREPARATORY VIOLIN EXERCISES 


 CLASSI 


 ARRANGED 


 EASY TRIOS 


 


 RUDIMENTS 


 F.S.A 


 THI 


 GREGORIAN M 


 USIC 


 THOVEY 


 MUSICAL 


 SE , O SOUL , HAPPY 


 MORNING 


 CKE DICH , O LIEBE SEELE 


 CANTATA 


 J. S. BACH 


 CANTATA N 


 FOX - STRANGWAYS 


 NE SH SIXPENCE 


 7 ANI 


 ANTHEM . 


 


 STANLEY MARCHANT . 


 J ISH 


 PASSION LORD 


 JOHN SEBASTIAN BACH 


 BOOK WORDS , 


 CCORDING ST . MATTHEW 


 ANCIENT MARINER 


 


 CHORAL SYMPHONY 


 JOHN 


 KEATS 


 SOPRANO SOLO , CHORUS , ORCHESTRA 


 GUSTAV HOLST 


 CHORUS SMALL ORCHESTRA 


 SIXPENCE 


 SCHERZO 


 


 WORKS 


 ORGAN 


 RHEINBERGER 


 HARVEY GRACE 


 127 MUSICAL ILLUSTRATIONS 


 NOVELLO EDITION 


 BACHS CHURCH CANTATAS 


 PRICE SHILLING SIXPENCE FACH 


 SOLOS CANTATAS 


 BOOKS ( BOOKS VOICE 


 PRICE SHILLING SIXPENCE 


 BACH MOTETS 


 AFRAID 


 READY 


 


 ENGLISH PSALTER 


 INTAININ 


 PSALMS DAVID 


 CANTICLES 


 PROPER PSALMS CERTAIN DAYS 


 EDITED POINTED CHANTING 


 PRINCIPLES NATURAL 


 SPEECH- RHYTHM 


 ANIST YORK MINSTER ) . DIRECTOR 


 SIC HARROW SCH 


 PRICES : 


 NOVELLO HANDBOOKS MUSICIANS 


 CHORAL TECHNIQUE INTERPRETATION 


 


 HENRY COWARD . 


 TEACHING ACCOMPANIMENT 


 PLAINSONG 


 FRANCIS BURGESS 


 PHI 


 REVEALED CONTEMPORARY EVIDENCI 


 


 ARNOLD DOLMETSCH 


 APPENDIX 


 CONTAINING - ILLUSTRATIVE PIECES 


 SOURCES KEYBOARD MUSIC ) ENGLAN 


 ATI ROM FRENCH 


 JAMES 4 MATTOS W 


 THEORY HARMON 


 MATT NE WV SHIRLAW 


 5.D. , F.R.C.O. 


 ORGAN WORKS BACH 


 HARVEY GRACE 


 


 OLD TRADITIONAL MUSIC 


 CAREFULLY EDITED 


 ENGRAVED 


 CLI 


 ATES 


 NTONY CLEOPATRA > 6 MERRY WIVES WINDSOR 


 MBELINE ... ‘ ; .. 2 6 MIDSUMMER NIGHT DREAM « « 


 KING LEAR ... > 6 TEMPTES1 — _ 


 LOVE LABOUR LOST > 6 TWELFTH NIGH .. 2 6 ° 


 WINTER TALE 


 ASURE 


 


 26 , SOUTHAMPTON STREET , STRAND , LONDON , W.C.2 


 MUSIC ARMISTICE DAY 


 JOHN FOULDS 


 WORLD REQUIEM 


 GREAT WORK MUSICAL HISTORY ROYAL ALBERT HALL 


 MN MED 


 REDEA SHORT FORM SERVICE ARMS S ) E DAY . ” 
 ve cx mprehensive Memorial Service comprising suitable Hymn Prayers , espo ! 
 en , suggestions * * Post Réveille Benediction , & c 

 ervice Price . 1s ut Post R Irraneed reap 
 j t ha lh ords Conervea . p 
 va 7 TC . 
 ORGAN MUSI(¢ 
 RCH “ SAUI .. Handel ¢ 6d MARCIA FUNEBRI Beethoven 63019 d 
 LEGIE HEROIQUE . Tone - Poen MARCHE FUNEBRI Chopin 63018 6d 
 larry Farjeon 57356 1s . 6d LAMENT ( 6d 
 WERS FOREST PRAYER FUNERAL MARCH 
 tuart Arche 

 W 




 MUSIC DEALERS , 


 V E L L O ' S 


 POPULAR PIANOFOKTE ALBUMS 


 YOUNG PERFORMERS . 


 ERNEST NEWTON 


 WOODLAND DANCES 


 HUBERT BATH 


 DOLL’S - HOUSE SUITE 


 FRANCESCO BERGER ERNEST NEWTON 


 EIGHTEEN LITTLE PIECES ROMANY LIFE 


 J. D. DAVIS . HUBERT G. OKE 


 LITTLE PIECES PIECES 


 EDMONDSTOUNE DUNCAN SCHUMANN 


 HAPPY THOUGHTS PIECES YOUNG 


 ARNOLD KRUG SCHUMANN 


 LITTLE PIECES PIANOFORTE SONATAS 


 ARNOLD KRUG CLEMENT M. SPURLING 


 SCENES FAIRY - LAND _ SHORT EASY PIECES 


 MAX MAYER E. A. SYDENHAM 


 BAGATELLES SHORT EASY PIECES 


 MENDELSSOHN TSCHAIKOWSKY 


 CHRISTMAS PIECES CHRISTMAS ALB UM 


 FRANCESCO BERGER 


 STEPS PIANOFORTE 


 PRICE SHILLINGS 


 


 PIANOFORTE SOLO 


 


 MUSICAL 


 BOOK 


 CONTENTSFlotow 
 ercy E .. Fletche 
 . SJ . D. Davi 

 Beethoven 

 ML A. G 




 


 SEA SONG 


 PIANOFORTE 


 DUET 


 GEOFFREY SHAW 


 


 ORGAN . 


 ALCOCK . 


 NOVELLO COMPANY 


 NOCTURNE 


 VIOLONCELLO VIOLIN 


 PIANOFORTE 


 


 


 COLIN MACLEOD CAMPBELI 


 SUTI 


 CLAVICHORD WORKS 


 SCARLATTI 


 ART 


 RIBI ! THI 


 DOMENIC 


 BOOK 


 


 FINAL 


 


 VOCAL 


 “ VOCAL ANALYSES : 


 SENSITISING BREATH 


 EMOTIONAL EVOLUTION 


 BREARE SERIES 


 , J.P. , 


 DING 


 SELECTED STUDIES 


 PIANOFORTE 


 4S 


 PRIMARY GRADE . ELEMENTARY GRAM ) ! 


 HIGHER ELEMENTARY GRADE . HIGHER GRADE 


 GRANVILLE BANTOCK 


 “ LOCK DOOR , LARISTON ” 


 PATERSONS PUBLICATIONS LTD 


 52 , BUCHANAN STREET , GLASGOW 95 , WIMPOLE STREET , LONDON 


 PUBLISHED 


 


 INTROITS SHORT ANTHEM 


 GOD HEAD 


 HIDE SHADOW 


 BLESSED LORD 


 BALLAD 


 SPRIG SHAMROCK 


 UR OLD IRISH AIRS 


 


 ELIZABETHAN 


 ND N KEYS . 


 A. HERBERT BREWER 


 } SONG 


 LOVE INCARNATE \USTIN DOBSON 


 SI TING LINES 


 ROBERT BROWNING 


 HARVEY GRACE 


 ST . BERNARD CLAIRVAUX , KEYS . 


 BASIL HARWOOD 


 NYMPHS 


 ND 


 _ | THIRTY SONGS 


 CAMBRIDGE UNIVERSITY PRESS 


 ETTER LANE , LONDON , E.C.4 


 PUBLISHED 


 NOVELLO SCHOOL SONG BOOK 


 


 DESCANTS 


 GEOFFREY SHAW 


 


 CONTENTS . 


 THI EARLY MORNING 


 \-HUNTING \ ( O , DEAR ! MATTER ® 


 JOHN PEEI BRITISH GRENADIERS 


 NIGHT ASH GROVI 


 SCOTS WHA ITIAI GOOD KING WENCESLAS 


 NOVELLO COMPANY , LIMITED 


 RECENT PUBLICATIONS INTERES 


 GRANVILLE BANTOCK . 


 FALLA . 


 ARTHUR BLISS .