


 index to music in vol . xiv 


 piece with sacred word 


 piece with secular word . 


 329 


 330 


 331 


 332 


 334 


 813 


 815 


 4 317 


 a , 823 


 " $ 24 


 967 


 general index to vol , xivleading article 

 Dolby , Madame S. ( Farewell ) ee 583 ] rud 
 a few word to our correspondent ... 487 /Emanuel , L.   ... ars . ( 6bo se tet diate ~ be 2 
 Bach 's Grosse Passions Musik ... 827 ) Foulds , S ose w » 299 ] Saint Clement 's Scheoha Notting Hill ... se 
 859 , 891 , 423 Fynes , ' Miss Clinton ve ... 148 ] — Cecilia Choral Society ne 462 
 Beethoven , Incidents in the Lifeof ... 41 Gallery of Illustration ese « . 76 ) — — Dionis , Backchurch ae ee ba 
 " a silane 138 , ph bone charles te ... 115 ] — — George 's , Campden Hill Choral > 
 irmingham Musical Festiva on 5| — — Mrs eee 526 ] Societ 
 Cathedral ee See 263 | Goldschmidt , Herr . ( Ruth ) ... eee 298 ] — — Seleate Hall ii pie - 
 a. a comic os . » 170|Gottschalk , the Misses ... we 116 ] — — James ’s National School soe 110 
 ristmas Eve at ae 681 ) | Great Northern Musical ae « . 461| — — John ’s Orpheus Quartett os » 896 
 Church music . sy ystem in | bean Mies Berry 2 , 893 } — Lake ’ fr eng om - = 
 soe eee 8 be 4 eee oe Li 8 » 
 Clifford 's Anthem Book 775 | Greville Choral Socicty ... 800 , 43 % ) | _ — Mary ’ 8 | merece Square me ¢ 
 Hereford Festival 586 | Hackney ( Manor Rooms ) .. « © 896| — — Mary Hornsey Rise Choral Soviety 865 
 talian language ; its evil jnfluence on |Hallam , H. ( Farewell ) ... w 501| — — Mark 's Choir 501 , 526 
 . a. ao 7 Harrison , J ... wee 502 , 531| — — — — Kennington bi 501 ad 
 — _ ani Beason = ' " 199 , 583 er oo ia : eee ae 26 | aes Mark 's Schools , Camden Town ... 865 
 — s elssohn 's ija ey . H. R. aydon , Miss Jane BL rs Old Street Road wo uo 
 a dnd ie ae ‘ i vas — — ( Promenade ) .. 116|- — — — s Choir , Bethnal Green ... 564 
 s rec ry 0 ood Friday eee .. 462| — — Michael and All Angels pam 
 wee 39 , 71 , 103 , 135 , 167 , 201 , 237 Holmes , Henry .. wee 149 | — — Paul 's Choral Class , Islington ... 533 
 ; ~~ ae 26 64 ) Holy Trinity Chureh Choir ws » 832 | — — ~ Peter 's Choral Society 
 neidents in the life of £ 205 862 , 898 , 45 i orne , Miss E. ... " we 748 
 musical pitch .. : : Hoyte , W. 8 . * 4 14 | — — Philip 's Choral Class .. i oil , . 
 ote Shoation .. as ve an | Immanuel Church Choral " Society " | — — Saviour 's Choral Society , Brixton | 601 
 ew edition ... .. 744| _ ( Streatham ) ... . $ 34 , 897 , 749 | — — Saviour 's Choir , Pimlico 3 
 Norwich and Worcester F Festivals 931 | Islington Choral ' Association 147 , 268 , 832 | — — Simon , Upper Chelsea ( School 
 National Music of our we ae ; i , 519 ) Italian Opera , Drury Lane ... 459 | | building fund ) 1 
 . : 5 79 , 743 | 489 , 525 , 556| — — Stephen 's , South ze 
 Sensation music : 426 | Italian Opera Buffa ( Lyceum ) ' — 778 — _ Seeman e , South Lambeth it bo 
 Theatrical Orchestras bt see 297 | Jackson 's Choral Society ... « .. 748 ) Schubert Society m 435 502 
 three Choir Festivals ae vee 455 — Albert .. oes .. 58|Shakspeare , an evening with 83 , 461 
 wiaiaie alias — — — oe « = : 9838 , 301 , ad ee concert at we 
 d d once ss pan ale , Miss Elle aa 3 ;   scher Clu as ae se 
 TS , & c | Jewell , the Misses = ats 148 ) Horns , Kennington ... we 651 
 acis anaiGniaten " a ie [ omen pom Society 800 | — — Kentish Town Road Schools ee 749 
 Albion Hall , Dalston re at _ ish Town Church Choral er 115 , 838/|silas , Mr. E.   o see . 461 
 = SS tonion Wall 10 ahee , es cx 626 ; Sion Chapel , Mile End ... woe © 9884 
 Ansiant convert 525 , 558 posed iss be . ... ae ... 485 | Simester , Miss Lily pee 408 , 501 
 Amwell Street , Pontonville : ASB | es nme mer herr es ... 564| Somers , Miss Geraldine ... we 200 
 Archer , F. iid am oe 66 8 tea , fadame 148 , 526 South Kensington Choral Society   ... 115 
 Bache , Walter ... ay a eslie , Henry ... 12 , 46 , 75 , 109 , 148 Southwark Musical Society 76 , 800 , 430 
 Barth , A. ie wi " Bai | ers . 460 , 492 , 533 Spicor Street , Mile End ( All Saints 
 Beaumont Institution ... .. 800| 7 ] J. ee and Madrigal Union 115 , 491 _ school ) x we 865 
 Beavan , William Ea " 479 Tovdon i 8 = ove we 14 Sterne , Mr. H. , and Miss Glanville ow 
 Benedict , J. ( St. Peter ) ie " 746 ae ont age gaa ooo a ae ee , School Union , Old Bailey ... 832 
 ecnmurg .C. ave 501 } Walter Pe mt 532 | Tate ang Pocwootg ze » 531 
 Biiee Sing Guases > Ol agaion Meiang " Tog 
 agrove , } r. and Mrs. Rowe aaa on ove on as , ohn .. ae 179 , 582 
 Itumenthal , ee vn me rd Maytuir Choral Society es 435 , et i a aay " I " be si oa 
 olton ne 693 1 g e€ ee « os 25 orne , ek . h. ... wee 499 
 wha aud Bromley Institute ae 748 | | Monthly Popular ' a ... 149 ) Tonic Sol - Fa Association ... 248 , 485 
 dge , F. a. 999 , 8 f oncert . , 268 , 333 | Trego , Stafford .. ene axe OOD 
 Broadwood and Sons ( Military Band ) ... od | musical wint 864 , 430 , 651 , yd Trinity Church , Hoxton | . 53 
 Brixton Choral Society 89 , 382 , 366 , 898 ' Myadloton Hall ... evening ... a — Choral Society « . — - 480 , 563 , 780 
 467 , 748| now Polyh cine 78 , a Victoria Hall , Notting Hill ... 897 
 Brockley Choral Society ... | b84 olyhymnian — om 115 , 147 , 205 Victoria Park Choral ' Association a ! 8 650 
 Buels , Miss Marian up ws 148 243 , 269 , 299 , 882 , 864 , 897 | Van Noorden , P. E. 780 
 Buer , Miss Emma + " 347 North Brixt 461 , 501 , 581 , 564 , 589 , 620 | | Welsh Musical Entertainment ewe 564 
 Burdett Hall Linchouso 78 4 Nortel onde Seaansy sg ] mm need Gow Bolly of 
 usby , Miss Emma sp 116 , 492| emy oe 11 
 Calkin , J. Tennielli 4 492 North London Choral Association ... " nr | Westbourne Society as ie 307 
 Cambridge Hall ... Ba . ... 268 festival 269 , 780 ) | Wieniawski , Joseph e sce 
 Canham , Miss Laura = ae hei choir a 589 , 651 ) Working Men ’s Institute . , , 403 
 Canonbury Vocal Union ... | a Sacred harm ong nd 882 , 898 , 462 , 650 ) Workmen 's International Exhibition . , , 589 
 she " 698 roast Harmonie Society 04 , 40 , so1| weight BiB ie BD 
 sea Congregational Church ove 462 ] A Laahrene Association ve 179 ) | Wynne , Miss Edith - ove = 
 Chelsea Vestry Hall eli Frog na oe Society | ... 435 ) Zimmermann , Miss Agnes ... 46,7 
 a Church National Schools Old ncert re Fy 75 , 109 , 141 , 830 ) 109 , 174 , " il 
 = — gis 14 , 333 } Oswald , Madame Eus ene - Tie a 748 
 — — Newgate Street a $ 88 , 8 748 
 — Clapton ( in aid of the building Ng nrg .. 148| country CONCERTS , & e 
 — — Ag ig Philludrmonie Society 51 , 76,110 , 142 , 173 ) Abbeyleix ou " a 
 — School Rooms , Battersea ... 865 | Philp , Miss E. 420 , ‘ 460 , 491 , 525 , 568 ) Abbots Langley . fa ce . b68 
 8011p te mi on + . 492 ) Aberdeen eve nee 505 , 756 
 Chrysanthemum So ~ eer . ees + 749 | Abingd 49 
 ington my , Stoke New 480 some _ and Madrigal Union ie £ 33 aan amet ee nes 4 
 City of London College oes . ee 268 , 865 | icetian , — ie 148 , 564| Accrington se Ke 121 
 Collard , A. - 461 , 652 , +779 Prodigal 's r eturn,'the ss ye 231 Adelaide ( Ansiraia ) a en = 
 Clergy Orphan School ~ * i491 a oan ewe 269 — oe a oon y 
 oenen amber Concerts 462 ! r eee ove . 429| Alfriston ie " B49 
 Gg or , J. T. 7 eeves , W. sid eo one ee 13 e 
 ~~ A te ase ove on poof Richards , Brinley wi ae an pene ae a il , = 
 pane ye Limes Street W ard Schools , 334 oo — nn 435 5 | Aesoeshons sie we aie 152 
 otte . 35 . 5 ; ae 
 ansdowne . 9 , 299 | Rhodeswell Road Lecture Hall 35 , 7 — ee ine 88 , 248 
 men . ‘ 8 6 , 430 , bal 7 668 Rossini ’s Messe Solennelle = " 109| Arborfield a ye ~~ = 
 Crystal Palace ... 75 97 , 108 304 , 268 | oe of Music ... 174 , 582 , 558 | Ardwick oe me ms oun 
 a , a wet eh oy IS , 204 268 ) — Taian Opera 74 , 108 , 140 , 178 , 269 | Arksey one vi " 319 
 Davies , Mra . ¥ < i et 458 , 489 , 524 , 556 , 683 , 745 | Ashford sve ove 976 
 Delaborde , i a 1s G3 | — Society of Musicians ... 18 , 46 | Ashton oo due in 439 
 110 , 460 , 502 |Aston Newport ... see 662 

 naa 




 xum 


 BSS 


 xum 


 BOUND AUG © . 1958 


 xum 


 xum 


 review . good wish 

 Barfus , P. Engraving of . " portrait ' of 
 Beethoven 

 Barnby , J. original tune to popular 
 hymn ese eee eee 

 oem a " Christmas Carol 

 Beethoven . mass in D , vocal Score , & e 

 Piéces pour Piano tue tee 




 76 , 115 , 


 13 , 147 , 365 


 650 


 589 


 332 


 397 


 526 


 333 


 779 


 300 


 800 


 662 


 503 


 245 


 55 


 652 


 212 


 504 


 general INDEXThe outcast ie 

 Gill , W. H. new and easy method of 
 841 ] learn to play the scale we 206 
 341 ] Gill , J. O , Paradise eve os 339 
 tladstone , W. H. lighten our darkness , 
 872 behold how good and joyful ... 536 
 touté , W. B. Marche areata valse 
 340 brillante we 597 
 597 ] Goss , John . I hear ma " Yoice from 
 275 ] heaven ove 37 
 - — — Cantate Domino & deus misereatur 694 
 Gounod , C. o come near tothe cross ... 53 
 438 ] — — all ye who weep , come unto he 54 
 694 ] — — the Pet Dove ove ee 708 
 72|graham , W.B. Thora ... ew . 470 
 — — o'er the sparkling summer water 568 
 310 } — — Olena coe 629 
 302 trave , Henry . caprice nocturne ewe « 6246 
 871 ] Gruneisen , C. L. the Opera and the 
 596 ] press 205 
 Guy , J. musical Key indicator we 628 
 536 | Handel . second Concerto arrange by 
 310 } Zimmerman ... owe 340 
 339 | — — concerto for the W elsh Harp .. 756 
 — — tyrannic love ww . 565 
 116 | — — three Chandos Anthems « . 789 
 213 } Hainworth , Robert . three offertory 
 366 } for Organ a 180 
 Hall , King . tarantella prillante 661 
 437 | — — Lord , who shall abide 694 
 596 ] Hamilton . Union notation 872 
 810 ] Harmston , J. W. six piece for Piano- 
 forte = eco « a & 
 20 | — — five piece 150 
 841 ] Hately , W. two Songs " by Goethe , 
 57| heigho ! daisy and buttercup 469 
 534 | Havergal , Rev. W. H. Fireside music 629 
 212 ] Hayward , C.H. impromptu we 750 
 245|Heap , C S. Hunting song , solitude 567 
 19 ] Heins , Nicholas . the turn of the — , 
 535| land of dream 
 55 | Heller , Stephen . etudes a ' expression " $ 7 
 535 ] Hemstock , A. Te Deum for Parish 
 55| choir 301 
 371| Herbert , E. Manual of the rudiment 
 of Music ' 52 
 132 | Hewke , Charlotte M. Jamie 's on the 
 276| stormysea .. we 310 
 597 | Hill , E. M. Evening song ... 750 
 597 Hiller , Dr. F. Grand duet for 2 piano- 
 371| fortes a " we 403 
 — Nala and Damayanti .. 590 
 181 | — — all they that trust in thee 789 
 151| Hime , E. the beautiful day 161 
 Hodges , F. A. ring out the bell for 
 86| Christmas .. 756 
 716 | Hopkins , E. J. piece for ' organ « . 301 
 56 | Horsley , C. e- I be glad 622 
 84|Hullah , J. cultivation of the speaking 
 voice 
 $ 71 ] - — — Hymnal companion tothe Book of 
 54 Common Prayer 7 
 iron , Herbert 8 . tribute ' to spring .. 372 
 436 | Jackson , John . the Savoyard ’s return 151 
 270| Jackson , Robert . gracious isthe Lord 536 
 Jacoby , Siegfried . impromptu for 
 437| Pisnoforte .. oe 3 
 $ 73 | — — Gondoliera , a song of ' Spring 150 
 567| Jarman , Ellen . Ke lyin Grove - 9 
 756 | Jordan , on W. only to see she 790 
 56|Kipps , W. the Lullingstone ae . 276 
 716| Kelseig , E. Cradle Song .. . 662 
 211 | King , Alfred . favourite aeatioas ee 535 
 245 nennie eee a 
 597 winter , here be thy merry welcome > 4 
 755| Kohler , L. Sonatines pour piano 
 713 Kornatzki , Von . le reveil des oiseaux or 
 714| Kuhe , W. " * where the bee suck , " = 
 438| variation pom 716 
 Lahee , H. the building of the ship ... 404 
 597| — part song 629 
 503| Lawrence , C do not youremember love 715 
 Lemmens , J. six four - part song 118 
 151 } Lennox , Lady W. Danmark’sRose Valse 750 
 L ’ Evesque , Bessie . where the sun , 
 629| how beautiful be the sunshine « « of 
 596 | Léhr , Frederic N. Fleur de lis 117 
 Andante from Beethoven 's last 
 468| symphony ... ooo 246 
 309 | — — March for Piano , a shadow aw ae 
 405| — — Tarantelle , daybreak ... ee 487 
 301| — — somebody be come ... wank 
 694 ; Lomas , G. twenty - four hymn ow 535 
 150 | Lowe , Albert . Unison Hymn we 19 
 212| — — Pensée Poétique 750 
 Lunn , Charles . the English be not a 
 373 } musical people 244 
 597 ! Macirone , Miss C. A. take , oh take .. we 182 
 19| Macfarren , Walter . the Gondola 405 
 — — Spinning Song oso 536 
 — — La joyeuse ... 694 

 hee 




 438 


 628 


 341 


 24 


 r. 534 


 366 


 791 


 566 


 GFNERAL INDEX 


 467 


 371 | 


 246 


 244 | 


 $ 4 , 118 


 309 


 509 


 374 


 469 


 715 


 14 


 5 ? 5 


 275 


 535 


 566 


 86 


 436 


 566 


 467 


 437 


 715 


 567 


 11 


 246 


 695 


 714 


 872 


 504 


 275 


 310 


 468 


 46 


 662 


 537 


 276 


 404 


 535 


 567 


 ORIGINAL CORRESPONDENCE 


 183