Barrett , Richard : ' tract time ? ' , vol.139 
 no.1864 ( Autumn 1998 ) , pp.21 - 24 . 
 Boyce - Tillman , June : ' eye woman : 
 Hildegard Bingen 900 ' , vol.139 no.1865 
 ( Winter 1998 ) , pp.31 - 36 

 Brindle , Reginald Smith : ' Beethoven primitive 
 cell structure ' , vol.139 no.1865 ( Winter 1998 ) , 
 pp . 18 - 24 

 Brindle , Reginald Smith : ' memory hither come ? ' 
 [ guest editorial ] , vol.139 no.1863 ( Summer 
 1998 ) , pp.2 - 3 

 work : study performance practice , 
 review Susan Bradshaw , vol.139 no.1864 
 ( Autumn 1998 ) , pp.62 - 63 

 Beethoven , Ludwig van , e . Brandenburg : 
 Briefwechsel : Gesamtausgabe , review 
 William Drabkin , vol.139 no.1864 ( Autumn 
 1998 ) , pp.39 - 45 

 Blake , Andrew : land music : music , 
 culture & society twentieth - century Britain , 
 review Christopher Fox , vol.139 no.1865 
 ( Winter 1998 ) , pp.46 - 52 

 Barrett , Richard : ' tract time ? ' , vol.139 
 no.1864 ( Autumn 1998 ) , pp.21 - 24 . 
 Boyce - Tillman , June : ' eye woman : 
 Hildegard Bingen 900 ' , vol.139 no.1865 
 ( Winter 1998 ) , pp.31 - 36 

 Brindle , Reginald Smith : ' Beethoven primitive 
 cell structure ' , vol.139 no.1865 ( Winter 1998 ) , 
 pp . 18 - 24 

 Brindle , Reginald Smith : ' memory hither come ? ' 
 [ guest editorial ] , vol.139 no.1863 ( Summer 
 1998 ) , pp.2 - 3 

 work : study performance practice , 
 review Susan Bradshaw , vol.139 no.1864 
 ( Autumn 1998 ) , pp.62 - 63 

 Beethoven , Ludwig van , ed . Brandenburg : 
 Briefwechsel : Gesamtausgabe , review 
 William Drabkin , vol.139 no.1864 ( Autumn 
 1998 ) , pp.39 - 45 

 Blake , Andrew : land music : music , 
 culture & society twentieth - century Britain , 
 review Christopher Fox , vol.139 no.1865 
 ( Winter 1998 ) , pp.46 - 52 

 1998 ) , pp.68 - 69 

 Brandenburg , Sieghard , ed . : Ludwig van 
 Beethoven : Briefwechsel : Gesamtausgabe , 
 review William Drabkin , vol.139 no.1864 
 ( Autumn 1998 ) , pp.39 - 45 

 Brougham , Henrietta , Fox , Christopher & Pace , 
 lan , edd . : uncommon ground : music 
 Michael Finnissy , review Wilfrid Mellers , 
 vol.139 no.1865 ( Winter 1998 ) , pp.60 - 62 . 
 Burrows , Donald , e . : Cambridge companion 
 Handel , review Richard Drakeford , 
 vol.139 no.1862 ( April 1998 ) , pp.34 - 35 

 Cooke , Mervyn : Britten Far East , 
 review Arnold Whittall , vol.139 no.1865 
 ( Winter 1998 ) , pp.62 - 64 

 David , Hans T. & Mendel , Arthur , edd . : 
 new Bach reader : life Johann Sebastian Bach 
 letter document , review Yo Tomita , 
 vol.139 no.1865 ( Winter 1998 ) , pp.66 - 68 . 
 DeNora , Tia : Beethoven construction 
 genius : musical politic Vienna , 1792 - 1803 , 
 review Robert Anderson , vol.139 no.1864 
 ( Autumn 1998 ) , pp.60 - 61 

 Durr , Alfred & Kobayashi , Yoshitake , edd . : 
 Bach - Werke - Verzeichnis : kleine Ausgabe ( BWV2a ) 
 nach der von Wolfgang Schmieder vorgelegten 

 Makela , Tomi , ed . : music nationalism 
 twentieth - century Britain , review 
 Christopher Fox , vol.139 no.1865 ( Winter 
 1998 ) , pp.46 - 52 

 Marx , AB , ed . Burnham : musical form 
 age Beethoven : select writing theory 
 method , review Andrew Thomson , vol.139 
 no.1862 ( April 1998 ) , pp.28 - 29 

 Mellers , Wilfrid , ed . Paynter : old world 
 new : occasional writing music , review 
 Arnold Whittall , vol.139 no.1862 ( April 
 1998 ) , pp.31 - 32 

 Puffett , Derrick , ed . : find key : select 
 writing Alexander Goehr , review Andrew 
 Thomson , vol.139 no.1860 ( February 1998 ) , 
 pp.23 - 25 

 Rosen , Charles : classical style : Haydn , 
 Mozart , Beethoven , review Ivan Hewett , 
 vol.139 no.1864 ( Autumn 1998 ) , pp.50 - 52 . 
 Rosen , Charles : frontier meaning : 
 informal lecture music , review Ivan 
 Hewett , vol.139 no.1864 ( Autumn 1998 ) , 
 pp.50 - 52 

 MUSICAL TIMES / WINTER 2001 

 Simeone , Nigel , Tyrrell , John G Nemcova , 
 Alena : Jandcek work : catalogue music 
 writing Leos Jandcek , review Arnold 
 Whittall , vol.139 no.1863 ( Summer 1998 ) , 
 pp.37 - 60 

 Stowell , Robin : Beethoven : Violin Concerto , 
 review Robert Anderson , vol.139 no.1864 
 ( Autumn 1998 ) , pp.60 - 61 

 lawaststjerna , Erik : Sibelius volume iii : 
 1914 - 1957 , review Robert Anderson 
 vol.139 no.1861 ( March 1998 ) , pp.30 - 31 . 
 Tommasini , Anthony : Virgil Thomson : composer 
 aisle , review Wilfrid Mellers , vol.139 
 no.1864 ( Autumn 1998 ) , pp.53 - 57 

 Jenkins , Garry & d’Antal , Stephen : Kiri : 
 unsung story , review Erica Jeal , vol.140 
 no.1869 ( Winter 1999 ) , p.79 

 Jones , David Wyn : life Beethoven , 
 review William Drabkin , vol.140 no.1867 
 ( Summer 1999 ) , pp.69 - 70 

 Kennedy , Michael : Richard Strauss : man , music , 
 enigma , review James Morwood , vol.140 
 no.1866 ( Spring 1999 ) , pp.60 - 61 

 Nicholls , David , e . : Cambridge history 
 american music , review Christopher Fox , 
 vol.140 no.1868 ( Autumn 1999 ) , pp.57 - 62 . 
 Osborne , Richard : Herbert von Karajan : life 
 music , review James Morwood , vol.140 
 no.1867 ( Summer 1999 ) , pp.71—73 

 Plantinga , Leon : Beethoven ’ concerto : history , 
 style , performance , review William Drabkin , 
 vol.140 no.1868 ( Autumn 1999 ) , pp.71 - 72 . 
 Potter , John : vocal authority : singing style 

 index 
 vol . 140 
 ( 1999 

 index 
 vol.140 
 ( 1999 

 review Richard Drakeford , vol.140 no.1869 
 ( Winter 1999 ) , pp.62 - 64 . 
 Simeone , Nigel , ed . : " Bien cher Félix " : letter 
 Olivier Messiaen Yvonne Loriod Felix 
 Aprahamian , review Andrew Thomson , 
 vol.140 no.1868 ( Autumn 1999 ) , pp.69 - 70 . 
 Simeone , Nigel : Olivier Messiaen : bibliographical 
 catalogue Messiaen ’ work , review 
 Andrew Thomson , vol.140 no.1868 ( Autumn 
 1999 ) , pp.69 - 70 . 
 Sipe , Thomas : Beethoven : Eroica symphony , 
 review William Drabkin , vol.140 no.1867 
 ( Summer 1999 ) , pp.69 - 70 . 
 Smaczny , Jan : Dvorak : Cello Concerto , review 
 Richard Drakeford , vol.140 no.1869 ( Winter 
 1999 ) , pp.62 - 64 . 
 Steane , John : Singers century volume 2 , 
 review Michael Tanner , vol.140 no.1869 
 ( Winter 1999 ) , pp.78 - 79 . 
 Sutcliffe , W. Dean : Haydn study , review 
 Ivan Hewett , vol.140 no.1868 ( Autumn 1999 ) , 
 pp.63 - 65 
 Thistlethwaite , Nicholas @ Webber , Geoffrey , 
 edd . : Cambridge companion organ , 
 review Ann Bond , vol.140 no.1867 
 ( Summer 1999 ) , p.77 . 
 Thomas , Wyndham , ed . : composition , 
 performance , reception : study creative 
 process music , review Anthony Gritten , 
 vol.140 no.1867 ( Summer 1999 ) , pp.68 - 69 . 
 Tyrrell , John , ed . : life Jandcek : 
 memoir Zdenka Jandckova , review 
 Diana Burrell , vol.140 no.1866 ( Spring 1999 ) , 
 92 - 54 
 music review 
 Berlioz , Hector : Benvenuto Cellini , review 
 Julian Rushton , vol.140 no.1866 ( Spring 1999 ) , 
 pp.30 - 5 1 ] 
 Berlioz , Hector : Choral Music Orchestra 2 
 review Julian Rushton , vol.140 no.1866 
 ( Spring 1999 ) , pp.50 - 51 

 Berlioz , Hector : Messe solenelle , review 
 Julian Rushton , vol.140 no.1866 ( Spring 1999 ) , 
 pp.30 - 51 

 nature , review David Allenby , vol.141 
 no.1872 ( Autumn 2000 ) , pp.66 - 68 

 Jones , Timothy : Beethoven : ' Moonlight ' 
 sonata , op.27 op.31 , review 
 William Drabkin , vol.141 no.1871 ( Summer 
 2000 ) , pp.77 - 78 

 Kurtzman , Jeffrey : Monteverdi Vespers 
 1610 : music , context , performance , review 
 Peter Holman , vol.141 no.1872 ( Autumn 2000 ) , 
 pp.32 - 57 

